17828 1909 -32045764
17828 1909 -32044183
17828 106627 -32043750
1909 1909 -32028322
1471 31439 -18541520
10 4 1289
10 4 1389
50 5 1415
12 77 1553
63 4 1558
96 10 1844
10 10 1973
5 5 2031
5 86 2118
66 86 2234
4 4 2254
35 66 2387
27 4 2444
45 86 2467
86 86 2566
24 12 2568
50 103 2579
56 41 2703
66 66 2737
10 46 2976
12 9 3124
5 4 3203
35 66 3246
4 4 3305
50 5 3493
41 41 3553
46 46 3731
35 10 3854
56 41 3920
41 41 4102
88 35 4421
38 35 4424
4 66 4575
10 66 4649
10 10 4786
66 104 4818
35 35 4968
66 130 5505
84 86 5562
128 41 5717
56 66 5725
68 66 5801
122 10 5864
104 104 6069
41 41 6266
5 5 6723
104 35 6925
104 35 7111
88 56 7481
41 35 7482
5 56 8119
119 5 8591
5 152 8931
88 5 9123
88 143 9408
28 5 10417
165 4 11436
138 143 11628
56 129 12400
129 129 13362
5 28 13557
24 57 14472
169 103 14767
130 28 15753
170 28 16183
130 176 17492
20 5 17586
5 5 17855
91 35 17914
182 129 19274
130 176 19452
73 104 20814
186 73 20878
186 5 21466
5 104 22773
189 5 23571
188 41 23707
115 91 23714
73 73 24286
73 104 24356
182 5 24396
188 66 25749
66 66 26215
66 41 27742
188 145 27764
170 192 29627
192 35 30148
192 192 30501
66 115 31431
4 115 32678
192 4 32750
66 4 32854
192 4 33061
115 41 34185
199 41 35994
192 172 38506
203 4 39671
203 129 39789
102 5 39875
80 24 40428
24 24 41593
80 24 42342
67 26 44359
192 4 45997
212 170 46870
23 194 48227
192 143 48557
166 217 48863
23 23 48928
91 26 49588
23 5 51984
42 163 52262
42 104 52486
224 41 52528
56 215 53264
20 5 55855
154 57 55985
161 170 56066
224 24 56159
231 169 56553
231 23 56750
56 136 57183
24 24 57422
161 234 57884
215 215 57907
161 217 57965
115 5 58220
35 35 59702
115 236 60347
130 42 64755
192 241 64845
241 241 64953
243 24 65874
119 154 66675
119 161 66853
243 23 66989
66 50 67058
23 23 67168
150 66 67834
66 35 68431
66 4 68580
136 154 68864
119 5 69025
136 154 69132
136 154 69336
136 154 69609
35 35 69685
41 41 69709
136 154 69736
41 41 69766
10 35 70794
50 50 71137
35 35 71242
50 143 71331
50 84 71362
20 35 71572
243 35 71586
10 35 71784
50 24 73082
133 161 73712
5 5 75528
42 42 76119
109 109 76535
41 35 76554
41 109 76604
10 153 79525
169 143 80609
257 170 81193
10 161 81546
128 215 83794
80 24 84803
259 88 87390
5 88 88295
10 88 88637
119 23 88646
38 234 91698
238 169 92331
143 143 92350
88 42 92507
42 42 92781
88 66 93183
115 193 93356
38 42 93448
4 66 95218
104 10 97408
5 7 97567
5 42 97640
58 5 103559
115 4 105329
234 193 107293
154 115 108266
73 236 114205
45 115 115053
115 41 115169
73 41 115228
115 267 117968
5 66 118061
36 41 118836
45 5 120691
45 115 120737
5 5 122313
42 42 125597
42 104 126171
42 116 126502
24 42 127355
104 104 132465
42 104 135014
24 235 144082
136 136 145996
136 42 146603
236 236 147129
275 5 147648
136 136 148373
275 66 148797
36 235 151426
41 41 152810
211 88 153919
4 4 153971
179 136 157644
4 22 159482
109 4 160696
66 22 161224
4 4 161627
275 154 162713
5 66 165690
150 4 165807
278 66 166016
35 35 166328
109 4 169652
27 4 169704
27 66 169754
130 236 171289
103 154 171884
104 4 172725
88 130 173233
130 130 174275
87 66 174938
38 130 175985
4 4 176018
87 169 176408
115 115 183100
154 154 192912
130 4 193361
5 4 194201
4 4 195890
243 42 199190
5 130 208991
214 5 209579
214 215 209966
5 214 210752
24 4 210772
5 4 210943
24 4 212582
24 214 212972
23 24 215610
5 4 218655
24 4 219520
116 116 222589
24 115 222811
42 42 227429
130 130 229391
264 22 230493
156 214 234933
199 5 237238
199 192 237384
50 130 245176
50 24 246033
281 42 246106
130 179 249168
179 179 249557
130 130 249913
114 130 250562
154 282 250746
130 130 250966
87 114 251627
87 114 253483
87 42 253780
87 278 254646
114 114 254664
281 42 257522
67 278 262211
57 5 263763
285 86 266307
281 236 268094
281 236 268662
130 114 269146
24 4 270347
4 4 270598
35 43 274318
87 67 274570
35 282 274576
176 24 276510
176 5 276600
5 87 277731
87 115 279436
35 114 281553
35 130 281666
87 35 282543
35 35 283099
203 4 285224
203 203 294421
203 179 294661
203 130 295490
5 57 299028
5 203 301326
285 23 306598
38 241 310830
285 136 311540
285 10 311713
109 116 314705
171 42 316197
231 87 322336
231 66 322644
203 203 328556
87 231 333402
87 4 333991
50 236 334919
4 4 334925
259 235 335772
5 203 336191
5 44 336283
133 12 337633
149 114 339570
128 236 340343
172 130 343622
130 130 348471
5 203 359779
5 203 363553
109 4 363569
170 5 364083
188 214 365843
203 203 371048
203 203 371127
203 115 371269
170 289 371460
5 5 371884
170 5 372503
172 289 372721
5 5 373290
252 87 374189
170 5 379891
170 289 379919
5 5 384969
211 42 388352
42 42 390263
291 215 397147
56 7 399125
171 235 403672
10 131 410733
295 109 422278
211 67 423123
296 131 432109
2962 5 432371
41 150 435699
303 130 449772
130 130 451559
116 116 469419
67 116 475955
5 203 476356
211 42 480363
136 136 483681
199 307 490477
42 42 496707
305 87 498255
150 57 501184
35 4 503776
109 305 504941
270 236 506069
116 116 506592
4 4 507105
305 305 507854
211 5 507968
130 41 508874
63 211 513633
41 211 513886
270 236 513896
324 211 522015
236 236 522145
94 42 522342
42 42 523021
324 130 523080
114 42 523156
5 42 523417
324 115 523422
5 42 523473
94 42 523589
241 87 524277
114 42 524329
5 42 524439
114 42 524681
130 130 527029
42 42 527133
236 186 527327
4 42 527336
317 20 528222
326 317 528647
94 42 528747
317 317 530299
236 130 530615
88 156 531753
130 130 532382
5 236 536146
41 5 541659
5 129 545025
24 17 554803
38 5 555169
5 5 556585
5 129 557839
5 129 558073
203 203 560216
211 5 561443
211 130 561763
211 211 561943
316 241 562989
115 192 568529
192 192 568860
144 236 570657
144 241 570826
41 130 579325
41 42 579832
17 17 580632
42 42 581047
133 323 582375
130 130 583330
108 129 587067
88 42 587615
17 108 590143
4 20 600296
4 22 600378
305 143 601627
5 179 605026
17 334 605231
227 324 605297
4 332 605313
20 20 605360
332 332 605538
334 334 606395
363 349 607035
104 348 607241
4 17 607290
275 17 607612
24 193 608408
20 20 608924
143 143 609535
155 203 609721
63 317 609998
63 211 610085
334 419 610329
275 356 610457
169 192 610807
333 334 611229
4 334 611242
334 383 611320
333 334 611540
425 4 611554
446 130 612319
333 55 613196
4 4 613259
55 55 613555
448 349 613617
156 156 613714
349 349 613851
156 42 614010
156 235 614196
333 453 614286
333 146 614349
448 349 615056
448 349 615369
458 383 615927
114 334 616653
356 356 616686
4 41 616793
65 5 617380
114 17 617406
144 42 617620
381 352 617771
381 430 617826
10 5 617862
10 383 618250
333 449 618652
497 114 620272
114 514 621377
4 333 621610
513 88 621625
35 514 621629
333 333 621825
513 88 621942
35 4 622493
35 517 622746
332 514 623077
332 449 623164
453 453 625287
176 521 625343
80 511 626265
80 519 626323
80 527 626512
7 529 627051
4 530 627977
549 289 629203
4 511 629773
130 130 630646
188 511 630850
534 4 631383
41 130 632549
188 108 633879
316 253 635353
188 10 636103
4 115 637014
176 543 638870
176 4 638944
42 42 640196
42 458 640229
42 42 640325
4 4 640613
446 146 641324
4 584 644043
38 211 644251
38 130 644296
38 22 644462
316 449 644546
334 419 646032
308 136 646721
308 35 646754
199 115 646831
308 42 646863
170 584 647966
270 157 648040
588 5 648401
42 42 649231
584 584 649427
458 584 650204
24 519 650514
317 317 654218
334 614 654767
618 458 655540
375 612 655744
305 458 655822
375 612 656069
375 612 656474
253 130 656848
334 271 658492
359 359 660224
637 87 661170
236 633 662575
211 483 662654
211 483 662702
334 271 663129
633 271 663475
375 359 663519
633 211 663576
644 271 663621
305 271 663709
644 640 663753
334 648 665725
644 609 666118
289 289 666179
609 519 666531
644 466 666656
24 271 666868
305 295 667300
658 213 667327
305 539 667898
622 609 667977
41 213 668092
10 305 668218
658 519 668321
644 41 668537
42 305 668548
396 275 668578
308 275 668807
332 578 668808
305 456 668815
41 41 669019
658 647 669044
308 389 669391
308 42 669553
519 325 669883
236 186 670144
236 130 670210
333 609 670326
4 609 671827
637 10 671913
42 42 671974
637 392 671984
661 42 672045
637 483 672045
659 325 674006
473 449 674214
473 333 674253
42 42 674296
23 211 675003
10 10 675370
647 647 675587
203 612 675750
186 186 675771
186 5 675798
186 5 675818
334 612 676554
661 42 676700
10 10 676820
10 10 676939
449 449 677135
41 203 677258
4 334 678573
42 42 678764
430 333 679722
430 667 679814
130 130 680701
130 130 680739
130 130 680983
186 213 681198
48 333 681347
48 612 681480
48 667 681653
305 332 681858
114 333 681947
214 332 683224
295 41 683647
88 667 684293
17 334 684737
17 150 685107
332 332 685387
661 42 686074
101 150 686696
101 609 686778
238 305 686833
275 146 687360
275 705 688387
332 188 688676
667 705 688701
333 275 688932
654 305 689031
102 275 689223
238 235 689859
333 275 689994
41 275 690071
4 334 690615
24 213 690673
88 275 692071
41 275 692393
716 130 693364
289 35 694076
289 705 696512
717 236 697426
717 236 697442
633 42 699545
749 420 704519
289 169 706256
324 376 708207
324 242 708382
41 41 708685
778 778 709702
41 114 710040
242 242 710073
170 612 713275
473 449 713449
170 612 713488
4 4 717816
593 7 720058
130 305 720795
5 192 722330
794 305 723097
252 333 723655
333 333 724332
305 305 724552
305 332 726746
305 130 726808
203 305 728538
24 305 729164
203 305 729931
24 305 730321
446 333 731680
668 627 732508
211 333 733062
808 458 733799
42 42 734292
278 236 738331
38 813 738427
334 359 742399
830 133 742831
612 813 744686
644 41 745584
109 289 746901
644 253 747181
144 458 747521
359 359 749202
232 449 749851
232 449 750278
627 295 750450
455 627 755512
211 253 757946
130 305 757949
211 483 758095
458 458 759054
458 458 759119
458 458 760419
455 612 761356
833 419 761592
349 349 761632
612 612 762577
614 614 763031
130 612 763688
101 4 764158
4 4 764238
289 289 767299
252 612 767387
252 456 767469
253 130 767627
211 334 768462
869 334 768898
769 211 768995
30 41 769366
769 211 769487
87 333 769507
869 4 770293
633 316 770416
627 742 770608
4 4 771398
880 4 773302
152 42 773302
880 458 773555
880 253 773678
289 661 773718
534 4 773747
880 41 773807
833 356 774212
41 41 774627
316 458 775831
829 289 775845
316 300 775885
203 305 776290
661 661 778971
334 419 779974
334 614 780625
334 456 781023
334 359 781149
742 806 781161
742 349 781415
742 291 781564
708 4 781647
458 458 782217
4 4 782481
252 742 783546
252 289 783650
708 4 783722
904 813 784131
458 289 784150
735 41 784509
742 742 785304
316 316 785805
17 130 786578
252 333 786856
130 130 787564
130 334 788029
324 257 788401
5 667 789639
5 114 790419
114 114 790664
289 289 792471
289 289 792623
289 661 792839
769 667 795623
88 42 798076
5 146 801124
108 57 804162
534 271 807896
170 289 808191
57 57 808246
252 289 812911
252 913 813181
295 667 814551
880 818 815137
708 289 816902
170 708 817207
708 708 817558
708 708 818346
455 266 826809
455 10 830412
455 41 831463
929 307 838372
929 334 838658
23 449 839106
23 449 839497
289 289 839771
150 334 839895
289 493 841668
289 289 841978
289 42 842149
708 493 843734
235 334 844892
252 333 848159
28 667 848270
813 813 848692
252 612 848775
289 217 850678
633 667 851525
633 307 851717
708 493 854637
708 4 854687
672 456 859085
850 295 859693
449 449 859976
633 234 860474
449 935 862084
708 289 862658
769 456 864336
179 179 865662
633 115 865848
289 493 865865
708 778 866498
818 349 867492
932 150 867673
932 334 868223
932 742 868579
947 945 871381
289 945 871562
449 935 873684
360 7 874686
289 307 875865
953 4 877218
953 945 877237
953 4 877368
4 4 877640
146 146 883838
431 935 884571
381 612 890510
5 41 893713
923 41 902710
203 4 903252
941 41 904291
324 242 905737
449 449 906807
324 449 907351
455 667 916033
633 253 916292
667 667 917561
455 456 917732
667 667 918009
430 455 918477
449 449 920790
963 5 921573
449 963 922271
449 236 922485
963 963 933236
41 41 934092
5 41 937178
41 41 938650
449 742 939993
449 742 940085
150 305 940396
41 449 943071
295 295 943104
880 458 949198
24 667 950232
880 667 950617
932 934 952369
934 934 954550
952 455 954657
115 115 958620
356 4 960382
455 455 960817
104 130 962822
455 742 963432
455 667 963840
104 455 965227
104 945 965264
455 456 965546
945 945 966154
945 4 968368
154 742 973523
987 818 973758
431 455 973881
41 431 974430
104 455 978534
5 455 979393
42 42 984614
813 455 984967
813 271 985330
813 661 986180
519 236 986614
5 41 990524
67 588 996400
627 405 997432
866 67 997597
455 325 999033
455 519 999361
430 325 1001069
405 405 1003325
236 519 1006336
305 359 1009447
929 913 1011610
742 742 1011656
612 612 1011823
305 449 1013159
876 215 1016620
41 519 1017145
130 130 1017305
534 813 1017655
4 41 1018376
449 242 1019163
41 242 1019456
449 455 1019564
449 866 1019625
458 455 1020311
862 667 1020393
862 266 1020485
215 215 1023360
242 242 1024297
449 242 1024508
324 913 1026740
324 215 1027440
266 4 1032289
862 242 1034516
289 289 1036300
331 41 1036366
41 41 1036765
324 667 1038685
1034 4 1042615
1034 236 1042958
236 236 1045778
449 146 1049597
41 667 1050992
41 667 1051087
124 300 1051221
266 266 1051871
130 130 1052125
124 913 1052134
130 130 1052199
124 300 1052246
4 4 1052604
124 266 1052629
124 449 1052664
913 913 1053064
913 913 1053404
124 913 1053432
124 913 1053574
266 266 1053594
124 266 1053794
266 742 1055911
5 41 1056941
49 41 1061575
49 41 1061709
266 266 1068478
266 266 1068925
5 41 1069166
644 334 1077923
329 493 1079002
455 300 1080938
449 449 1081134
455 667 1081684
300 300 1082016
455 913 1082653
334 455 1085058
630 449 1090454
449 449 1090837
644 289 1092674
958 449 1096682
49 41 1097795
455 458 1097907
455 449 1098211
275 742 1098832
455 667 1104439
41 667 1105241
275 334 1105532
455 47 1105700
334 334 1105834
633 455 1108636
633 307 1108723
270 270 1109806
963 449 1112352
458 458 1116279
455 458 1116942
880 289 1118326
455 612 1119941
455 333 1120162
5 10 1120986
5 41 1121063
884 333 1121866
41 41 1121926
41 10 1121962
325 667 1122097
325 10 1122244
952 455 1123651
295 333 1123848
124 449 1124151
124 963 1124219
952 455 1124595
455 455 1125059
455 455 1125207
5 10 1125675
1011 242 1126067
4 1005 1128292
4 1059 1128436
236 41 1129235
252 1005 1130162
1059 627 1133018
455 4 1134399
455 627 1134757
884 455 1134856
455 455 1135357
48 236 1136827
884 455 1138881
884 333 1139226
333 333 1140434
4 4 1141402
289 289 1149619
963 913 1162081
963 963 1162180
455 455 1163438
455 809 1167500
809 809 1172918
627 627 1173494
1052 449 1175124
1052 667 1175302
1052 667 1175472
644 163 1175518
236 275 1175660
275 275 1176285
1005 1076 1176830
124 1081 1176910
449 449 1177795
644 449 1180159
1005 449 1180183
455 809 1180685
1039 146 1181226
211 87 1181872
234 236 1182972
179 66 1185470
449 449 1186049
449 449 1186260
1043 927 1187438
316 236 1189341
316 366 1189461
275 221 1190677
186 423 1194427
252 1005 1195366
833 236 1196266
41 141 1196793
980 987 1197373
980 818 1197609
423 66 1199125
877 66 1201818
880 289 1204444
1005 423 1205080
4 612 1211143
179 66 1213120
913 543 1213647
1043 1059 1213690
1043 742 1213749
913 115 1214168
41 139 1215217
576 449 1216720
458 423 1220476
1045 115 1223631
316 171 1226332
184 431 1227524
202 1103 1250236
211 152 1252398
455 945 1253619
325 667 1254349
794 211 1254734
904 5 1255401
455 211 1255416
794 211 1260707
1039 1039 1266276
455 449 1269368
331 96 1269801
236 349 1270351
965 333 1276081
333 333 1276658
333 66 1276735
1010 333 1277286
449 449 1277349
423 184 1279789
423 41 1280336
88 66 1280650
431 431 1280877
4 449 1281837
1008 449 1282229
423 41 1282631
41 41 1282918
41 41 1282978
41 316 1283161
449 449 1283376
633 329 1286362
633 4 1287136
4 4 1288021
333 4 1288102
211 236 1288884
266 289 1288972
211 4 1289060
186 305 1289717
186 1147 1289736
266 1103 1289823
633 186 1290061
4 4 1290110
633 4 1290471
633 449 1290691
633 4 1290847
449 449 1291646
316 316 1292838
41 316 1293175
633 449 1294591
41 4 1295950
5 5 1296205
1151 41 1296250
4 4 1296560
1151 333 1297193
1008 861 1298017
333 333 1298248
4 333 1299116
1151 333 1299345
965 1005 1299795
1005 1005 1299992
1005 152 1300028
1005 333 1300761
87 1005 1301223
87 449 1302037
87 627 1302084
1005 1005 1302096
1005 1005 1302157
67 4 1302234
115 913 1304861
4 1158 1305718
4 4 1305943
130 211 1305963
4 1158 1306531
333 1046 1310823
472 4 1311534
1046 1046 1311890
289 1046 1312639
952 455 1313822
1046 453 1315156
1046 4 1315520
333 4 1319490
289 289 1320561
1046 289 1322684
1046 289 1325376
1046 4 1325701
289 41 1326043
316 289 1326114
866 334 1336360
234 1170 1338265
1059 154 1343338
211 455 1344343
455 455 1344433
947 1158 1348230
211 455 1349300
455 455 1355538
67 1178 1355971
1178 1178 1356348
431 1059 1359809
1059 667 1360248
270 270 1361589
1059 1059 1361801
211 455 1361963
211 130 1362053
67 1178 1362079
275 333 1365904
67 333 1365957
67 333 1366143
1158 236 1366185
333 333 1366404
67 333 1366637
1151 667 1366739
431 1059 1366822
1151 253 1369146
275 333 1369190
947 1158 1369971
211 41 1372506
211 1059 1373073
1158 1158 1373430
289 175 1373493
333 932 1374124
932 932 1374805
431 4 1375154
1158 932 1376405
67 333 1376525
431 252 1377373
504 742 1377742
504 1078 1377906
1059 333 1378038
1059 252 1378113
431 1158 1378354
866 334 1380140
866 41 1380319
333 333 1380519
236 211 1380910
333 1158 1382696
1151 667 1382863
1151 833 1382964
1059 333 1383452
1151 932 1383695
463 458 1383743
252 252 1383916
1151 4 1383944
252 4 1384039
45 866 1384330
4 252 1385218
4 4 1385333
41 1158 1387251
866 1151 1387314
67 333 1387323
932 932 1387786
932 333 1388063
1158 1158 1388378
252 252 1388925
4 252 1389401
67 449 1390997
455 1195 1391890
1193 1180 1392477
504 742 1392489
124 449 1393234
455 1158 1393275
431 455 1396543
455 455 1397216
504 742 1398101
109 1195 1399384
455 449 1400756
333 333 1409111
333 333 1409582
1158 87 1412074
1158 1103 1412661
1158 612 1412787
333 1158 1413752
1195 1195 1415750
10 455 1417853
1059 4 1430581
633 866 1433457
630 449 1433995
109 1195 1436665
1234 453 1440640
236 236 1441952
41 4 1442490
453 453 1444065
453 453 1444159
455 455 1449211
4 4 1451101
4 4 1451370
1200 289 1452098
1200 1158 1452242
1078 23 1452605
1215 333 1453637
333 333 1453941
333 67 1454137
289 289 1455616
866 170 1458240
1158 1158 1461765
1158 458 1462034
866 41 1463821
1059 458 1464860
1059 41 1464988
742 1252 1466734
947 1158 1467519
866 935 1469444
1158 4 1469601
455 935 1470563
455 1243 1471399
1158 458 1472212
236 1068 1476083
1234 453 1479529
179 449 1493546
1252 1252 1497695
5 67 1501742
252 1138 1501917
199 305 1503605
1176 333 1510968
333 333 1511902
866 455 1515889
866 935 1515923
67 67 1518400
449 333 1519626
67 1269 1520688
455 816 1523043
455 455 1523178
627 285 1544963
67 449 1548396
1288 449 1549380
1288 67 1550334
333 67 1551555
130 285 1552021
866 455 1552132
455 455 1552765
41 458 1555289
275 67 1558178
199 449 1559272
455 455 1560370
455 449 1561072
455 455 1564576
458 458 1565232
493 493 1565455
449 449 1567087
449 449 1567211
1046 455 1569657
504 323 1569743
1158 458 1571618
195 72 1571881
104 1158 1574736
394 1296 1579127
1219 1243 1587079
104 1158 1587198
104 130 1587972
935 285 1590020
1219 1243 1600862
1288 449 1609141
1313 289 1609232
289 289 1610099
1325 302 1611235
1284 333 1612338
41 104 1616572
1046 455 1620009
1046 104 1620084
49 449 1620641
449 449 1622016
455 455 1622519
409 455 1624633
455 455 1626248
41 211 1627356
49 449 1627863
963 41 1628758
963 1252 1629050
1252 1252 1631214
1252 449 1631443
449 289 1636021
289 289 1636126
1151 455 1636164
449 289 1636230
4 449 1636323
449 449 1636459
289 289 1636512
455 449 1636767
1151 333 1637928
1151 333 1638277
455 455 1638278
1151 333 1638943
333 333 1640444
65 333 1640846
947 1158 1640895
1151 455 1641005
947 1158 1641029
236 333 1642845
1059 455 1643209
1059 333 1643429
333 333 1643953
455 455 1645200
1012 289 1645478
829 1068 1645716
1012 289 1645804
541 30 1645956
289 289 1646475
1012 289 1647007
1326 41 1647633
289 289 1648410
238 289 1648857
289 289 1649624
323 455 1649638
1151 455 1649885
1151 333 1649942
458 667 1650063
238 289 1650089
289 289 1650188
1151 1167 1650311
455 455 1650567
1059 333 1651294
1151 1148 1651507
289 236 1653759
1046 963 1653935
1046 455 1654022
72 188 1654148
1046 236 1654188
72 742 1654190
1059 236 1654848
1349 1059 1657812
1349 1059 1658019
1059 1059 1658589
1349 1059 1661122
302 236 1664823
1131 1068 1665706
1131 289 1665735
1349 333 1668005
1304 945 1669513
333 333 1671920
1349 333 1673077
769 333 1673500
869 742 1688904
548 333 1694793
861 861 1699378
455 458 1701231
458 458 1702636
458 667 1703079
1158 455 1705577
1363 449 1705816
203 289 1706474
203 211 1706735
203 5 1706920
1059 458 1707517
333 1158 1707530
203 333 1707553
109 333 1707665
109 1353 1707728
4 458 1708164
41 449 1708352
458 458 1708830
130 4 1709208
130 627 1709368
742 449 1709917
1012 289 1710609
1046 236 1711133
627 627 1714473
1078 1158 1714549
1123 455 1714724
945 945 1714846
238 458 1716593
458 352 1716830
458 627 1716866
235 667 1716926
211 211 1717156
455 455 1717727
130 945 1720209
458 146 1721217
458 333 1722787
88 333 1726899
1158 1158 1727377
1393 332 1731136
667 333 1731537
862 289 1735014
18 945 1735391
1046 1059 1737299
235 449 1738586
242 449 1738658
176 333 1742020
176 252 1742035
458 289 1743460
333 289 1744905
289 289 1745011
289 289 1745123
333 289 1745384
1350 458 1746063
1350 458 1746364
1158 1379 1763316
1219 1243 1763565
1219 935 1763858
23 449 1763960
455 1379 1764393
1356 449 1764958
541 861 1765904
1415 235 1766791
449 1360 1774495
449 1360 1774579
449 449 1774670
1360 1360 1775595
627 333 1777356
334 866 1779561
829 289 1779703
866 866 1780322
1326 458 1780344
289 289 1784127
211 455 1784258
394 449 1784921
1427 30 1786042
1364 1158 1789335
455 455 1790531
1304 945 1791110
1304 211 1791125
289 289 1792896
1188 211 1793957
458 189 1794266
794 458 1794728
794 1384 1794780
211 211 1796431
211 211 1796853
458 458 1797888
65 458 1798204
1151 289 1798505
1151 333 1798731
1090 458 1803044
4 458 1804011
866 455 1806631
866 458 1807221
829 289 1807655
866 455 1807818
1415 1415 1808011
211 455 1808617
829 235 1808956
333 1415 1809091
41 727 1809704
449 458 1810163
1158 235 1810168
1438 235 1810266
458 458 1812789
289 289 1814987
1158 236 1816822
316 667 1820243
5 130 1821088
1151 667 1821703
1446 333 1822395
829 235 1822801
130 130 1825778
289 1405 1827044
1446 333 1827737
333 333 1829495
1158 130 1832250
1446 333 1832884
333 333 1835456
1410 449 1836432
41 1158 1837793
163 163 1837815
163 236 1838489
1415 1415 1838708
1158 235 1851591
884 66 1851813
866 455 1854956
829 1158 1863031
1326 1158 1865192
449 236 1865317
1436 5 1868693
1158 1158 1880388
66 945 1885840
1242 1158 1886317
829 1158 1888205
1158 1158 1889234
904 5 1891349
463 333 1894091
1446 1158 1896652
1158 1158 1897581
252 1452 1898208
866 1452 1899456
913 913 1900257
913 1158 1903439
55 1158 1904471
1246 289 1911436
1246 1290 1911461
1246 1318 1911489
30 66 1934505
66 66 1936289
866 236 1937148
455 455 1940399
913 1360 1941215
935 115 1943558
1500 285 1946740
1446 1158 1949373
1446 913 1949435
662 1496 1949698
1454 449 1952936
236 236 1953959
1463 275 1957573
1491 1059 1962690
1491 1059 1962942
1467 236 1963433
455 449 1964311
4 333 1965534
424 289 1966173
289 289 1966523
659 4 1967844
37 1378 1968771
37 37 1969994
424 289 1970553
612 630 1970664
289 289 1971337
1059 1059 1971503
30 66 1973152
424 289 1974022
424 630 1974417
352 4 1980323
952 630 1980652
952 913 1981790
1360 1543 1982188
952 913 1983090
1446 667 1983912
667 667 1984009
1446 667 1984128
1491 1059 1988623
1501 667 1992600
667 667 1993151
1501 289 1993371
947 22 1993671
1501 667 1993699
667 667 1995186
289 289 1997721
1234 455 1998841
262 449 1999765
1318 4 2001646
449 449 2001945
333 333 2003283
66 1546 2006255
1446 1581 2014779
1446 1581 2014915
1081 1081 2015591
453 37 2016167
1581 1581 2033072
1474 1360 2037506
1474 1360 2039231
431 431 2054448
1217 277 2055248
5 612 2055451
1412 431 2059739
1158 115 2063623
935 1158 2072687
1473 431 2076290
1607 627 2077555
1158 1158 2078325
1608 1581 2079054
935 10 2086079
449 1610 2087253
913 913 2088344
130 431 2096011
88 130 2100224
1393 935 2104326
1393 1543 2104432
1158 935 2108096
1393 41 2108556
1543 1543 2117198
1557 1581 2138131
716 41 2138402
1597 453 2139509
1393 1415 2142279
455 1593 2142740
1393 935 2142983
1501 667 2146630
1501 289 2147016
289 289 2149128
203 667 2150552
672 1550 2151585
453 453 2152068
1630 1059 2159187
431 431 2159826
935 935 2160133
935 4 2160322
4 35 2161263
1597 453 2161338
1393 667 2161991
1158 4 2162033
4 4 2162578
1393 667 2162803
1610 277 2163334
1626 455 2164784
1626 1591 2165038
1626 277 2165625
66 4 2167848
4 543 2168083
455 455 2170469
1158 4 2170866
5 130 2178663
4 4 2179516
866 236 2200376
829 1643 2204767
866 305 2209567
1646 1648 2211089
1648 1648 2211738
449 1648 2216384
1452 1452 2216703
1304 211 2216817
1304 945 2216873
424 449 2217285
1508 333 2219241
1491 1593 2221451
866 1649 2222498
866 1452 2222687
1068 1452 2223450
1619 449 2226464
449 449 2226749
1158 277 2227921
1158 277 2228015
17 1550 2231274
667 1654 2234353
211 211 2235594
1326 1158 2235667
211 449 2236373
275 1550 2237289
1610 41 2238969
1380 1294 2243989
1393 305 2245822
455 115 2249621
667 667 2251717
667 667 2252077
1439 646 2252263
742 1649 2252607
646 646 2252852
1318 153 2253450
104 130 2254540
236 1610 2255184
4 4 2256367
146 449 2258925
352 449 2259391
1415 235 2274097
1674 431 2274728
168 1550 2275083
1610 1610 2276645
1269 1269 2279832
455 1059 2286181
742 1668 2288598
1326 1672 2294746
1667 1627 2297638
1326 1158 2300690
1627 1627 2302216
646 449 2302465
449 449 2303109
667 1677 2304010
130 130 2304999
203 1643 2309546
667 662 2315124
186 41 2318251
235 235 2318256
952 913 2322069
1151 455 2327798
1151 1138 2328037
364 1158 2331676
364 211 2331820
953 449 2332765
953 1643 2332925
1158 211 2333423
4 449 2334969
1158 1653 2335879
364 211 2336037
449 449 2337069
266 1116 2341037
1415 1653 2348888
1158 1059 2349207
5 861 2350939
5 861 2351014
188 449 2353933
935 1158 2354923
935 211 2358748
646 935 2374502
913 186 2374987
913 186 2375158
913 1593 2375305
913 1593 2375375
170 449 2375580
913 1217 2376921
1059 1059 2377326
214 449 2377490
214 483 2377694
1627 305 2377807
935 935 2380300
1706 646 2380446
211 1059 2383423
1158 1059 2383555
1709 935 2385147
1217 1217 2385516
1655 541 2400190
1655 1090 2400461
1684 913 2400967
1684 913 2401034
1684 935 2401335
829 1643 2402585
794 458 2402645
449 1170 2403379
449 4 2403537
4 4 2403639
333 4 2404194
935 935 2405565
449 4 2405599
331 935 2405698
935 935 2405820
1718 333 2406257
1158 315 2406497
1170 1170 2406568
364 289 2407101
667 1653 2407230
1170 4 2407439
211 211 2408117
235 211 2408253
333 211 2409140
333 4 2409296
1684 935 2410187
352 423 2416403
289 289 2418426
41 235 2420517
116 12 2424075
41 12 2424519
449 423 2424949
1667 1170 2426249
1667 1170 2426332
1667 4 2426484
455 12 2426667
41 12 2427124
1667 12 2427277
88 12 2428286
455 12 2428348
935 935 2428539
935 935 2428773
1667 423 2429157
431 963 2431625
880 1591 2433286
76 41 2436377
519 41 2443294
1706 667 2451957
963 963 2456598
963 277 2456801
277 277 2461602
211 211 2464683
455 277 2466628
646 1667 2466667
116 935 2467526
1667 1667 2467564
1170 1170 2467652
1682 913 2471073
1667 1170 2471757
211 211 2478020
116 449 2478064
211 211 2478080
116 504 2478102
644 4 2480350
935 644 2480605
449 644 2480626
935 644 2480731
644 1170 2481127
644 423 2481228
1738 1738 2488687
449 627 2493043
760 646 2495986
364 41 2496544
760 935 2496642
760 211 2496675
760 449 2496776
41 41 2497277
364 41 2497630
1739 1337 2498112
364 41 2498540
1453 934 2501499
1743 277 2502666
1667 333 2503040
646 935 2511713
277 278 2511736
1217 861 2511982
1217 861 2513729
1667 935 2514165
935 935 2514584
1059 4 2521185
1059 4 2521296
1158 277 2521545
116 935 2538001
211 211 2548266
1170 1170 2549437
646 431 2556757
646 935 2557905
144 431 2560472
211 211 2561995
624 935 2562313
214 935 2563780
624 334 2565259
1090 1689 2572249
41 41 2573922
41 1158 2574874
211 211 2576507
431 431 2576780
431 431 2576879
1689 1689 2577594
449 1158 2578587
72 935 2587764
935 935 2589533
935 935 2589854
449 270 2603274
333 1158 2614844
270 270 2615032
448 667 2616955
1761 1158 2618729
1158 1158 2622383
270 66 2644232
277 277 2651335
277 1763 2652002
1761 1158 2654825
1761 1763 2655682
199 72 2658698
935 1738 2661341
172 667 2662214
72 72 2663068
935 627 2663279
290 1614 2671401
290 211 2671536
627 1550 2674523
627 627 2674616
28 1614 2675126
1738 1738 2676745
624 935 2696924
448 935 2723453
633 1614 2729511
199 72 2735338
277 449 2748970
935 935 2749053
211 211 2751205
211 211 2751343
866 1591 2752842
866 76 2752873
277 866 2757637
76 76 2760985
394 277 2761468
394 866 2761801
136 252 2762609
1349 1781 2762801
1349 866 2763046
866 866 2763884
866 1781 2763932
866 431 2769022
618 431 2772035
646 667 2777900
41 431 2779770
333 866 2779785
333 866 2779832
41 866 2779845
333 866 2779898
41 866 2780182
333 866 2781449
1550 277 2782803
1550 1550 2782949
1771 1591 2790187
104 1550 2791612
646 1771 2799877
448 646 2801846
23 866 2803618
646 646 2805239
866 866 2805802
211 211 2807359
866 866 2807808
214 935 2808190
1792 270 2822559
333 23 2830844
41 646 2832471
1380 7 2832754
1591 1591 2833145
41 866 2833147
186 945 2834234
84 270 2842178
866 866 2844035
1151 7 2844603
277 136 2844765
618 431 2848763
30 861 2850574
1761 1763 2851933
30 866 2853136
945 945 2854303
1059 270 2855018
431 431 2857947
88 1261 2858120
646 861 2858408
646 667 2858605
1158 646 2863378
646 1158 2863388
646 646 2864188
1491 1059 2865242
448 667 2866069
66 66 2869387
5 866 2891907
646 866 2895695
1261 1261 2910329
1491 1059 2913855
519 866 2913980
1296 458 2914519
1743 1543 2914738
644 449 2916447
644 66 2917069
455 261 2917348
458 646 2921974
1349 866 2923242
646 646 2923268
1090 431 2925663
175 175 2927686
458 667 2929596
186 186 2932351
458 214 2933056
30 861 2933226
624 935 2934327
5 866 2934856
5 186 2934937
1748 186 2935573
235 211 2940376
1151 41 2943366
1151 1151 2943611
646 861 2946335
431 431 2947468
5 449 2949769
1059 214 2954696
73 1667 2964003
866 5 2977344
1309 514 2978545
630 449 2984410
630 211 2984511
866 644 2988166
618 431 2992707
618 214 2992866
618 1543 2992969
211 644 2995092
1037 458 2998653
646 644 3001536
458 458 3002888
1464 449 3005511
458 449 3006792
985 41 3006896
186 186 3007736
186 186 3007995
449 449 3008683
211 646 3009586
415 415 3010519
449 415 3010991
646 646 3011351
458 646 3011582
458 458 3011721
142 66 3012328
41 66 3012466
514 667 3014392
985 667 3017331
985 667 3018354
667 667 3019375
985 667 3019685
277 1180 3020904
866 449 3024774
1840 415 3026645
449 449 3027357
455 114 3028234
415 415 3029828
415 415 3029993
1627 114 3030352
317 1837 3034831
41 5 3035333
1840 415 3035722
41 186 3042352
5 5 3042375
646 449 3045237
646 41 3045404
646 114 3045469
1188 211 3047977
415 415 3049071
211 211 3065576
211 667 3066028
449 449 3069402
1158 1826 3107964
235 143 3113625
1059 1826 3123478
449 935 3124425
90 935 3124557
1909 935 3128738
448 1826 3132422
1550 236 3134330
646 449 3141766
1366 877 3152282
1840 211 3154511
935 935 3160024
424 449 3160799
935 1889 3161509
935 407 3166608
1933 192 3171199
458 458 3171287
270 66 3175983
1629 935 3177028
1819 4 3185370
1819 41 3185396
41 41 3185812
41 41 3185922
41 449 3186072
1689 449 3186373
1793 1859 3189539
1748 235 3190432
1627 423 3195152
41 935 3196638
646 449 3197627
1859 1318 3201415
1546 866 3202006
458 235 3202012
794 235 3203403
794 1859 3203428
646 1546 3204552
1438 42 3205173
1859 1546 3205576
646 1546 3207177
935 935 3212385
935 1859 3212821
41 935 3213658
41 877 3214393
1629 449 3215536
1629 10 3215831
324 1158 3219191
329 1627 3222189
324 1826 3224791
866 866 3237055
23 1197 3243076
1793 41 3244331
324 1826 3244534
235 458 3257850
235 114 3259385
559 1826 3261397
559 1910 3261557
559 449 3261838
449 449 3262915
1959 1619 3267470
1896 646 3268135
1457 1859 3273162
935 449 3279155
1197 1197 3281592
449 449 3281608
1954 1958 3283003
1954 1958 3283116
1859 1859 3284072
1457 1654 3284206
23 1197 3287056
1393 1415 3291531
646 646 3293052
24 945 3293160
1008 1990 3294047
559 449 3294673
1990 1990 3295090
646 866 3296115
1008 1990 3302772
4 235 3306216
4 1827 3306257
1453 4 3318107
235 235 3318262
453 4 3318274
42 42 3333445
329 42 3336629
1457 1859 3342466
646 667 3344294
277 270 3344374
1958 1958 3346950
2015 667 3348023
2015 1059 3348287
2015 861 3348381
2020 627 3354221
4 4 3359645
1978 235 3360041
2028 449 3364742
235 1958 3364784
235 449 3365077
794 2031 3369267
866 866 3370273
1085 449 3370361
71 23 3371005
2020 627 3373457
794 1627 3374356
41 1627 3376304
1943 41 3380514
1943 2036 3380717
2038 1943 3380840
115 115 3382555
571 1943 3382676
2038 1990 3383259
935 2041 3387882
104 1943 3388061
104 667 3388119
448 44 3389930
2020 1943 3394531
235 115 3395985
270 270 3406683
270 866 3407001
270 667 3407517
23 23 3408108
270 866 3409226
270 866 3409647
458 2033 3411200
866 866 3411875
1889 1889 3412344
1793 866 3413566
1889 1958 3413646
1889 235 3414246
1793 1910 3415049
627 1889 3417171
627 667 3417839
1990 115 3427631
627 627 3427792
270 1924 3428244
1826 1990 3430541
2026 449 3436440
2026 188 3437407
2028 1943 3444673
2028 1943 3446765
1958 1627 3452043
449 1958 3452080
1958 945 3453176
1743 1627 3454398
23 1197 3457841
1059 2061 3458222
1629 270 3461829
877 1059 3462065
1689 430 3464616
1059 1059 3464843
1958 57 3469971
2080 2061 3482072
448 23 3500999
211 23 3501125
23 23 3502800
2087 23 3504443
211 23 3504751
23 23 3506977
270 1243 3507004
270 866 3511293
1743 211 3514927
23 23 3516023
41 667 3517970
1958 394 3518982
1958 667 3519198
270 1730 3519431
667 667 3520447
862 1826 3520553
862 1958 3520614
100 2036 3520670
1958 667 3520877
667 1958 3521003
667 667 3521541
1859 41 3527195
1360 2090 3528822
186 235 3529436
186 1958 3529479
1743 1958 3530436
1775 1775 3533540
1958 1958 3536971
1958 1958 3537081
4 168 3540787
41 667 3543570
866 449 3544731
325 667 3545282
1933 4 3545813
4 4 3546369
1859 2109 3551500
667 667 3554271
2061 1958 3560308
168 449 3564713
168 235 3564842
115 115 3570965
119 1643 3571189
1643 1643 3571361
270 1859 3576482
1859 1859 3580309
211 4 3582968
1792 449 3583295
23 4 3583685
667 449 3590428
646 211 3591598
23 4 3593522
448 935 3594513
448 935 3594575
2009 325 3598249
2009 325 3598279
2009 325 3598435
119 449 3599044
119 1543 3599361
449 449 3602772
119 1859 3608099
325 325 3615171
325 325 3615269
877 2041 3618474
431 119 3622965
235 2131 3623016
150 866 3628778
866 866 3629562
30 236 3635014
976 1826 3642362
1940 1078 3643124
431 1360 3654914
1078 1078 3656210
1078 1360 3656565
1078 1360 3657045
1078 146 3657207
1859 1217 3658422
1859 289 3664076
1698 4 3664877
211 449 3672594
1078 270 3672624
2146 2103 3674886
325 449 3681458
976 1543 3681527
449 449 3682433
325 449 3684153
325 667 3684519
646 1217 3688290
449 449 3688372
1326 1724 3691970
334 455 3694866
1008 325 3695343
455 455 3697738
136 136 3698016
136 1958 3698142
794 1826 3698600
794 1826 3698667
1826 1826 3700398
2028 1643 3704166
794 1826 3707128
742 1826 3708150
742 1543 3709178
1543 1826 3709851
2138 216 3710813
2138 431 3710834
1889 1966 3712683
646 9 3715492
1966 1966 3720068
235 2142 3721882
1059 211 3722774
455 1966 3725244
2139 130 3730058
329 1059 3737538
501 235 3738961
2170 1990 3747738
2170 449 3747819
23 2180 3753441
2139 41 3757763
2139 5 3758131
866 2139 3758318
211 211 3758429
211 2180 3759089
644 644 3759201
1059 211 3759365
618 236 3760066
2028 1501 3762090
1627 1627 3762165
1627 1730 3762440
1943 2139 3764228
211 211 3765827
329 184 3770808
184 184 3773622
270 270 3774368
270 1730 3774603
270 236 3774707
1563 2180 3778249
1958 1958 3787148
211 1148 3787754
449 1958 3789387
449 1958 3789466
1958 1958 3789911
1859 211 3791342
2028 1501 3792294
2028 2179 3792364
211 211 3794035
211 211 3794271
963 1657 3795343
2130 2041 3795465
1078 211 3795635
1078 1148 3795944
211 211 3796075
1943 1943 3796512
352 1990 3801152
2192 2192 3801576
866 2192 3801638
2174 1958 3803292
658 41 3807081
646 184 3810184
646 1990 3810266
41 41 3812901
41 2170 3813049
1958 1958 3820015
2174 1958 3827315
1543 1543 3833509
2142 2142 3835166
1563 2180 3835982
2009 455 3839400
2009 325 3839463
1793 866 3840923
1958 1958 3858598
2028 1943 3860815
455 455 3862182
2189 1197 3866816
499 1217 3867090
499 829 3867696
1217 1217 3868076
2174 1958 3870972
1958 1958 3871263
2174 1958 3872244
686 866 3872844
1501 1501 3872890
686 866 3873753
1217 1958 3874518
829 829 3876967
829 829 3877077
1958 1958 3883138
1217 1958 3883370
332 1827 3884603
2206 1543 3886175
1453 4 3886855
1453 4 3886966
136 455 3897829
136 72 3897894
2213 72 3897916
58 305 3928448
866 866 3929728
58 305 3935761
2189 1990 3947610
2192 2192 3950913
2192 455 3950987
1689 203 3952783
1217 1958 3955764
1943 1943 3956819
1792 270 3961907
2028 1943 3963054
1859 1059 3965271
1958 1958 3967183
1958 1958 3967213
66 1059 3968446
66 1059 3968571
702 2173 3970199
146 1217 3970936
270 270 3972050
270 270 3972155
1059 1059 3973694
2174 1958 3976440
976 1217 3976890
976 305 3977444
1085 211 3979209
2221 2224 3986117
1217 1217 3991041
2082 667 3996349
1046 41 4010982
455 455 4023953
1968 1217 4030122
702 2179 4031730
794 1826 4032525
829 499 4032925
1826 1826 4035013
1826 1826 4035384
270 1859 4041895
2224 2206 4044078
2206 2206 4044263
2224 2206 4045105
2206 2206 4045812
1990 686 4049770
1990 235 4049904
1792 2224 4050138
2224 2224 4051327
235 2224 4052131
1151 2224 4054007
333 2224 4057725
2209 455 4058094
2247 2224 4058764
2224 333 4058891
333 333 4058957
2247 333 4063241
1889 935 4066099
1990 1990 4070803
186 455 4071238
1046 2233 4080762
1943 1943 4081085
2174 1958 4088238
305 211 4092951
541 2254 4101631
2247 1889 4105093
2247 2258 4105157
1446 137537 4105471
184 184 4116448
211 305 4119793
1326 41 4119943
833 866 4130125
352 2261 4132598
2206 2224 4137949
1792 1090 4140875
866 211 4141020
2224 235 4141741
1792 1090 4142049
211 211 4142221
1792 82 4142500
211 211 4142562
1859 1826 4142668
1859 235 4144309
455 235 4146072
866 211 4147377
1090 41 4147854
1859 235 4148055
1859 2224 4148680
235 235 4148879
235 667 4148961
1940 866 4152073
2230 2224 4153340
2230 2224 4153600
2230 2224 4153750
1826 1826 4153793
769 1826 4156240
2247 2224 4161058
254 325 4182765
1775 325 4185882
1826 1826 4192623
325 325 4193541
175 231 4199278
2238 211 4201563
415 211 4201867
270 415 4206314
2222 1059 4208016
270 172 4209998
1792 2224 4211187
1940 866 4212963
2224 2224 4215140
254 325 4220490
769 352 4221761
769 1059 4222354
769 455 4222615
769 211 4222690
235 1826 4224691
1990 211 4224826
211 211 4227380
2191 1859 4227563
2191 1859 4228026
1059 1059 4229380
2272 2224 4231586
1859 1859 4232272
2224 2224 4232923
1958 1958 4234646
277 2224 4237312
2174 1958 4239493
186 499 4239616
976 1655 4249522
364 2224 4249856
2296 235 4258694
235 235 4259074
2296 235 4264547
235 235 4266814
37 2224 4267356
2233 2233 4272474
1321 289 4278437
1958 1958 4280444
2240 235 4290555
2139 431 4290626
2139 234 4291720
2139 130 4292362
2139 130 4292611
2139 527 4298991
2292 2191 4299620
2139 143 4299968
2139 41 4300346
2139 2103 4301516
2139 2103 4301899
2139 2103 4302544
2139 646 4303577
1805 1943 4304507
2191 2191 4310030
2292 2191 4313296
2269 449 4317242
2269 449 4317266
1012 275 4322943
1012 1859 4323010
41 667 4323927
58 58 4324388
41 667 4328694
449 667 4330526
189 2240 4330716
1366 499 4334462
2308 1859 4334908
1318 1990 4335392
1318 1990 4336287
2139 214 4336509
769 2315 4343465
2224 235 4344114
80 527 4359691
1543 667 4361799
584 329 4363367
1318 211 4368330
2139 527 4368925
2139 667 4369143
270 1859 4374400
270 1859 4374434
1943 1943 4376705
499 58 4380460
1859 1859 4386830
672 2233 4389951
2329 235 4397378
2271 305 4397758
2296 2315 4399209
80 527 4400152
235 235 4405526
2276 2224 4406401
463 667 4409902
186 1738 4414759
646 1859 4414821
1653 235 4414866
1653 192 4415197
2171 236 4420241
2171 1059 4420596
463 1653 4424209
235 1653 4434224
2233 2233 4452069
2028 1943 4457489
415 415 4464260
2345 1059 4468947
235 356 4471044
235 356 4471807
667 667 4472126
1059 1059 4472432
497 2224 4480434
41 1158 4486811
2313 629 4488402
2192 41 4489947
2192 2361 4491528
41 41 4493460
880 458 4494670
2315 2315 4512941
2375 2355 4519335
2336 2362 4536212
2313 629 4551553
2380 667 4559502
1793 2380 4571850
235 2380 4572353
41 2380 4572742
2385 58 4582173
5 554 4583757
2386 236 4589090
877 236 4592353
499 1366 4594019
499 499 4594096
2386 236 4594509
501 449 4598692
551 1859 4600650
1859 593 4600754
30 1217 4608019
30 1078 4613122
211 2313 4623267
1793 211 4624341
2313 499 4629651
499 499 4639854
499 1217 4640019
325 1543 4643274
1943 1943 4644124
1943 1943 4644253
82 2383 4644402
1793 211 4655588
1217 1217 4655876
2361 2361 4656315
1217 667 4656397
186 499 4658236
186 629 4658283
186 449 4658412
211 211 4658720
2028 1943 4659302
499 499 4659850
861 211 4662879
2231 2402 4663144
1859 1405 4663725
1405 1405 4664788
667 667 4669659
2315 2315 4670305
2315 2315 4670868
1859 277 4673795
1859 667 4675603
2313 629 4675775
449 1217 4676203
1243 1243 4676588
559 612 4678001
1217 1217 4680128
1859 1059 4691145
739 1859 4703979
1078 2138 4704978
1775 211 4718828
2413 449 4720905
2413 141 4721112
141 141 4721244
141 141 4721598
2413 141 4722453
2413 141 4722706
2413 141 4722876
141 141 4725452
449 449 4729110
20 1059 4731401
2399 2399 4732283
41 1859 4733724
1078 270 4733779
2412 449 4740592
119 270 4742384
277 1859 4742455
667 1627 4743965
41 1627 4744242
2413 449 4744758
1627 1627 4744922
1627 1627 4745467
2413 449 4745794
2321 1627 4746149
211 449 4747466
2191 1859 4747888
2413 449 4748800
449 449 4749614
2413 141 4749685
1591 721 4753933
104 667 4755330
289 5 4756514
667 667 4758369
2196 2138 4760106
2196 667 4760168
2138 2138 4760554
667 667 4761903
139 275 4763694
2383 2138 4764028
2383 2362 4764056
2383 1859 4764277
2383 1859 4764305
2383 2383 4764402
119 415 4767753
739 1078 4773374
1078 739 4777044
2315 2315 4781043
2321 2315 4795534
2028 1990 4797110
2327 2327 4799522
275 275 4799994
325 1543 4805621
458 458 4823789
2331 1859 4826115
186 499 4826173
235 449 4826532
235 2331 4826812
211 266 4831406
1243 1243 4831557
235 211 4832784
667 149 4843106
794 41 4844605
431 431 4844655
794 1543 4844656
877 1090 4846592
235 431 4849769
1411 1411 4856029
2142 449 4862625
1078 149 4864273
420 431 4866611
2142 449 4867475
1793 58 4880310
2139 2139 4880620
1059 1924 4881435
449 449 4884422
1943 1943 4888787
2454 1924 4892904
2321 149 4894524
211 1924 4894546
2454 1924 4895249
1924 1924 4897388
2454 1924 4899583
499 499 4900434
175 1924 4900589
455 1924 4901513
2139 1724 4902684
2142 449 4905503
431 1078 4906919
149 149 4906960
149 149 4907120
211 235 4910237
277 1059 4912233
2191 243 4913883
431 1836 4918353
2056 1924 4920123
2056 667 4920361
211 1924 4920968
2467 2467 4921086
1793 211 4924136
2385 2093 4926251
1090 49 4928744
149 2466 4929814
5 667 4938686
2206 449 4941719
2390 41 4945253
2138 2466 4947917
41 41 4947977
2390 2138 4948787
2138 2138 4949716
2390 2138 4950017
1078 710 4952905
769 2138 4952932
2390 41 4956124
235 449 4957164
2138 2138 4957516
2138 2138 4957590
211 211 4966793
2390 2138 4969933
2381 1724 4970875
2138 2138 4971479
2390 2138 4974947
2390 2138 4975071
2390 2138 4975282
2138 2138 4975315
2138 2138 4975385
2390 2138 4976371
779 289 4976703
2138 2138 4977867
289 289 4981673
1792 2224 4985575
1792 1078 4987804
1078 1078 4988658
1792 1078 4989933
2224 2224 4993099
4 2138 4997259
1859 2038 4999660
2038 2038 5002762
2206 1716 5004312
431 2466 5005193
30 2487 5005829
1151 2224 5006472
235 2138 5011706
415 2315 5011896
2487 2487 5013722
2315 2315 5016541
2390 667 5016924
877 270 5017178
1689 667 5018812
769 270 5019020
633 2138 5019708
2138 2138 5020848
270 2224 5020877
2315 1990 5021454
2315 1990 5021489
2138 2315 5022848
235 667 5025939
2383 1078 5026927
2383 667 5027015
2383 289 5029596
1078 2138 5035935
1990 1990 5073084
1990 2315 5073291
2331 2331 5076523
2442 866 5080788
866 866 5081641
4 4 5089448
880 1543 5094492
2390 499 5117260
23 499 5136984
150 923 5181219
2490 133 5186464
188 150 5202642
794 861 5222684
794 861 5222875
1924 455 5230956
829 1148 5244708
2499 449 5246539
861 861 5248030
2473 1217 5250627
1754 270 5251121
2473 1149 5251700
2473 1689 5251787
2522 211 5251877
2473 1217 5251972
1716 1716 5254409
861 861 5256296
861 861 5256330
2468 270 5267746
352 1626 5270441
347 44 5274612
235 1859 5275106
1859 1859 5275854
1059 275 5276577
235 1859 5276937
275 275 5277096
1059 325 5277166
1059 1859 5277433
1059 275 5277900
1859 275 5278493
2497 2315 5280550
2381 1724 5281503
2496 1217 5282317
2496 1217 5282493
114 1855 5282826
1217 1217 5288345
2138 133 5290747
211 150 5311556
325 325 5314676
270 270 5319263
270 2233 5319375
2491 235 5320858
2321 913 5325606
1889 458 5327842
1763 1763 5328603
1012 325 5329338
2206 1716 5334170
1078 2217 5336315
2331 1889 5341094
1090 2217 5347038
877 519 5359775
458 458 5361146
2138 2539 5363394
2138 2539 5363432
1158 275 5363826
2490 133 5365841
2138 252 5368516
1889 1889 5370869
2526 2535 5382072
2383 458 5394401
2315 1859 5397259
2315 2224 5397558
633 1217 5398487
2535 2535 5401223
2539 2539 5410835
2539 2539 5411308
1627 1550 5412228
270 23 5416048
627 1059 5418159
627 1059 5418468
2526 2535 5423281
2224 2224 5425783
1090 235 5428243
1151 449 5429680
1151 449 5430081
420 449 5430785
1148 449 5432151
2550 325 5432387
667 1859 5434868
449 449 5434936
211 150 5434980
277 2558 5435788
455 449 5438611
2390 2138 5438743
325 325 5441122
23 23 5442178
23 23 5442209
175 20 5442818
2550 325 5444003
1217 1217 5445458
2499 2383 5445536
2499 2383 5445655
1859 1859 5446411
325 325 5446987
2550 325 5449502
325 325 5449958
149 1859 5452148
149 769 5452182
769 769 5452695
149 769 5454131
149 1217 5454550
1217 1059 5455528
1217 1059 5455782
1059 1059 5456899
5 20 5463988
5 5 5464981
541 2362 5465010
5 5 5465014
2362 449 5472160
1078 1859 5473318
87 5 5474739
5 5 5479766
519 2217 5487145
449 449 5511131
2026 449 5511512
2026 1859 5511933
149 2217 5512108
1626 1626 5512940
2564 1078 5513296
186 257 5513542
2362 449 5514531
2421 2421 5515976
149 2421 5517164
149 1859 5517361
2170 2170 5521544
235 149 5525805
2421 2421 5529761
1654 1654 5530155
2550 325 5531596
928 235 5533092
448 2369 5535528
667 2369 5535853
1151 41 5537669
235 2369 5538389
2369 2369 5538871
2206 1716 5539872
87 5 5543276
235 235 5543579
87 2421 5544236
149 149 5544521
913 913 5551995
913 913 5552314
5 5 5552320
913 913 5552769
913 913 5552848
2315 2442 5553863
87 5 5554123
448 2369 5561962
2383 2383 5569551
2383 66 5573126
866 270 5578759
270 270 5580973
829 2217 5586769
1151 41 5597143
5 5 5604224
449 2369 5609019
235 1909 5609367
2597 866 5611040
2331 1889 5612099
2490 1372 5612364
2383 612 5614272
1151 866 5614405
2383 115 5614477
1372 1372 5617011
913 1217 5624364
270 333 5624602
2331 913 5626766
1078 1059 5646040
1217 41 5650134
2442 2442 5663438
41 305 5679681
400237 2369 5683120
633 1217 5687692
2588 270 5692918
2390 305 5693779
2390 2558 5693875
305 305 5695277
305 2315 5695480
2538 30 5696040
1889 1889 5700399
5 2369 5702822
2354 1889 5710439
2354 1889 5710467
1859 325 5713319
669 325 5715148
2369 2369 5716410
2390 2369 5717916
1889 1889 5720117
235 866 5723955
2390 2618 5728444
2390 2618 5728850
2618 2618 5729442
2618 2618 5729735
270 270 5730256
2315 42 5730744
570 1158 5732223
570 56 5734959
2315 305 5748071
1626 2558 5751398
1626 866 5751513
325 325 5755329
1231 1405 5768856
2612 963 5772896
2612 305 5772978
866 275 5773246
866 1138 5773770
2497 2315 5779963
2497 2315 5780241
570 570 5783413
633 570 5783547
1059 1059 5787420
866 1059 5790014
2315 2315 5794137
2390 499 5794378
2315 2315 5794389
2390 325 5794486
2390 2618 5794582
2390 415 5794787
136 1654 5794907
136 66 5794941
2390 325 5795952
1202 866 5798511
1439 2477 5800979
1439 270 5803646
2138 188 5826229
188 188 5827647
913 913 5831476
270 270 5832776
2390 23 5833679
449 1830 5835271
2390 1924 5846077
2390 1924 5846096
2206 1716 5853132
1012 150 5860956
1012 150 5861084
458 458 5862084
1012 458 5862547
2564 1078 5862917
866 866 5863118
633 2026 5864215
2609 1078 5865902
150 150 5867689
23 23 5877773
1629 325 5885232
5 1217 5887388
2390 2618 5889845
570 866 5901556
669 235 5903215
2026 325 5904325
2138 188 5905435
2640 1826 5916596
325 325 5918515
2618 2618 5928987
2390 2618 5929575
2140 1689 5930132
2240 570 5938408
2612 1464 5938534
1924 1924 5938909
2581 913 5941881
2233 2233 5943256
2618 2618 5946306
458 570 5947342
1689 1689 5948253
2170 2315 5948593
866 1217 5949766
5 1217 5953629
2527 243 5955944
2139 1724 5958971
1012 1059 5967979
2670 861 5976315
2652 1059 5978536
1272 270 5984363
2670 570 5984933
2390 570 5987266
2390 570 5987438
2390 150 5988560
41 570 5989624
570 570 5989837
1859 2390 5991333
1012 1059 5999128
