42 10 907
56 91 1977
91 91 2028
5 88 2098
4 50 2127
104 50 2130
35 56 2147
4 88 2175
4 50 2440
56 56 2832
27 104 3075
66 104 3153
24 50 3155
4 118 3486
4 27 3541
5 88 7627
88 88 8060
5 56 8172
119 138 8721
94 50 8917
5 7002 9794
66 128 10639
138 138 11416
165 161 12086
28 161 12761
24 130 13049
130 130 13459
130 130 13602
35 7002 14037
28 143 14569
128 128 14889
57 35 15547
57 154 16668
154 154 16914
57 82 21043
57 170 21867
73 115 25630
73 76 25806
57 170 26462
76 76 27642
170 170 29729
115 115 32632
4 66 33536
66 66 34537
5 80 38132
24 199 38144
192 5 39012
199 199 39297
5 5 39393
203 7002 39902
80 80 40241
192 5 40792
5 5 41480
5 91 43975
192 5 46082
42 192 47813
192 192 48579
56 166 48949
192 192 50936
221 161 54319
234 161 57419
35 35 59866
7 161 61787
130 220 62835
23 109 67115
211 238 67363
4 109 67435
4 109 67467
66 109 67801
109 109 68251
35 242 69930
66 4 70651
10 179 78922
228 179 80488
169 238 80650
10 161 81652
238 238 85682
115 115 95210
265 161 101126
5 58 105255
91 58 106391
4 154 106424
5 58 107089
154 154 108043
5 45 110846
154 234 143095
82 82 146161
136 179 146831
4 234 152308
41 104 152915
62 161 160154
220 220 164382
24 278 167957
24 115 168870
234 234 174290
87 56 174784
87 234 176805
154 128 177887
154 45 178382
5 154 184214
5 130 184695
130 130 186461
5 88 190197
154 154 193146
57 278 194687
5 278 195992
5 214 210891
278 278 213864
56 56 226522
5 114 248385
104 7 250967
130 87 255078
87 87 265841
285 45 266208
281 234 267838
4 87 268141
281 234 268515
24 38 269650
87 87 279938
172 5 289121
5 5 289433
42 5 290080
5 5 291699
5 5 292427
171 171 299689
38 38 304955
42 5 308040
57 5 311007
130 171 324388
130 5 324469
259 5 336393
87 163 349191
57 5 358245
188 214 365646
130 5 373600
186 236 416596
50 71 416602
130 236 434813
236 236 435599
35 281 440524
87 88 446755
71 71 453654
5 5 476486
47 308 481957
144 305 485589
35 305 496653
87 88 500691
50 133 500719
133 133 504529
88 88 507956
130 88 516910
5 308 520764
324 236 521809
62 88 523717
241 133 524609
236 236 527663
133 133 530197
4 114 531034
4 5 531322
5 5 531459
4 5 531696
5 17 531858
5 5 531956
4 5 532990
4 5 533093
130 5 533209
17 17 533228
5 5 533522
5 5 533802
4 5 533941
5 5 537600
5 5 539865
4 5 541692
130 41 542780
5 5 544240
41 41 579261
41 305 579763
41 253 581555
108 305 586626
323 243 587740
4 50 589690
108 5 598413
4 4 600107
4 324 600989
10 324 601043
4 324 601171
4 324 601332
324 324 603665
24 333 604530
227 114 605096
333 333 605109
24 333 605377
4 333 605386
236 5 605729
5 5 606955
5 5 607075
17 305 608432
193 333 608715
193 63 609248
243 243 609661
4 333 609662
4 412 609683
334 333 609721
63 63 610019
4 333 610234
5 412 610284
4 425 610609
236 5 610665
333 333 610903
4 381 611075
430 381 611536
4 431 611740
425 425 612051
4 155 613803
5 5 616040
114 14127 621580
525 14127 623469
5 333 625825
188 163 633973
332 330 635541
308 308 646916
334 308 647598
458 305 653573
305 305 655935
275 308 659260
275 308 659398
334 359 660076
644 308 664071
323 243 665247
308 308 668342
431 654 669856
4 654 670318
333 101 670952
412 412 671538
42 305 672136
10 677 675626
4 305 679814
305 305 681670
41 305 691011
4 717 693405
717 717 693807
289 451 705191
332 420 711133
420 420 711567
192 5 715926
5 5 716308
4 5 717508
5 5 718081
130 794 718627
5 5 718895
130 794 719217
794 794 723193
24 305 729265
203 305 730334
203 754 740311
109 109 747116
236 232 751039
539 539 751168
458 114 758975
627 101 766503
880 109 772917
880 818 773094
295 4 774119
4 4 774673
41 87 775003
4 324 775123
324 324 775517
236 892 778722
333 892 779420
333 783 781150
24 87 783084
87 87 784122
41 87 784503
880 880 785204
667 769 785650
539 539 794765
769 769 797103
667 769 829674
928 332 832164
155 155 837185
929 929 838327
334 539 839893
4 539 849517
880 880 850237
18 10 861243
289 449 866510
449 449 867437
952 952 875494
431 927 884679
57 952 891537
236 862 912720
455 862 916117
633 633 920176
880 880 950247
866 866 952564
4 982 961425
742 978 961720
455 667 962340
455 880 962553
104 356 963064
449 104 964076
104 104 965173
41 659 970585
41 659 970620
659 659 971324
659 659 971354
154 677 973230
17 633 973403
188 104 976434
880 880 984653
455 982 995360
325 236 999475
325 539 999628
455 1004 1012449
539 539 1012489
449 999 1014811
4 330 1017442
41 333 1017787
4 333 1017928
333 333 1023094
235 880 1044508
333 782 1044688
236 236 1046463
41 913 1054387
4 913 1054597
289 633 1056018
633 633 1056469
289 633 1058036
266 913 1066069
266 124 1068869
644 124 1080808
124 124 1088770
630 880 1089562
633 633 1090372
329 1004 1092477
41 1057 1104634
330 330 1104721
782 782 1105795
880 880 1118452
333 48 1118648
48 48 1119197
333 48 1119392
333 4 1121758
48 48 1122239
236 295 1127301
4 4 1128261
41 1065 1128507
1005 236 1129730
1005 1004 1129945
66 163 1130501
66 982 1131377
742 163 1133301
41 66 1137465
289 633 1142246
104 66 1147142
236 576 1168395
236 236 1168919
236 576 1170028
236 5 1173850
455 5 1183839
333 576 1189381
4 101 1195102
41 423 1195336
742 101 1199012
261 1004 1209432
96 236 1209865
236 236 1210887
913 913 1213019
41 965 1216195
333 965 1216292
333 965 1216452
179 101 1216760
104 331 1219652
1116 539 1222526
211 1123 1252276
455 794 1252751
1123 1123 1261645
453 1123 1263252
211 1123 1268461
331 331 1269655
742 101 1270467
4 333 1275410
333 333 1275497
4 333 1276602
333 794 1277338
423 423 1280742
4 333 1287168
667 1151 1293976
266 1151 1294851
104 1151 1294863
333 333 1294984
41 5 1295068
41 1151 1295440
5 5 1296148
1151 1151 1296158
252 1151 1298869
333 1087 1300296
275 1087 1300878
1158 5 1303567
5 5 1317523
289 45 1324363
289 1151 1325914
289 1087 1326662
1161 407 1341826
329 407 1341945
285 407 1346227
633 633 1347340
236 236 1347911
211 236 1348907
453 407 1349852
211 45 1355423
289 236 1357773
612 305 1358777
130 947 1358919
130 504 1359975
41 630 1362698
4 67 1365103
1078 175 1366188
252 305 1366911
333 305 1366970
947 947 1369909
1158 407 1369965
252 305 1371721
333 305 1372092
211 211 1373039
1059 431 1377135
41 87 1380081
1059 87 1380565
87 87 1380672
87 87 1381932
252 305 1384110
333 305 1384477
41 630 1387387
932 1193 1391587
1193 1193 1392524
41 633 1402178
41 407 1402865
4 1219 1420943
104 947 1430971
455 1219 1432196
630 630 1433951
175 175 1440691
458 1219 1450061
289 333 1451388
4 431 1451507
1078 504 1452250
1078 179 1453135
179 179 1456544
716 420 1457825
716 333 1457987
504 504 1464136
108 305 1464458
932 1193 1471200
4 179 1479408
179 179 1479968
455 179 1482559
104 176 1486079
455 633 1487465
179 179 1492884
1010 633 1522926
4 1246 1532571
109 1039 1540272
455 72 1551865
866 1287 1552085
667 794 1562402
1287 1287 1563350
146 794 1564264
1158 794 1564576
877 794 1565276
72 72 1574526
72 72 1577765
333 1304 1579031
1304 1304 1582591
935 541 1587804
541 541 1591102
289 82 1602126
24 1046 1602266
644 90 1604714
41 82 1616327
41 1046 1616618
449 1304 1617899
1046 1046 1620126
41 1304 1622523
66 1304 1623910
4 431 1624940
4 1304 1625450
963 1046 1628802
963 455 1628934
1046 1046 1636672
87 794 1638989
236 65 1642955
1151 1151 1650605
4 1151 1653400
1304 1304 1670718
104 1304 1680838
455 333 1686552
455 1359 1690098
455 1304 1691603
455 1364 1700199
963 1359 1701440
203 238 1709203
18 161 1709259
130 161 1709868
332 332 1711655
458 1326 1717194
4 455 1720687
211 455 1721652
455 455 1722106
455 455 1722172
4 455 1722899
1197 455 1723409
455 455 1723692
1393 534 1731487
1326 1326 1736757
420 420 1757810
270 45 1772733
1427 541 1785823
1364 1364 1789444
1059 1364 1790781
1364 1364 1791315
1059 1364 1797386
1151 1151 1798587
1090 318 1802902
41 1436 1809642
449 1439 1811645
1436 1436 1812467
1439 1439 1814205
1158 829 1816577
1439 1439 1820360
1448 866 1821574
662 866 1821849
1448 1448 1822629
1158 1448 1823645
1448 1448 1825861
455 1448 1826914
333 1448 1827184
449 1439 1827609
1448 1448 1827914
41 1449 1833985
1449 1449 1834015
576 1449 1835325
884 884 1851691
1448 1448 1852790
455 1448 1856270
1439 1439 1857924
449 1453 1861747
1453 1453 1867531
627 1439 1878048
5 1304 1890101
1446 1446 1897419
963 1193 1899030
1480 1446 1911795
66 1491 1926964
66 37 1927887
37 37 1928018
913 1491 1934619
913 1491 1934684
455 1491 1938985
913 1219 1941491
935 4 1946624
935 1046 1947724
1446 1446 1949726
1059 1491 1958676
1059 1491 1959473
1491 1491 1962072
1491 1491 1962189
1046 1046 1968569
1550 37 1978293
1360 87 1981742
277 932 1988575
1158 5 1988977
289 1553 1992359
5 3940 2012969
41 66 2058964
41 526 2059055
66 66 2060360
5 66 2070781
1473 1557 2076413
289 1393 2092347
66 302 2097447
1393 1393 2108253
453 1610 2117074
41 672 2135314
455 448 2141529
203 5 2145760
1333 1158 2151889
453 1158 2152511
4 1158 2160400
235 1610 2163221
4 332 2167407
332 332 2168139
448 448 2177208
5 5 2178495
1464 332 2179329
4 1640 2179577
448 1610 2217964
1655 1655 2230542
935 14127 2233678
1610 1610 2234219
1610 1610 2234477
4 1350 2245573
1667 87 2250899
431 87 2268752
1269 1674 2281533
1667 41 2289209
449 364 2290825
333 364 2314415
333 1682 2316333
1667 87 2316551
364 364 2318450
1158 364 2322767
667 1415 2324220
1674 1674 2327862
235 333 2327925
1415 1415 2331081
866 333 2333391
333 333 2334679
1682 1682 2334715
1667 1158 2334766
1158 1158 2335560
1667 1158 2336373
1667 1158 2336707
742 1415 2337317
877 1674 2341889
1158 1698 2349358
87 87 2354247
935 633 2355268
646 1684 2374142
633 633 2388918
1698 1698 2399122
1684 1684 2400902
644 214 2402049
333 449 2402842
211 794 2404031
41 211 2411862
41 76 2420788
76 76 2428258
76 76 2428376
1667 76 2428396
1667 76 2428511
41 76 2428892
76 76 2436064
41 128 2441704
128 128 2442735
41 333 2443618
646 364 2447341
41 1158 2449211
455 364 2462873
935 116 2465661
116 116 2467661
449 519 2471156
935 214 2480179
935 214 2481156
333 214 2485397
455 1733 2488561
41 1733 2491891
453 116 2492948
453 760 2493143
5 1733 2494129
1689 214 2497120
1453 932 2502633
1743 116 2502782
953 953 2506010
1217 1217 2513799
203 449 2572393
1090 449 2572422
41 449 2574820
449 449 2578657
270 794 2590037
41 1755 2608478
66 448 2619102
923 1183 2633525
519 519 2645880
963 199 2647048
41 290 2664357
935 292 2667712
1667 333 2667839
41 333 2669977
80 1761 2670902
290 290 2671720
1158 87 2704598
1684 1684 2747062
277 1764 2748008
431 394 2749669
866 87 2752481
394 394 2761843
866 453 2766815
87 87 2777736
41 72 2787436
866 199 2805697
199 199 2812261
945 199 2829220
211 333 2838379
866 199 2844821
199 199 2853499
199 199 2853548
333 866 2856984
866 866 2857403
72 72 2862979
420 420 2881328
116 28 2882673
455 28 2891151
449 199 2907692
1743 449 2914686
449 449 2915414
644 1809 2916021
1809 1809 2921667
458 934 2929504
458 934 2929525
934 934 2931619
289 119 2941216
877 5 2941984
119 119 2942363
5 5 2943008
455 1648 2974533
644 646 2985891
449 1309 2987689
455 1840 3002368
41 1840 3003132
23 1840 3003597
41 1840 3004772
23 1840 3005009
4 1648 3012448
41 1627 3024209
455 1453 3029163
5 1840 3030693
1859 1859 3039397
41 1859 3040571
41 1859 3040624
1309 1309 3044145
41 41 3044714
646 1840 3045302
41 1644 3050536
1859 1859 3059903
935 1644 3071484
935 1868 3072289
935 1868 3072462
455 1648 3078961
1868 1868 3079087
1012 1260 3084080
458 1868 3086001
1550 166 3086762
41 1012 3087626
1012 1012 3089478
41 1012 3090199
41 559 3091259
119 559 3093176
211 277 3102694
1158 1366 3107869
1885 1868 3108036
1158 1859 3108296
935 1366 3109037
1859 1859 3113113
1913 1284 3126488
4 1755 3133334
646 1755 3141217
453 1868 3145456
1702 1648 3150869
1453 1453 3151249
646 1366 3157050
1366 1366 3165487
1938 1840 3176343
646 1366 3195083
41 1793 3195991
41 1859 3213933
1793 1793 3244278
1360 341 3254595
1959 1959 3259341
1627 1959 3259407
1959 1959 3259949
559 559 3261971
1360 1457 3271982
4 166 3276555
41 559 3280087
559 559 3294424
667 693 3357433
693 693 3357708
667 693 3358664
1943 1826 3377789
1943 333 3381201
1793 1793 3415154
449 2051 3423103
2051 2051 3431825
270 1775 3433146
1775 1775 3435984
4 2051 3438785
23 2051 3450978
235 332 3457036
1059 862 3457532
41 2051 3469115
58 58 3470035
1629 1629 3470265
41 2087 3517818
1743 4 3530315
4 4 3540724
58 58 3541098
431 119 3549077
119 119 3549702
928 332 3552387
58 58 3553076
1643 431 3569976
270 270 3587548
41 2130 3611071
866 2132 3618430
2132 2132 3621843
1116 976 3648209
1078 551 3657566
2087 2087 3661245
2139 332 3661341
1078 332 3662189
976 976 3679675
1546 334 3693722
334 334 3694658
1546 334 3696034
1304 1304 3702554
1304 1304 3702861
1546 1563 3727360
1546 1304 3727604
235 646 3729719
646 646 3731370
1158 1304 3733207
104 794 3745735
1943 1648 3768660
270 1940 3774495
211 341 3782268
1958 2130 3788870
1958 449 3789597
449 449 3790581
455 2130 3794089
1151 782 3795024
1078 28 3795503
1958 449 3797911
235 341 3803814
211 341 3804381
449 449 3805851
1859 2191 3812353
1990 2189 3817535
1958 976 3864180
1958 499 3871433
455 686 3881829
1940 1940 3897553
136 2210 3897724
2189 2189 3897991
1990 175 3903932
499 499 3926601
449 2210 3938785
329 236 3940119
236 236 3974337
976 976 3976979
1698 548 4016508
2237 2237 4028082
41 2238 4033683
41 2237 4033973
41 794 4036000
2238 2238 4036899
211 2238 4038155
41 2241 4042860
2241 2241 4044934
2241 2241 4045016
2241 2241 4045048
1826 333 4058625
1889 1010 4067198
186 2238 4070769
211 1859 4105311
1446 1446 4106399
211 2269 4127279
1859 2206 4132602
2224 1943 4135259
2206 2206 4137845
833 866 4138981
866 866 4141093
1090 2272 4147991
2224 1446 4150649
2272 2272 4158228
2224 2271 4169875
2238 2238 4202004
58 58 4207313
41 1859 4220165
1158 2109 4222629
1990 2292 4224554
2292 2292 4227432
211 2292 4227526
2292 2292 4230713
499 769 4235509
769 769 4241818
2224 2298 4249131
235 2292 4257857
499 769 4259210
499 769 4260232
769 769 4263854
2224 2240 4264602
963 1805 4276876
211 2292 4291579
41 2308 4291686
2292 2292 4301182
1805 1805 4304220
2139 769 4306774
235 2210 4314867
2308 2308 4316138
41 2308 4318674
2311 2269 4322883
41 333 4323511
1990 2311 4324859
2311 2311 4325229
1859 769 4327411
235 769 4327675
769 769 4328038
2318 2318 4341571
769 769 4343753
999 999 4393280
672 2318 4395534
769 769 4409275
646 270 4414567
1059 578 4417929
1591 2335 4418327
236 1626 4419669
431 578 4420587
1059 1626 4423992
41 2335 4429127
41 2335 4429144
2224 2345 4440658
1059 2349 4463324
1059 82 4464508
1078 20 4466736
20 20 4467453
1078 686 4467546
2345 2345 4469496
667 2365 4482814
1826 2365 4482994
1059 2365 4483440
667 2365 4483685
1243 2365 4484232
667 2365 4485580
41 2365 4487361
332 2313 4504681
2313 2313 4541058
1676 1676 4553205
667 1676 4554066
332 2313 4558950
41 593 4563241
455 593 4566218
2375 324 4575925
593 593 4577460
2315 2315 4594282
2315 2315 4595677
235 633 4599485
1078 2387 4613139
2313 2313 4629354
1543 2321 4639417
449 2388 4653697
667 2387 4654327
1859 1752 4666038
1059 884 4680900
1059 2400 4681146
1859 2383 4692167
963 2400 4693737
1078 1775 4704361
1775 1775 4718025
1859 2412 4731073
41 2413 4733596
877 119 4739553
2412 2412 4740861
2413 2413 4748879
721 130 4749744
1059 2412 4750595
235 420 4755078
5 2331 4756214
2331 2331 4756657
41 2331 4757359
41 2028 4757568
2383 2383 4764148
415 214 4805775
1859 214 4817334
333 2438 4820157
2358 2358 4829187
211 2438 4830874
1627 2331 4833248
333 2438 4833427
2331 2331 4834111
1859 999 4836496
999 999 4837787
1059 999 4842234
999 999 4845203
1059 1439 4847726
235 999 4850248
448 2331 4869254
270 1418 4885241
2412 2412 4885761
1439 1439 4886970
270 1418 4887755
270 1418 4887818
1078 1924 4888759
1078 1924 4888852
211 1924 4889925
1924 1924 4890722
1543 2321 4896936
455 2381 4901248
149 175 4907859
175 175 4908087
449 175 4908092
829 175 4909411
431 175 4917913
633 633 4923855
1029 1439 4925895
1439 1439 4927013
2383 277 4929144
2383 277 4929161
175 175 4935607
149 175 4937321
41 2390 4948131
1859 2390 4949935
2381 2381 4970845
41 1924 4985117
667 1792 4990599
667 1792 4991066
2206 2206 4991118
1859 1859 4999123
1090 2019 5007770
455 769 5011877
49 2019 5015648
1059 2390 5020641
2138 2490 5028488
1078 2497 5104861
431 155 5106033
1059 541 5112662
16 769 5113132
133 431 5122563
2499 2499 5134528
2490 2490 5186631
431 2496 5190217
431 2496 5190505
1138 2499 5192168
235 2497 5250182
211 2405 5271603
2405 2405 5274978
1990 2524 5281137
1059 2527 5281601
1990 2524 5281681
1158 2490 5290117
2138 2490 5290603
136 2210 5300451
2527 2527 5304872
2138 2526 5309014
211 2405 5311493
449 2331 5330221
455 2270 5341152
1059 2331 5355245
541 541 5398465
211 87 5403584
211 2550 5406188
2217 2442 5410300
270 769 5416243
1090 1151 5427493
2331 2331 5436616
325 2527 5450461
41 2331 5454001
2527 2527 5457267
2331 2331 5459666
87 87 5459802
41 2331 5464087
1078 2406 5471932
2406 2406 5474893
2362 2406 5480174
2138 270 5486425
415 87 5500655
1078 2406 5502006
325 2524 5505194
2406 2406 5508360
2270 2270 5508480
136 150 5509643
1689 184 5515980
155 136 5546033
913 2442 5553190
2383 1043 5574093
184 184 5574120
2588 2588 5576366
184 3889 5583726
1090 2588 5597615
2383 2594 5608163
270 270 5613320
1550 184 5615600
1689 2390 5623033
270 2390 5623483
2138 2599 5640051
2138 1202 5653392
455 4 5655540
1202 1202 5656820
2138 1202 5659253
2442 2442 5663158
1078 400237 5683971
4 4 5686406
2588 2588 5692874
1990 1940 5719000
2626 2623 5760742
270 2390 5784233
866 155 5790574
2390 2390 5792407
136 136 5795156
136 136 5803676
270 2390 5836682
1924 633 5842694
325 2609 5862491
633 633 5864197
277 2633 5867407
570 2298 5873491
2633 2633 5875203
1629 2390 5882089
1019 1012 5882142
1012 1012 5887583
1078 455 5906829
455 455 5914315
41 2458 5948184
149 2458 5948223
866 2458 5950052
455 455 5969548
570 669 5995589
270 2390 5996143
449 2527 6010677
325 2675 6014055
270 2675 6014270
2675 2675 6014551
211 2675 6017826
2675 2675 6019531
928 333 6022620
41 2675 6024981
333 2675 6029234
2206 2206 6029998
2321 2675 6031608
1938 1938 6033664
570 1938 6036943
1743 2390 6037124
449 2594 6040140
2594 2594 6040243
913 2390 6050128
2383 1826 6052470
1826 1826 6057242
235 1546 6059380
1546 1546 6059500
449 1546 6060010
316 136 6061369
41 2251 6062295
2251 2251 6062763
448 794 6065488
41 2251 6067959
188 2608 6070303
211 2679 6089878
449 794 6094472
2217 2251 6105930
270 2670 6106455
270 2670 6106778
2679 2679 6116249
211 2679 6118101
270 2501 6118179
41 2664 6121557
2679 2679 6122776
2383 1826 6123054
211 2679 6126277
41 1201 6134000
1201 1201 6134167
1144 1144 6136044
2315 1201 6136209
2670 2670 6136479
2670 2670 6154120
1201 1201 6158308
270 2670 6173419
794 794 6177257
2527 2527 6213289
2535 2601 6214438
1138 455 6216715
2599 2599 6220172
1859 2383 6222646
455 455 6223576
24 2726 6278336
24 2725 6279107
1144 1144 6284491
2501 2501 6287818
270 2702 6298742
2702 2702 6303982
1078 1449 6328931
2742 455 6336085
2742 1543 6336657
1493 2367 6341744
2813 2509 6349832
866 633 6351932
2742 2829 6356669
2742 2327 6358186
928 2367 6360566
667 2891 6362805
667 2891 6362933
237 2926 6371033
1938 2387 6373599
1393 1393 6376326
270 1418 6376710
1938 567 6378612
41 567 6378901
567 567 6379556
41 567 6380198
928 2367 6381848
667 2964 6382503
41 2829 6382614
41 2247 6382953
455 455 6388177
667 3022 6393124
235 3044 6394503
1859 2935 6397239
41 3040 6397584
1418 3040 6397662
3075 2935 6398631
667 2937 6399221
136 455 6403489
1938 1157 6406064
1859 119 6412752
2405 3127 6414009
1859 234 6419669
570 66 6420305
2935 2935 6420989
2935 2935 6421218
3044 3044 6426226
41 639 6426577
639 639 6427102
2926 2926 6428612
171 171 6431859
570 2935 6433966
612 1182 6437404
1938 232 6451040
2742 455 6451356
449 232 6452048
2742 2968 6453447
3205 3205 6454921
455 455 6455266
1859 3176 6458224
270 3204 6458489
1182 1182 6459414
2192 2877 6459775
3204 3204 6461078
3204 3204 6461295
41 232 6461489
41 1449 6462191
41 2788 6462245
430 2788 6462877
41 2675 6463627
1859 2788 6465532
430 428 6469048
211 3217 6469078
667 428 6469410
667 428 6469734
3237 176 6470179
428 428 6472395
1158 639 6476128
1158 2670 6476397
1158 2834 6476605
1158 1019 6476697
325 3204 6478786
1859 3260 6479978
3204 3204 6481348
325 3204 6481450
2670 2670 6481665
1158 1157 6481780
866 3267 6482429
3267 3267 6482596
235 3267 6482912
431 2488 6485226
3093 455 6485613
667 428 6486267
3075 2935 6486827
667 2935 6487322
2488 2488 6487527
667 3307 6487647
2181 1019 6488577
1577 3338 6490138
449 455 6491692
3237 176 6493273
449 3357 6494743
1859 983 6494895
449 3315 6495100
983 983 6496101
1449 1449 6497025
3307 3307 6498697
1449 1449 6499320
453 3307 6500732
3307 3307 6501263
3127 2442 6503624
235 3127 6503740
176 176 6505469
935 3130 6507531
570 356 6510200
935 3221 6510740
2834 2834 6511404
3415 2950 6511871
935 3102 6512188
87 2583 6514175
3176 3176 6516644
3130 3130 6518771
325 3215 6520478
1078 3390 6522333
1924 3390 6523368
270 2964 6524900
3357 3357 6529342
2898 3456 6530310
3456 3456 6534679
2950 2950 6539273
3204 3204 6539581
325 3205 6546950
935 3205 6547495
270 3542 6551264
3102 3102 6552337
2405 1215 6554193
41 3607 6554463
1418 3607 6554572
1215 1215 6554624
1174 366 6554782
366 366 6558293
2834 3612 6558717
3612 3612 6559345
186 3205 6560051
1909 1909 6560545
2405 3647 6561004
2405 3612 6561464
2405 2954 6561938
4 3647 6563202
4 1909 6563296
289 1909 6563355
4 2732 6563627
430 716 6564122
716 716 6564277
3004 2670 6565066
46 1909 6568539
1756 3456 6568774
428 428 6569459
1909 1909 6569465
1909 1909 6569855
3004 3390 6572325
41 3390 6572415
3004 3390 6572590
41 3390 6573224
667 3390 6573236
1036 1036 6574007
1425 1425 6576495
449 2935 6576960
2405 1425 6579369
2405 3021 6579464
2181 472 6579759
2405 1215 6581082
570 2670 6588704
2670 2670 6595163
2670 2670 6595685
2583 2583 6598187
77594 3175 6598559
2583 2583 6600081
2383 3232 6605547
3175 3175 6606438
1418 644 6610813
779 779 6619029
1456 2670 6620560
2804 3784 6621257
449 130367 6630309
472 472 6630790
2206 3814 6632214
130367 130367 6633246
3739 3584 6634543
235 5 6635401
3739 3739 6638812
325 3739 6639328
235 3205 6639608
3205 3205 6639964
366 366 6640285
41 3739 6641051
3739 3739 6641412
449 130367 6642675
1158 3390 6642720
935 2603 6642741
1158 779 6643841
866 3835 6644394
2385 140 6646735
935 559 6648606
935 559 6648799
570 3847 6649894
2383 3232 6652630
2991 2937 6652676
935 366 6653239
866 2413 6653281
935 366 6653358
41 2413 6653907
866 2413 6654238
366 366 6655690
667 3872 6657345
1627 3664 6657587
4 130367 6657948
4 130367 6658033
3324 3324 6658281
130367 130367 6658423
3259 3259 6658446
935 415 6661046
3664 3664 6663874
3130 3130 6665343
2385 3324 6666128
5 5 6670481
3528 3528 6671263
1059 570 6672965
235 5 6673429
2138 3889 6673964
2527 2527 6684586
235 3680 6684863
3739 3739 6691327
3739 3739 6691723
644 644 6697875
270 176 6698435
1938 2910 6703706
3602 163 6706336
2385 570 6714937
3843 3215 6720474
3256 1507 6724123
935 3739 6724229
3301 672 6724506
3256 1826 6724682
3739 3739 6726052
3612 3612 6726112
672 672 6726772
1826 1826 6732650
5 5 6736340
3982 3982 6736715
2321 3983 6738647
235 2947 6739300
5 3253 6742247
5 644 6742314
163 163 6742343
3253 3253 6742546
2947 2947 6742640
570 2877 6743573
5 1464 6746356
325 4007 6752055
114 4014 6756520
136 136 6756738
3175 463 6757145
235 2935 6757293
136 463 6758061
463 463 6758955
136 4014 6759351
1507 749 6764573
41 3267 6766526
114 3175 6769013
3999 3999 6769955
4 4041 6770155
3999 3999 6771745
4041 4041 6774991
270 77594 6776690
24 2383 6777055
3205 644 6787891
935 4073 6795037
449 2591 6795516
2321 24263 6796095
308 308 6796411
2834 2591 6798854
1859 2383 6800490
2834 4092 6801329
1418 2442 6802058
235 2876 6803698
130 4092 6803856
2876 2876 6804771
420 3889 6808746
3889 4106 6809625
181 4097 6810814
3889 3889 6811742
2383 2383 6812921
3959 3959 6816085
1859 2230 6818261
2383 4073 6819683
1464 1464 6820656
235 2383 6821941
325 3584 6822083
325 3584 6822233
420 3889 6823551
455 3307 6825736
463 3145 6835266
2405 4 6836117
431 2910 6846698
431 3215 6850400
2804 1864 6851543
4034 24263 6857413
3259 3259 6862768
41 2876 6863134
2804 597 6867905
597 597 6869808
77594 3232 6871634
449 4145 6875159
2876 2876 6877210
3989 3989 6898167
1158 597 6901023
935 2509 6903830
449 2696 6905553
2696 2696 6906255
935 4188 6906857
2696 2696 6908690
935 2191 6909604
449 2696 6910447
3058 4041 6914506
3175 3175 6919457
3415 686 6930389
431 633 6932881
2954 2954 6934508
935 3739 6936196
3739 3739 6936384
463 693 6941047
693 693 6943306
2950 2138 6949553
3433 420 6953991
1698 686 6954300
3433 2689 6954389
1698 2954 6954446
3739 551 6954871
551 551 6955290
866 633 6957843
866 693 6959109
3739 551 6961347
866 1363 6962052
1363 1363 6962284
3739 3739 6962322
866 1363 6962455
2950 1363 6962580
1363 1363 6962743
4041 4041 6964179
3220 4068 6973993
4236 4236 6975473
4062 1363 6978088
1059 1363 6978150
1363 1363 6981095
1363 1363 6985992
1363 1363 6986697
693 693 6989333
2383 2383 6991529
114 2385 6992117
2385 2385 6993595
4099 3125 6994527
935 2240 6994893
236 3125 6996578
3125 3125 6997525
3125 3125 6997772
2383 4188 6998746
1029 2473 7003091
1029 2247 7003146
935 1859 7003397
1029 4266 7003504
935 1449 7005429
1449 1449 7006287
3415 2247 7006523
3550 3788 7006659
862 1449 7008244
1859 1859 7008798
4266 4266 7011900
4266 4266 7012087
633 633 7012479
2138 2138 7033187
3781 3575 7036119
3575 3575 7038547
3781 1626 7052721
4062 1626 7054517
4062 1363 7055872
4062 3315 7056042
1626 1626 7056508
3550 2834 7059093
4263 4263 7067626
4263 4263 7067685
2247 2247 7076230
1756 4340 7084357
935 2954 7086027
41 2978 7086982
325 2954 7088483
41 2978 7089384
236 18127 7092443
2841 2841 7092712
18127 18127 7093595
1736 1859 7093930
3401 3401 7096658
2954 2954 7099767
235 2442 7104793
420 420 7110141
2950 1217 7110980
4062 2813 7116031
4062 1748 7116067
3739 3739 7129811
3739 3739 7130561
935 3739 7131868
3739 3739 7132024
449 676 7139264
3415 87 7140459
934 3739 7143594
449 4399 7143623
2841 2841 7144737
325 2276 7146519
4399 4399 7146949
2276 2276 7147574
449 4399 7150892
211 702 7151205
325 4420 7153967
2026 2910 7157684
3781 702 7158271
667 4433 7160013
667 702 7160332
702 702 7160506
1748 1748 7163695
114 2910 7164222
866 2910 7168421
4399 4399 7168505
4271 4142 7168573
866 3889 7171157
2138 3889 7171304
3179 3315 7176145
866 4266 7176398
4266 4266 7176622
866 2181 7176740
866 4266 7176887
4142 4142 7178412
3889 3889 7180541
455 4453 7185325
108 4455 7188718
1158 2490 7190060
4 17 7193210
3026 3889 7193634
3739 2707 7198490
2707 2707 7198629
2950 2707 7201007
463 17 7201011
3739 2707 7201892
451 1826 7218260
2490 2490 7218729
4470 4142 7218740
2834 2834 7223538
4470 31694 7223937
1067 31694 7224037
1067 1859 7224337
1029 31694 7224353
1029 4440 7225374
3905 31694 7226486
3905 31694 7226655
1029 4476 7228112
3175 588 7228117
2725 2593 7230346
4470 31694 7231452
2405 2593 7232831
3781 2593 7233048
2405 17 7233286
702 702 7233377
235 702 7236979
3781 260 7237664
702 702 7237776
3781 260 7238674
463 2230 7239257
2694 4080 7239812
4483 4483 7241002
2834 4476 7242719
4142 4142 7244535
1012 2390 7245475
1012 1012 7245904
3781 1012 7245992
1067 2670 7247134
2390 2390 7247229
1684 4485 7247514
2490 2490 7247744
463 1012 7247833
2138 3315 7247906
935 1012 7251176
2950 3905 7252485
463 1012 7254065
2442 2442 7255066
4470 4142 7259987
1859 1859 7260449
325 333 7261482
449 130 7270398
4510 455 7271757
4359 4359 7272672
3175 4455 7277879
4080 4080 7278481
2954 1217 7281496
935 4455 7283069
935 130 7284173
935 4515 7284682
935 1217 7285033
4455 4455 7287142
337 337 7287786
2694 4080 7292779
752 4515 7292955
23 4515 7294652
1826 2490 7308408
2490 2490 7308596
2720 2490 7311577
430 3168 7314584
3315 3315 7315266
325 3168 7317512
41 4515 7320954
2299 2490 7323364
41 3299 7327637
2206 356 7330485
458 1012 7331431
458 1648 7332258
2490 2490 7333715
1012 1012 7335300
935 4477 7337263
3301 1012 7337808
1012 1012 7338885
2620 2593 7338995
4477 4477 7339894
325 366 7340407
325 366 7340856
3251 2670 7344732
935 4552 7344834
1029 4546 7345976
366 366 7346343
3401 3401 7346461
1029 2490 7347403
129 366 7347444
1029 1012 7347692
2490 2490 7347921
1029 31694 7348047
1029 2679 7348302
366 366 7348446
1029 2490 7348462
2490 2490 7348732
1029 2490 7349114
2490 2490 7349274
1029 119 7350036
935 356 7351263
356 356 7352441
3301 1012 7352678
4546 4546 7355395
235 4546 7356431
114 4546 7356436
3301 235 7356838
4546 4546 7356961
4546 4546 7357257
4514 4514 7362316
2026 4477 7372848
116 4477 7373550
4515 4515 7373991
935 4568 7374914
114 3680 7374993
114 2491 7375564
2491 2491 7375617
2491 2491 7375974
935 3680 7377051
935 2491 7377544
1012 1012 7378207
2491 2491 7379904
23 4515 7381050
3680 3680 7381073
2725 5 7384845
866 2491 7386751
2026 3680 7389419
2026 2458 7389497
455 455 7389686
3940 4568 7390332
2026 4568 7391031
4477 4477 7400400
3251 4546 7406234
4142 4142 7407771
235 2491 7410251
4062 2458 7413738
4062 2928 7414373
463 4558 7414708
2928 2928 7414720
2740 3215 7415921
2679 2679 7416024
866 1680 7419034
866 2975 7419444
1029 2679 7421388
1736 1629 7425128
667 1680 7426008
1736 240 7426518
4477 4477 7437151
337 4591 7437219
1158 4604 7438882
3058 4590 7440948
449 2670 7445124
114 3175 7447093
2670 2670 7447779
2491 2491 7461549
2491 2491 7461585
935 2670 7464339
2670 2670 7464826
2670 2670 7465323
455 4614 7471067
455 2670 7471270
3778 3778 7481605
4180 3324 7485937
2385 1504 7486020
667 4407 7486240
2385 3324 7486857
1504 1504 7487764
4618 4343 7488197
3324 3324 7488315
4590 4590 7489813
2385 1504 7492868
866 4407 7494642
4152 4433 7495402
866 2950 7497678
2774 4343 7502843
1231 3324 7503026
41 4407 7504250
935 3872 7504745
4614 4614 7508219
455 2968 7512249
1859 4627 7512820
114 3267 7515217
3267 3267 7518015
114 2405 7518330
2405 2405 7518397
866 2405 7519075
866 2367 7519561
4596 2405 7520109
866 1859 7520645
2720 2490 7521004
1859 1859 7522159
2396 2877 7523297
2679 2679 7527583
449 4348 7531019
1859 2405 7535929
4596 2968 7537906
2968 2968 7538242
175 175 7542843
2491 2491 7543669
866 4649 7563334
3781 4614 7563856
3781 4614 7566797
3781 4614 7568748
4062 31694 7574303
4062 4658 7583714
1078 175 7588048
935 175 7589660
1029 2725 7590734
2725 2725 7590921
149 2491 7591225
2725 2725 7591468
2181 1933 7597454
866 2877 7597544
4180 4180 7599227
3324 3324 7599858
1933 1933 7600555
108 3806 7601272
667 2877 7602048
2647 2545 7607908
2545 2545 7608222
5 4659 7612079
41 3324 7615346
4658 4658 7617711
2491 2491 7617752
1223 1467 7620643
935 2968 7620734
4596 3906 7625481
4596 4568 7625536
3906 3906 7627893
3497 2877 7636977
87 3889 7641095
87 56 7641114
3739 333 7642512
3179 2968 7649154
866 5 7649180
4649 4649 7651065
866 2405 7651279
866 3253 7651842
3253 3253 7652077
4180 3253 7657256
667 4689 7658309
3952 3267 7661833
3550 4689 7663753
866 2241 7665433
4689 4689 7665623
2026 1151 7670457
866 2877 7674883
2877 2877 7675145
4596 2968 7677129
3253 3253 7677858
4596 4428 7679084
41 2877 7681853
4707 2490 7682048
2490 2490 7682320
4470 2490 7683258
2877 3382 7683517
2490 2490 7683609
3778 3727 7684850
866 2490 7687899
2490 2490 7688897
935 2991 7695160
1151 1151 7696141
455 4621 7696451
2991 2991 7697285
2138 2991 7700401
114 2762 7701409
2950 2390 7702014
880 4286 7709838
2968 2968 7710191
5 5 7712230
4614 4614 7712418
935 4746 7712822
935 4746 7713507
935 4745 7714017
935 3115 7714126
4745 4745 7715317
149 2491 7717744
211 5 7731417
3952 2991 7733147
4621 4621 7733608
3952 2390 7733959
3602 3921 7737814
935 4756 7738533
935 2419 7739259
4180 4756 7742462
1012 2877 7750944
1012 2877 7751058
3760 2670 7751633
4766 2670 7753460
3115 3115 7755514
114 2877 7757384
2877 2877 7757625
2762 2762 7757751
114 2877 7757776
721 3935 7758137
3256 3382 7758266
3256 3382 7758485
5 5 7771575
241 3921 7771924
721 2991 7774132
721 2509 7775153
4692 3940 7776522
3940 3940 7777699
2991 2991 7777857
463 3940 7778337
3115 3115 7780015
3940 3940 7780521
5 5 7780580
3940 3940 7780654
2978 5 7780926
5 5 7782479
90 90 7785982
3889 90 7792628
4568 4568 7792880
2813 2813 7793013
66 2968 7801315
2138 2910 7806026
721 2991 7814069
3602 4782 7816909
3935 3935 7817315
211 3680 7817410
3382 3382 7818168
935 4782 7821140
2181 4782 7821852
866 2910 7821936
4470 3680 7822582
4180 90 7825613
3760 3940 7826680
449 4782 7828995
449 3680 7829089
211 4799 7830190
1067 333 7831006
4470 3680 7837980
235 3267 7841649
2991 2991 7844511
2509 2509 7847588
41 2910 7849687
3940 3940 7853673
935 4799 7853888
935 4799 7854443
721 2991 7856791
935 2230 7856966
4546 4546 7856996
935 4808 7857237
333 3077 7860462
2991 2991 7860475
333 3267 7860520
333 4799 7860677
3550 1012 7861345
866 3781 7861772
3680 3680 7861983
935 1012 7862409
3267 3267 7862812
4808 4808 7862911
3664 4339 7863088
866 3664 7863288
1012 1012 7863488
1012 1012 7863567
352 3584 7865467
3175 3664 7869280
935 1012 7870485
1059 1706 7875897
935 1471 7881484
935 4835 7881577
1471 1471 7881630
1471 1471 7881914
1012 1012 7883343
1546 4841 7883444
1689 900 7887618
4 333 7888864
2026 11668 7889293
463 2767 7889713
3664 3664 7890126
333 333 7890154
4 333 7890530
721 2991 7890620
3175 3175 7891870
935 4853 7894901
5 333 7901085
3760 3748 7905193
935 4862 7911715
935 4862 7912525
2725 101 7916475
101 101 7916783
2725 101 7917283
101 101 7918048
1078 4180 7923915
667 175 7924523
667 4888 7925121
667 4890 7925907
2725 101 7926840
4180 4180 7928304
4890 4890 7928353
455 175 7929064
2554 4392 7931444
4392 4392 7931975
4538 4538 7932218
4896 4002 7932483
66 4890 7934615
4890 4890 7935515
2138 2156 7936529
2156 2156 7939053
431 3332 7939707
1992 252 7942785
1992 2230 7943183
1992 270 7943394
1992 3232 7943752
1992 1182 7944376
449 4921 7944513
211 211 7945021
1992 4917 7945646
1182 1182 7946813
1182 4927 7947221
4927 4927 7948887
667 4917 7950552
3004 3004 7956784
114 2230 7957687
1287 1287 7959399
87 4862 7961097
1287 1287 7964778
74398 2230 7967245
1543 4953 7975629
175 175 7976423
935 4964 7977845
1067 4964 7978519
1067 4966 7979477
4966 4966 7979772
1067 4966 7980551
2950 4923 7981658
1067 2968 7982640
1067 4145 7982960
1992 175 7986348
1067 4964 7987096
3935 2788 7990880
866 4921 7994019
4777 4964 7995108
4966 4966 7996338
866 4928 7996902
866 1645 7998213
2725 1645 7998661
935 4966 7999452
935 2968 8004485
3940 3485 8006441
101 101 8008763
3485 3485 8009307
2230 2230 8012994
2230 2230 8013045
4921 4921 8013082
866 4921 8013320
449 3113 8013452
235 4921 8013824
4923 4923 8015260
4921 4921 8015673
449 2689 8018947
3940 3485 8019230
2689 2689 8023048
431 2910 8023067
3889 2910 8025188
2910 2910 8025675
3889 2910 8028262
2910 2910 8029049
114 3889 8030145
3889 3889 8030498
686 686 8031516
347 3889 8033010
2591 4995 8035240
3889 3889 8035906
721 3113 8036974
1992 2968 8038814
449 3113 8040475
292 2390 8041108
570 5025 8041920
5025 5025 8042270
570 5025 8042598
5025 5025 8043965
2200 449 8046267
2200 449 8047898
114 1168 8053668
1168 1168 8054027
935 5012 8055097
74398 2230 8056596
2224 3692 8062055
1992 119 8064997
1992 2679 8065334
866 3889 8077722
3940 4649 8079111
5012 5012 8081680
1992 4649 8083136
1992 254 8083533
667 5040 8084313
1992 4871 8085252
2138 5041 8085407
1992 5041 8085715
4871 4871 8085903
449 449 8085958
5041 5041 8085972
5040 5040 8086226
3940 5041 8086360
667 5040 8086672
5041 5041 8086714
5041 5041 8089076
935 4862 8092902
2910 4862 8093723
455 2674 8094535
935 4862 8094553
3037 4862 8094599
4928 4928 8098782
1029 2674 8099383
2200 449 8102281
449 449 8106089
2910 4862 8112774
935 18127 8114512
2674 2674 8114533
18127 18127 8115313
2363 3486 8134464
3037 5269 8134753
667 3486 8136070
3486 3486 8138052
2138 3486 8138621
1990 3486 8143944
3267 3486 8146029
254 254 8148874
254 254 8150992
77594 5073 8155758
5073 5073 8156313
2138 3486 8158178
3727 4547 8169865
3532 5078 8184730
235 2230 8192339
2910 1012 8194437
87 305 8195804
4649 4649 8196867
721 4428 8199952
2022 305 8202609
3727 3727 8205951
4180 2950 8205994
2950 2950 8206490
4766 305 8207261
87 305 8207415
87 305 8207437
2138 2950 8207874
2950 2950 8208498
4766 305 8208914
866 463 8209249
1078 2950 8210915
2950 2950 8211438
3940 4649 8211883
3037 2950 8213365
87 305 8214702
235 2022 8216200
458 4547 8216276
1992 4871 8216568
2950 2950 8217423
1992 640 8220277
935 5081 8222117
1992 2935 8224173
455 2935 8224714
2935 2935 8225457
4955 3077 8226058
1992 2950 8226976
1992 2935 8227378
935 2950 8228231
235 2950 8230600
463 640 8232828
1990 3906 8236570
1689 5073 8241296
935 2670 8243715
721 2935 8245046
455 5127 8247418
5078 5078 8247572
4152 5127 8248783
1992 5129 8251330
455 4862 8258438
935 5129 8259781
5129 5129 8262185
2910 5137 8263081
3940 5127 8263370
3529 2140 8264183
5137 5137 8264951
2950 2950 8266140
935 2313 8267911
3330 3077 8268294
3940 5137 8269134
5073 5073 8269675
5073 5073 8269920
5137 5137 8271788
1655 2454 8271941
3781 3781 8275948
2022 2910 8276364
1158 2670 8286324
1158 3906 8286582
1158 4869 8288221
1992 2910 8289907
2230 2230 8290557
3906 3906 8292949
880 982 8293849
1992 4309 8295903
235 5012 8297622
935 3216 8300069
2442 4831 8300626
3906 3906 8302948
3940 5137 8304742
4360 4360 8306735
235 4360 8309634
448 4975 8310451
640 640 8312222
4360 4360 8315425
5199 3692 8322412
114 4558 8325991
4558 4558 8326653
5127 5127 8332022
2313 2313 8339795
1543 2670 8339859
4799 4799 8340842
4799 4799 8340901
448 448 8343561
2670 2670 8343733
2181 216 8351714
3532 216 8354891
2140 448 8355810
4309 4309 8360193
1909 1909 8362509
5104 4152 8366313
4152 4152 8366565
866 216 8366674
235 5204 8367512
2991 2707 8369065
864 2412 8369892
1464 4862 8370267
667 3889 8371369
5 721 8375919
4871 4871 8379423
5199 4609 8381904
935 2670 8389586
667 1992 8393773
5199 5199 8394151
5104 4011 8395268
711 2762 8396670
1992 693 8417844
693 693 8417933
935 693 8420012
935 5271 8420696
4980 3680 8421897
4756 4756 8436698
3692 3692 8439935
275 640 8443204
935 5286 8444979
235 3906 8447565
1736 928 8452429
742 3906 8453101
211 2968 8455156
3889 928 8455819
449 2968 8456631
449 2968 8459369
935 693 8460968
742 2968 8460996
693 693 8461984
1689 640 8463051
2026 2968 8463433
3256 2413 8466769
5107 4917 8467246
5107 4923 8467437
289 5271 8467669
1992 4847 8479355
1992 3906 8479818
1992 4203 8480723
2405 3005 8483532
2405 3437 8483601
3037 4203 8484265
3680 3680 8485666
2762 2762 8486223
1078 2670 8495485
3739 5318 8496006
3739 2968 8499749
5137 5137 8519411
5306 5339 8520946
3437 3437 8523395
928 2670 8524286
1826 3872 8530422
4980 3872 8530727
3532 4923 8533222
3532 5336 8533848
449 5337 8533862
449 5034 8534129
3532 5342 8534788
742 5034 8535222
935 5342 8536847
1992 3351 8537824
935 5034 8539959
935 5034 8540042
5034 5034 8546000
2902 2968 8547351
935 2978 8550864
3220 2978 8553235
114 5247 8555917
5247 5247 8555966
5247 5247 8555989
211 5247 8556550
4627 4627 8556647
5247 5247 8556691
5247 5247 8556745
5368 2978 8556800
114 5247 8556980
5247 5247 8557051
5247 5247 8557184
235 5247 8557490
5247 5247 8558073
935 5247 8558858
5247 5247 8559016
5271 5271 8560924
5247 5247 8561153
1029 5372 8561273
5372 5372 8561414
24 5099 8565535
5197 5372 8566015
5099 5099 8566498
1992 5099 8566584
1992 5247 8567146
5197 3295 8571662
235 5381 8572016
3889 2442 8575072
235 5408 8575231
1992 2442 8577618
2707 2707 8584035
3220 2816 8585797
4203 4203 8588085
2026 2707 8591473
1992 3169 8594332
5338 4170 8595726
4980 2670 8598849
2834 2670 8599654
2670 2670 8602439
2670 2670 8602826
2670 2670 8607655
211 5408 8614619
2991 2707 8615187
667 5213 8620315
5338 5213 8621218
2937 449 8623806
5247 5247 8624451
667 2842 8624852
667 2591 8625848
235 2591 8625987
4980 5213 8626650
742 2842 8626759
4152 449 8626859
4 4 8627679
41 2591 8630613
667 829 8631181
3889 5213 8631621
3889 829 8632028
705 2842 8632769
667 829 8633051
5151 449 8633614
449 449 8635888
235 449 8638110
5034 5034 8638278
829 829 8639756
935 5430 8649777
935 4627 8653805
449 449 8655194
935 2842 8656609
935 449 8657834
449 449 8658180
157 157 8658565
157 157 8658660
935 5452 8660713
935 449 8661921
5430 5430 8667297
1992 5213 8667624
3332 3332 8668298
5606 5606 8671634
1992 5606 8671940
2670 2670 8672166
3889 3332 8673184
866 3999 8685437
742 5620 8686144
742 3999 8686391
5606 5606 8689366
3532 5430 8696107
5381 5381 8702798
3037 3685 8707227
3685 3685 8707828
5452 5452 8708119
132 1684 8716264
132 2458 8716672
742 3959 8717804
1684 1684 8718679
742 3872 8718890
4029 3872 8719626
132 3872 8720058
132 5673 8721234
5673 5673 8721736
3781 3872 8725316
132 3999 8727116
935 5642 8733574
866 5201 8734117
742 3872 8734525
742 2968 8735288
3999 3999 8735909
3781 5 8736051
5 1992 8739174
5668 5668 8739638
5668 5668 8746244
4 5701 8747052
721 3999 8750170
935 5668 8755800
5 5668 8759211
935 2731 8759609
2774 2731 8759708
2834 829 8759954
1067 5668 8761791
935 2251 8777980
5218 5691 8778502
935 866 8782647
866 866 8783015
935 5718 8783213
935 5718 8783311
935 866 8783767
2458 2458 8785293
829 829 8790872
742 5129 8792732
2413 2413 8793184
2385 570 8794599
742 5408 8794774
866 866 8808095
5034 5034 8810479
5372 5372 8811332
3550 5740 8815452
1992 5450 8827468
3256 2413 8832506
5430 5430 8834727
3127 3127 8835108
453 5718 8841470
3037 5247 8844995
615 3077 8848108
5768 3906 8853736
5201 5201 8854501
5768 3906 8854618
4170 4170 8855532
3037 5247 8858215
5620 5620 8858610
5620 5620 8859137
132 3906 8865739
935 3038 8868599
5775 3905 8873349
2026 615 8873651
5691 3885 8876912
615 3169 8880770
5503 4627 8881935
5503 4627 8881974
235 5781 8883753
5503 5781 8883794
5247 5247 8886145
5247 5247 8886167
5247 5247 8886189
3037 5247 8886740
5247 5247 8887045
4627 4627 8887226
935 3026 8887244
3037 5247 8887316
1992 5247 8887355
1992 5247 8887421
5247 5247 8887569
5247 5247 8887603
3037 5247 8888694
1992 5247 8888930
3037 5247 8889281
5247 5247 8889467
3037 5247 8890030
3026 3026 8891263
1067 2439 8891295
3251 18127 8891444
2022 2968 8891953
2022 2910 8892049
1067 4040 8892757
2910 2910 8893651
5503 5890 8895243
5371 5371 8897287
5768 3889 8899299
5768 5890 8899454
5768 5371 8899538
3889 3889 8900211
5371 5371 8900381
5890 5890 8904185
5247 5247 8907800
1992 3889 8908267
3037 5247 8909252
5809 5809 8911528
4409 4755 8914104
5247 5247 8914216
5247 5247 8914232
1992 150 8917207
449 5815 8918758
129 1992 8926748
1992 1992 8927135
1992 4627 8928205
721 5034 8941695
5034 5034 8946110
935 5 8946347
935 5815 8947059
3940 5829 8950277
742 5034 8950558
2774 150 8951408
2991 1425 8954313
1076 5827 8954874
5503 5830 8956194
742 687 8956364
1067 5821 8960473
702 1425 8960718
935 5830 8961176
1924 1425 8963240
1924 5785 8963454
5484 1968 8965584
5218 5 8966003
1968 1968 8966626
5218 5034 8969070
2991 1425 8969101
5218 2230 8969559
5503 5829 8972716
4755 4755 8975711
2991 449 8977564
935 1968 8978557
4777 5371 8987388
3037 5846 8987769
4777 5620 8988369
3256 3889 8988437
3889 3889 8988844
3889 3889 8989628
935 1859 8992897
1488 1488 8993717
5815 5815 8999998
1859 1859 9001855
41 5513 9004899
1059 2670 9006888
2670 2670 9007962
1059 2670 9009096
3781 4776 9011376
2670 2670 9012683
935 4923 9013211
5373 5865 9014741
2968 2968 9015125
5865 5865 9015136
87 5858 9018195
87 5740 9018379
87 5740 9018409
1116 1116 9020099
2026 1116 9020235
2026 1116 9020385
1116 1116 9020934
132 5493 9026856
5493 5493 9027273
5845 2345 9029585
4923 4923 9031182
4560 458 9032772
687 687 9034837
5829 5829 9037337
1968 1968 9044129
2008 4447 9045808
4980 676 9046417
2008 22805 9046629
1076 2345 9055160
866 5890 9061950
235 5247 9063893
5740 5740 9068496
2991 2991 9071393
5849 22805 9072944
347 463 9074103
4236 4236 9074217
3004 161 9076665
1116 1116 9080450
866 5151 9080884
5120 1353 9080891
570 2991 9082025
5 5 9086558
5120 3175 9088293
570 72 9094442
5197 2156 9099821
1353 1353 9099966
87 5740 9102211
3220 2968 9103415
114 2664 9105431
2026 1116 9112429
5484 5191 9120925
935 72 9132070
4180 5932 9134138
935 5013 9135132
5845 5932 9136528
449 1962 9139026
5120 1353 9140480
5484 2390 9144229
1938 1938 9144521
5768 2670 9147352
5768 4328 9147527
2670 2670 9149581
1992 2670 9152773
2670 2670 9153220
1992 2670 9155456
3889 866 9156020
5013 5013 9158681
2670 2670 9159028
2664 2664 9160993
5740 5740 9162737
2390 2390 9165725
1116 1116 9171639
2937 4782 9174456
4782 4782 9174929
4782 4782 9175152
455 615 9182323
449 4782 9182908
254 254 9186570
935 2390 9194390
935 5955 9198747
935 5968 9199522
935 5968 9199601
935 72 9200007
4782 4782 9206833
866 72 9210681
23 3004 9211288
742 254 9212866
449 2192 9217157
4236 4236 9217502
742 5982 9225979
5768 5944 9234778
449 4339 9235007
449 4339 9235061
4339 4339 9236607
5768 4339 9237851
880 880 9239832
5768 2968 9242231
2910 5797 9245345
5797 5797 9245445
87 2331 9252852
235 2564 9252985
235 2910 9254246
5338 2910 9254742
2910 2910 9255349
1826 3680 9265122
1724 163 9266784
5989 5989 9267980
1689 794 9278804
5768 5982 9304263
5768 5982 9304711
448 5989 9305352
2910 5011 9317699
5768 3858 9323094
2910 49 9324282
5845 686 9324718
686 686 9324785
3858 3858 9329342
5944 2910 9330379
5944 2181 9334895
235 6029 9337712
5944 6041 9340378
5 6041 9340586
5011 5011 9340624
6041 6041 9340782
866 6029 9341549
866 6029 9341917
667 4258 9345890
1992 2968 9359153
3778 2968 9363040
5267 5592 9364372
5306 622 9391290
5944 2670 9391496
667 5944 9395057
132 4649 9395188
2670 2670 9396485
1059 150 9397963
5845 5456 9399387
4649 4649 9400266
5691 5822 9406064
5822 5822 9407309
5691 2731 9409569
935 5456 9415509
5456 5456 9415851
5944 5944 9419110
2910 1992 9420775
1992 1992 9423832
325 5865 9425740
5865 5865 9426727
1078 4776 9428560
5691 5691 9429919
3004 3004 9430646
4776 4776 9432563
3004 5011 9439012
5120 2491 9440379
615 1992 9440643
1992 1992 9442139
132 3175 9447253
132 6065 9447689
2026 234 9458680
2138 2138 9460524
6082 6082 9467566
6082 6082 9467622
2491 2491 9469519
742 2968 9469967
132 6106 9480945
132 6082 9481289
4068 5785 9494678
5768 6082 9495297
5785 5785 9498258
235 5785 9500591
5076 4241 9501523
463 6106 9505445
6082 6082 9510117
5011 5011 9510612
211 2360 9512985
3004 5011 9517969
1076 6069 9521413
332 2331 9526534
6069 6069 9530131
5197 4627 9546910
2026 6133 9547971
6133 6133 9548723
6069 6069 9549025
4777 880 9557073
2968 2968 9573695
4601 3253 9578489
5845 1754 9581410
5120 5592 9582921
1754 1754 9583016
5845 5592 9586565
3351 3351 9594628
3940 4339 9597369
235 696 9600759
2405 696 9601234
2978 3546 9604692
150 696 9608104
132 4339 9610237
5768 696 9610899
449 5318 9611997
41 6106 9613781
3739 1859 9616012
3739 1859 9616296
3739 1859 9616334
1116 449 9616515
1116 1992 9616653
3739 170 9617547
3739 2315 9623987
41 3332 9628818
3332 3332 9629187
41 3332 9629792
5267 5267 9634789
4152 2558 9643895
211 211 9654606
1992 4409 9659206
2910 6189 9659237
1992 2558 9659313
235 6191 9660282
4409 4409 9660577
1992 6191 9660888
6191 6191 9661445
1992 6116 9662016
1078 3940 9664777
5845 6191 9666859
880 880 9667693
4409 5606 9667741
449 2558 9667751
449 2558 9667840
6116 6116 9668101
4470 6082 9674217
6082 6082 9674302
6205 6139 9681622
2702 3124 9682351
6205 4614 9682627
1992 5955 9685023
6205 3806 9685267
1029 5955 9689970
1116 1859 9689973
1029 6191 9690156
41 254 9690697
4777 5955 9690842
132 931 9691104
931 931 9693333
1938 1938 9697197
4339 4339 9698163
5606 5606 9698642
5883 2315 9701644
1116 1859 9702850
687 1938 9703682
254 254 9705089
1992 6224 9710463
2527 2716 9719616
1116 235 9723083
1938 1938 9727605
2189 2189 9733027
935 6232 9733324
6205 2689 9734059
3940 5541 9734893
455 6232 9736410
5541 5541 9737133
211 5541 9737207
2558 2558 9737957
359 2689 9738248
359 2689 9738710
359 2689 9739339
5541 5541 9739501
2902 136 9739804
6191 6191 9743368
4980 2670 9743558
2670 2670 9746568
2670 2670 9746648
4384 6225 9749664
1992 6191 9751065
6225 6225 9751600
449 6245 9751699
935 6245 9756804
935 4367 9758693
235 6240 9759205
114 3889 9759844
4367 4367 9760276
3889 3889 9760491
2664 2968 9762079
5691 977 9762496
114 3889 9763681
3889 3889 9764012
977 977 9764262
132 2442 9764506
6256 2442 9765164
4152 6240 9765952
935 3889 9766270
1029 2968 9768150
3889 3889 9768441
864 333 9768752
864 161 9769263
2664 2968 9772010
5 3889 9772897
1992 2968 9774255
1992 1326 9774512
667 1326 9776982
114 6245 9780931
6245 6245 9782465
5 1775 9792778
1775 1775 9793110
6065 6065 9796889
6065 6065 9796923
1992 6273 9799571
41 6189 9802295
41 1044 9802830
6189 6189 9804688
1859 1859 9807926
1116 1859 9809066
23 3889 9811112
1826 5758 9815191
1326 1326 9820205
667 1454 9825783
1454 1454 9826492
1992 4870 9827688
4870 4870 9828129
667 2968 9828353
2991 6191 9833493
5768 6037 9834076
3889 5286 9835525
6037 6037 9836133
132 6284 9844927
2968 2968 9845508
4409 6294 9847533
6294 6294 9847696
5845 6294 9850070
2978 2670 9852719
2670 2670 9855542
5758 5758 9856023
5768 1992 9860534
1992 1992 9862921
612 5955 9866730
612 2782 9868585
5373 5955 9869810
5373 6263 9874560
2834 6298 9874733
6045 6298 9879779
5247 5247 9880647
2782 2782 9885467
5 4488 9888331
935 4870 9901319
5286 5286 9902023
4980 2841 9902063
935 4870 9902089
2315 2315 9903042
2937 6317 9903914
935 6037 9906600
935 6037 9906690
2331 4500 9906835
2331 2841 9907077
2331 1454 9913300
612 6317 9915918
2405 4906 9918318
935 4906 9919288
1059 4906 9919585
4906 4906 9922636
4815 6317 9924240
866 2841 9928413
3940 6330 9937833
114 6341 9956542
5768 1826 9958618
1078 6341 9958739
935 6344 9965568
6344 6344 9971056
2834 6330 9977645
3940 6344 9988535
935 6284 9990838
935 4460 9991119
4460 4460 9992890
6344 6344 9994641
814 814 9995848
742 814 9996864
41 6284 9999287
6284 6284 9999677
6284 6284 9999860
5768 5408 10000659
1992 1826 10003203
6284 6284 10003498
814 814 10004225
1826 1826 10004237
41 814 10005611
1067 6284 10009339
3940 6284 10010974
5955 5955 10011335
6341 6341 10013365
6284 6284 10013830
496 814 10015312
235 6363 10018638
1992 5955 10019612
3727 2677 10020102
1067 1826 10020129
1067 5592 10020571
2677 2677 10020598
1826 1826 10021300
4777 6363 10023352
3940 4272 10023636
4649 6284 10025115
114 4272 10027067
1029 6363 10031735
1029 4384 10032021
2315 2315 10035129
2315 2315 10035888
935 4460 10036433
5408 5408 10040320
935 6039 10045034
6368 2670 10047522
463 2670 10047907
935 4460 10052201
5768 2978 10055779
2670 2670 10057476
3739 6370 10065693
3739 6370 10065717
5768 6370 10069468
5768 4272 10069616
1067 1826 10069981
4384 4384 10072929
4980 6106 10076005
5484 6388 10081420
5768 5707 10097409
6341 1626 10102015
5197 1626 10104057
1029 6191 10105543
1682 1682 10107053
114 3889 10114697
5768 5034 10117635
1992 6415 10119863
6415 6415 10120517
3889 3889 10121910
4500 4500 10122693
1826 77594 10125507
4182 1217 10130194
4152 6423 10134318
5707 5707 10134607
1217 1217 10135647
114 6423 10135969
4152 6423 10136494
5197 1775 10140938
41 1775 10141567
41 3889 10142472
1775 1775 10143369
5197 1775 10143739
1775 1775 10143871
5768 5201 10146943
5768 6435 10147476
1992 3175 10150911
1067 5201 10154512
5201 5201 10154994
1067 6423 10155043
3175 3175 10155210
1067 5201 10155359
455 6392 10159070
6392 6392 10168648
3778 1728 10173020
5944 1728 10173494
4152 463 10177381
2442 2442 10177381
1067 2950 10178343
235 1728 10181153
2396 3205 10182412
742 4134 10185844
463 463 10187116
132 5927 10187225
41 2664 10187438
2664 2664 10187527
1067 2664 10188347
4409 5592 10188974
5592 5592 10189622
4409 5592 10190076
1728 1728 10201086
359 2689 10201922
5944 2978 10203147
667 3486 10203209
5944 3486 10203512
2978 2978 10204171
5944 6465 10204621
3004 4776 10204993
6369 6465 10205517
6465 6465 10206771
866 3486 10207435
6369 4170 10208722
6369 5075 10209488
2035 5955 10211508
1116 2978 10215102
6363 6363 10215557
6371 3486 10215765
2978 2978 10216948
4776 6472 10220651
3778 3205 10237052
4739 80 10239082
2670 3778 10243329
3940 3215 10245260
1067 254 10252059
627 3778 10254565
4661 254 10256255
6369 5754 10258272
6369 6465 10258499
5944 6472 10258861
5768 5955 10260731
3739 6317 10261784
5944 1464 10264012
235 1464 10265881
235 5955 10266538
5845 1464 10269253
5944 6435 10269857
5944 1775 10270099
41 6317 10271359
1775 1775 10271797
1992 1775 10272671
5944 1775 10272939
1067 618 10274675
866 830 10276690
1067 1775 10283408
6369 3778 10284853
80 80 10285578
6369 2968 10285643
6369 6124 10285859
5691 2978 10287612
23 6317 10289003
742 6499 10291790
2910 5955 10295142
5768 2670 10300279
2331 161 10303944
2670 2670 10304207
6465 6465 10304565
1067 2670 10307340
3739 2670 10307708
3739 2670 10307811
2670 2670 10308722
2670 2670 10310239
2670 2670 10310834
3739 6512 10311089
3739 6512 10311383
1116 3778 10312830
1775 1775 10313320
3778 3778 10321663
3778 6496 10321895
1992 1775 10332139
1067 6069 10337426
1775 1775 10337450
1067 2458 10339895
1826 1731 10339922
5768 2670 10342477
2804 2670 10343016
1731 1731 10344666
5691 1731 10345063
2670 2670 10345118
1078 3906 10350433
4815 6531 10353811
5927 5927 10356701
235 2458 10359474
3906 3906 10361603
2217 56 10361840
686 6317 10367953
5754 5754 10369841
742 6341 10376790
1059 588 10379314
1029 6341 10380093
4409 3486 10380348
1992 6552 10397929
6552 6552 10403864
5 5267 10404814
5 5408 10404915
5267 5267 10407314
615 6560 10412430
6560 6560 10415337
742 4570 10418832
4570 4570 10419247
1029 4570 10421699
3940 4570 10423555
742 4570 10424952
742 3889 10426658
1067 6560 10426661
6450 6526 10431260
6526 6526 10432248
6450 6526 10435967
6526 6526 10436851
6450 6526 10437273
1067 5839 10438470
6450 6526 10439463
3251 3889 10448502
5239 5239 10450258
5691 6339 10453217
6339 6339 10453406
41 6574 10454464
5691 5239 10455298
4570 4570 10456533
2558 6570 10458974
861 5239 10461428
5955 5955 10462866
742 2405 10463531
6579 6579 10464558
235 6579 10464952
3411 3411 10477390
449 6284 10489114
6284 6284 10489271
10 10 10491285
5768 53 10506602
6341 6341 10508244
1067 10 10513735
2804 6593 10514647
5691 53 10516228
5768 6589 10516243
5839 5839 10524041
866 5845 10526860
4776 5845 10527002
6593 6593 10529384
6369 5057 10531463
742 6341 10533709
53 53 10533869
742 6598 10533922
742 2968 10535372
6450 161 10535666
6598 6598 10535832
161 161 10536018
742 2588 10542520
235 4570 10543897
235 4570 10543953
742 6605 10544339
5768 6605 10546670
4776 6605 10548071
1992 6612 10553447
6612 6612 10554081
3940 3411 10554970
3411 3411 10556297
3940 3411 10557055
6605 6605 10557327
6605 6605 10557397
3411 3411 10558730
3411 3411 10558859
3411 3411 10558934
235 2910 10566275
813 6344 10566479
2804 6623 10590812
161 161 10599674
4982 6603 10599774
6108 161 10615785
1078 2978 10620248
2978 2978 10620715
1067 6622 10626365
6341 6341 10627061
1116 2405 10643446
2405 2405 10643786
1116 161 10644877
2804 3805 10652076
235 42692 10664264
3739 42692 10666189
1116 352 10669761
448 428 10671470
5768 42692 10676522
6487 2405 10678446
6623 6623 10685246
2804 6623 10689537
3332 3727 10694416
3332 4258 10695154
6650 6273 10696516
742 3984 10696628
3727 2331 10697207
3778 6668 10698246
1078 6668 10698268
6668 6668 10698659
5691 6284 10702200
2405 2405 10705582
742 622 10706846
5691 622 10708131
6369 10 10708367
186 1464 10711346
4258 4258 10715795
742 1736 10718185
6623 6623 10720851
5768 25736 10722979
5768 1736 10723830
5768 25736 10725363
5768 449 10725533
5592 6544 10726128
6544 6544 10726305
5768 6544 10730276
5768 6544 10730320
449 6689 10735017
6689 6689 10736995
41 171 10737115
41 171 10737168
171 171 10737425
1992 2487 10743704
2487 2487 10743804
1992 2487 10744246
1158 171 10744703
171 171 10747188
171 171 10747486
3778 171 10753160
3778 3778 10753463
3778 2670 10753618
171 171 10756337
5691 5691 10759360
5286 4000 10761274
5691 5286 10761668
4000 4000 10761999
5286 5286 10762169
2804 4000 10764899
742 4000 10766102
449 2968 10768406
2192 161 10771332
2968 2968 10771374
1067 2968 10771778
4777 6486 10772208
4000 4000 10772357
4777 3805 10772822
6183 826 10773879
742 2331 10777154
1067 5620 10777608
136 5286 10778362
3037 6486 10779279
742 6709 10782337
5286 5286 10785210
742 4497 10788867
742 6339 10789794
6339 6339 10789963
235 6486 10791665
3778 6531 10791823
2834 5620 10792261
2834 2968 10792990
2834 1624 10794334
866 2528 10798046
289 4497 10798236
1992 6273 10799934
6486 6486 10802237
6486 6486 10802260
6486 6486 10802382
3037 6486 10806869
453 6168 10808182
742 6674 10809083
6650 177 10825337
41 2707 10832615
1532 2670 10832981
2670 2670 10833113
2670 2670 10833635
1624 1624 10836590
1624 1624 10837238
4497 4497 10842044
6597 6738 10842871
5691 3651 10852821
6588 6738 10854489
3651 3651 10855276
3037 3651 10858361
6618 6738 10858664
3037 6781 10859406
3651 3651 10862198
3037 3651 10863479
3651 3651 10867019
6781 6781 10867321
6186 3234 10868595
3234 3234 10868942
6186 3234 10871381
2331 2331 10871780
1736 1736 10871846
449 6486 10872059
3234 3234 10873746
6790 6790 10880042
4670 2910 10880385
114 5955 10882759
667 4862 10889255
6650 7155 10889355
4862 4862 10889832
1067 7155 10889887
7155 7155 10890687
5260 7155 10896378
7155 7155 10896943
1029 6191 10900304
742 1188 10904610
449 3120 10906121
1067 3267 10909297
3267 3267 10909405
6808 177 10909885
1682 1682 10913249
541 541 10916737
3778 2910 10917706
1067 3267 10921397
1992 7155 10923244
5691 2968 10927950
5845 7155 10928339
132 5845 10929685
3267 3267 10930066
6816 1188 10930740
2910 2910 10931533
2834 130 10935816
7155 7155 10941633
742 130 10942204
4777 6486 10943080
742 4258 10948242
132 2910 10951537
6486 6486 10952797
742 3485 10958221
3485 3485 10958401
5034 5034 10959134
130 130 10959869
1464 1464 10961138
1188 1188 10961742
6544 3251 10962425
1992 3485 10963246
3251 3251 10963355
742 3485 10963808
2493 2493 10966074
6650 1736 10966124
2910 2515 10966470
3889 6041 10975171
6168 6168 10976478
3256 2515 10976601
3651 6041 10977276
1067 1464 10985309
197 5955 10992845
235 6842 10994417
3889 6822 10997169
175 4899 10999622
41 5955 11002318
5 41 11008549
742 3872 11025677
3872 3872 11026621
742 5855 11027178
1733 2978 11033944
6005 2978 11034447
449 6245 11035696
449 6245 11035775
6005 728 11036469
742 2978 11037113
6245 6245 11037198
5768 2978 11039661
3485 3485 11042061
6597 6245 11042852
3778 615 11043460
711 5501 11045294
742 5286 11046495
5286 5286 11047431
742 5286 11048501
1078 2670 11049215
2670 2670 11050215
1736 1736 11050895
1992 2664 11051108
1736 1736 11051223
2664 2664 11051626
3256 3872 11051940
211 2664 11052782
3651 6240 11056428
742 6240 11056691
667 3872 11056941
6597 6597 11057155
667 6597 11057287
6597 6597 11057423
667 7434 11057700
6240 6240 11058881
3651 6240 11059196
1059 721 11062736
4707 3889 11062950
667 4627 11063443
4627 4627 11064602
6861 4627 11065114
4627 4627 11065326
742 6597 11067670
6369 5955 11067913
667 6597 11068488
175 2405 11069636
2804 6597 11071105
2804 6597 11071491
339 339 11076900
235 339 11078019
1992 5955 11079728
5955 5955 11080081
5955 5955 11080442
114 5955 11080954
114 5955 11082588
114 5955 11083045
1859 2405 11094449
2405 2405 11095852
1067 2405 11098301
1078 2405 11098490
41 2405 11098535
1067 2405 11098715
1078 2405 11098904
5691 6485 11105183
866 2405 11108947
5 142 11111618
1464 1464 11126355
1464 1464 11126380
5617 5617 11129017
1992 5617 11130192
5617 5617 11130732
5617 5617 11132999
1078 2620 11137125
2620 2620 11138107
5845 2620 11139139
235 142 11140644
2910 4152 11141621
5050 142 11143192
627 4152 11144332
627 6908 11144470
235 6699 11145883
5955 5955 11145961
861 142 11146013
861 6597 11146147
197 6597 11146686
5955 347 11148155
5691 449 11154047
5955 347 11154496
449 449 11158564
6622 6622 11159368
6369 5617 11160425
6369 3338 11165308
114 1067 11169820
1992 6622 11171608
1067 1067 11171849
449 6908 11172311
114 1067 11172707
3865 3865 11180686
3865 2405 11188703
132 6911 11195811
1067 2442 11196326
1067 1067 11199452
1067 6622 11201288
1067 6622 11201478
742 3865 11204352
6191 6191 11204511
742 3981 11212035
6911 6911 11212637
5955 5955 11216500
5617 5617 11216535
3865 3865 11220995
6927 6927 11224016
347 5955 11231374
235 4667 11235446
1067 3905 11237413
3018 3905 11237964
4667 4667 11238570
1992 3905 11240825
1067 72 11240848
1992 6296 11241013
6622 6622 11243000
6622 6622 11243568
5 1067 11246639
1067 6622 11252279
1067 2670 11253406
72 72 11255447
570 1067 11256294
1775 5845 11273581
6919 6296 11273991
3778 693 11275292
41 3215 11277678
41 2405 11278601
5691 4345 11281288
3215 3215 11283586
4345 4345 11283950
4345 4345 11284092
2008 4345 11284503
41 3215 11284817
3215 3215 11288009
3215 3215 11288584
3215 3215 11288878
3651 5855 11289581
3651 3739 11290839
2620 2620 11297337
3037 6668 11298276
5691 6668 11299178
6668 6668 11299446
3037 6668 11301602
742 3778 11301883
3018 6997 11302219
3778 3778 11302319
6369 6927 11304633
2841 3778 11305083
1067 1067 11305901
627 627 11306344
41 627 11306405
3651 3275 11306745
3275 3275 11309897
6296 6296 11311096
627 1626 11315513
570 6005 11316395
6919 6296 11316534
1158 5050 11318954
652 652 11321830
5955 5955 11323808
1859 5025 11325131
6922 347 11325390
5691 6952 11330241
5938 728 11330399
5938 6531 11330445
1992 161 11331790
4777 3905 11332016
1992 6952 11332586
6952 6952 11333424
6952 6952 11333466
1992 6952 11334783
5938 6097 11335809
1067 4627 11335829
4815 6097 11335851
6097 6097 11335970
6097 6097 11336079
1067 7016 11338925
1067 6097 11339943
7016 7016 11340622
6097 6097 11341020
1116 6974 11341544
6369 5617 11350026
3865 2405 11359701
5 114 11361743
6974 6974 11364285
5691 114 11364877
880 6097 11367007
5620 6665 11367629
6486 6486 11370067
6665 6665 11370645
5691 5129 11375149
448 7025 11375428
742 7025 11375620
2910 7025 11376482
3651 3275 11376991
5691 2245 11378230
7025 7025 11379171
2245 2245 11380130
5691 2245 11384245
1992 6665 11391251
4776 5361 11391254
1992 5938 11391772
5361 5361 11391847
235 5606 11392229
235 6486 11392408
3905 3905 11397888
627 3905 11401709
1067 4343 11402515
17 6060 11402546
4776 4627 11402690
1067 6097 11403024
6060 6060 11403460
6650 7040 11408151
6097 6097 11409053
4815 4000 11410229
5955 347 11413922
5950 7155 11418598
1992 7155 11418677
1992 6713 11418955
5011 7155 11419466
7155 7155 11420106
3251 5050 11421820
2245 2245 11422327
5050 5050 11422727
5950 5101 11423800
5050 5050 11423849
6647 6273 11434205
6647 3485 11434343
5620 6665 11446393
5691 7063 11451521
7063 7063 11451960
5691 7063 11452028
7063 7063 11452326
5691 7063 11452692
6222 6222 11456503
5691 7063 11459658
3251 5050 11459846
4777 7061 11461342
861 7054 11470832
1067 7066 11470934
6665 6665 11471562
3037 7066 11473865
1067 4259 11477294
1913 6037 11478880
6969 6037 11479060
5691 6037 11481625
347 347 11483206
6341 449 11484411
3602 449 11484517
6341 449 11484939
449 449 11485606
449 449 11485630
449 449 11485749
6969 449 11487163
449 449 11488063
235 4692 11489323
4692 4692 11489573
6576 1037 11490071
6969 449 11490188
235 4692 11490930
1992 7066 11500721
1992 1067 11500977
721 6037 11502991
7035 6066 11503577
7035 6066 11503593
7035 6066 11503629
6066 6066 11504247
5 7066 11519692
2331 1859 11520697
6647 5 11521454
5 5 11521631
6647 5 11521737
5 5 11523946
6647 5 11525350
5691 254 11534016
7066 7066 11534377
254 254 11535040
6713 593 11535611
5691 254 11537386
742 7101 11547598
742 1859 11552454
1731 1731 11559909
4980 1731 11560203
1731 1731 11560643
1731 1731 11560710
1859 1859 11570440
235 6510 11573718
742 183 11574947
5691 7110 11575907
742 235 11581430
1992 6280 11608477
41 1992 11610072
6280 6280 11610374
1992 1992 11610947
1992 1992 11610964
1992 7128 11611056
7128 7128 11611303
41 7128 11612551
7128 7128 11618139
742 6280 11622867
6713 5691 11627950
5691 5691 11628775
1790 7145 11632574
7145 7145 11637018
5691 3778 11638688
449 5691 11638922
5691 5691 11639043
742 161 11641032
3778 3778 11641208
161 161 11641346
5691 1992 11643910
1992 1992 11652212
235 4203 11656255
5691 161 11658404
5691 4203 11658557
742 4203 11658877
742 6116 11659035
5691 4203 11660531
3940 636 11661584
636 636 11662671
3778 5691 11664468
4203 4203 11666317
1067 3215 11667347
5719 4476 11671338
935 1697 11678992
1697 1697 11679051
254 254 11679596
935 2527 11679914
7128 7128 11681662
168 168 11683955
3980 7145 11684522
1052 1052 11687479
935 168 11693497
3778 3542 11698703
1992 1277 11701314
2527 2527 11711493
5691 5267 11716748
5267 5267 11718368
7145 7145 11721342
5691 5267 11722449
5267 5267 11726719
1990 6521 11737985
5691 6521 11738145
6521 6521 11739106
6521 6521 11739311
6521 6521 11739340
5691 6521 11739476
6521 6521 11739508
6521 6521 11741056
2331 5840 11742557
1158 1067 11743623
1067 1067 11744354
41 168 11749225
5691 2968 11750980
5691 5840 11751773
3865 3865 11752317
168 5840 11752482
1697 1938 11754394
1938 1938 11754759
5691 6961 11755505
5691 3865 11756323
3865 3865 11756539
6450 1938 11756718
5691 2331 11757868
1992 7203 11758921
1992 3037 11759028
235 1938 11761393
3037 3037 11761570
636 1202 11763973
935 7173 11776173
5691 6681 11784085
6738 6738 11784474
6738 6738 11784927
5691 1725 11785426
5691 6681 11785505
5691 5267 11786756
5691 6681 11787038
7218 7218 11788151
5691 7218 11789201
935 2390 11796384
5267 5267 11801025
7218 7218 11803318
2968 2968 11809618
6861 3872 11810834
705 6415 11818014
5691 7234 11818091
7234 7234 11818260
3651 839 11818851
7234 7234 11818929
7215 7215 11822289
861 7234 11823646
1938 449 11826881
3037 449 11826979
866 449 11827465
235 4862 11833661
1067 7155 11833763
235 6415 11833881
7155 7155 11834088
449 449 11834877
449 449 11835144
6861 2591 11839851
114 41 11840039
6415 6415 11840236
866 2591 11840901
1992 7235 11841224
6861 2591 11841258
5691 2527 11841610
3550 1697 11841647
136 136 11843861
136 136 11844961
136 136 11845079
5691 2331 11845697
866 2527 11846164
5 861 11848150
2071 449 11850072
114 41 11850195
935 7155 11853179
1067 7155 11854513
742 7263 11855011
935 317 11855115
1992 7263 11861533
570 4157 11879580
5691 4157 11880954
1938 5758 11882396
3940 7263 11884714
6341 2968 11886497
7235 7235 11888223
2968 2968 11893845
742 2872 11894700
861 861 11898471
2872 2872 11900902
7155 7155 11901429
7155 7155 11901505
5758 5758 11905108
2245 2245 11905515
5938 5938 11905907
742 5073 11906931
3651 4627 11906962
5073 5073 11907085
3037 5073 11908361
1352 449 11909275
3651 6161 11910475
6161 6161 11910648
449 449 11912096
6650 2937 11914400
2937 2937 11914759
4627 4627 11916780
6450 2670 11917834
2670 2670 11923090
6450 2670 11924894
7243 7243 11928581
5691 7243 11929530
7243 7243 11930353
114 2670 11933784
667 5011 11940069
1067 4627 11947429
2670 2670 11948099
4627 4627 11953706
42692 5179 11958419
5768 168 11960648
3357 5179 11963295
5011 5011 11967564
1067 7333 11977352
1924 5179 11984250
1078 1078 11992206
235 7155 11995424
41 1078 11999253
742 885 12000757
235 235 12000826
7361 1464 12003608
7155 7155 12007659
5691 3037 12007827
667 7189 12008323
5691 7155 12016583
742 1507 12022498
1507 1507 12022931
1859 5179 12029663
1859 5179 12030192
5179 5179 12031257
1067 5179 12031539
1859 5179 12039029
5179 5179 12039876
5691 7391 12040404
7391 7391 12040805
4601 4627 12040920
1067 5179 12044956
6807 4627 12046381
5691 7391 12051130
5840 5840 12054088
5840 5840 12054478
5691 161 12059400
161 161 12060099
5691 4339 12065915
4339 4339 12066634
742 588 12067338
5691 7408 12067549
742 5719 12068848
7408 7408 12069246
588 588 12069807
3940 7414 12073667
1078 5719 12077104
5691 6384 12078473
7414 7414 12079339
7414 7414 12079523
7374 6908 12081654
5768 7189 12081686
7189 7189 12084022
742 4339 12084519
6384 6384 12086699
7189 7189 12087589
235 6384 12092632
132 3253 12093864
3253 3253 12093996
3253 3253 12094363
6384 6384 12094489
5179 5179 12095154
866 17 12101386
1059 1504 12111847
1859 1442 12112168
4182 4203 12114463
1442 1442 12114916
1504 1504 12114998
1059 1504 12116553
1504 1504 12116801
1504 1504 12117531
1059 1504 12119284
742 4203 12121231
1277 1234 12123498
1277 2245 12123766
1277 7435 12123854
1277 3410 12124133
1277 463 12124288
1277 3959 12124332
2315 1436 12125372
5 3299 12129079
5 2883 12130227
4203 4203 12133029
5691 2331 12135672
463 463 12137270
1277 463 12138070
1504 1504 12139136
4286 4286 12141321
3220 3981 12144094
1059 1504 12146153
3037 2664 12149994
5768 6908 12163613
5691 6294 12164553
2327 5856 12165342
4627 4627 12166068
6647 5770 12167289
5768 6908 12169721
742 7489 12170711
1910 7496 12175409
2664 2664 12175851
7496 7496 12176460
7496 7496 12176708
1910 7496 12176803
1910 7496 12176919
7489 7489 12178128
7489 7489 12178300
742 7489 12178929
742 622 12179476
7496 7496 12180353
4409 6294 12180713
935 7441 12184313
7489 7489 12189342
5768 5011 12193182
5768 7496 12193304
7496 7496 12194566
6161 4477 12199222
6618 3651 12199372
6651 7263 12203727
2315 4477 12210673
6807 4627 12218883
7263 7263 12234989
1599 7534 12236317
742 7534 12237994
4477 4477 12240460
211 5011 12244444
211 7535 12244627
7535 7535 12245835
3940 7538 12251683
866 2413 12251978
1697 3460 12252875
5011 5011 12256584
235 1481 12257751
2245 2245 12258672
4409 2245 12262319
6161 615 12265358
5691 4259 12265820
1481 1481 12265904
2245 2245 12266018
1457 7551 12266231
4259 4259 12266891
6161 6260 12269444
6842 6842 12274406
667 6842 12274709
6842 6842 12274988
7155 6842 12275743
1859 3460 12276171
5011 6260 12281286
3460 3460 12286117
235 2071 12286206
5 94348 12288148
6205 1277 12294381
4980 2490 12310789
5691 7585 12314243
5063 94348 12315913
5 5368 12317148
7528 5201 12317262
132 94348 12322920
3037 4921 12323226
615 7585 12324010
6969 5840 12329508
5691 822 12342225
822 822 12342394
7035 166 12344279
166 166 12344898
1078 5719 12346970
235 5304 12347585
235 3460 12347741
3651 3651 12350583
1697 5840 12353864
1352 1938 12354220
235 7522 12357779
3460 3460 12357788
4477 4477 12359349
6369 2876 12361217
5 7040 12367378
5304 5304 12370539
2331 4921 12370903
1078 6869 12373332
6869 6869 12373534
5691 6977 12390853
6842 6842 12392408
2138 6956 12406536
667 7648 12420001
7648 7648 12420540
2315 3778 12421866
5691 3778 12424974
1689 7648 12428985
7648 7648 12429500
5691 2390 12429789
2390 2390 12430379
5691 2390 12431124
6977 6977 12433907
235 7648 12437330
7358 3872 12437438
1990 2968 12439790
6977 6977 12441466
235 6977 12442021
6908 6908 12442704
5691 7661 12447480
94348 94348 12448878
5691 570 12451814
6260 6260 12453470
570 570 12453471
1992 1553 12455732
861 6098 12456009
1992 6098 12456924
3872 3872 12456952
3037 6098 12460020
449 1553 12460596
2138 1553 12466594
7672 3905 12475421
2312 1553 12478280
5484 7061 12495068
615 4500 12498916
5691 7280 12499897
211 1553 12507893
711 7662 12509876
1992 7668 12510173
1992 7693 12511106
7693 7693 12512048
742 1464 12513662
7522 7522 12515686
1464 1464 12524160
186 1318 12526285
186 3905 12526331
41 7551 12535439
4777 3905 12536630
6650 7709 12542754
7714 4022 12543398
1859 2883 12543803
1318 1318 12545560
235 3865 12547435
3865 3865 12547523
1992 5778 12548419
449 7704 12550879
235 2983 12554461
2983 2983 12555148
2664 2664 12558325
235 2664 12559889
7662 7662 12559998
7668 7668 12561955
41 3865 12562178
3778 3778 12564306
3778 3778 12564336
3802 7681 12580025
7411 7726 12581649
211 2390 12582280
7726 7726 12584358
5691 7237 12597552
3940 7237 12598067
5691 7237 12598389
3602 3778 12600529
7745 3420 12605518
742 7729 12606773
570 1067 12607649
23 7551 12609276
2983 2983 12610866
5691 5011 12616439
3550 7601 12616562
7601 7601 12617884
5011 5011 12619937
6369 3275 12646885
4497 5950 12655775
3778 3778 12656867
4947 7676 12667112
5011 5011 12669991
3275 3275 12672245
6683 211 12674326
211 211 12674938
2138 3275 12678254
3275 3275 12690244
333 333 12694814
2138 3275 12694954
1992 4546 12697327
5691 2664 12698706
1992 6450 12699363
6450 6450 12699815
5691 7601 12700244
2664 2664 12700617
6369 6450 12701818
6369 6521 12702034
7301 2271 12703877
5840 5840 12706968
742 5922 12708822
866 5922 12713889
6647 3889 12717379
1277 1277 12718015
3865 3865 12722788
5691 3889 12746913
211 211 12749621
3275 3275 12753786
5691 7810 12756028
7810 7810 12757000
4497 5304 12767576
5691 5304 12768749
1992 7814 12769324
742 2390 12773787
2390 2390 12774227
136 2623 12774442
136 2623 12774469
5373 2390 12776464
235 2390 12776533
3253 3253 12779127
211 2336 12779592
866 7155 12782589
7155 7155 12783144
352 5304 12784924
4777 2968 12791267
235 3865 12792422
1277 1277 12803636
5817 161 12805207
2405 7737 12806721
7737 7737 12809157
7035 7840 12818154
2138 7840 12819851
7681 7681 12837052
866 1878 12848613
667 1878 12853321
1878 1878 12853893
6060 7834 12865320
2390 5592 12869763
38 7840 12871451
3865 3865 12871839
5691 4393 12872044
4393 4393 12872216
5691 7415 12875468
235 1878 12877622
4067 5592 12878892
1992 7834 12880987
235 4134 12889048
4152 5034 12892124
5592 5592 12899264
2968 2968 12903039
1815 1815 12914222
5691 5950 12914489
7035 7174 12919787
5034 5034 12929920
3357 7174 12943266
5691 4460 12949164
742 7896 12959153
6341 7155 12965674
5691 5434 12966109
5434 5434 12966422
4460 4460 12975475
1689 7902 12976789
1067 7902 12976839
4596 7902 12987064
