42 10 907
56 91 1977
91 91 2028
5 88 2098
4 50 2127
104 50 2130
35 56 2147
4 88 2175
4 50 2440
56 56 2832
27 104 3075
66 104 3153
24 50 3155
4 118 3486
4 27 3541
5 88 7627
88 88 8060
5 56 8172
119 138 8721
94 50 8917
5 7002 9794
66 128 10639
138 138 11416
165 161 12086
28 161 12761
24 130 13049
130 130 13459
130 130 13602
35 7002 14037
28 143 14569
128 128 14889
57 35 15547
57 154 16668
154 154 16914
57 82 21043
57 170 21867
73 115 25630
73 76 25806
57 170 26462
76 76 27642
170 170 29729
115 115 32632
4 66 33536
66 66 34537
5 80 38132
24 199 38144
192 5 39012
199 199 39297
5 5 39393
203 7002 39902
80 80 40241
192 5 40792
5 5 41480
5 91 43975
192 5 46082
42 192 47813
192 192 48579
56 166 48949
192 192 50936
221 161 54319
234 161 57419
35 35 59866
7 161 61787
130 220 62835
23 109 67115
211 238 67363
4 109 67435
4 109 67467
66 109 67801
109 109 68251
35 242 69930
66 4 70651
10 179 78922
228 179 80488
169 238 80650
10 161 81652
238 238 85682
115 115 95210
265 161 101126
5 58 105255
91 58 106391
4 154 106424
5 58 107089
154 154 108043
5 45 110846
154 234 143095
82 82 146161
136 179 146831
4 234 152308
41 104 152915
62 161 160154
220 220 164382
24 278 167957
24 115 168870
234 234 174290
87 56 174784
87 234 176805
154 128 177887
154 45 178382
5 154 184214
5 130 184695
130 130 186461
5 88 190197
154 154 193146
57 278 194687
5 278 195992
5 214 210891
278 278 213864
56 56 226522
5 114 248385
104 7 250967
130 87 255078
87 87 265841
285 45 266208
281 234 267838
4 87 268141
281 234 268515
24 38 269650
87 87 279938
172 5 289121
5 5 289433
42 5 290080
5 5 291699
5 5 292427
171 171 299689
38 38 304955
42 5 308040
57 5 311007
130 171 324388
130 5 324469
259 5 336393
87 163 349191
57 5 358245
188 214 365646
130 5 373600
186 236 416596
50 71 416602
130 236 434813
236 236 435599
35 281 440524
87 88 446755
71 71 453654
5 5 476486
47 308 481957
144 305 485589
35 305 496653
87 88 500691
50 133 500719
133 133 504529
88 88 507956
130 88 516910
5 308 520764
324 236 521809
62 88 523717
241 133 524609
236 236 527663
133 133 530197
4 114 531034
4 5 531322
5 5 531459
4 5 531696
5 17 531858
5 5 531956
4 5 532990
4 5 533093
130 5 533209
17 17 533228
5 5 533522
5 5 533802
4 5 533941
5 5 537600
5 5 539865
4 5 541692
130 41 542780
5 5 544240
41 41 579261
41 305 579763
41 253 581555
108 305 586626
323 243 587740
4 50 589690
108 5 598413
4 4 600107
4 324 600989
10 324 601043
4 324 601171
4 324 601332
324 324 603665
24 333 604530
227 114 605096
333 333 605109
24 333 605377
4 333 605386
236 5 605729
5 5 606955
5 5 607075
17 305 608432
193 333 608715
193 63 609248
243 243 609661
4 333 609662
4 412 609683
334 333 609721
63 63 610019
4 333 610234
5 412 610284
4 425 610609
236 5 610665
333 333 610903
4 381 611075
430 381 611536
4 431 611740
425 425 612051
4 155 613803
5 5 616040
114 14127 621580
525 14127 623469
5 333 625825
188 163 633973
332 330 635541
308 308 646916
334 308 647598
458 305 653573
305 305 655935
275 308 659260
275 308 659398
334 359 660076
644 308 664071
323 243 665247
308 308 668342
431 654 669856
4 654 670318
333 101 670952
412 412 671538
42 305 672136
10 677 675626
4 305 679814
305 305 681670
41 305 691011
4 717 693405
717 717 693807
289 451 705191
332 420 711133
420 420 711567
192 5 715926
5 5 716308
4 5 717508
5 5 718081
130 794 718627
5 5 718895
130 794 719217
794 794 723193
24 305 729265
203 305 730334
203 754 740311
109 109 747116
236 232 751039
539 539 751168
458 114 758975
627 101 766503
880 109 772917
880 818 773094
295 4 774119
4 4 774673
41 87 775003
4 324 775123
324 324 775517
236 892 778722
333 892 779420
333 783 781150
24 87 783084
87 87 784122
41 87 784503
880 880 785204
667 769 785650
539 539 794765
769 769 797103
667 769 829674
928 332 832164
155 155 837185
929 929 838327
334 539 839893
4 539 849517
880 880 850237
18 10 861243
289 449 866510
449 449 867437
952 952 875494
431 927 884679
57 952 891537
236 862 912720
455 862 916117
633 633 920176
880 880 950247
866 866 952564
4 982 961425
742 978 961720
455 667 962340
455 880 962553
104 356 963064
449 104 964076
104 104 965173
41 659 970585
41 659 970620
659 659 971324
659 659 971354
154 677 973230
17 633 973403
188 104 976434
880 880 984653
455 982 995360
325 236 999475
325 539 999628
