60 72
60 91
102 142
102 109
102 123
102 94
102 25
102 31
102 95
102 125
102 2
102 119
102 140
102 22
102 116
102 20
102 12
102 132
102 35
120 64
53 72
130 9
130 64
91 72
72 53
24 60
78 83
78 14
78 112
78 103
71 26
40 89
9 121
35 123
35 31
91 72
135 110
91 60
102 31
102 22
102 132
9 121
32 40
32 84
72 91
78 83
91 72
95 109
95 116
95 109
95 116
64 120
91 72
32 100
40 32
32 100
32 40
32 40
47 53
47 122
130 86
40 84
100 32
9 121
31 35
96 40
78 83
110 40
24 91
58 59
72 107
72 74
72 60
72 126
72 28
72 111
11 51
72 91
104 26
80 54
80 89
80 96
80 40
80 110
80 145
80 32
80 100
80 135
80 105
40 32
100 80
88 143
26 71
32 40
26 8
26 8
26 71
26 63
26 59
63 26
132 25
96 32
91 72
24 91
89 32
80 100
32 89
84 110
84 40
91 24
91 72
35 22
20 95
71 26
71 120
24 91
91 24
135 80
101 51
111 72
111 124
64 120
64 130
91 72
63 117
130 9
9 121
117 63
40 110
139 117
40 84
40 32
63 117
63 117
12 109
12 123
12 35
12 109
12 123
12 35
102 31
117 139
35 123
80 135
72 60
117 63
40 84
72 111
72 91
91 72
63 26
102 94
102 25
102 31
102 95
102 125
102 119
102 22
102 116
102 132
40 145
132 102
40 54
40 43
40 89
40 33
40 39
40 96
40 80
40 76
40 110
40 145
40 32
40 100
40 27
40 135
40 105
31 102
95 102
117 79
117 97
117 99
94 102
117 71
117 26
76 32
145 89
40 32
39 135
135 39
89 145
89 145
39 135
32 76
111 72
32 40
32 84
32 145
32 40
32 84
32 145
72 91
40 84
40 145
40 32
80 89
47 122
72 91
71 117
84 40
89 80
9 121
9 121
145 33
123 12
123 35
72 111
40 84
32 40
84 40
40 84
91 72
91 72
82 0
82 77
82 88
82 51
82 83
82 78
82 14
82 112
82 103
82 11
82 143
82 44
82 101
82 18
82 128
33 145
95 102
111 72
40 32
96 40
89 110
60 72
96 54
96 89
96 80
96 110
96 32
96 135
63 26
51 83
51 11
96 32
120 64
120 64
26 63
26 71
39 135
135 39
135 39
91 72
73 122
101 51
64 130
72 60
117 71
117 26
117 98
130 9
47 60
130 9
130 64
51 0
51 88
51 83
51 78
51 82
51 11
51 143
51 18
51 128
72 91
91 72
120 97
130 9
130 64
91 72
72 91
74 122
119 102
96 110
60 72
72 91
116 25
25 116
91 72
89 32
58 71
71 26
130 9
26 71
71 98
102 125
102 125
122 47
12 109
12 123
12 35
22 142
71 8
71 117
71 63
71 99
71 59
71 26
71 139
71 58
25 22
72 91
25 102
63 117
117 63
63 117
91 72
135 39
17 53
17 53
135 39
17 53
91 72
135 39
40 84
84 40
40 84
84 40
84 40
40 84
72 91
12 109
12 123
12 35
40 84
84 40
72 91
40 84
135 39
84 40
84 40
40 84
84 40
40 84
84 40
63 99
63 139
63 58
63 9
63 85
40 84
84 40
134 59
134 64
20 116
134 26
63 99
63 139
63 58
63 9
63 85
26 134
26 63
120 64
120 64
72 91
40 84
72 107
72 74
72 60
72 126
72 28
72 111
72 28
11 51
76 84
84 76
64 134
88 143
76 84
88 51
91 72
71 79
39 135
44 78
71 104
71 58
72 91
76 33
71 59
24 60
139 63
33 76
59 134
135 39
135 100
104 26
9 121
9 121
137 117
26 58
91 72
24 141
72 91
111 72
72 111
76 84
76 32
100 89
89 100
100 89
71 26
96 110
130 64
72 60
130 64
31 109
31 123
31 94
31 95
31 119
31 140
31 22
31 12
31 132
31 35
31 69
35 20
139 9
71 8
71 117
71 63
71 99
71 59
71 26
71 139
71 58
84 40
71 97
71 61
71 120
71 129
69 31
63 99
120 64
12 123
12 35
60 72
2 102
95 109
2 123
26 63
39 135
101 51
101 51
101 51
101 51
137 120
63 26
26 57
47 122
63 26
26 63
58 59
58 26
58 64
91 72
134 59
120 64
84 76
64 130
120 64
122 47
91 72
130 9
120 64
120 97
84 40
145 40
120 26
72 91
72 91
35 123
35 31
130 9
35 109
35 123
35 94
35 25
35 31
35 95
35 119
35 140
35 22
35 12
35 132
35 69
117 59
84 40
40 89
40 84
84 40
40 135
40 84
89 40
135 100
40 110
40 100
135 39
35 31
35 132
35 31
135 110
71 129
40 89
40 89
78 14
78 112
120 97
120 64
110 54
84 76
72 53
72 53
76 84
84 40
11 128
130 86
76 84
96 80
84 76
102 142
102 109
102 123
102 94
102 25
102 31
102 95
102 125
102 2
102 119
102 140
102 22
102 116
102 20
102 12
102 132
102 35
60 72
130 9
8 71
8 97
8 63
8 26
8 58
8 120
117 26
130 9
84 76
84 76
110 40
40 84
40 89
71 26
71 58
110 135
84 40
76 84
76 84
110 100
110 100
35 31
22 25
26 117
31 22
53 47
135 39
89 40
40 54
40 43
40 89
40 33
40 39
40 96
40 80
40 76
40 110
40 145
40 32
40 100
40 27
40 135
40 105
47 122
101 51
40 84
40 54
40 43
40 89
40 33
40 39
40 96
40 80
40 76
40 110
40 145
40 32
40 100
40 27
40 135
40 105
84 40
72 60
76 84
72 60
122 47
47 53
31 142
31 109
31 123
31 94
31 25
31 95
31 125
31 2
31 102
31 119
31 140
31 22
31 116
31 20
31 12
31 132
31 35
31 4
104 63
110 54
76 32
39 135
24 72
24 60
26 8
139 63
76 84
53 47
102 109
102 123
102 94
102 25
102 31
102 125
102 2
102 119
102 70
102 22
102 116
102 12
102 132
102 35
72 24
31 102
102 94
102 25
102 31
102 95
102 125
102 119
102 22
102 116
102 132
102 95
145 54
96 40
32 96
24 72
102 123
143 88
9 121
9 121
9 117
111 124
84 32
96 89
40 96
102 142
102 109
102 123
102 94
102 25
102 31
102 95
102 125
102 2
102 119
102 140
102 22
102 116
102 20
102 12
102 132
102 35
40 54
40 43
40 89
40 33
40 39
40 96
40 80
40 76
40 110
40 145
40 32
40 100
40 27
40 135
40 105
40 89
84 32
117 9
71 26
71 58
72 60
26 71
124 111
111 124
124 111
24 72
24 60
104 26
111 124
58 71
58 26
2 95
40 84
32 96
26 58
54 80
40 32
26 104
84 32
137 64
80 96
32 40
35 119
32 40
32 84
32 76
32 76
84 76
32 40
32 40
32 84
84 32
76 84
64 120
111 124
124 111
64 120
63 134
63 8
63 71
63 117
63 97
63 99
63 59
63 79
63 26
63 139
63 58
63 120
63 9
63 64
63 85
63 129
63 104
110 135
47 53
47 122
39 135
100 76
47 53
47 122
102 140
40 54
40 89
40 33
40 96
40 80
40 76
40 110
40 145
40 32
40 100
40 135
40 105
140 22
26 58
104 71
119 35
119 102
102 142
102 109
102 94
102 25
102 31
102 95
102 125
102 2
102 119
102 140
102 22
102 116
102 20
102 12
102 132
102 4
111 124
124 111
58 71
58 63
58 59
61 129
12 109
12 123
12 35
24 72
24 60
61 129
40 96
40 54
40 43
40 89
40 33
40 39
40 96
40 80
40 76
40 110
40 145
40 32
40 100
40 27
40 135
40 105
40 54
40 43
40 89
40 33
40 39
40 96
40 80
40 76
40 110
40 145
40 32
40 100
40 27
40 135
40 105
51 18
140 109
140 12
140 35
120 64
120 97
96 40
26 117
26 59
26 64
135 39
145 40
35 31
145 76
0 82
68 16
103 78
111 124
31 119
104 71
40 96
40 84
109 102
102 109
40 145
122 47
102 123
102 94
102 95
102 125
102 140
102 70
102 22
102 116
102 12
102 132
102 35
102 22
57 26
139 63
57 98
57 86
72 60
25 102
32 89
89 32
123 12
120 64
101 51
95 109
95 116
101 51
94 102
110 135
102 142
102 109
102 123
102 94
102 25
102 31
102 95
102 125
102 2
102 119
102 140
102 22
102 116
102 20
102 12
102 132
102 35
84 32
94 102
84 89
123 109
123 12
60 72
123 109
123 12
123 12
123 109
22 102
102 35
40 54
40 43
40 89
40 33
40 39
40 96
40 80
40 76
40 84
40 110
40 145
40 32
40 100
40 27
40 135
40 105
116 95
89 84
32 40
58 63
101 51
26 104
125 102
26 71
80 54
72 107
72 74
72 60
72 111
72 107
72 74
72 60
72 111
122 73
117 61
117 129
110 135
40 80
40 84
80 40
76 33
99 63
99 63
123 12
32 40
123 12
123 109
123 12
123 35
71 26
120 64
35 70
40 32
35 109
35 123
35 94
35 25
35 31
35 95
35 2
35 119
35 140
35 70
35 22
35 12
35 132
35 69
70 35
33 76
76 33
104 26
33 76
89 145
47 122
120 64
35 123
40 54
40 43
40 89
40 33
40 39
40 96
40 80
40 76
40 84
40 110
40 145
40 32
40 100
40 27
40 135
40 105
102 142
102 109
102 94
102 31
102 95
102 125
102 2
102 119
102 140
102 70
102 22
102 116
102 20
102 12
102 132
102 4
71 120
71 129
102 142
102 109
102 123
102 94
102 25
102 31
102 95
102 125
102 2
102 119
102 140
102 70
102 22
102 116
102 20
102 12
102 132
102 35
102 4
102 25
102 22
122 73
40 32
40 84
84 40
40 84
32 40
71 26
110 89
71 26
40 32
88 143
88 143
26 58
135 39
135 39
101 51
101 51
116 25
116 125
24 72
24 60
51 101
84 40
25 116
72 107
72 74
72 60
72 126
72 28
72 111
72 107
72 74
72 60
72 111
72 107
72 74
72 60
72 126
72 28
72 111
72 107
72 74
72 60
72 126
72 28
72 111
72 60
72 24
101 51
101 51
101 51
71 58
95 116
96 110
64 26
122 47
63 26
63 26
139 63
130 9
130 64
64 120
143 88
31 109
31 123
31 94
31 95
31 119
31 140
31 22
31 12
31 132
31 35
31 69
40 54
40 43
40 89
40 33
40 39
40 96
40 80
40 76
40 84
40 110
40 145
40 32
40 100
40 27
40 135
40 105
76 33
32 40
96 110
96 110
103 78
130 9
130 64
74 114
111 72
143 88
84 96
84 40
100 89
51 143
51 82
84 89
64 120
22 25
22 25
119 22
143 101
89 84
84 89
135 110
51 143
100 76
32 40
96 135
12 109
12 123
12 35
12 109
12 123
12 35
129 117
58 59
18 143
120 64
72 74
72 60
72 126
72 28
72 111
120 64
120 64
102 94
120 64
120 64
102 94
102 22
26 71
25 22
119 22
26 63
26 58
84 40
84 32
40 80
89 84
110 96
76 84
76 33
96 54
96 89
96 80
96 110
96 32
96 135
96 54
96 89
96 80
96 110
96 32
96 135
40 84
40 135
40 84
84 89
84 76
84 40
135 39
76 100
80 40
40 80
51 88
60 72
135 39
135 39
135 39
135 110
63 139
63 58
63 85
32 84
84 32
84 40
84 32
122 47
72 60
72 111
71 58
103 78
111 72
32 84
24 72
24 60
130 9
130 9
76 33
33 76
76 33
104 26
40 84
22 25
72 24
24 72
76 100
40 84
84 40
84 40
84 89
96 105
32 84
40 54
40 43
40 89
40 33
40 39
40 80
40 76
40 84
40 110
40 145
40 100
40 27
40 135
40 105
40 54
40 43
40 89
40 33
40 39
40 80
40 76
40 84
40 110
40 145
40 100
40 27
40 135
40 105
40 54
40 43
40 89
40 33
40 39
40 96
40 80
40 76
40 84
40 110
40 145
40 32
40 100
40 27
40 135
40 105
24 72
24 60
64 120
130 9
32 33
32 40
95 22
31 4
135 110
117 129
130 9
130 64
145 40
47 53
47 122
47 60
31 109
31 119
31 22
31 35
31 69
59 64
71 26
76 100
64 120
76 33
32 33
60 72
32 40
130 9
130 64
139 63
24 60
40 84
139 63
40 89
89 105
89 84
91 72
64 120
122 107
72 91
120 64
120 64
120 97
120 64
120 64
31 35
71 26
31 22
91 72
63 139
32 40
25 22
22 25
22 142
84 40
51 88
51 82
51 143
84 40
40 84
72 28
61 137
40 54
40 43
40 89
40 33
40 39
40 96
40 80
40 76
40 84
40 110
40 145
40 32
40 100
40 27
40 135
40 105
25 22
32 40
117 26
102 94
102 95
26 117
39 135
39 135
68 16
40 84
35 123
145 40
139 63
53 47
139 63
31 95
47 60
103 78
117 71
117 26
26 117
26 63
40 76
40 32
53 47
53 60
53 47
71 26
40 89
47 60
76 40
142 22
142 22
142 22
142 22
71 26
63 26
40 76
76 40
142 22
130 9
84 89
84 33
84 39
84 96
84 76
84 110
84 145
84 100
84 135
84 105
89 40
47 60
130 9
130 64
71 26
26 63
26 71
40 84
84 40
120 64
120 64
84 40
101 51
111 72
64 120
64 130
78 83
72 111
72 60
82 51
82 18
53 47
18 82
71 26
40 84
26 71
84 40
71 26
71 59
110 96
35 123
35 31
100 76
116 95
116 95
25 102
72 60
72 60
26 71
32 84
32 145
32 40
32 40
32 40
76 32
40 80
95 116
11 51
39 135
135 39
99 85
11 51
11 51
47 53
26 71
80 40
71 120
71 120
63 26
99 63
135 39
40 84
84 40
84 32
120 71
63 26
120 64
11 51
78 83
78 103
40 84
102 25
102 22
71 120
71 120
26 63
26 71
26 58
71 134
72 107
72 74
72 60
72 126
72 28
72 111
25 102
63 26
26 63
26 63
63 26
63 26
40 32
140 22
11 51
35 31
16 68
35 123
96 135
130 9
130 9
130 64
130 9
39 135
35 12
135 39
39 135
12 109
12 123
12 35
40 54
40 43
40 89
40 33
40 39
40 96
40 80
40 76
40 84
40 110
40 145
40 32
40 100
40 27
40 135
40 105
110 135
135 110
32 40
71 26
71 120
53 47
71 97
135 39
39 135
71 8
71 117
71 63
71 99
71 59
71 26
71 139
71 58
22 25
22 140
64 120
72 60
39 135
40 54
40 43
40 89
40 33
40 39
40 96
40 80
40 76
40 84
40 110
40 145
40 32
40 100
40 27
40 135
40 105
76 32
72 60
63 99
69 109
26 71
26 58
99 9
26 71
135 39
32 84
26 71
58 71
26 71
26 71
84 32
134 71
72 60
58 71
142 35
72 60
72 60
84 40
120 64
120 97
122 47
74 107
122 47
64 120
120 64
68 16
72 60
71 58
130 9
110 39
110 135
47 53
47 122
84 40
84 40
54 80
40 84
40 89
40 80
76 33
89 40
84 40
91 72
40 84
64 120
40 89
40 80
123 102
71 58
12 109
12 123
12 35
84 40
84 40
40 84
40 84
40 54
40 43
40 89
40 33
40 39
40 96
40 80
40 76
40 84
40 110
40 145
40 32
40 100
40 27
40 135
40 105
26 63
26 58
26 71
63 139
84 40
40 84
84 40
63 58
58 71
58 26
58 71
40 84
40 32
9 121
64 63
64 8
64 79
64 58
64 97
64 9
64 117
64 85
64 71
64 120
64 99
64 139
64 129
64 61
64 104
9 121
0 51
9 121
72 91
71 58
84 89
51 83
9 121
72 53
9 121
9 121
39 135
31 35
40 76
76 40
89 84
72 107
72 74
72 60
72 126
72 28
72 111
84 89
76 40
89 84
72 60
58 26
71 79
32 40
58 26
9 121
9 121
101 143
101 143
61 137
123 102
123 109
123 12
123 35
123 142
130 9
130 64
142 22
40 96
102 123
102 132
84 40
143 101
143 101
71 134
71 79
25 102
84 40
40 84
40 43
84 40
84 40
40 84
76 89
76 32
76 40
89 76
32 84
32 145
84 32
58 71
58 71
58 71
58 71
134 71
32 84
40 84
40 145
58 71
58 26
91 72
101 143
101 143
101 143
9 121
63 99
72 107
72 74
72 60
72 126
72 28
72 111
63 99
63 139
63 58
63 9
63 85
143 101
12 109
12 123
12 35
72 91
78 83
40 80
101 143
84 40
130 9
40 54
40 43
40 89
40 33
40 39
40 80
40 76
40 84
40 110
40 145
40 100
40 27
40 135
40 105
32 84
40 84
72 107
72 74
72 60
72 126
72 28
72 111
40 33
78 83
78 14
78 112
78 103
72 60
72 60
80 40
33 40
39 135
84 40
102 142
102 109
102 123
102 94
102 25
102 31
102 95
102 125
102 2
102 119
102 140
102 70
102 22
102 116
102 20
102 12
102 132
102 35
102 4
32 40
32 40
54 80
20 25
32 33
40 84
12 109
12 123
12 35
141 24
72 107
72 74
72 60
72 126
72 28
72 111
40 54
40 89
40 33
40 39
40 96
40 80
40 76
40 110
40 145
40 32
40 100
40 135
40 105
84 32
40 32
40 54
40 43
40 89
40 33
40 39
40 96
40 80
40 76
40 84
40 110
40 145
40 32
40 100
40 27
40 135
40 105
89 40
35 142
39 110
68 16
72 107
72 74
72 60
72 126
72 28
72 111
116 25
84 40
12 109
12 123
12 35
130 9
71 58
12 109
12 123
12 35
71 58
71 58
24 141
40 54
40 89
40 33
40 39
40 96
40 80
40 76
40 110
40 145
40 32
40 100
40 135
40 105
140 22
32 40
145 32
39 135
145 40
39 110
64 120
39 135
39 135
12 109
12 123
110 84
20 102
120 64
137 120
59 71
102 20
84 40
57 26
71 59
58 71
58 26
40 84
40 32
40 32
40 32
40 32
40 32
40 32
25 116
40 89
40 80
32 40
22 94
120 64
102 142
102 109
102 123
102 94
102 25
102 31
102 95
102 125
102 2
102 119
102 140
102 70
102 22
102 116
102 20
102 12
102 132
102 35
12 123
130 9
130 64
39 135
40 54
40 43
40 89
40 33
40 39
40 96
40 80
40 76
40 84
40 110
40 145
40 32
40 100
40 27
40 135
40 105
71 26
105 96
91 72
71 134
71 59
63 71
40 54
40 89
40 33
40 96
40 80
40 76
40 84
40 110
40 145
40 32
40 84
84 40
40 84
84 40
40 84
84 40
84 40
84 40
40 84
63 99
134 71
101 51
32 40
76 40
76 33
40 76
40 84
76 40
76 32
12 109
12 123
12 35
63 99
63 139
63 58
63 9
63 85
91 72
58 63
58 71
58 71
58 26
122 47
72 60
72 91
54 135
71 26
71 58
96 40
84 40
84 110
84 40
40 84
40 32
110 84
110 96
110 135
135 110
40 84
84 110
84 40
110 84
40 32
72 107
72 74
72 60
72 111
40 84
84 40
84 40
39 110
39 135
40 84
120 64
72 60
71 58
96 110
109 116
20 140
51 78
51 11
51 0
72 60
72 60
64 130
64 9
64 117
72 60
102 142
102 109
102 123
102 94
102 25
102 31
102 95
102 125
102 2
102 119
102 140
102 22
102 116
102 20
102 12
102 132
102 35
91 72
84 40
40 110
40 110
71 79
72 60
0 18
85 71
25 102
47 53
71 97
20 22
71 120
72 60
58 71
58 26
88 143
88 51
91 72
72 91
32 84
32 40
72 91
120 64
94 142
128 78
68 16
68 16
91 72
96 54
96 89
96 80
96 110
96 32
96 135
84 32
64 120
32 76
85 71
51 88
145 40
24 72
24 60
137 117
35 123
32 40
51 88
51 88
51 88
40 100
40 135
40 100
40 135
72 91
72 107
72 74
72 60
72 126
72 28
72 111
72 24
8 26
40 54
40 43
40 89
40 33
40 39
40 96
40 80
40 76
40 84
40 110
40 145
40 32
40 100
40 27
40 135
40 105
40 32
40 54
40 43
40 89
40 33
40 39
40 96
40 80
40 76
40 84
40 110
40 145
40 32
40 100
40 27
40 135
40 105
64 87
64 120
64 130
102 142
102 109
102 123
102 94
102 25
102 31
102 95
102 125
102 2
102 119
102 140
102 70
102 22
102 116
102 20
102 12
102 132
102 35
40 54
40 89
40 33
40 39
40 96
40 80
40 76
40 110
40 145
40 32
40 100
40 135
40 105
117 71
84 40
25 102
87 64
31 95
31 35
84 89
40 84
85 71
84 40
24 141
40 84
71 79
72 60
89 84
40 76
76 40
84 40
71 79
40 84
84 40
71 59
12 109
12 123
12 35
12 109
12 123
12 35
91 72
120 64
120 64
111 72
111 107
72 111
111 72
72 60
32 40
72 60
78 83
78 83
72 60
94 109
94 123
94 25
94 31
94 95
94 90
94 125
94 2
94 56
94 102
94 119
94 140
94 22
94 116
94 20
94 12
94 132
94 35
94 4
94 69
12 109
12 123
12 35
102 94
40 32
78 83
78 14
78 112
78 103
100 33
33 100
100 33
40 54
40 43
40 89
40 33
40 39
40 96
40 80
40 76
40 84
40 110
40 145
40 32
40 100
40 27
40 135
40 105
91 72
100 33
33 100
100 76
78 103
100 33
102 123
60 72
72 91
102 142
102 109
102 123
102 94
102 25
102 31
102 95
102 125
102 2
102 119
102 140
102 70
102 22
102 116
102 20
102 12
102 132
102 35
104 97
102 25
31 109
31 95
100 33
110 40
33 100
71 26
100 33
33 100
99 63
122 47
137 104
84 40
40 54
40 89
40 33
40 96
40 80
40 76
40 84
40 110
40 145
40 32
24 60
40 84
26 58
60 24
24 60
40 84
84 40
137 64
91 72
40 84
84 40
91 72
58 71
135 39
84 40
85 71
71 58
58 71
72 60
72 91
72 60
72 60
111 74
128 51
91 72
32 40
22 119
74 111
111 74
120 71
51 101
40 54
40 89
40 33
40 96
40 80
40 76
40 110
40 145
40 84
71 120
12 109
12 123
12 35
22 94
120 64
74 107
78 82
78 103
31 109
31 123
31 94
31 95
31 119
31 140
31 22
31 12
31 132
31 35
31 69
130 9
71 58
130 9
94 22
40 54
40 43
40 89
40 33
40 39
40 96
40 80
40 76
40 84
40 110
40 145
40 32
40 100
40 27
40 135
40 105
54 32
63 99
63 139
63 58
63 9
63 85
141 28
26 8
76 84
145 144
145 39
145 80
145 40
145 110
145 32
145 27
145 135
26 134
26 8
26 71
26 117
26 63
26 99
26 59
26 139
26 58
26 8
32 40
96 54
96 89
96 145
96 32
96 105
104 26
72 91
40 89
40 80
40 105
130 9
72 91
26 71
76 89
76 32
24 60
141 28
31 22
26 71
26 58
102 142
102 109
102 123
102 94
102 25
102 31
102 95
102 125
102 2
102 119
102 140
102 70
102 22
102 116
102 20
102 12
102 132
102 35
94 22
145 76
125 102
84 76
26 8
26 117
26 61
63 99
63 99
102 125
72 60
84 76
84 32
76 84
76 84
80 40
12 109
12 123
12 35
24 72
40 96
26 8
72 24
91 72
122 47
122 47
111 72
72 111
9 121
9 64
9 121
9 121
9 64
76 100
9 64
64 120
64 120
64 120
64 120
76 145
96 54
96 89
96 80
96 110
96 135
135 39
135 39
96 105
78 143
78 143
26 8
26 117
26 61
72 60
40 96
96 40
9 121
9 64
9 121
9 64
85 71
35 123
84 40
64 97
123 102
123 102
63 99
63 139
63 58
102 142
102 109
102 123
102 94
102 25
102 31
102 95
102 125
102 2
102 119
102 140
102 22
102 116
102 20
102 12
102 132
102 35
32 145
32 84
32 84
40 84
78 51
78 143
78 14
78 112
78 103
142 22
71 59
104 8
104 71
104 117
104 97
104 63
104 99
104 59
104 79
104 26
104 139
104 58
104 120
104 9
104 64
104 85
145 144
145 39
145 80
145 40
145 110
145 32
145 27
145 135
130 9
130 9
102 25
102 22
72 60
35 31
47 53
47 122
76 84
130 9
130 9
130 64
72 60
84 76
71 26
130 9
130 9
84 40
84 32
63 58
53 47
31 35
89 84
84 89
40 54
40 89
40 33
40 96
40 80
40 76
40 110
40 145
40 32
32 84
40 84
84 40
40 89
40 80
40 105
40 32
12 109
12 123
12 35
12 109
12 123
12 35
32 84
96 40
84 110
82 11
82 143
101 51
64 97
122 47
122 47
9 121
9 64
120 64
9 121
9 64
9 121
9 64
64 120
64 9
64 130
64 120
64 71
60 72
91 72
51 88
51 88
51 82
51 143
72 91
110 84
72 91
100 105
40 96
128 0
69 116
126 41
71 8
96 32
8 71
125 116
105 100
91 72
85 71
91 72
120 64
51 143
83 51
71 59
99 63
99 63
47 53
47 122
9 121
9 64
84 40
9 121
11 51
71 59
71 58
40 84
40 89
40 80
40 105
84 40
72 91
85 71
71 85
117 8
8 117
85 71
91 72
71 85
137 120
91 72
72 91
120 64
120 64
104 26
95 116
53 47
53 47
72 91
51 83
130 9
64 9
72 91
126 41
31 35
126 41
85 71
126 41
126 41
126 41
130 9
89 80
100 89
74 107
135 39
39 135
135 39
91 72
72 91
145 32
58 26
64 120
64 9
72 91
116 95
143 88
72 91
58 63
58 26
72 91
134 71
134 59
91 72
89 80
89 40
72 91
122 47
122 47
126 13
120 64
120 64
22 140
40 54
40 43
40 89
40 33
40 39
40 96
40 80
40 76
40 84
40 110
40 145
40 32
40 100
40 27
40 135
40 105
143 88
143 51
91 72
32 84
32 84
32 40
110 40
91 72
32 40
123 109
123 12
123 35
130 9
130 64
0 143
84 32
9 121
9 64
84 32
39 135
9 121
9 64
9 64
84 96
135 39
51 83
39 135
32 84
123 109
123 12
14 78
14 112
31 22
31 35
96 40
11 51
51 143
12 109
12 123
12 35
109 12
109 35
12 109
99 63
130 9
130 9
130 64
143 51
51 143
24 60
40 54
40 43
40 89
40 33
40 39
40 80
40 76
40 84
40 110
40 145
40 100
40 27
40 135
40 105
40 54
40 43
40 89
40 33
40 39
40 80
40 76
40 84
40 110
40 145
40 100
40 27
40 135
40 105
123 109
123 12
123 35
22 25
95 102
78 11
11 78
123 12
123 35
78 11
22 31
32 40
32 84
107 74
84 40
31 4
84 40
40 84
40 84
84 32
89 80
51 0
135 89
0 143
40 84
40 32
91 72
72 111
72 91
72 107
72 74
72 60
72 126
72 28
72 111
72 107
72 74
72 60
72 111
72 91
89 135
101 51
91 72
72 91
72 60
72 60
72 107
72 74
72 60
72 126
72 111
72 91
72 91
111 72
122 47
64 120
64 120
91 72
82 88
82 143
22 25
72 91
9 121
9 121
9 64
104 26
103 82
103 143
91 72
9 85
85 9
12 109
12 123
12 35
12 109
12 123
12 35
120 64
96 40
120 64
125 116
32 40
84 32
32 84
102 142
102 109
102 123
102 94
102 25
102 31
102 95
102 125
102 2
102 119
102 140
102 22
102 116
102 20
102 12
102 132
102 35
135 39
39 135
71 59
135 39
102 142
102 109
102 123
102 94
102 25
102 31
102 95
102 125
102 2
102 119
102 140
102 70
102 22
102 116
102 20
102 12
102 132
102 35
135 39
102 25
71 26
102 25
25 102
72 107
72 74
72 60
72 111
72 60
72 60
102 142
102 109
102 123
102 94
102 25
102 31
102 95
102 125
102 2
102 119
102 140
102 70
102 22
102 116
102 20
102 12
102 132
102 35
32 40
32 84
104 26
40 110
40 145
40 100
40 135
32 40
32 84
51 78
78 11
135 39
71 26
85 71
96 110
120 64
71 26
71 104
85 71
40 96
72 111
143 88
143 51
91 72
110 96
110 32
110 96
111 72
64 120
122 47
102 123
125 116
64 71
64 120
72 91
117 61
31 109
31 25
31 95
31 140
31 22
31 116
71 85
91 72
24 72
24 60
85 71
64 130
39 135
71 120
78 83
78 51
120 64
74 114
102 109
102 140
102 12
102 35
143 88
64 97
64 120
26 71
26 63
26 58
26 58
26 58
117 26
111 107
111 74
116 102
111 72
12 109
12 123
12 35
26 63
26 134
26 8
26 71
26 117
26 63
26 99
26 59
26 139
26 58
102 25
102 25
91 72
102 116
139 26
57 98
57 98
40 54
40 43
40 89
40 33
40 39
40 96
40 80
40 76
40 84
40 110
40 145
40 32
40 100
40 27
40 135
40 105
72 91
74 107
94 142
72 111
72 91
72 91
78 83
63 26
72 28
72 111
125 116
22 25
91 72
24 72
24 60
71 26
31 102
101 51
101 78
51 101
64 104
130 9
130 64
72 91
137 61
91 72
143 51
64 120
61 137
142 94
40 32
0 51
0 51
91 72
104 64
84 32
32 84
107 111
32 84
83 78
139 63
104 71
32 145
26 58
71 104
71 58
40 54
40 43
40 89
40 33
40 39
40 96
40 80
40 76
40 84
40 110
40 145
40 32
40 100
40 27
40 135
40 105
51 0
110 40
111 72
111 72
111 107
135 110
110 32
72 91
72 91
72 111
72 111
35 142
35 123
111 72
72 60
122 47
105 96
130 9
130 64
84 32
47 53
47 53
47 122
139 63
40 96
40 84
24 141
84 110
82 88
82 143
40 32
102 25
32 40
139 26
84 32
32 40
123 109
91 72
71 58
71 58
61 71
61 71
31 116
31 4
72 60
109 102
116 125
102 109
102 109
107 74
74 111
91 72
107 74
111 74
107 74
51 0
51 88
51 78
51 143
76 32
71 58
102 142
102 109
102 123
102 94
102 25
102 31
102 95
102 125
102 2
102 119
102 140
102 70
102 22
102 116
102 20
102 12
102 132
102 35
72 91
140 102
31 22
91 72
104 26
26 104
12 102
35 102
109 102
102 109
25 132
54 32
102 142
102 109
102 123
102 94
102 25
102 31
102 95
102 125
102 2
102 119
102 140
102 70
102 22
102 116
102 20
102 12
102 132
102 35
72 91
84 89
12 109
12 123
12 35
63 99
63 99
84 32
58 71
76 32
89 84
91 72
84 89
76 32
89 84
135 39
40 32
32 76
47 53
47 122
135 39
135 110
135 100
32 84
40 54
40 43
40 89
40 33
40 39
40 80
40 76
40 84
40 110
40 145
40 100
40 27
40 135
40 105
84 89
32 33
94 109
94 123
94 25
94 31
94 95
94 90
94 125
94 2
94 56
94 102
94 119
94 140
94 22
94 116
94 20
94 12
94 132
94 35
94 4
94 69
71 59
26 139
72 91
139 26
47 24
140 94
31 22
33 32
26 63
26 58
76 32
35 31
35 31
71 120
63 26
71 59
40 54
40 43
40 89
40 33
40 39
40 80
40 76
40 84
40 110
40 145
40 100
40 27
40 135
40 105
24 47
72 60
26 104
32 76
84 40
32 33
60 72
32 76
84 32
72 60
72 107
72 74
72 60
72 126
72 28
72 111
111 72
72 111
72 60
72 60
111 72
122 47
123 12
123 35
123 109
123 12
123 35
47 24
32 84
32 76
91 72
72 107
72 74
72 60
72 111
96 39
40 54
40 43
40 89
40 33
40 39
40 80
40 76
40 84
40 110
40 145
40 100
40 27
40 135
40 105
103 78
64 104
64 130
24 47
96 54
96 39
96 80
96 110
96 145
96 135
96 105
47 24
142 22
35 123
26 71
72 91
2 102
2 102
8 71
8 117
8 137
8 59
8 61
8 58
8 120
8 129
71 8
72 60
130 9
116 125
130 9
130 64
123 109
123 12
123 35
40 84
35 31
51 83
69 116
64 120
64 59
64 71
99 63
31 116
31 4
72 60
91 72
111 72
71 59
100 135
32 40
40 54
40 43
40 89
40 33
40 39
40 80
40 76
40 84
40 110
40 145
40 100
40 27
40 135
40 105
35 22
72 107
72 74
72 60
72 126
72 28
72 111
139 63
60 72
60 72
139 63
102 95
102 22
24 60
89 40
31 95
40 89
40 84
40 32
58 59
58 59
58 59
24 47
32 76
35 102
2 102
32 76
32 40
32 89
84 80
117 59
32 84
58 59
40 89
96 105
40 54
40 43
40 89
40 33
40 39
40 96
40 80
40 76
40 84
40 110
40 145
40 32
40 100
40 27
40 135
40 105
119 102
40 54
40 43
40 89
40 33
40 39
40 96
40 80
40 76
40 84
40 110
40 145
40 32
40 100
40 27
40 135
40 105
40 89
40 89
89 84
71 26
60 72
71 59
71 26
134 71
134 59
134 26
134 59
91 72
72 107
72 74
72 60
72 126
72 111
72 107
72 74
72 60
72 126
72 28
72 111
72 91
72 28
72 60
72 60
58 59
84 40
96 39
96 105
96 32
54 145
84 89
95 25
22 25
89 84
84 89
120 64
122 47
72 60
89 84
84 89
12 123
12 109
12 109
12 123
12 35
72 60
72 60
54 33
54 80
100 105
137 8
100 76
104 26
100 105
76 100
76 100
76 100
31 95
104 26
100 76
60 72
76 100
12 109
12 123
12 35
78 14
145 40
91 72
89 54
129 8
129 8
54 89
76 100
129 26
51 128
111 74
129 8
102 142
102 109
102 123
102 94
102 25
102 31
102 95
102 125
102 2
102 119
102 140
102 70
102 22
102 116
102 20
102 12
102 132
102 35
0 51
129 8
84 89
92 98
109 140
117 26
130 9
130 64
76 100
109 12
76 100
12 109
89 84
76 33
89 84
63 139
76 100
135 39
145 54
26 134
26 8
26 71
26 117
26 97
26 63
26 99
26 59
26 79
26 61
26 139
26 58
26 120
26 9
26 64
26 85
33 54
26 71
26 134
26 8
26 117
26 129
26 134
26 8
26 71
26 117
26 63
26 99
26 59
26 139
26 58
26 8
26 117
26 61
26 8
26 117
26 61
134 59
84 145
26 63
26 59
26 139
26 58
26 57
84 89
145 84
84 145
145 84
89 84
137 120
137 64
84 89
111 72
64 120
64 120
64 104
64 130
72 107
72 74
72 60
72 126
72 28
72 111
72 111
72 60
120 64
111 72
72 60
120 64
120 64
31 109
31 123
31 94
31 95
31 119
31 140
31 22
31 12
31 132
31 35
31 69
120 64
120 64
120 64
120 64
57 86
72 60
57 86
72 60
100 76
142 102
102 142
102 109
102 123
102 94
102 25
102 31
102 95
102 125
102 2
102 119
102 140
102 70
102 22
102 116
102 20
102 12
102 132
102 35
76 100
40 54
40 43
40 89
40 33
40 39
40 96
40 80
40 76
40 84
40 110
40 145
40 32
40 100
40 27
40 135
40 105
100 76
100 76
76 40
110 135
101 51
100 76
70 25
51 101
12 109
12 123
12 35
51 18
76 40
137 61
76 40
40 76
40 76
129 8
72 60
72 60
40 76
40 76
40 54
40 43
40 89
40 33
40 39
40 96
40 80
40 76
40 84
40 110
40 145
40 32
40 100
40 27
40 135
40 105
54 84
130 9
54 84
101 51
35 31
84 54
18 51
54 145
54 33
47 122
145 84
76 100
139 63
76 100
145 84
141 28
51 101
78 11
22 132
96 105
145 54
145 54
40 89
130 9
76 40
129 8
25 31
25 95
25 22
89 84
100 76
24 60
84 40
100 76
26 129
135 110
129 8
51 18
135 39
51 18
40 84
40 84
84 40
110 135
40 84
84 40
40 76
26 59
26 8
84 40
84 32
84 89
84 145
84 40
89 84
64 130
64 130
64 130
122 47
84 89
72 60
107 74
91 72
72 91
24 141
123 109
91 72
39 135
40 84
40 145
40 100
40 135
63 139
141 24
24 141
26 134
26 59
85 71
111 74
63 139
40 84
40 54
40 43
40 89
40 33
40 39
40 80
40 76
40 84
40 110
40 145
40 100
40 27
40 135
40 105
84 40
84 89
123 12
123 35
145 54
84 89
84 145
64 120
51 101
64 120
64 130
40 84
117 26
111 74
139 63
111 74
89 84
129 8
59 26
89 84
100 135
145 54
89 84
40 84
40 89
57 81
101 51
40 33
33 40
72 91
110 135
135 110
84 89
64 120
123 109
123 12
123 35
141 24
24 60
54 145
96 32
98 92
31 35
128 51
18 0
18 88
18 51
18 83
18 78
18 14
18 82
18 112
18 103
18 11
18 143
18 44
18 101
18 128
26 71
98 117
9 121
18 0
18 88
18 51
18 83
18 78
18 14
18 82
18 112
18 103
18 11
18 143
18 44
18 101
18 128
24 141
117 26
145 54
78 83
26 71
89 84
101 0
101 88
101 51
101 83
101 78
101 14
101 82
101 112
101 103
101 11
101 143
101 44
101 18
101 128
91 72
84 89
98 8
18 101
72 60
72 60
72 91
84 89
11 78
84 89
84 89
31 109
31 123
31 94
31 95
31 119
31 140
31 22
31 12
31 132
31 35
31 69
96 32
72 28
120 26
51 78
26 120
40 96
72 107
72 74
72 60
72 126
72 28
72 111
85 139
78 51
128 11
128 11
128 11
85 139
110 135
135 110
135 39
51 128
51 18
51 88
51 82
51 143
26 71
0 51
39 135
26 129
91 72
120 64
120 64
120 64
120 64
120 64
120 64
120 64
64 120
72 91
40 89
91 72
51 83
51 78
51 0
135 39
51 83
135 39
135 40
135 100
47 122
8 26
139 63
120 64
95 2
116 69
78 83
78 14
78 103
145 40
101 51
123 102
139 63
137 120
137 64
72 60
72 60
40 89
40 84
40 145
40 32
120 26
89 40
145 40
91 72
40 84
40 84
26 120
26 71
26 71
26 134
26 8
26 71
26 117
26 97
26 63
26 99
26 59
26 79
26 61
26 139
26 58
26 120
26 9
26 64
26 85
64 120
64 130
64 9
64 130
64 120
64 130
64 104
72 60
72 60
84 40
69 116
35 123
35 31
35 31
72 60
72 60
91 72
58 71
58 59
58 71
58 59
72 91
63 134
63 8
63 71
63 117
63 97
63 99
63 59
63 79
63 61
63 26
63 139
63 58
63 120
63 9
63 64
63 85
63 129
91 72
72 91
91 72
120 64
120 64
12 109
12 123
12 109
12 123
12 35
12 109
12 123
12 35
72 91
72 91
72 91
76 32
12 109
12 123
12 35
12 109
12 123
12 35
12 109
12 123
12 35
12 109
12 123
12 35
12 109
12 123
12 35
78 112
78 103
91 72
40 89
72 91
32 40
40 54
40 89
40 33
40 96
40 80
40 76
40 84
40 110
40 32
32 40
91 72
32 54
32 96
32 80
143 88
32 100
143 0
64 104
18 11
32 76
96 105
32 40
40 32
72 91
40 96
72 28
32 40
64 120
32 89
35 31
76 100
135 39
100 76
123 102
123 109
123 12
123 35
0 51
32 40
32 84
40 145
64 63
40 89
8 71
89 40
40 89
40 54
40 43
40 89
40 33
40 39
40 96
40 80
40 76
40 84
40 110
40 145
40 32
40 100
40 27
40 135
40 105
72 60
71 8
39 135
71 59
71 64
71 26
71 26
71 26
84 32
72 60
32 40
32 84
91 72
58 97
91 72
84 32
120 64
135 39
130 9
60 47
39 135
130 9
72 91
35 123
35 31
40 54
40 43
40 89
40 33
40 39
40 96
40 80
40 76
40 84
40 110
40 145
40 32
40 100
40 27
40 135
40 105
72 107
72 74
72 60
72 126
72 28
72 111
84 40
91 72
76 100
64 9
64 120
72 91
32 33
32 110
32 100
32 135
109 12
12 109
12 123
12 35
12 109
12 123
12 35
40 96
59 134
0 51
123 109
123 12
123 35
40 89
40 54
40 43
40 89
40 33
40 39
40 96
40 80
40 76
40 84
40 110
40 145
40 32
40 100
40 27
40 135
40 105
123 12
123 35
123 109
123 12
123 35
54 135
51 0
40 54
40 89
40 33
40 39
40 80
40 76
40 110
31 35
54 80
84 32
32 84
71 8
71 59
71 26
96 110
40 32
91 72
31 22
39 135
85 71
72 91
130 64
84 40
20 25
137 71
100 76
76 100
39 135
76 32
0 51
51 0
134 71
134 59
134 26
72 60
32 89
32 84
64 120
64 120
122 47
64 130
64 120
59 134
123 102
47 122
47 122
91 72
72 91
123 109
123 12
91 72
72 107
72 74
72 60
72 126
72 28
72 111
51 18
47 122
47 122
39 96
120 64
72 91
72 91
51 18
51 128
32 84
63 26
84 32
84 32
32 84
32 84
109 12
72 107
72 74
72 60
72 126
72 28
72 111
84 89
32 40
39 135
71 59
71 97
120 64
120 64
120 64
84 145
120 64
145 84
135 39
89 84
72 60
91 72
32 100
72 91
72 91
91 72
40 110
9 130
9 64
40 145
135 54
72 91
110 96
137 64
31 35
76 33
91 72
101 51
72 60
84 40
84 32
100 33
51 101
40 54
40 43
40 89
40 33
40 39
40 80
40 76
40 84
40 110
40 145
40 100
40 27
40 135
40 105
40 54
40 43
40 89
40 33
40 39
40 80
40 76
40 84
40 110
40 145
40 100
40 27
40 135
40 105
72 24
32 40
53 47
32 40
35 123
130 9
130 64
35 123
35 31
35 123
35 31
32 40
32 84
47 122
72 91
72 107
72 74
72 60
72 126
72 28
72 111
32 40
32 84
40 54
40 43
40 89
40 33
40 39
40 96
40 80
40 76
40 84
40 110
40 145
40 32
40 100
40 27
40 135
40 105
101 51
143 51
24 72
40 76
76 40
59 134
33 100
76 33
100 33
33 100
89 32
63 139
111 72
40 32
71 63
71 26
71 58
71 8
40 32
84 32
8 26
91 72
84 40
84 76
40 32
58 71
134 59
76 84
84 40
72 111
72 91
72 60
72 60
135 54
122 47
9 130
130 9
31 35
59 134
31 22
120 64
64 97
64 120
20 25
100 110
100 135
54 40
64 120
40 54
54 40
40 84
40 54
54 40
39 135
96 40
96 110
54 135
35 12
140 22
84 32
32 89
126 28
96 54
96 89
96 80
96 110
96 32
96 135
40 89
32 40
94 109
94 123
94 25
94 31
94 95
94 90
94 125
94 2
94 56
94 102
94 119
94 140
94 22
94 116
94 20
94 12
94 132
94 35
94 4
94 69
84 32
16 68
89 32
32 84
111 72
32 89
123 109
123 12
123 35
123 102
40 96
12 109
12 123
12 35
135 39
102 123
102 132
120 97
120 97
135 54
135 100
103 78
84 32
96 40
101 51
89 40
40 32
32 100
100 135
109 116
109 116
123 109
96 40
12 109
12 123
12 35
39 135
12 109
12 123
12 35
35 31
40 96
40 89
145 32
100 32
53 47
54 135
40 54
40 43
40 89
40 33
40 39
40 96
40 80
40 76
40 84
40 110
40 145
40 32
40 100
40 27
40 135
40 105
76 32
96 40
63 99
63 139
63 58
63 9
63 85
89 40
32 145
84 32
31 22
100 33
139 63
120 64
120 97
100 76
122 47
139 63
64 97
78 103
64 120
126 28
110 40
33 100
110 54
31 109
31 123
31 94
31 95
31 119
31 140
31 22
31 12
31 132
31 35
31 69
76 100
96 39
84 40
84 32
84 40
54 110
40 84
84 40
84 40
33 32
110 54
51 143
40 105
28 126
54 110
100 33
39 135
120 64
120 64
64 9
102 142
102 109
102 123
102 94
102 25
102 31
102 95
102 125
102 2
102 119
102 140
102 22
102 116
102 20
102 12
102 132
102 35
135 39
126 41
40 110
60 53
84 89
111 107
111 72
107 74
107 111
107 74
107 111
107 111
107 111
107 111
107 111
33 100
51 88
51 82
51 143
100 33
82 51
51 82
129 8
40 54
40 43
40 89
40 33
40 39
40 96
40 80
40 76
40 84
40 110
40 145
40 32
40 100
40 27
40 135
40 105
84 76
91 72
84 89
84 76
84 40
89 84
143 51
143 51
116 69
63 139
76 84
122 47
111 107
111 74
72 111
72 91
102 25
111 72
73 47
72 60
32 84
123 109
16 68
84 32
84 40
76 33
76 33
68 16
130 9
130 64
68 16
68 16
68 16
130 9
11 51
51 101
39 135
11 51
32 33
40 84
12 109
12 123
12 35
39 135
72 111
72 60
8 71
64 120
64 120
40 84
33 32
88 51
73 47
51 143
51 88
123 12
32 33
111 107
111 74
100 33
47 122
73 60
60 73
123 94
120 64
76 32
72 60
94 109
94 123
94 25
94 31
94 95
94 90
94 125
94 2
94 56
94 102
94 119
94 140
94 22
94 116
94 20
94 12
94 132
94 35
94 4
94 69
31 22
60 73
76 32
76 100
35 31
73 47
73 60
60 73
73 47
60 73
47 73
111 72
73 60
60 73
73 47
72 111
72 111
82 88
82 143
12 109
12 123
12 35
109 12
111 72
111 72
35 123
47 73
47 73
47 73
89 40
71 26
71 79
71 120
72 111
72 111
111 72
64 120
72 111
111 72
128 51
47 122
72 60
84 40
102 94
102 22
102 116
123 109
123 12
123 35
123 102
123 12
123 35
51 128
12 109
12 123
12 35
32 76
76 32
72 111
111 72
123 12
123 35
25 102
11 18
25 20
32 40
32 84
137 120
137 64
135 54
137 120
137 64
72 28
72 107
137 139
31 22
32 100
139 137
137 93
76 84
137 64
32 100
12 109
12 123
12 35
12 109
12 123
12 35
126 28
26 71
76 32
24 141
40 100
40 135
102 25
100 39
100 76
31 35
94 109
94 123
94 25
94 31
94 95
94 90
94 125
94 2
94 56
94 102
94 119
94 140
94 22
94 116
94 20
94 12
94 132
94 35
94 4
94 69
76 100
32 76
39 135
40 32
64 120
64 104
61 137
40 32
47 73
47 73
47 73
47 73
47 73
137 120
137 64
96 32
32 40
32 96
78 103
12 109
12 123
12 35
58 71
58 59
32 40
99 63
91 72
73 60
122 47
64 120
47 122
47 122
72 91
73 47
84 32
35 31
35 31
35 123
72 60
87 121
120 71
71 59
130 9
130 64
73 47
141 24
24 141
130 9
91 72
120 64
120 97
73 47
72 91
96 110
9 85
141 28
39 135
73 47
39 135
102 142
102 109
102 123
102 94
102 25
102 31
102 95
102 125
102 2
102 119
102 140
102 70
102 22
102 116
102 20
102 12
102 132
102 35
102 142
102 109
102 123
102 94
102 25
102 31
102 95
102 125
102 2
102 119
102 140
102 70
102 22
102 116
102 20
102 12
102 132
102 35
98 57
47 73
120 97
47 122
100 32
59 134
59 8
59 71
59 117
59 97
59 63
59 99
59 79
59 61
59 26
59 139
59 58
59 120
59 9
59 64
59 85
59 129
73 47
73 47
40 89
40 84
32 40
40 54
40 43
40 89
40 33
40 39
40 96
40 80
40 76
40 84
40 110
40 145
40 32
40 100
40 27
40 135
40 105
102 20
64 120
64 130
89 40
84 40
102 25
71 58
120 97
120 97
64 120
72 111
20 109
20 123
20 94
20 25
20 31
20 95
20 90
20 125
20 2
20 102
20 119
20 140
20 22
20 116
20 12
20 132
20 35
20 4
20 69
41 141
61 137
31 109
31 123
31 94
31 95
31 119
31 140
31 22
31 12
31 132
31 35
31 69
40 84
72 107
72 74
72 60
72 111
84 40
61 129
111 72
32 40
35 123
35 31
35 132
47 122
40 32
84 40
137 8
137 71
137 117
137 93
137 59
137 79
137 61
137 58
137 120
137 64
137 129
109 12
72 111
126 28
32 40
32 84
32 89
32 84
32 100
32 40
76 33
111 72
110 54
110 96
110 40
110 135
84 32
120 64
122 47
72 111
123 109
123 12
123 35
53 47
100 32
61 8
130 9
47 122
64 120
40 96
32 100
116 95
47 53
47 122
111 72
100 32
104 117
111 72
32 100
73 60
16 68
78 0
78 88
78 51
78 83
78 14
78 82
78 112
78 103
78 11
78 143
78 44
78 34
78 101
78 18
78 128
130 9
35 123
143 88
143 51
91 72
102 142
102 109
102 123
102 94
102 25
102 31
102 95
102 125
102 2
102 119
102 140
102 70
102 22
102 116
102 20
102 12
102 132
102 35
40 54
40 43
40 89
40 33
40 39
40 96
40 80
40 76
40 84
40 110
40 145
40 32
40 100
40 27
40 135
40 105
130 9
39 135
32 40
40 32
73 47
22 142
32 40
91 72
47 73
85 71
40 32
84 32
120 64
39 135
40 84
12 109
12 123
12 35
12 109
12 123
12 35
84 40
39 135
40 84
40 32
39 96
40 100
40 135
142 102
142 102
142 22
12 109
12 123
12 35
89 32
53 47
64 130
60 73
72 111
72 91
123 109
123 12
123 35
51 78
51 128
95 116
95 102
102 25
11 51
18 78
76 100
71 26
100 76
143 88
26 71
78 103
53 47
40 32
76 89
132 140
47 73
53 47
32 89
32 40
32 100
32 84
84 32
26 63
32 84
84 40
84 32
32 84
135 39
33 76
40 32
32 40
63 26
63 58
76 33
33 76
26 63
26 58
76 33
135 39
137 120
137 120
137 120
137 120
40 54
40 43
40 89
40 33
40 39
40 96
40 80
40 76
40 84
40 110
40 145
40 32
40 100
40 27
40 135
40 105
26 134
26 8
26 71
26 117
26 97
26 63
26 99
26 59
26 79
26 61
26 139
26 58
26 120
26 9
26 64
26 85
26 129
26 104
40 89
40 84
40 32
40 32
40 84
120 64
120 64
120 64
120 64
120 64
120 64
47 53
73 47
47 73
73 47
73 47
47 73
71 58
71 58
59 26
26 59
26 71
123 109
32 84
71 63
71 26
71 58
12 109
12 123
12 35
130 9
135 39
47 53
47 122
73 47
72 107
72 74
72 60
72 126
72 28
72 111
73 47
72 107
72 74
72 60
72 126
72 28
100 76
71 26
47 73
76 33
71 26
89 40
33 76
61 8
8 61
135 39
73 47
47 122
141 24
141 126
141 28
25 102
63 26
26 63
102 142
102 109
102 123
102 10
102 94
102 25
102 31
102 95
102 125
102 2
102 119
102 140
102 70
102 22
102 116
102 20
102 12
102 132
102 35
35 31
74 107
73 47
130 9
130 64
47 73
76 100
73 47
72 107
72 74
72 60
72 126
72 28
72 111
73 47
72 107
72 74
72 60
72 126
72 28
72 111
73 47
72 107
72 74
72 60
72 126
72 28
72 111
72 107
72 74
72 60
72 126
72 28
72 111
72 111
111 72
35 142
35 123
35 31
35 119
100 135
135 100
47 73
32 84
96 40
76 32
39 135
96 40
135 110
64 120
64 104
64 97
64 130
64 120
64 97
64 120
72 60
63 134
63 8
63 71
63 117
63 97
63 99
63 59
63 79
63 61
63 26
63 139
63 58
63 120
63 9
63 64
63 85
63 129
63 139
63 85
63 58
63 9
63 129
63 8
63 134
63 8
63 71
63 117
63 97
63 99
63 59
63 79
63 61
63 26
63 139
63 58
63 120
63 9
63 64
63 85
63 129
84 89
84 40
110 135
91 72
72 91
122 47
64 120
64 71
64 59
91 72
100 40
64 130
64 104
64 26
64 63
71 64
85 71
71 79
143 82
99 63
132 22
143 88
40 54
40 43
40 89
40 33
40 39
40 96
40 80
40 76
40 84
40 110
40 145
40 32
40 100
40 27
40 135
40 105
96 54
96 89
96 80
96 110
96 145
96 32
96 100
96 135
96 105
72 111
72 111
72 60
40 54
40 80
40 84
40 84
40 32
105 96
88 82
84 40
76 100
76 100
104 26
96 32
105 32
102 142
102 109
102 123
102 10
102 94
102 25
102 31
102 95
102 125
102 2
102 119
102 140
102 70
102 22
102 116
102 20
102 12
102 132
102 35
72 60
72 107
72 74
72 60
72 126
72 28
72 111
64 59
71 59
59 71
102 22
26 63
59 134
59 71
71 59
26 134
26 8
26 71
26 117
26 97
26 63
26 99
26 59
26 79
26 61
26 139
26 58
26 120
26 9
26 64
26 85
26 129
26 104
63 139
40 54
40 43
40 89
40 33
40 39
40 80
40 76
40 84
40 110
40 145
40 100
40 27
40 135
40 105
26 63
134 59
134 64
134 59
0 11
64 130
64 120
64 130
72 60
122 47
91 24
91 72
91 60
130 9
24 72
24 60
61 137
61 117
63 117
61 8
61 120
60 24
61 129
61 64
71 26
102 94
102 95
64 120
64 104
84 40
84 32
102 142
102 109
102 123
102 94
102 25
102 31
102 95
102 125
102 2
102 119
102 140
102 70
102 22
102 116
102 20
102 12
102 132
102 35
84 40
95 116
139 63
117 8
117 71
117 97
117 63
117 99
117 93
117 59
117 79
117 61
117 26
117 139
117 58
117 120
117 9
117 64
117 129
32 84
54 145
145 32
72 24
82 51
82 18
96 54
96 89
96 145
96 105
31 35
31 35
40 84
96 105
18 82
111 72
96 54
32 105
40 54
40 43
40 89
40 33
40 39
40 96
40 80
40 76
40 84
40 110
40 145
40 32
40 100
40 27
40 135
40 105
145 54
145 89
145 144
145 33
145 39
145 96
145 80
145 76
145 40
145 110
145 32
145 135
145 105
82 51
72 111
96 54
96 89
96 80
96 110
96 145
96 32
96 100
96 135
96 105
51 78
111 72
105 32
145 32
40 32
78 51
139 63
32 105
32 145
134 59
9 130
9 64
72 60
78 103
32 40
32 84
22 31
64 61
71 93
100 33
64 9
59 71
59 26
40 100
40 135
40 54
40 43
40 89
40 33
40 39
40 96
40 80
40 76
40 84
40 110
40 145
40 32
40 100
40 27
40 135
40 105
135 39
24 53
24 122
24 47
24 141
24 28
139 63
32 40
32 84
96 54
117 3
76 100
89 96
47 24
100 76
100 76
33 100
134 26
51 88
51 78
51 82
51 143
51 128
22 95
31 116
26 134
100 135
100 40
100 135
135 100
25 116
100 33
88 143
33 100
40 54
40 43
40 89
40 33
40 39
40 96
40 80
40 76
40 84
40 110
40 145
40 32
40 100
40 27
40 135
40 105
96 32
26 63
26 134
26 8
26 71
26 117
26 97
26 63
26 99
26 59
26 79
26 61
26 139
26 58
26 120
26 9
26 64
26 85
26 129
135 39
26 61
72 107
72 74
72 60
72 126
72 28
72 111
72 107
72 74
72 60
72 126
72 28
72 111
72 111
111 72
134 26
84 40
51 128
9 63
61 26
31 109
31 123
31 94
31 95
31 119
31 140
31 22
31 12
31 132
31 35
31 69
94 2
51 88
51 82
51 143
51 18
94 2
26 117
143 88
39 135
26 117
25 22
25 31
25 95
26 63
26 58
40 80
32 40
40 54
40 89
40 33
40 39
40 96
40 80
40 76
40 84
40 110
40 145
40 32
40 100
40 135
40 105
89 84
72 60
40 54
40 89
40 33
40 39
40 96
40 80
40 76
40 84
40 110
40 145
40 32
40 100
40 135
40 105
84 89
139 9
145 32
47 60
111 72
47 60
72 111
111 72
26 71
84 32
84 89
102 142
102 109
102 123
102 94
102 25
102 31
102 95
102 125
102 2
102 119
102 140
102 70
102 22
102 116
102 20
102 12
102 132
102 35
32 84
72 111
47 60
117 26
32 84
26 71
40 54
40 89
40 33
40 39
40 96
40 80
40 76
40 84
40 110
40 145
40 32
40 100
40 135
40 105
39 135
26 117
89 84
84 89
89 84
84 89
26 117
26 63
26 104
64 120
122 47
120 64
120 64
40 84
51 83
51 11
107 74
78 51
135 39
68 16
39 135
89 84
89 32
18 51
63 58
35 31
32 89
32 40
71 79
63 58
58 63
102 142
102 109
102 123
102 94
102 25
102 31
102 95
102 125
102 2
102 119
102 140
102 70
102 22
102 116
102 20
102 12
102 132
102 35
102 4
102 20
12 123
40 54
40 89
40 33
40 39
40 96
40 80
40 76
40 84
40 110
40 145
40 32
40 100
40 135
40 105
102 94
102 132
84 40
40 84
78 103
103 143
57 98
143 103
31 102
22 31
71 59
71 58
98 57
71 59
25 94
120 26
139 63
96 54
58 63
40 32
84 40
32 40
26 120
26 120
84 40
84 40
120 64
20 102
141 28
120 64
47 53
47 122
47 73
117 129
64 120
64 59
64 130
12 109
12 123
12 35
117 26
109 12
117 85
141 28
40 54
40 89
40 33
40 39
40 96
40 80
40 76
40 84
40 110
40 145
40 32
40 100
40 135
40 105
96 54
40 84
9 85
9 85
22 95
26 63
143 51
24 141
102 142
102 109
102 123
102 94
102 31
102 95
102 125
102 2
102 119
102 70
102 22
102 20
102 12
102 132
102 35
89 32
32 40
85 117
63 26
63 26
51 143
129 117
117 129
32 40
40 32
32 40
89 40
89 145
89 105
4 31
4 31
4 31
4 31
4 31
88 143
102 31
102 20
22 102
51 128
130 9
99 63
63 99
63 139
63 58
63 9
63 85
120 26
58 71
4 31
4 31
4 31
135 39
32 54
32 89
32 96
32 84
32 145
130 9
78 51
51 78
35 69
63 99
82 51
101 51
96 105
51 101
51 128
26 71
26 120
39 135
26 57
135 39
58 63
26 57
84 89
89 84
64 9
122 47
122 47
9 130
130 9
130 9
130 64
105 89
9 130
64 120
64 104
120 64
142 22
101 51
57 26
105 96
40 32
71 58
71 26
63 71
99 120
71 26
26 71
96 32
26 57
76 40
40 76
145 32
25 95
71 8
71 117
71 97
71 63
71 99
71 59
71 61
71 26
71 139
71 58
71 120
122 47
139 9
78 88
78 82
78 103
78 143
78 101
71 58
135 39
26 8
32 89
12 35
39 135
32 40
143 88
88 78
120 64
76 40
71 26
103 78
122 47
116 125
95 31
78 88
78 103
12 109
12 123
12 35
47 122
26 71
143 88
122 47
135 39
71 58
130 9
130 64
26 8
71 26
40 96
64 120
40 84
130 9
130 64
40 76
126 28
84 40
40 84
35 69
58 63
22 25
63 58
78 51
125 20
125 20
71 26
71 26
47 122
39 135
122 47
39 135
122 73
122 73
122 73
122 73
122 73
47 122
47 73
63 99
84 40
145 32
145 84
39 135
96 32
12 109
12 123
12 35
99 63
24 60
32 96
32 145
135 39
32 96
32 84
32 145
20 95
84 40
40 84
84 40
58 71
58 71
40 84
76 32
76 32
64 120
122 47
64 9
9 130
9 130
9 64
116 125
71 58
71 26
12 109
12 123
12 35
51 0
51 88
51 78
51 82
51 143
51 18
51 18
71 104
40 89
51 18
78 88
71 58
51 128
22 142
26 8
102 142
102 109
102 123
102 94
102 25
102 31
102 95
102 125
102 2
102 119
102 140
102 22
102 116
102 20
102 12
102 132
102 35
102 4
26 8
32 40
32 40
64 120
26 59
26 64
40 32
102 123
145 32
51 88
51 82
51 143
84 40
116 125
4 102
4 102
143 18
145 96
64 120
39 135
18 143
120 61
40 84
102 4
123 102
51 83
125 116
123 109
32 76
123 109
32 96
32 54
32 89
32 33
32 96
32 76
32 84
32 145
32 100
32 105
32 80
64 120
104 26
9 64
104 71
64 120
64 130
123 102
123 102
123 102
123 102
64 120
25 31
25 95
25 22
31 102
40 54
40 89
40 33
40 39
40 96
40 80
40 76
40 84
40 110
40 145
40 32
40 100
40 135
40 105
71 104
12 109
12 123
12 35
12 109
12 123
12 35
12 109
12 123
12 35
40 54
40 89
40 80
40 32
40 135
64 120
40 89
99 63
99 63
32 40
99 63
40 32
64 120
40 32
122 73
72 107
72 74
72 60
72 126
72 28
72 111
58 63
96 105
91 72
96 54
96 89
96 80
96 110
96 145
96 32
96 100
96 135
96 105
96 54
96 89
96 80
96 110
96 32
96 135
96 54
96 89
96 84
96 145
96 32
51 101
51 101
0 128
101 51
101 51
84 40
73 122
40 89
40 89
142 22
142 102
142 22
51 83
142 22
102 2
76 32
32 40
102 142
9 130
9 64
145 40
47 122
120 64
135 39
26 59
71 104
26 104
26 63
71 104
32 76
72 28
104 26
26 63
104 26
35 31
72 91
32 33
32 40
64 130
26 104
71 63
71 63
71 63
102 95
102 70
102 22
76 32
76 145
31 102
95 102
63 99
63 139
63 58
63 9
63 85
122 47
104 26
51 101
40 84
58 71
58 59
123 109
123 12
111 72
39 135
32 40
32 84
39 110
102 94
102 25
102 31
102 95
102 140
102 22
71 58
63 9
32 40
40 89
40 84
40 32
84 40
84 40
51 0
145 40
51 128
40 32
40 145
72 111
111 72
99 63
84 40
40 84
32 40
40 32
84 40
32 40
40 84
84 40
40 84
84 40
40 84
84 40
40 84
84 40
32 96
91 72
135 39
135 39
64 120
64 104
122 73
122 47
111 72
122 47
63 99
105 54
105 89
105 96
105 80
105 110
105 145
105 100
105 135
72 111
111 72
120 71
142 31
102 31
102 95
102 22
102 116
102 132
72 111
40 84
72 91
76 100
142 31
35 123
35 31
63 99
76 32
32 54
32 80
32 40
40 145
84 40
143 51
120 64
120 64
120 97
40 32
137 93
84 40
95 31
94 119
99 63
68 16
47 122
142 95
32 40
32 40
51 83
120 64
120 61
54 80
54 32
26 63
59 104
120 63
32 40
25 22
95 102
123 109
123 12
123 35
142 31
32 76
104 59
32 54
84 40
40 32
32 40
40 54
40 89
40 33
40 39
40 96
40 80
40 76
40 84
40 110
40 145
40 32
40 100
40 135
40 105
40 84
40 32
40 145
99 63
122 73
40 84
130 9
130 64
32 33
32 40
145 32
84 40
91 72
84 40
84 145
84 40
40 84
122 73
122 47
64 26
64 59
68 16
105 40
72 60
72 91
72 91
51 83
54 32
102 142
51 82
51 143
51 18
51 128
71 8
71 117
71 97
71 63
71 99
71 59
71 61
71 26
71 139
71 58
71 120
71 129
24 72
24 60
142 22
59 9
22 102
9 63
9 99
9 139
9 85
71 26
39 96
71 104
76 33
102 95
102 70
91 72
72 91
59 71
71 104
76 32
76 100
123 109
123 12
95 102
40 54
40 89
40 33
40 39
40 96
40 80
40 76
40 84
40 110
40 145
40 32
40 100
40 135
40 105
71 63
71 63
145 40
40 84
40 32
145 40
40 84
91 72
102 142
102 109
102 123
102 94
102 25
102 31
102 95
102 125
102 2
102 119
102 140
102 22
102 116
102 20
102 12
102 132
102 35
125 116
95 102
2 94
40 54
40 89
40 33
40 39
40 96
40 80
40 76
40 84
40 110
40 145
40 32
40 100
40 135
40 105
72 107
72 74
72 60
72 126
72 28
72 111
71 104
71 26
72 91
64 120
64 104
40 84
91 72
40 84
40 32
145 84
40 135
72 91
72 60
84 145
84 32
24 60
39 135
72 60
71 63
40 89
40 84
84 40
76 32
76 40
76 32
40 89
40 84
84 40
40 84
40 76
40 84
120 64
89 40
89 40
84 76
84 89
68 16
72 107
72 74
72 60
72 126
72 28
72 111
123 12
123 35
123 12
123 35
142 22
142 102
117 26
91 72
123 12
123 35
64 120
64 97
64 104
130 9
26 104
76 84
102 25
102 22
71 59
12 109
12 123
12 35
40 89
78 103
44 128
40 89
40 84
40 145
40 32
40 135
94 95
104 26
40 100
26 117
60 24
145 40
72 91
40 54
40 89
40 33
40 96
40 80
40 76
40 84
40 110
40 145
40 32
40 100
40 135
40 105
40 54
40 89
40 33
40 39
40 96
40 80
40 76
40 84
40 110
40 145
40 32
40 100
40 135
40 105
102 70
70 95
71 129
71 120
71 120
71 120
71 120
31 95
31 95
100 105
26 71
63 139
87 26
40 32
130 64
26 87
130 9
89 84
91 72
70 95
98 86
40 32
102 94
102 132
71 104
71 26
70 22
72 107
72 74
72 60
72 126
72 28
72 111
72 91
89 33
76 84
76 84
84 76
84 89
91 72
84 40
104 26
40 89
64 87
39 135
64 130
137 61
137 120
137 64
72 91
40 84
61 137
119 22
137 79
137 61
137 64
137 129
137 104
12 109
12 123
135 40
63 99
135 40
135 100
135 39
84 40
51 128
33 89
40 84
84 40
39 135
26 8
84 89
139 63
139 85
40 84
84 40
40 89
26 71
71 104
12 102
26 71
26 59
26 58
122 73
122 47
89 40
33 100
89 33
71 26
71 117
71 26
33 89
40 135
26 71
26 71
26 71
84 89
99 63
99 63
63 99
26 71
26 71
84 89
64 59
123 12
123 35
123 109
123 12
123 35
130 9
117 71
31 95
31 22
31 109
31 123
31 94
31 95
31 119
31 140
31 22
31 12
31 132
31 35
31 69
104 71
104 59
71 104
71 26
91 72
12 109
12 123
12 35
100 33
12 109
12 123
12 35
39 135
135 39
135 39
132 22
51 83
40 96
26 134
26 8
26 71
26 117
26 97
26 63
26 99
26 59
26 79
26 61
26 139
26 58
26 120
26 9
26 64
26 85
26 129
95 102
31 35
72 111
130 9
130 64
111 72
101 51
51 101
12 109
12 123
12 35
89 84
130 9
123 12
123 35
104 59
40 89
123 109
123 12
123 35
95 31
130 9
130 64
64 104
64 130
31 102
31 102
142 95
84 32
84 32
84 32
32 84
64 71
89 40
139 63
139 63
137 93
130 9
85 63
85 99
85 139
85 58
85 9
130 9
40 32
25 102
40 89
20 25
31 102
89 40
89 40
40 89
59 26
71 64
91 24
31 116
32 40
40 84
71 104
84 89
84 40
40 84
78 103
139 63
89 84
89 84
71 59
71 26
12 102
24 91
12 109
12 123
12 35
40 84
91 72
40 32
84 40
84 40
40 84
84 40
84 40
84 40
40 84
40 84
84 40
40 84
40 84
84 40
84 40
26 71
40 84
84 40
84 40
40 84
40 84
84 40
40 84
84 40
40 84
84 40
40 84
84 40
84 40
40 84
84 40
40 84
72 91
72 111
72 60
32 84
51 101
26 104
51 88
51 82
51 143
51 18
58 59
72 111
76 33
91 72
134 71
134 59
134 26
91 72
111 72
111 72
84 89
9 130
12 109
12 123
12 35
12 109
12 123
12 35
72 91
135 40
135 100
84 40
102 142
102 109
102 123
102 94
102 25
102 31
102 95
102 125
102 2
102 119
102 140
102 70
102 22
102 116
102 20
102 12
102 132
102 35
102 4
122 47
100 76
59 134
25 20
26 71
102 142
102 109
102 123
102 94
102 25
102 31
102 95
102 125
102 2
102 119
102 140
102 70
102 22
102 116
102 20
102 12
102 132
102 35
102 4
122 47
96 32
99 139
99 85
125 102
71 26
32 40
47 122
40 32
25 102
40 84
32 40
122 47
26 71
26 63
26 58
20 25
25 102
40 84
89 84
76 100
84 40
84 32
76 100
47 122
31 35
100 76
109 102
40 32
102 109
26 63
26 71
145 32
100 32
102 22
102 22
143 82
102 22
102 22
71 26
40 96
104 26
32 40
32 40
32 84
32 40
32 100
100 32
40 84
40 32
40 54
40 89
40 33
40 96
40 80
40 76
40 84
40 110
40 145
40 32
40 100
40 135
40 105
24 60
40 54
40 89
40 33
40 39
40 96
40 80
40 76
40 84
40 110
40 145
40 32
40 100
40 135
40 105
89 84
26 63
32 40
32 84
71 79
63 26
91 24
91 72
63 26
26 63
134 59
96 40
96 54
96 89
96 80
96 110
96 32
96 135
122 47
120 64
120 64
114 74
120 64
120 64
120 64
9 130
64 120
64 130
72 107
72 74
72 60
72 126
72 28
72 111
9 130
12 109
12 123
12 56
12 35
24 91
40 96
64 97
64 120
64 120
64 130
64 9
64 120
64 130
39 135
111 72
71 59
71 26
32 40
104 71
139 63
40 32
137 120
35 31
35 31
123 102
84 96
89 40
143 82
40 89
59 134
64 120
64 9
71 104
76 100
31 22
76 100
100 76
76 100
89 84
99 63
32 84
32 54
60 24
47 60
84 89
76 33
24 60
130 9
130 64
58 63
32 84
32 40
12 123
84 40
40 84
26 8
26 8
40 54
40 89
40 33
40 96
40 80
40 76
40 84
40 110
40 145
40 32
40 100
40 135
40 105
26 71
84 76
76 84
76 100
96 84
64 120
122 47
123 109
123 12
123 35
123 109
123 12
123 35
120 64
120 64
68 16
104 26
24 60
60 24
114 74
71 59
12 109
12 123
12 35
139 63
142 102
142 22
68 16
47 60
32 89
91 72
31 116
100 33
33 100
26 8
26 71
26 97
26 59
26 129
26 63
84 76
71 26
22 142
22 109
22 123
22 94
22 25
22 31
22 95
22 125
22 2
22 119
22 140
22 70
22 116
22 20
22 12
22 132
22 35
22 4
71 58
54 40
80 40
51 88
51 82
51 143
100 40
33 40
24 60
51 128
51 101
101 51
130 9
130 64
89 32
72 91
9 130
9 64
102 142
102 109
102 123
102 94
102 25
102 31
102 95
102 125
102 2
102 119
102 140
102 70
102 22
102 116
102 20
102 12
102 132
102 35
40 54
40 89
40 33
40 39
40 80
40 76
40 84
40 110
40 145
40 100
40 135
40 105
61 117
22 102
54 80
130 9
40 89
89 40
102 20
68 16
84 40
91 72
32 89
32 40
32 40
32 40
76 100
132 22
31 102
130 9
130 64
125 20
84 89
40 89
89 32
84 89
76 40
102 4
24 60
40 76
76 40
84 40
40 76
72 60
40 54
40 89
40 33
40 96
40 80
40 76
40 84
40 110
40 145
40 32
40 100
40 135
40 105
76 40
40 76
76 40
84 40
76 32
89 40
40 84
31 142
33 40
32 40
54 40
40 32
40 32
84 40
32 40
63 71
89 40
89 40
32 76
84 40
84 32
26 63
63 26
76 32
84 40
91 72
84 40
134 71
134 59
72 91
72 111
72 107
72 74
72 60
64 120
64 120
130 9
64 9
91 72
64 130
111 72
95 94
22 119
35 31
139 63
94 102
72 28
51 83
63 26
63 71
64 120
119 102
47 122
120 97
109 102
0 78
25 22
76 40
78 103
72 91
63 26
40 76
76 40
40 89
40 33
91 72
130 9
89 40
142 102
40 89
98 86
98 86
122 47
39 135
39 135
60 47
11 51
40 76
47 60
47 60
137 120
71 59
54 80
111 72
24 60
139 63
91 72
91 72
63 139
40 96
91 72
58 63
64 120
64 130
64 9
64 120
122 47
64 120
64 59
72 111
72 111
72 107
72 74
72 60
72 126
72 28
71 26
9 130
9 64
12 109
12 123
12 35
78 112
78 103
72 91
47 60
54 80
104 134
104 8
104 71
104 117
104 97
104 63
104 99
104 59
104 79
104 61
104 26
104 139
104 58
104 120
104 9
104 64
104 85
104 129
40 32
24 60
31 4
59 71
64 104
47 53
47 122
47 73
26 104
26 134
26 8
26 71
26 117
26 97
26 63
26 99
26 59
26 79
26 61
26 139
26 58
26 120
26 9
26 64
26 85
26 129
39 96
26 71
26 71
100 33
71 26
64 98
91 72
64 57
64 26
100 40
145 40
71 120
31 95
31 116
104 134
104 8
104 71
104 117
104 97
104 63
104 99
104 59
104 79
104 61
104 26
104 139
104 58
104 120
104 9
104 64
104 85
104 129
71 26
39 135
71 26
59 71
72 28
31 119
72 73
72 73
139 63
51 0
51 88
51 83
51 78
51 82
51 11
51 143
51 18
51 128
33 100
61 117
40 54
40 89
40 33
40 96
40 80
40 76
40 84
40 110
40 145
40 32
40 100
40 135
40 105
72 111
72 107
72 74
72 60
72 73
72 126
72 28
102 20
72 91
51 18
72 111
72 111
72 107
72 74
72 60
72 73
72 126
72 28
72 111
72 60
125 102
72 60
35 123
35 31
78 0
40 54
31 35
71 93
26 71
26 63
59 71
58 63
143 51
63 26
54 40
40 54
82 88
82 51
82 143
54 40
40 145
122 73
91 72
72 91
72 24
91 72
84 32
24 72
91 72
93 137
93 58
26 58
26 8
26 8
135 39
72 60
72 91
64 120
122 47
122 47
68 16
120 64
12 109
12 123
12 35
12 109
12 123
12 35
12 109
12 123
12 35
51 88
51 82
51 143
51 18
54 80
95 2
25 102
64 120
64 130
64 120
64 120
64 130
64 120
142 102
142 22
143 88
102 142
135 40
35 123
72 73
72 60
40 54
40 89
40 33
40 39
40 96
40 80
40 76
40 84
40 110
40 145
40 32
40 100
40 135
40 105
73 72
58 26
109 12
64 120
64 130
64 9
64 120
64 130
64 120
51 0
51 88
51 83
51 78
51 82
51 11
51 143
51 18
51 128
72 73
72 73
72 60
89 84
39 135
89 54
89 39
89 80
89 40
89 145
89 32
89 100
89 135
89 105
143 88
54 80
54 80
135 39
51 36
63 58
139 63
72 111
72 107
72 74
72 60
72 73
72 126
72 28
72 111
72 60
122 47
68 16
72 111
47 60
24 60
24 72
35 25
35 12
35 109
35 123
35 94
35 31
35 95
35 2
35 119
35 140
35 70
35 22
35 132
35 69
40 89
40 89
82 51
12 109
12 123
12 35
102 95
102 123
102 20
102 132
102 35
102 142
102 109
102 123
102 94
102 31
102 95
102 125
102 2
102 119
102 140
102 22
102 116
102 20
102 12
102 132
88 143
12 109
12 123
12 35
82 51
83 78
47 60
47 60
39 135
64 9
102 35
102 142
102 109
102 123
102 94
102 25
102 31
102 95
102 125
102 2
102 119
102 140
102 70
102 22
102 116
102 20
102 12
102 132
102 4
120 64
102 125
63 99
63 58
35 123
35 31
111 72
88 143
35 25
35 12
35 109
35 123
35 94
35 31
35 95
35 2
35 119
35 140
35 70
35 22
35 132
35 69
36 51
32 40
95 2
40 54
40 89
40 33
40 96
40 80
40 76
40 84
40 110
40 145
40 32
16 68
95 2
35 123
35 31
54 80
51 36
104 26
51 82
143 51
104 71
22 102
51 143
104 26
51 88
51 82
51 143
123 109
22 102
40 89
51 82
51 0
51 78
51 18
51 128
72 111
51 18
111 72
9 130
9 64
142 102
142 22
51 101
135 39
142 25
102 22
130 9
88 143
88 143
64 130
25 102
25 22
25 95
72 111
72 107
72 74
72 60
72 73
72 126
72 28
72 60
26 71
88 143
96 39
137 120
39 96
40 54
40 89
40 33
40 39
40 96
40 80
40 76
40 84
40 110
40 145
40 32
40 100
40 135
40 105
40 54
40 89
40 33
40 39
40 96
40 80
40 76
40 84
40 110
40 145
40 32
40 100
40 135
40 105
40 96
64 9
64 130
64 130
47 122
104 71
22 102
104 71
9 58
68 16
104 26
96 32
130 9
130 64
18 51
96 40
72 60
130 9
130 64
47 60
132 140
39 135
39 135
18 51
18 101
142 95
64 130
71 104
72 28
130 64
64 86
86 64
51 0
51 83
51 44
51 128
128 83
58 59
119 22
71 117
71 26
71 93
72 60
25 102
71 26
58 9
99 58
99 58
86 98
51 143
26 71
26 71
63 58
71 26
72 107
72 74
72 60
72 73
72 126
72 28
143 51
58 63
71 26
71 26
26 71
63 58
26 71
64 120
64 120
122 73
122 47
120 64
130 9
130 64
63 9
82 88
54 80
47 60
102 142
143 51
123 109
123 12
123 35
54 135
47 72
71 63
26 71
104 71
71 26
63 71
9 130
9 64
72 28
9 58
12 109
12 123
12 35
12 109
12 123
12 35
102 35
102 142
102 109
102 123
102 94
102 25
102 31
102 95
102 125
102 2
102 119
102 140
102 70
102 22
102 116
102 20
102 12
102 132
35 142
47 122
71 63
71 63
89 32
71 58
71 129
71 59
47 60
130 9
130 64
54 80
63 26
39 135
39 135
35 123
135 39
135 39
91 72
120 64
120 97
64 9
64 120
64 130
64 120
9 130
9 64
9 130
9 64
105 40
72 111
72 73
35 25
35 12
35 109
35 123
35 94
35 31
35 95
35 2
35 119
35 140
35 70
35 22
35 132
35 69
59 71
51 11
71 104
99 63
71 104
12 109
12 123
12 35
103 78
102 142
102 142
142 95
12 35
71 63
99 63
99 26
71 104
0 51
26 99
104 71
71 104
71 120
64 120
64 130
63 9
47 60
99 85
9 63
116 31
71 8
71 117
71 97
71 63
71 99
71 59
71 61
71 26
71 139
71 58
71 120
71 129
71 104
47 60
104 71
71 104
24 60
102 22
35 142
60 24
103 88
103 78
47 60
142 102
63 98
63 26
63 58
63 57
63 71
59 71
47 60
26 8
101 51
101 51
71 26
70 94
72 111
72 107
72 74
72 60
72 73
72 126
72 28
72 60
72 111
72 107
72 74
72 60
72 73
72 126
72 28
91 72
91 72
123 102
91 24
63 99
63 139
63 58
63 85
63 9
123 109
123 12
123 35
68 16
82 88
82 88
68 16
68 16
95 31
72 91
24 91
72 60
72 91
91 72
73 60
72 28
54 80
54 145
102 132
102 31
102 95
102 22
72 91
78 83
82 88
82 143
60 72
91 72
76 33
139 63
33 76
76 33
137 61
137 120
137 64
137 104
32 84
32 40
40 54
40 89
40 33
40 39
40 96
40 80
40 76
40 84
40 110
40 145
40 32
40 100
40 135
40 105
40 54
40 89
40 33
40 39
40 80
40 76
40 84
40 110
40 145
40 100
40 135
40 105
40 54
40 89
40 33
40 39
40 96
40 80
40 76
40 84
40 110
40 145
40 32
40 100
40 135
40 105
40 54
40 89
40 33
40 39
40 96
40 80
40 76
40 84
40 110
40 145
40 32
40 100
40 135
40 105
100 40
54 80
32 89
135 39
72 73
72 91
91 72
89 32
100 40
100 135
12 109
12 123
12 35
91 72
84 89
84 54
84 45
84 33
84 39
84 96
84 80
84 76
84 110
84 145
84 32
84 100
84 135
84 105
35 123
35 123
99 63
40 89
76 100
72 91
72 73
100 76
25 102
25 102
100 76
60 72
64 130
64 120
64 9
40 89
40 89
72 111
72 107
72 74
72 60
72 73
72 126
72 28
40 89
88 82
88 143
72 60
142 22
74 72
102 142
142 102
142 22
40 89
142 102
142 22
47 60
72 74
72 60
72 111
18 51
25 125
47 60
18 51
40 54
40 89
40 33
40 39
40 80
40 76
40 84
40 110
40 145
40 100
40 135
40 105
40 89
40 89
40 89
32 40
72 111
72 107
72 74
72 60
72 73
72 126
72 28
40 89
64 120
64 9
111 72
64 120
64 120
64 130
64 120
122 47
31 35
31 35
31 35
31 35
31 35
72 111
31 12
31 109
31 123
31 94
31 95
31 119
31 140
31 22
31 132
31 35
31 69
102 123
102 94
102 2
102 142
145 33
33 145
100 40
100 135
145 40
78 83
72 28
123 102
18 51
104 64
76 40
76 32
94 109
94 123
94 2
94 70
94 12
94 35
94 4
94 69
64 120
64 104
54 145
40 54
40 89
40 33
40 39
40 96
40 80
40 76
40 84
40 110
40 145
40 32
40 100
40 135
40 105
35 123
35 123
145 96
40 89
84 40
89 40
51 88
54 80
72 60
40 89
88 51
40 76
109 123
32 76
123 102
123 109
123 12
123 35
123 109
142 102
32 40
32 84
84 32
35 31
51 88
51 82
51 143
51 18
40 89
84 40
135 40
135 54
135 80
40 32
145 40
40 105
54 80
39 40
101 88
101 51
76 32
89 40
40 89
63 139
40 89
89 40
91 72
64 120
64 120
64 120
64 97
64 120
64 120
130 9
47 60
139 63
139 63
139 63
16 68
12 109
12 123
12 35
139 63
116 95
51 88
142 102
142 22
51 88
51 82
51 143
96 145
32 76
40 89
54 80
137 120
32 96
39 135
141 13
135 96
135 39
32 40
32 84
32 76
95 31
12 109
12 123
12 35
12 109
12 123
35 31
78 51
22 123
22 94
22 25
22 119
22 140
22 12
22 132
22 35
94 140
40 54
40 89
40 33
40 39
40 96
40 80
40 76
40 84
40 110
40 145
40 32
40 100
40 135
40 105
25 22
109 12
84 40
64 120
64 130
64 9
64 120
64 130
40 84
51 78
96 40
31 95
51 11
72 60
142 95
69 116
95 116
72 111
72 107
72 74
72 60
72 73
72 126
72 28
39 135
135 39
72 91
91 72
47 60
139 63
70 102
40 84
40 32
120 64
39 135
22 25
88 101
102 123
102 2
47 60
18 51
143 88
91 72
139 63
96 32
130 9
130 64
130 9
130 64
35 123
35 31
139 9
35 123
39 135
39 135
78 112
39 135
72 91
111 72
54 84
72 111
24 60
32 89
32 40
32 84
72 73
84 40
12 109
12 123
12 35
54 80
89 32
101 88
101 88
111 107
122 47
64 130
64 120
72 60
139 9
91 72
64 120
12 123
13 141
40 84
40 32
40 84
40 32
12 109
12 123
12 35
12 109
12 123
12 35
76 32
32 89
64 120
64 130
32 84
64 87
47 60
40 39
120 97
60 47
145 40
32 76
76 32
139 85
72 91
91 72
83 51
39 135
39 135
120 64
120 64
120 64
120 64
68 16
68 16
139 63
139 63
68 16
72 111
72 107
72 74
72 60
72 73
72 126
64 120
64 130
64 104
64 130
64 9
64 130
64 104
60 24
102 35
102 142
102 109
102 123
102 94
102 25
102 31
102 95
102 125
102 2
102 119
102 140
102 70
102 22
102 116
102 20
102 12
102 132
102 4
24 60
84 40
103 78
120 64
63 139
12 109
12 123
12 35
120 64
70 102
130 9
40 84
64 120
40 54
40 89
40 33
40 39
40 80
40 76
40 84
40 110
40 145
40 100
40 135
40 105
32 40
84 45
73 60
139 63
47 60
78 112
78 103
78 83
12 109
12 123
12 35
12 109
12 123
12 35
40 54
40 89
40 33
40 39
40 96
40 80
40 76
40 84
40 110
40 145
40 32
40 100
40 135
40 105
69 116
40 89
40 84
84 40
32 40
123 22
120 64
47 122
64 130
31 102
31 102
51 88
51 82
51 143
102 70
102 132
31 95
35 123
40 89
123 12
40 33
88 51
33 40
32 40
84 89
95 102
84 89
130 9
102 95
26 134
26 8
26 71
26 117
26 97
26 63
26 99
26 59
26 79
26 61
26 139
26 58
26 120
26 9
26 64
26 85
26 129
86 57
84 80
47 60
40 33
95 102
12 35
120 64
123 109
123 12
123 35
139 99
139 85
104 71
72 60
72 60
72 111
40 89
64 120
94 22
94 109
94 123
94 25
94 31
94 95
94 90
94 125
94 2
94 56
94 102
94 119
94 140
94 70
94 116
94 20
94 12
94 132
94 35
94 4
94 69
40 32
70 102
54 80
32 40
40 76
40 135
60 24
25 22
25 109
25 123
25 94
25 31
25 95
25 90
25 125
25 2
25 56
25 102
25 119
25 140
25 70
25 116
25 20
25 12
25 132
25 35
25 4
25 69
25 102
135 40
40 54
40 89
40 33
40 39
40 96
40 80
40 76
40 84
40 110
40 145
40 32
40 100
40 135
40 105
102 25
102 20
63 9
22 25
40 54
40 89
40 33
40 39
40 96
40 80
40 76
40 84
40 110
40 145
40 32
40 100
40 135
40 105
102 94
102 31
102 95
102 119
102 22
102 132
84 32
12 22
84 32
102 142
95 102
84 89
25 22
54 80
82 83
82 83
84 32
123 35
40 89
84 32
35 123
40 54
40 89
40 33
40 39
40 96
40 80
40 76
40 84
40 110
40 145
40 32
40 100
40 135
40 105
101 143
143 101
40 54
40 89
40 33
40 96
40 80
40 76
40 84
40 110
40 145
40 32
40 100
40 135
40 105
101 143
96 40
101 143
63 58
51 0
51 88
51 82
51 143
51 18
84 45
40 54
40 89
40 33
40 39
40 96
40 80
40 76
40 84
40 110
40 145
40 32
40 100
40 135
40 105
54 80
63 99
63 26
63 139
63 58
63 85
63 9
26 63
63 26
72 60
40 89
40 32
40 105
54 39
54 135
58 63
40 54
40 89
40 33
40 96
40 80
40 76
40 84
40 110
40 145
40 32
40 100
40 135
40 105
40 84
72 111
72 60
72 111
142 95
95 109
95 116
95 116
58 71
111 72
71 58
72 111
72 107
72 74
72 60
72 73
72 126
72 28
72 111
72 60
142 95
63 9
63 58
111 72
64 120
47 122
59 71
22 123
22 94
22 25
22 119
22 140
22 12
22 132
22 35
68 16
68 16
68 16
22 102
84 40
84 32
40 32
86 57
31 94
31 95
31 102
31 119
31 22
31 132
35 22
39 96
119 22
132 102
40 54
40 89
40 33
40 39
40 96
40 80
40 76
40 84
40 110
40 145
40 32
40 100
40 135
40 105
120 97
40 100
132 22
40 84
40 145
40 32
35 123
20 22
96 32
25 95
140 22
71 58
71 58
70 102
70 102
105 40
103 78
32 40
89 40
12 123
12 35
12 123
12 35
40 54
40 89
40 33
40 96
40 80
40 76
40 84
40 110
40 145
40 32
40 100
40 135
40 105
47 60
24 60
25 125
60 24
139 63
64 87
71 59
71 59
71 59
71 59
39 135
89 84
84 89
89 40
26 8
64 120
64 59
64 120
64 120
64 120
64 120
64 104
59 71
72 60
59 71
35 123
120 97
145 40
137 120
60 72
139 71
76 32
12 109
12 123
12 35
20 22
143 82
78 14
78 112
78 103
120 64
40 54
40 89
40 33
40 96
40 80
40 76
40 84
40 110
40 145
40 32
40 100
40 135
40 105
64 130
64 63
102 35
102 142
102 109
102 123
102 94
102 25
102 31
102 95
102 125
102 2
102 119
102 140
102 70
102 22
102 116
102 20
102 12
102 132
78 14
78 112
78 103
78 83
82 143
82 103
130 9
130 64
68 16
84 32
40 54
40 89
40 33
40 39
40 96
40 80
40 76
40 84
40 110
40 145
40 32
40 100
40 135
40 105
40 145
40 89
71 58
71 59
71 58
142 22
142 102
102 25
95 102
72 60
137 120
95 102
9 58
104 26
26 104
126 28
58 9
26 57
58 71
104 26
64 87
22 123
22 94
22 25
22 119
22 140
22 12
22 132
22 35
22 94
84 40
80 54
87 64
26 104
26 71
26 59
26 58
71 59
71 79
32 40
40 32
39 135
39 135
72 60
72 60
32 40
72 60
40 32
72 111
72 107
72 74
72 60
72 73
72 126
72 28
64 120
64 9
64 130
64 120
72 60
47 122
123 109
123 12
123 35
101 51
72 60
26 63
68 16
130 9
130 64
76 84
32 84
63 26
84 76
140 22
125 102
76 33
94 22
142 95
71 59
123 109
123 12
123 35
22 140
22 140
33 76
79 71
130 9
130 64
130 64
35 31
88 143
35 123
35 123
35 31
73 122
73 47
123 22
126 28
32 54
32 84
71 8
47 73
96 40
96 89
96 39
96 32
96 135
96 105
73 47
76 100
12 22
96 40
33 40
100 76
76 100
100 76
96 80
96 135
40 105
40 54
40 89
40 33
40 39
40 96
40 80
40 76
40 84
40 110
40 145
40 32
40 100
40 135
40 105
72 60
40 54
40 89
40 33
40 96
40 80
40 76
40 84
40 110
40 145
40 32
40 100
40 135
40 105
72 28
72 111
111 72
139 63
100 32
96 39
96 80
96 135
96 76
71 59
71 58
32 40
40 89
40 89
140 22
71 59
39 135
58 59
130 9
32 100
40 96
32 84
73 72
142 95
142 95
32 76
86 92
76 96
22 25
89 40
40 89
104 26
40 84
60 24
94 22
71 26
58 59
26 63
63 99
8 59
31 4
63 99
71 26
18 51
143 88
143 51
40 54
40 89
40 33
40 39
40 96
40 80
40 76
40 84
40 110
40 145
40 32
40 100
40 135
40 105
84 76
84 32
72 60
24 60
58 63
89 40
89 40
26 59
26 58
76 96
89 80
89 135
84 32
32 84
84 32
84 32
64 120
64 120
64 9
64 120
64 120
64 9
130 9
130 9
130 64
64 120
120 97
142 95
102 142
142 102
102 123
102 94
102 2
72 60
102 142
72 60
64 120
63 99
32 84
20 25
20 25
20 25
20 25
76 32
71 26
139 99
135 39
40 89
40 89
64 87
40 89
39 135
100 76
89 40
116 69
26 71
104 26
26 59
26 59
40 54
40 89
40 96
40 80
40 76
40 145
40 32
40 100
40 135
40 105
99 139
100 40
40 80
72 111
72 60
76 100
32 96
72 60
63 26
125 25
31 142
31 22
39 135
40 84
40 32
32 40
12 109
12 123
12 35
12 109
12 123
12 35
12 109
12 123
12 35
12 123
12 35
12 109
12 123
12 35
123 109
123 12
123 35
123 109
123 109
123 12
123 35
76 100
76 100
25 125
76 100
100 40
104 26
31 12
31 109
31 123
31 94
31 95
31 2
31 119
31 140
31 70
31 22
31 132
31 35
31 69
22 102
31 102
64 130
64 9
64 130
137 71
76 32
130 9
130 64
142 102
63 26
63 26
40 54
40 89
40 33
40 39
40 80
40 76
40 84
40 110
40 145
40 100
40 135
40 105
71 58
32 40
32 84
32 89
89 32
26 63
32 76
91 72
122 47
122 47
102 142
102 2
102 35
102 25
102 125
102 2
102 119
102 22
72 111
72 107
72 74
72 60
72 73
72 126
72 28
72 111
145 40
72 60
142 35
72 91
142 95
104 26
78 112
2 102
96 76
26 104
76 96
102 2
96 40
91 72
35 123
35 31
35 132
116 102
71 8
71 117
71 97
71 63
71 99
71 59
71 79
71 61
71 26
71 139
71 58
71 120
71 9
71 64
71 129
71 104
26 63
71 85
12 109
12 123
12 35
64 71
64 104
64 120
64 120
130 9
130 64
95 109
32 84
145 54
26 71
76 96
25 22
107 111
111 107
39 135
72 91
32 84
135 39
9 130
9 64
9 139
104 26
139 63
111 72
71 59
91 72
9 64
39 135
9 139
72 73
39 135
130 9
130 64
39 135
72 91
102 22
102 25
139 63
145 40
40 145
95 125
130 9
145 40
95 102
32 76
32 145
32 84
89 40
40 89
40 89
32 96
40 32
40 32
40 32
40 54
40 89
40 33
40 39
40 96
40 80
40 76
40 84
40 110
40 145
40 32
40 100
40 135
40 105
135 40
40 32
89 40
71 26
32 84
71 59
71 26
32 40
85 26
145 40
145 32
32 145
12 123
12 35
12 35
95 102
84 32
91 72
32 84
96 40
139 26
72 91
72 111
96 54
96 89
96 80
96 110
96 145
96 32
96 100
96 135
96 105
84 32
96 54
96 89
96 80
96 110
96 32
96 135
101 51
93 71
58 71
58 26
58 71
58 26
96 40
96 32
96 32
91 72
72 91
72 60
91 72
72 91
72 73
111 72
91 72
120 71
123 109
123 12
72 91
72 28
32 89
72 111
72 107
72 74
72 60
72 73
94 22
22 102
26 63
22 102
72 60
39 135
51 82
51 82
25 102
40 84
40 32
102 94
102 31
102 119
102 140
102 22
102 132
60 72
122 47
8 26
40 32
31 102
40 54
40 89
40 33
40 39
40 80
40 76
40 84
40 110
40 145
40 100
40 135
40 105
40 54
40 89
40 33
40 39
40 96
40 80
40 76
40 84
40 110
40 145
40 32
40 100
40 135
40 105
40 54
40 89
40 33
40 39
40 96
40 80
40 76
40 84
40 110
40 145
40 32
40 100
40 135
40 105
117 8
117 26
84 40
135 54
73 47
82 51
39 135
130 9
89 32
122 47
9 139
139 9
32 89
82 51
76 40
111 72
71 26
76 33
33 76
76 33
33 76
76 33
32 40
40 76
54 40
40 54
40 89
40 33
40 39
40 80
40 76
40 84
40 110
40 145
40 100
40 135
40 105
40 32
76 40
139 26
71 26
71 26
40 54
26 129
32 105
91 72
24 60
134 71
134 59
134 59
32 40
26 139
73 60
122 47
122 47
72 60
72 24
72 111
72 73
72 111
72 107
72 74
72 60
72 73
72 126
72 28
72 111
130 9
130 64
130 9
72 91
72 111
72 60
72 60
72 28
142 25
105 40
63 26
59 71
54 40
71 59
119 22
0 51
71 59
71 26
71 129
51 0
84 40
84 32
9 85
32 40
32 84
32 89
40 54
40 89
40 33
40 39
40 96
40 80
40 76
40 84
40 110
40 145
40 32
40 100
40 135
40 105
61 137
8 26
40 54
32 40
59 71
59 26
137 8
32 40
40 76
104 26
104 9
0 51
76 40
84 40
40 76
12 123
40 84
84 40
89 40
129 26
32 40
84 76
74 114
40 32
40 54
40 89
40 33
40 39
40 80
40 76
40 84
40 110
40 145
40 100
40 135
40 105
32 40
32 84
76 40
40 32
89 40
32 40
40 32
40 76
32 40
40 76
40 33
33 40
40 33
33 40
40 54
51 0
51 88
51 82
51 143
51 18
76 40
26 129
26 8
26 59
26 134
26 8
26 71
26 117
26 97
26 63
26 99
26 59
26 79
26 61
26 139
26 58
26 120
26 9
26 64
26 85
26 129
26 71
26 63
26 59
26 58
26 71
26 71
26 134
26 8
26 71
26 117
26 63
26 99
26 59
26 61
26 139
26 58
26 129
84 32
120 64
72 111
72 107
72 74
72 60
72 73
72 126
72 28
72 60
18 51
72 60
120 64
47 73
76 100
71 26
71 26
35 94
135 39
135 100
84 32
39 135
142 25
61 71
60 72
76 40
54 40
89 40
32 89
54 40
89 32
32 40
40 76
40 54
54 76
40 54
40 89
40 33
40 39
40 96
40 80
40 76
40 84
40 110
40 145
40 32
40 100
40 135
40 105
40 32
71 59
76 54
76 40
130 9
130 64
130 9
32 40
94 12
40 54
40 89
40 33
40 39
40 96
40 80
40 76
40 84
40 110
40 145
40 32
40 100
40 135
40 105
40 89
40 89
32 40
104 26
32 40
51 82
40 32
25 31
25 31
111 60
12 94
40 54
111 72
82 88
82 51
71 58
94 12
72 111
39 135
40 32
32 89
135 39
54 40
39 135
129 26
32 40
31 12
31 109
31 123
31 94
31 95
31 2
31 119
31 140
31 70
31 22
31 132
31 35
31 69
32 40
32 40
32 40
89 40
32 40
32 40
32 40
40 33
84 32
134 59
33 40
84 40
84 32
58 71
58 63
58 59
58 26
84 32
111 60
63 26
47 122
35 123
72 60
35 142
35 123
139 9
12 109
12 123
12 35
71 120
26 58
72 60
142 25
39 135
32 84
9 139
84 40
72 111
31 22
89 40
24 60
22 142
72 60
89 40
38 126
126 38
40 89
89 40
32 40
32 84
123 109
123 12
130 9
130 9
25 22
142 102
142 22
142 102
142 22
40 89
102 142
102 142
39 135
102 20
60 72
89 40
89 40
32 84
84 32
32 84
84 32
60 111
32 84
84 32
63 59
73 72
73 60
61 129
61 129
84 89
40 89
126 38
40 89
89 40
39 135
40 89
130 9
91 72
40 33
33 40
40 33
40 33
33 40
135 39
89 40
122 47
122 47
59 63
139 63
130 9
12 123
12 35
12 109
12 123
12 35
12 109
12 123
12 35
130 9
130 64
35 31
35 132
142 25
101 51
120 64
32 76
32 145
32 40
32 40
101 51
130 9
130 64
100 76
40 89
130 9
89 40
35 25
35 12
35 109
35 123
35 94
35 31
35 95
35 2
35 119
35 140
35 70
35 22
35 132
35 69
35 140
40 89
0 51
72 60
89 40
96 40
84 40
59 134
120 71
40 84
102 35
102 142
102 109
102 123
102 94
102 25
102 31
102 95
102 125
102 2
102 119
102 140
102 70
102 22
102 116
102 20
102 12
102 132
102 4
120 64
25 102
9 130
9 64
70 102
40 33
139 63
76 100
123 12
117 8
100 76
71 26
33 40
71 26
40 33
33 40
32 84
58 63
84 80
94 102
51 88
51 82
51 143
51 18
101 51
64 120
123 109
123 12
22 119
72 111
72 28
59 71
142 95
104 26
125 102
25 95
35 31
26 104
32 96
26 63
104 26
26 104
60 47
60 47
102 109
102 20
35 123
35 31
35 132
104 26
31 142
31 22
31 22
130 9
64 120
64 104
120 71
40 54
40 89
40 33
40 39
40 96
40 80
40 76
40 84
40 110
40 145
40 32
40 100
40 135
40 105
47 122
94 140
26 104
25 95
25 95
40 54
40 89
40 33
40 39
40 96
40 80
40 76
40 84
40 110
40 145
40 32
40 100
40 135
40 105
142 25
71 120
135 100
100 135
135 100
96 40
89 84
89 32
139 63
71 26
76 40
84 40
64 120
40 84
40 32
140 22
78 83
22 102
40 84
58 63
59 26
139 63
51 143
32 40
47 122
135 39
26 59
26 71
32 89
84 40
84 89
89 84
84 89
71 79
59 26
78 112
31 4
117 8
35 123
71 120
71 26
71 120
71 26
130 64
40 54
40 89
40 33
40 39
40 96
40 80
40 76
40 84
40 110
40 145
40 32
40 100
40 135
40 105
63 139
130 9
130 64
71 120
47 60
26 63
26 99
26 71
26 71
40 89
58 59
40 89
26 117
26 117
26 71
26 59
26 71
135 39
135 110
64 120
12 123
35 95
35 119
35 140
35 70
72 60
68 16
122 47
68 16
64 104
64 120
64 97
64 130
64 104
64 120
64 130
64 120
64 9
135 40
64 120
64 120
60 72
40 89
135 100
76 40
35 31
122 47
145 76
135 100
39 135
71 26
71 120
120 71
47 60
145 54
39 135
39 135
39 135
145 54
40 76
40 135
40 135
135 40
40 32
96 32
104 26
32 40
32 96
71 26
71 26
96 40
98 57
78 82
31 12
31 109
31 123
31 94
31 95
31 2
31 119
31 140
31 70
31 22
31 132
31 35
31 69
98 57
64 120
12 109
12 123
12 35
64 120
68 16
76 40
145 54
96 40
120 71
96 54
96 89
96 80
96 110
96 32
96 135
95 25
39 135
135 39
135 39
35 123
111 72
111 60
54 80
26 59
26 64
96 54
96 89
96 39
96 80
96 110
96 145
96 100
96 135
96 105
120 64
26 71
84 40
84 89
26 120
26 71
26 59
26 71
122 47
122 47
59 26
72 91
72 60
72 111
116 95
71 117
117 71
71 26
71 26
91 72
31 102
84 80
78 112
78 103
117 26
84 40
59 26
40 84
32 40
64 9
89 96
40 32
32 40
139 63
84 40
40 84
84 40
40 84
47 122
45 84
84 45
39 135
45 84
84 40
84 45
40 84
135 39
71 59
71 59
102 25
95 102
73 122
117 26
26 71
26 120
26 8
26 8
40 32
32 40
60 73
134 71
134 59
26 117
26 63
135 39
68 16
122 47
143 88
72 24
72 60
72 73
20 102
116 69
12 109
12 123
12 35
12 109
12 123
12 35
12 109
12 123
12 35
12 109
12 123
12 35
2 102
142 95
47 60
120 64
84 100
117 8
31 12
31 109
31 123
31 94
31 95
31 2
31 119
31 140
31 70
31 22
31 132
31 35
31 69
76 32
76 100
143 78
143 82
143 103
78 112
78 103
78 143
59 134
120 64
64 120
64 104
64 120
54 145
33 32
58 63
58 59
125 20
51 18
26 63
94 95
32 33
60 73
145 40
40 54
40 89
40 33
40 39
40 96
40 80
40 76
40 84
40 110
40 145
40 32
40 100
40 135
40 105
54 32
40 145
64 120
32 54
35 31
26 117
63 139
117 26
130 9
130 9
8 97
45 89
45 84
39 135
40 54
40 89
40 33
40 96
40 80
40 76
40 84
40 110
40 145
40 32
40 100
40 135
40 105
58 64
84 40
59 9
84 45
100 76
89 40
145 54
89 40
134 71
134 59
134 61
134 64
102 35
102 142
102 109
102 123
102 94
102 25
102 31
102 95
102 125
102 2
102 119
102 140
102 70
102 22
102 116
102 20
102 12
102 132
145 89
72 111
72 107
72 74
72 60
72 73
72 126
72 28
72 111
72 107
72 74
72 60
72 73
72 126
72 28
76 100
26 8
26 71
84 40
142 95
122 47
64 104
22 25
145 40
63 9
12 123
12 35
109 12
91 72
32 84
40 89
40 89
82 51
26 63
26 63
26 63
84 32
51 82
84 32
88 51
51 88
117 8
78 83
78 83
64 130
89 40
47 122
89 40
137 8
137 117
137 97
137 79
137 61
137 120
137 64
32 84
40 89
32 84
72 91
72 60
59 26
117 8
91 72
94 102
82 51
82 18
82 143
88 51
82 51
143 51
139 85
111 107
145 40
122 47
78 82
82 78
135 100
32 84
18 51
32 76
32 100
40 32
145 89
91 72
96 54
96 89
96 80
96 110
96 145
96 32
96 100
96 135
96 105
26 71
72 60
72 91
84 40
84 32
32 84
32 76
51 82
51 143
51 18
84 32
51 101
32 84
32 89
63 99
63 139
63 58
63 85
63 9
135 39
84 40
142 22
68 16
68 16
47 122
137 120
64 120
64 59
139 63
73 72
78 82
78 103
78 143
99 9
99 9
78 82
73 122
63 139
63 58
63 85
63 99
68 16
57 86
89 32
120 64
95 31
26 139
114 74
139 63
96 40
84 40
40 84
40 54
40 89
40 33
40 39
40 96
40 80
40 76
40 84
40 110
40 145
40 32
40 100
40 135
40 105
91 72
9 130
9 130
139 63
143 51
22 25
22 95
25 102
64 97
122 73
84 40
91 72
71 120
47 73
71 134
71 59
145 105
73 122
57 86
135 39
134 71
134 59
58 71
58 59
72 60
72 60
72 91
72 60
122 47
91 72
47 122
103 78
94 142
76 100
130 9
130 64
145 105
12 109
12 123
12 35
22 102
76 100
68 16
71 8
54 40
145 32
74 114
102 25
94 22
22 102
76 100
128 78
100 76
104 8
76 100
102 22
76 40
72 91
72 60
72 60
72 60
84 40
40 84
40 84
76 100
84 40
40 100
102 25
102 25
25 95
25 95
71 79
104 8
130 9
64 59
64 104
64 120
132 102
142 102
95 102
22 102
142 102
102 142
102 94
102 140
84 40
94 102
102 94
102 25
45 84
140 102
145 89
145 105
40 84
145 105
84 40
84 40
40 54
35 123
40 84
84 40
40 84
40 89
71 97
71 97
71 97
71 59
71 104
40 54
40 89
40 33
40 39
40 80
40 76
40 84
40 110
40 145
40 100
40 135
40 105
25 102
96 105
40 96
89 40
40 89
84 32
137 117
137 98
135 39
122 47
64 117
47 122
130 64
117 8
68 16
64 130
64 104
120 64
64 120
123 109
123 12
123 35
125 102
25 102
145 89
145 105
31 12
31 109
31 123
31 94
31 95
31 2
31 119
31 140
31 70
31 22
31 132
31 35
31 69
45 84
73 122
76 84
104 134
104 8
104 71
104 117
104 97
104 63
104 99
104 59
104 79
104 61
104 26
104 139
104 58
104 120
104 9
104 64
104 85
104 129
102 31
78 83
78 112
78 103
104 71
95 25
78 83
78 82
78 103
78 143
84 76
40 54
40 89
40 33
40 39
40 96
40 80
40 76
40 84
40 110
40 145
40 32
40 100
40 135
40 105
89 40
116 95
59 134
78 83
26 8
26 71
104 64
84 40
63 99
94 102
40 89
40 89
64 104
40 84
40 84
120 64
120 64
123 12
39 135
64 120
39 135
135 39
84 40
40 84
84 40
71 26
40 84
84 32
89 40
84 40
89 40
40 89
40 84
84 89
135 39
134 59
135 39
89 84
89 40
63 26
122 47
122 47
64 120
64 120
64 104
26 8
72 122
72 60
72 73
72 47
72 60
72 60
72 60
142 95
95 102
71 117
104 71
72 60
26 71
91 72
26 104
51 88
51 82
51 143
100 32
82 51
51 0
51 88
51 78
51 82
51 11
51 143
51 18
51 128
72 91
71 104
71 104
71 59
51 82
40 96
63 71
145 32
40 84
40 84
117 104
101 51
72 60
40 84
40 32
47 122
64 120
64 9
64 130
104 117
39 135
116 95
95 22
64 120
64 120
32 76
32 100
71 8
71 120
40 54
40 89
40 33
40 96
40 80
40 76
40 84
40 110
40 145
40 32
40 100
40 135
40 105
71 120
71 120
123 12
71 104
2 95
71 120
32 145
71 97
142 22
59 71
120 64
32 84
39 135
84 40
84 89
89 40
64 120
64 104
64 9
122 47
59 64
126 60
145 54
78 83
31 12
31 109
31 123
31 94
31 95
31 2
31 119
31 140
31 70
31 22
31 132
31 35
31 69
145 84
72 60
145 40
12 109
12 123
12 35
12 109
12 123
12 35
101 51
142 95
104 61
71 97
63 71
51 88
51 82
51 143
51 18
63 71
78 83
78 112
78 103
35 31
35 31
137 120
137 64
35 123
35 31
71 63
71 26
104 71
58 63
58 63
58 59
58 64
72 60
40 84
40 32
123 12
32 84
64 120
64 58
40 84
12 109
12 123
12 35
84 40
122 73
104 71
35 132
22 25
22 95
64 97
139 9
31 95
47 122
47 122
40 89
40 89
40 89
40 89
40 89
40 89
40 89
47 122
40 89
40 89
40 89
40 89
40 89
117 26
117 26
117 26
40 89
40 89
40 89
40 89
40 89
40 89
40 89
40 89
40 89
40 89
40 89
47 60
40 89
40 89
71 59
71 26
40 89
40 89
40 105
40 89
40 89
109 95
40 89
40 54
40 89
40 33
40 39
40 96
40 80
40 76
40 84
40 110
40 145
40 32
40 100
40 135
40 105
12 123
95 109
39 135
39 135
71 59
71 134
71 59
40 89
134 71
134 59
63 26
63 9
84 32
32 84
135 39
135 39
135 39
135 39
135 39
72 24
72 60
72 73
120 64
59 71
120 26
64 104
64 120
64 9
61 120
9 63
94 102
104 26
12 109
12 123
12 35
12 109
12 123
12 35
12 109
12 123
39 135
64 9
96 40
40 89
103 78
104 26
104 117
84 32
117 104
96 54
96 89
96 80
96 110
96 32
96 135
32 84
99 104
84 32
99 63
63 99
40 96
135 39
71 117
32 84
32 84
84 32
100 32
96 32
35 142
39 135
39 135
32 100
32 96
39 89
100 135
84 32
9 139
135 39
32 84
117 26
12 109
12 123
12 35
12 109
12 123
12 35
76 100
26 71
26 71
26 117
26 59
145 40
117 8
26 117
84 32
145 32
76 32
84 89
117 8
117 97
40 145
137 120
120 64
26 120
135 39
84 76
51 88
51 82
51 143
51 18
32 76
32 84
71 63
71 26
71 104
63 26
63 71
63 71
71 63
26 63
71 104
71 58
71 134
71 59
63 26
63 26
63 71
63 71
26 71
26 63
26 71
26 71
71 8
71 117
71 97
71 63
71 99
71 59
71 79
71 61
71 26
71 139
71 58
71 120
71 64
71 85
71 129
71 104
32 84
26 71
26 71
26 71
26 71
58 71
26 71
101 51
25 22
63 26
63 71
63 26
63 71
63 26
63 71
84 32
64 9
64 104
35 31
35 123
35 31
130 9
104 71
130 9
71 59
142 102
72 28
39 40
71 8
71 117
71 97
71 63
71 99
71 59
71 79
71 61
71 26
71 139
71 58
71 120
71 64
71 85
71 129
71 104
82 51
40 39
51 82
82 18
40 84
12 109
12 123
12 35
12 109
12 123
12 35
12 109
12 123
12 35
84 89
35 31
135 40
12 109
12 123
12 35
103 78
59 71
25 102
78 112
78 103
51 88
51 82
51 143
51 18
58 59
26 104
104 8
104 71
104 117
104 97
104 63
104 99
104 59
104 79
104 61
104 26
104 139
104 58
104 120
104 64
104 85
100 89
89 100
59 71
100 89
96 32
101 51
71 59
25 102
96 32
117 26
84 32
104 26
102 25
61 117
61 137
61 120
130 9
130 64
145 76
117 26
104 63
104 99
76 84
64 120
101 51
143 51
99 104
32 84
32 96
84 32
145 76
145 76
40 84
117 26
143 51
58 8
58 71
58 117
58 97
58 63
58 99
58 59
58 79
58 61
58 26
58 139
58 120
58 64
58 85
59 71
32 84
39 135
32 89
40 89
104 8
104 71
104 117
104 97
104 63
104 99
104 59
104 79
104 61
104 26
104 139
104 58
104 120
104 9
104 64
104 85
72 60
71 26
72 60
71 59
143 101
32 84
32 145
71 26
71 26
63 71
71 59
71 63
71 59
71 26
63 99
143 88
143 78
143 82
143 103
89 40
89 84
12 109
12 123
12 35
84 32
84 89
84 32
84 32
26 71
32 84
32 84
26 104
76 33
89 45
89 84
84 89
84 32
84 32
89 96
123 109
123 12
123 35
64 130
64 9
64 120
64 9
64 130
64 104
122 47
122 47
47 122
145 54
40 84
40 32
68 16
64 120
25 31
64 9
25 31
63 139
84 40
71 26
82 51
40 135
25 102
94 22
94 25
94 22
94 25
40 84
40 32
64 120
26 71
104 71
39 135
103 78
18 51
104 8
104 117
104 97
104 63
104 99
104 59
104 79
104 61
104 26
104 139
104 58
104 120
104 9
104 64
104 85
57 86
84 40
18 51
71 104
130 9
130 64
9 130
139 9
105 84
120 61
40 84
40 32
84 45
26 104
84 45
104 26
45 89
104 134
104 8
104 117
104 97
104 63
104 99
104 59
104 79
104 61
104 26
104 139
104 58
104 120
104 9
104 64
104 85
31 116
102 140
102 140
117 104
117 26
39 135
32 84
135 39
57 86
9 130
9 64
64 104
137 61
64 104
64 59
39 135
64 130
64 9
64 130
64 120
12 109
12 123
12 35
94 123
142 22
117 71
71 117
117 26
71 117
84 89
84 54
84 45
84 33
84 39
84 96
84 80
84 76
84 40
84 110
84 145
84 32
84 100
84 135
84 105
40 84
84 40
26 117
26 117
104 117
12 109
12 123
12 35
84 76
40 89
76 84
135 39
84 89
84 80
89 40
89 84
72 60
68 16
123 109
123 12
123 35
122 47
120 64
120 64
120 64
120 64
76 100
64 120
64 130
76 84
123 12
76 33
85 9
33 76
51 143
71 59
84 105
71 26
16 68
123 109
123 12
123 109
123 12
123 35
123 109
123 12
123 35
123 102
123 102
91 72
105 84
94 109
94 2
94 12
94 35
72 91
61 137
120 26
51 88
91 72
51 88
51 143
22 102
51 18
72 91
91 72
40 54
40 89
40 33
40 39
40 96
40 80
40 76
40 84
40 110
40 145
40 32
40 100
40 135
40 105
47 60
18 51
51 143
51 18
12 109
12 123
12 109
12 123
12 35
12 123
12 35
143 51
51 143
31 25
143 51
84 32
51 143
51 143
71 63
71 26
89 40
32 84
32 40
143 51
51 143
26 63
109 12
109 12
63 26
63 58
63 99
63 26
26 63
26 58
89 84
64 120
64 104
64 120
64 97
64 120
64 120
64 130
64 120
64 9
64 130
64 120
64 97
64 104
64 120
64 120
64 120
64 120
120 64
64 120
64 130
130 9
103 78
120 71
96 84
71 63
71 26
71 63
71 26
26 63
26 104
71 59
71 134
120 64
64 130
61 134
96 54
96 89
96 80
96 110
96 32
96 135
143 51
84 89
25 102
25 22
132 25
25 102
25 22
26 104
51 143
45 84
78 112
78 112
26 71
26 63
26 59
26 58
100 84
102 142
26 71
40 84
40 32
40 100
40 135
64 9
64 130
25 102
72 60
63 26
63 58
63 71
63 59
32 40
60 72
40 32
71 63
78 83
26 58
26 71
26 63
26 59
39 135
26 63
39 135
72 60
72 60
71 26
126 28
71 26
26 71
84 96
12 123
12 35
60 72
72 60
72 60
84 89
22 25
72 60
63 71
63 26
72 60
84 45
122 47
122 47
104 26
72 111
72 60
72 111
72 107
72 74
72 60
72 73
72 126
72 28
32 84
145 32
145 76
102 22
51 88
12 109
12 123
12 35
123 109
123 12
123 35
72 60
84 32
59 139
100 89
32 84
88 51
120 64
32 89
76 145
35 31
96 32
40 54
40 89
40 33
40 39
40 96
40 80
40 76
40 84
40 110
40 145
40 32
40 100
40 135
40 105
135 39
39 135
39 135
111 72
139 99
25 31
72 60
72 60
72 60
32 84
142 95
40 54
40 89
40 39
40 96
40 80
40 76
40 84
40 145
40 32
40 100
40 135
40 105
100 76
25 31
26 104
104 8
104 71
104 117
104 59
104 26
63 26
102 31
104 26
135 39
18 51
18 51
94 22
94 109
94 123
94 25
94 31
94 95
94 90
94 125
94 2
94 56
94 102
94 119
94 140
94 70
94 116
94 20
94 12
94 132
94 35
94 4
94 69
18 51
18 51
31 25
25 22
102 94
139 63
40 84
40 145
40 54
40 89
40 33
40 39
40 96
40 80
40 76
40 84
40 110
40 145
40 32
40 100
40 135
40 105
51 18
96 32
40 32
40 145
96 32
125 25
25 125
32 96
32 40
40 32
32 96
26 71
26 117
26 59
26 58
26 104
63 139
72 60
72 73
72 28
72 24
64 104
64 130
64 9
64 120
64 120
64 120
64 9
68 16
68 16
68 16
122 47
60 47
120 64
120 64
9 130
9 64
9 130
9 64
104 26
83 51
91 72
78 103
94 109
94 70
94 12
94 35
94 69
142 95
26 104
68 16
9 139
94 102
40 54
40 89
40 33
40 96
40 80
40 76
40 84
40 110
40 145
40 32
40 100
40 135
40 105
71 104
71 26
104 134
104 8
104 117
104 97
104 63
104 99
104 59
104 79
104 61
104 26
104 139
104 58
104 120
104 9
104 64
104 85
18 11
120 64
26 71
72 60
40 54
40 89
40 33
40 39
40 96
40 80
40 76
40 84
40 110
40 145
40 32
40 100
40 135
40 105
64 120
47 122
120 104
145 32
104 134
104 8
104 117
104 97
104 63
104 99
104 59
104 79
104 61
104 26
104 139
104 58
104 120
104 9
104 64
104 85
32 40
40 32
123 109
123 12
123 35
40 100
104 71
25 22
120 64
39 135
22 95
32 40
32 84
35 123
84 32
40 32
130 9
130 64
130 9
130 64
32 40
143 51
101 51
95 31
95 102
96 54
96 89
96 80
96 110
96 135
26 63
31 25
26 71
26 63
134 61
64 120
64 104
64 59
64 120
122 47
63 26
9 64
111 72
63 139
116 95
145 54
145 80
145 105
72 60
72 111
64 130
72 91
142 22
91 72
18 51
142 95
51 88
51 82
51 143
84 89
84 54
84 45
84 33
84 39
84 96
84 80
84 76
84 40
84 110
84 145
84 32
84 100
84 135
84 105
104 26
64 130
64 9
64 104
25 22
130 9
72 60
95 109
104 99
104 9
104 64
40 84
40 145
40 32
130 9
130 64
35 123
40 89
111 72
111 72
130 9
71 26
101 51
59 71
32 76
32 96
32 39
91 72
71 104
71 104
18 51
18 78
18 34
18 101
18 128
76 32
84 76
74 107
96 32
76 84
89 40
64 9
145 32
64 120
89 40
76 100
25 31
25 31
54 32
117 59
72 60
76 84
100 76
89 84
84 89
31 102
25 95
25 22
60 72
72 24
40 89
31 25
40 89
89 100
32 105
40 54
40 89
40 33
40 39
40 96
40 80
40 76
40 84
40 110
40 145
40 32
40 100
40 135
40 105
84 40
84 32
100 89
72 60
72 60
68 16
64 104
59 26
139 63
130 9
130 64
71 63
71 26
130 9
130 64
78 83
64 104
32 76
76 32
139 85
97 120
71 79
120 64
120 97
120 64
96 54
96 89
96 80
96 110
96 32
96 135
40 84
104 71
104 26
71 26
104 120
116 25
25 116
72 60
72 60
72 60
72 60
72 60
116 125
72 60
25 22
101 51
101 51
101 51
101 51
101 51
104 26
12 109
12 123
12 35
25 31
25 109
25 95
25 116
25 4
58 59
4 25
4 25
25 4
39 96
58 71
130 9
130 64
26 71
71 58
82 51
89 40
72 60
78 103
72 60
51 82
104 134
104 8
104 71
104 117
104 97
104 63
104 99
104 59
104 79
104 61
104 26
104 139
104 58
104 120
104 9
104 64
104 85
104 129
40 54
40 89
40 33
40 96
40 80
40 76
40 84
40 110
40 145
40 32
40 100
40 135
40 105
71 26
104 64
63 71
71 26
84 89
96 54
96 89
96 33
96 39
96 80
96 76
96 40
96 84
96 110
96 145
96 32
96 100
96 135
96 105
89 84
25 31
25 109
25 95
25 116
25 4
26 8
26 104
26 104
84 89
84 40
26 71
40 84
120 64
120 97
120 64
120 64
64 97
64 120
64 9
64 104
122 73
122 47
122 73
117 26
31 12
31 109
31 123
31 94
31 95
31 2
31 119
31 140
31 70
31 22
31 132
31 35
31 69
71 26
84 40
32 84
84 32
97 120
25 22
26 71
26 8
26 71
26 117
26 59
26 58
95 102
25 31
26 104
95 109
71 120
100 89
94 22
26 8
26 71
26 117
26 59
26 58
40 89
32 84
116 102
40 54
40 89
40 33
40 39
40 96
40 80
40 76
40 84
40 110
40 145
40 32
40 100
40 135
40 105
89 40
126 28
104 134
104 8
104 71
104 117
104 97
104 63
104 99
104 59
104 79
104 61
104 26
104 139
104 58
104 120
104 9
104 64
104 85
89 33
89 39
89 96
89 80
89 76
89 84
89 145
89 32
89 100
89 135
89 105
71 26
120 104
104 26
32 89
139 9
95 31
102 142
120 26
102 25
26 8
9 139
9 139
9 139
9 139
96 54
96 89
96 80
96 110
96 32
96 135
40 54
40 89
40 33
40 39
40 96
40 80
40 76
40 84
40 110
40 145
40 32
40 100
40 135
40 105
122 47
104 134
104 8
104 71
104 117
104 97
104 63
104 99
104 59
104 79
104 61
104 26
104 139
104 58
104 120
104 9
104 64
104 85
71 97
88 51
89 32
117 8
39 96
26 71
26 120
26 8
32 84
45 96
84 89
84 80
84 32
84 32
26 71
26 120
68 16
68 16
72 74
72 111
72 107
72 74
72 60
72 73
72 126
72 28
143 88
26 71
104 59
120 64
22 94
22 35
35 123
35 123
35 132
22 31
96 32
40 54
40 89
40 33
40 39
40 96
40 80
40 76
40 84
40 110
40 145
40 32
40 100
40 135
40 105
68 16
40 54
40 89
40 33
40 96
40 80
40 76
40 84
40 110
40 145
40 32
40 100
40 135
40 105
104 71
104 8
102 22
8 104
39 135
22 102
104 8
8 104
125 102
130 9
130 64
104 9
104 134
104 8
104 71
104 117
104 97
104 63
104 99
104 59
104 79
104 61
104 26
104 139
104 58
104 120
104 9
104 64
104 85
32 96
32 96
32 84
32 145
64 120
64 104
51 18
39 135
71 104
32 40
26 120
88 51
104 71
32 84
22 102
40 145
40 32
122 47
120 64
63 99
63 71
63 71
143 78
143 82
143 103
82 11
103 78
78 83
51 78
80 84
25 31
111 72
72 111
134 59
64 97
64 104
68 16
64 120
64 104
122 47
64 104
64 130
64 9
64 120
59 71
78 82
78 103
78 143
18 78
96 54
96 89
96 80
96 110
96 32
96 135
139 63
91 72
71 26
12 109
12 123
12 35
142 95
68 16
71 59
71 26
71 58
64 104
64 97
35 31
35 132
25 31
130 9
130 9
78 83
130 9
130 64
78 83
78 83
142 102
142 22
89 40
40 54
40 89
40 33
40 39
40 96
40 80
40 76
40 84
40 110
40 145
40 32
40 100
40 135
40 105
32 76
76 32
64 104
40 89
40 54
40 145
26 63
26 104
31 22
31 95
31 116
71 79
71 79
99 63
12 109
12 123
12 35
64 130
64 104
64 9
