11 39
48 54
69 60
69 60
33 84
33 84
33 84
54 48
54 48
57 24
57 26
57 65
48 54
22 54
57 26
48 22
54 48
57 26
4 38
25 71
69 30
83 56
60 16
60 22
57 24
57 26
57 65
16 60
16 22
24 57
22 54
29 60
57 26
57 26
69 66
69 21
69 30
69 60
65 54
39 54
39 64
14 77
61 56
33 84
38 4
33 84
54 65
70 80
66 4
85 64
24 54
65 24
69 60
48 24
60 21
0 89
54 67
38 4
14 77
57 24
57 26
57 65
57 35
57 24
57 26
57 65
23 60
23 7
23 59
23 62
23 5
23 66
23 21
23 44
23 81
23 69
23 30
23 88
24 65
49 60
69 60
25 49
65 35
54 24
54 16
16 35
87 56
87 56
54 16
25 14
14 25
49 25
24 65
23 59
23 62
23 66
23 69
23 58
66 4
60 7
60 69
60 15
54 48
87 56
85 25
85 64
85 1
85 19
85 35
33 84
33 3
25 85
48 54
85 39
85 39
87 56
48 25
64 1
64 19
87 56
19 64
19 1
19 64
19 1
54 49
38 53
38 4
33 84
33 3
77 14
87 56
83 80
83 82
1 83
88 60
88 15
1 64
88 60
88 15
48 51
55 80
43 56
43 67
43 49
43 55
43 50
43 80
70 19
54 16
55 43
80 25
80 83
12 55
29 49
49 43
57 7
57 24
57 26
57 65
57 35
57 80
69 81
35 88
84 33
84 54
83 1
88 15
33 84
50 43
24 65
16 61
61 35
48 54
48 67
83 25
56 87
25 83
48 54
48 24
49 43
48 67
48 54
87 56
48 24
24 48
87 56
87 56
9 43
69 23
69 66
69 21
69 35
69 30
43 9
49 67
35 69
87 84
87 23
87 46
87 33
49 43
69 35
49 43
57 24
67 49
70 80
70 80
49 29
70 80
25 1
35 83
33 84
55 80
64 1
54 65
61 29
80 55
57 24
57 26
57 65
57 35
65 54
87 1
67 48
83 1
48 78
29 60
69 60
38 69
80 69
80 70
57 24
57 26
57 65
24 57
57 24
57 26
57 65
57 35
57 26
14 25
14 25
14 35
43 69
69 23
69 66
69 21
69 30
49 43
19 25
19 64
19 85
19 1
19 35
43 49
35 19
55 69
48 12
19 35
70 19
16 49
49 16
83 56
85 46
48 54
49 16
83 64
83 1
83 19
83 87
83 1
85 65
16 49
49 16
57 24
88 25
54 48
1 64
77 61
60 14
88 60
14 60
61 57
57 61
60 88
48 24
43 56
43 67
43 49
43 55
43 50
43 80
54 61
48 24
4 66
83 56
83 1
49 43
25 35
77 61
57 24
83 87
54 16
85 31
87 56
25 16
60 16
54 65
43 9
54 16
85 46
65 24
65 50
77 61
60 54
49 43
83 87
57 24
57 26
57 65
57 35
58 84
58 23
58 11
58 66
55 25
60 88
83 25
60 88
60 88
4 66
80 12
25 83
58 39
58 85
52 62
38 4
48 54
38 4
16 32
16 4
16 15
67 49
49 32
49 67
49 54
49 52
49 48
43 56
43 67
43 55
43 50
70 19
61 56
67 43
80 43
25 19
32 80
46 85
80 55
55 80
4 16
87 83
48 54
39 11
43 56
43 55
43 50
70 19
70 24
24 70
50 43
49 60
48 78
55 43
14 25
14 86
43 56
43 67
43 49
43 55
43 50
43 80
49 43
77 61
43 56
43 67
43 49
43 55
43 50
43 80
55 80
49 67
57 24
57 26
57 65
57 80
43 55
43 30
80 25
25 2
29 49
80 25
43 49
57 26
49 43
46 65
23 58
58 23
48 54
54 48
67 48
65 24
48 54
48 24
24 65
87 56
38 4
54 48
43 49
4 67
23 58
38 4
29 49
55 49
49 55
70 19
70 19
70 19
61 56
54 16
54 50
83 82
1 88
80 70
65 46
55 80
80 55
35 14
57 24
57 65
88 60
54 48
19 70
49 67
49 67
77 61
32 16
38 4
88 60
57 46
57 24
57 26
57 65
57 87
57 80
57 46
57 24
57 26
57 65
57 87
57 80
38 4
16 88
16 88
33 84
29 49
25 78
78 25
48 54
54 48
88 60
51 26
88 60
88 60
88 60
4 46
77 88
33 84
33 84
1 58
1 58
1 58
49 29
38 4
88 77
38 4
8 66
8 17
83 1
83 87
49 67
49 54
54 67
54 49
16 61
49 67
77 15
54 32
54 67
54 52
54 49
54 48
88 60
83 4
77 88
33 84
16 64
80 70
65 54
88 60
88 15
88 60
88 16
88 15
77 88
29 49
88 60
88 15
25 88
88 60
88 15
48 67
65 54
80 55
43 49
52 57
80 57
49 54
54 49
25 88
54 24
83 35
88 60
88 16
88 15
88 60
88 16
57 24
57 26
57 65
88 16
88 15
88 16
88 25
39 11
24 54
80 55
63 54
38 4
57 24
57 26
57 65
25 19
25 88
88 60
88 16
88 15
54 65
88 60
88 16
83 1
4 83
77 61
55 11
57 24
57 65
88 60
88 16
88 15
48 65
54 16
54 67
11 55
49 43
38 4
54 67
54 65
43 56
43 67
43 49
43 55
43 50
43 80
48 24
48 54
48 65
77 61
43 55
83 1
83 1
16 60
16 25
70 19
4 38
77 61
77 61
38 4
54 65
19 70
77 25
83 56
25 16
88 25
88 25
88 25
83 56
77 25
88 25
88 25
25 60
25 16
16 25
19 70
46 18
48 24
38 4
38 4
48 24
25 88
88 25
65 48
49 43
43 49
49 43
24 65
11 86
11 78
11 39
77 61
39 11
57 65
52 57
48 24
24 65
11 39
52 57
70 55
85 64
85 31
70 19
70 19
78 11
57 65
88 54
54 88
54 67
54 65
70 19
70 19
19 70
43 60
24 48
57 24
24 58
55 32
57 65
24 26
49 43
43 56
43 67
43 49
43 70
43 55
43 50
43 80
49 43
50 43
48 43
48 54
48 65
80 55
61 56
58 24
57 65
60 16
49 43
49 43
88 60
70 43
70 19
70 19
39 80
39 80
48 24
58 68
58 21
58 81
58 64
21 60
21 62
21 5
21 66
21 44
21 81
21 30
21 88
11 78
87 83
78 11
77 43
54 67
54 65
84 33
70 19
70 19
70 19
33 84
49 43
43 77
49 43
49 43
88 25
64 58
23 58
60 7
60 69
60 15
48 24
66 71
66 71
66 71
4 64
83 56
83 1
29 60
66 60
66 62
66 5
66 44
66 81
66 30
66 88
49 80
49 43
54 48
43 48
39 11
49 64
50 43
48 54
88 25
88 25
16 60
23 60
23 7
23 59
23 62
23 5
23 66
23 21
23 44
23 81
23 69
23 30
23 88
49 54
16 60
25 78
33 84
83 56
83 1
83 87
60 16
60 67
60 54
60 15
85 88
70 80
80 70
77 60
77 60
60 77
30 69
21 55
87 56
88 60
77 61
4 38
77 61
38 4
25 4
4 25
77 61
54 52
60 66
29 60
44 22
83 82
83 64
87 56
49 78
83 56
56 83
54 48
48 54
56 87
87 56
85 87
63 17
52 54
62 23
62 66
33 84
83 56
64 16
22 44
64 16
83 1
0 70
80 25
38 4
48 54
88 84
64 85
87 85
57 67
85 64
49 54
54 22
50 57
60 30
16 64
60 29
87 56
87 1
87 83
83 1
3 67
30 66
11 39
38 4
39 11
18 46
18 53
18 38
18 26
18 37
11 30
44 49
14 15
85 46
55 64
55 50
48 54
25 88
88 8
26 65
26 46
26 24
26 65
26 57
3 15
48 54
39 11
49 60
54 48
60 29
54 48
48 54
83 1
57 67
57 52
11 39
48 54
65 46
65 24
65 26
39 11
57 24
57 26
48 2
48 67
48 24
32 80
57 26
57 26
87 21
54 48
2 48
25 88
84 88
85 66
85 66
85 66
54 48
19 9
64 16
24 48
48 24
87 1
87 83
64 16
88 60
88 16
88 15
23 60
23 7
23 59
23 62
23 5
23 66
23 21
23 44
23 81
23 69
23 30
23 88
70 19
70 19
4 38
38 4
49 60
4 38
18 46
18 53
18 38
18 26
18 37
65 24
14 88
55 25
55 80
25 55
70 19
80 70
16 9
54 65
49 44
38 4
23 66
48 65
43 49
54 65
32 65
2 65
54 65
54 16
48 24
71 66
67 65
71 66
67 54
33 84
19 70
52 65
54 67
80 55
17 65
70 19
11 39
11 55
24 65
24 65
43 56
43 67
43 49
43 55
43 50
43 80
70 19
22 54
60 22
52 84
84 65
39 11
49 60
18 8
51 38
4 38
49 55
49 80
60 38
60 15
46 66
16 32
16 4
4 38
4 38
38 4
38 4
38 54
38 54
38 54
11 39
54 60
54 67
85 64
60 54
60 38
60 15
65 24
65 24
87 83
35 43
50 52
87 83
87 83
57 52
88 25
88 60
88 15
88 14
88 14
50 67
52 57
38 4
14 88
14 33
38 60
33 84
60 38
60 38
60 54
84 52
52 84
85 46
54 65
49 32
49 67
49 54
49 52
49 48
2 14
71 66
80 55
38 4
49 16
55 25
49 55
49 60
24 46
24 26
24 65
24 57
55 49
55 80
55 84
55 63
55 17
49 55
54 67
54 65
54 48
35 56
56 35
54 65
88 61
80 55
80 57
18 46
18 53
18 38
18 26
18 37
18 4
64 1
83 1
23 58
50 67
26 46
26 24
26 65
26 57
44 14
44 33
44 13
24 46
24 26
24 65
24 57
57 26
25 11
14 33
65 26
66 71
66 69
66 71
66 60
66 7
66 59
66 62
66 5
66 21
66 44
66 81
66 30
66 88
66 71
4 18
85 35
70 19
70 19
70 19
70 19
70 19
70 19
70 19
70 19
70 19
70 19
70 19
70 19
70 19
70 19
70 19
70 19
70 19
70 19
35 85
85 64
35 14
49 54
85 16
85 25
85 64
85 9
85 1
85 19
85 35
1 61
87 63
35 85
61 1
43 14
85 24
4 32
4 38
63 65
63 24
18 46
18 53
18 38
18 26
18 37
71 66
65 24
71 8
83 1
33 14
25 85
83 85
48 85
87 85
62 88
83 85
83 1
38 4
65 24
65 24
65 24
65 24
24 65
65 24
65 24
83 85
48 54
24 65
55 70
55 50
55 80
14 56
19 70
83 85
88 60
88 16
88 15
70 19
77 60
77 49
49 77
83 85
23 60
23 7
23 59
23 62
23 5
23 66
23 21
23 44
23 81
23 69
23 30
23 88
67 43
23 60
23 7
23 59
23 62
23 5
23 66
23 21
23 44
23 81
23 69
23 30
23 88
60 77
77 49
43 67
85 9
49 32
49 67
49 54
49 52
49 48
71 66
71 66
24 65
71 66
71 66
85 25
48 49
48 15
43 56
43 67
43 49
43 70
43 55
43 50
43 80
80 43
57 26
26 57
57 26
26 57
25 85
57 26
85 16
85 25
85 9
85 19
85 35
32 55
70 43
58 66
26 49
80 55
29 60
26 49
67 54
66 58
83 56
14 86
46 85
65 54
30 60
49 55
55 49
58 66
84 52
84 52
84 52
25 78
88 61
26 24
26 65
26 57
24 65
86 14
35 56
70 19
55 80
33 14
57 46
57 24
57 26
57 65
44 60
57 80
80 57
52 37
70 19
70 19
24 65
71 8
71 30
71 66
71 8
71 30
71 8
71 66
71 30
71 8
71 66
32 25
51 26
67 60
19 70
70 19
70 19
57 24
57 26
57 65
26 57
57 26
26 57
25 88
26 57
14 86
57 26
57 26
35 56
35 14
35 16
35 25
66 58
14 35
35 14
25 85
87 35
57 24
57 26
57 65
57 35
83 8
83 25
83 62
83 46
83 24
83 65
83 50
83 37
83 63
83 86
58 66
80 55
25 88
55 80
80 55
70 19
25 88
55 80
37 60
4 46
4 24
4 58
4 64
4 53
4 32
4 56
24 4
4 87
4 1
4 12
58 4
32 4
87 4
30 60
80 55
77 15
77 15
43 56
43 67
43 49
43 70
43 55
43 50
43 80
55 80
43 2
43 37
87 46
87 83
16 60
25 16
16 60
9 16
57 65
30 55
16 54
65 57
67 32
23 30
78 37
88 15
32 67
77 88
88 25
88 15
88 35
38 32
57 26
26 57
57 26
61 60
23 46
23 9
23 58
23 30
88 2
88 54
2 88
80 25
61 16
54 88
71 66
71 8
71 66
71 30
71 66
71 30
71 66
71 30
71 66
49 60
88 61
23 62
88 78
88 84
80 55
88 14
88 86
88 39
88 25
25 67
61 88
67 25
88 66
88 8
49 85
87 39
49 83
61 56
49 23
49 29
49 63
49 17
49 71
49 66
55 49
55 25
49 55
25 49
25 55
46 23
48 65
49 60
35 26
26 35
14 88
39 88
19 16
19 25
19 64
19 9
19 85
19 1
19 35
23 39
23 46
25 88
88 60
88 15
88 25
83 1
26 51
83 85
83 56
83 1
83 1
85 4
4 38
48 65
24 65
12 4
48 60
48 54
54 49
4 85
4 12
85 4
58 39
58 11
58 30
4 85
60 48
4 85
48 60
48 54
54 49
60 30
49 54
88 60
88 15
77 60
60 15
88 25
56 4
4 53
83 56
4 64
4 46
56 83
4 85
83 56
62 60
62 23
62 7
62 5
62 66
62 49
62 21
62 44
62 81
62 69
62 30
62 88
43 80
49 32
49 52
49 48
49 32
49 52
49 48
49 32
49 52
49 48
49 67
49 15
12 4
49 60
22 88
88 60
88 16
88 15
16 25
38 4
4 12
80 56
80 67
80 49
80 70
80 43
80 55
80 50
80 70
32 25
88 14
88 60
85 4
25 14
14 88
80 56
80 67
80 49
80 70
80 43
80 55
80 50
83 56
88 60
4 1
88 25
48 54
60 16
22 88
83 56
64 16
66 71
4 38
18 26
80 55
48 54
3 15
35 25
1 4
48 54
38 4
80 43
85 83
85 31
4 38
77 3
4 1
33 84
54 60
35 46
35 26
14 33
49 54
1 64
67 32
77 61
16 64
11 60
37 18
37 46
37 53
37 51
37 38
37 26
37 4
37 27
88 25
63 17
49 32
49 67
49 54
49 52
49 48
48 54
48 24
24 48
88 60
64 16
22 3
87 83
33 26
4 37
60 23
60 7
60 59
60 72
60 62
60 5
60 66
60 49
60 21
60 68
60 44
60 29
60 71
60 30
4 49
14 35
83 56
26 46
26 24
26 27
26 35
26 57
26 35
80 25
67 43
54 67
30 60
87 83
43 67
25 68
30 12
60 16
77 60
67 43
60 30
60 62
60 67
87 84
24 87
55 80
54 48
66 71
30 60
30 23
30 7
30 72
30 62
30 5
30 66
30 49
30 21
30 68
30 44
30 81
30 71
30 69
67 54
80 55
25 80
24 21
49 70
23 58
23 30
54 32
54 67
54 52
54 49
54 48
54 32
54 67
54 52
54 49
54 48
85 31
52 54
49 54
80 55
48 60
48 54
60 23
60 62
83 87
87 83
24 56
54 24
56 24
83 1
23 9
49 54
80 56
80 67
80 49
80 70
80 43
80 55
80 50
39 11
67 48
30 60
56 43
29 60
60 88
60 25
57 24
57 26
60 11
48 54
60 15
54 48
48 25
19 70
80 39
55 25
25 48
48 25
84 52
39 60
55 80
60 54
11 60
54 60
80 55
77 15
33 84
80 49
25 60
49 80
48 54
55 80
54 78
54 22
54 53
54 52
54 44
54 37
26 46
26 24
26 27
26 35
26 57
54 48
57 26
26 57
57 26
80 55
26 57
57 26
26 57
57 26
48 54
49 54
2 78
60 43
16 25
83 56
85 64
85 1
43 49
25 64
25 64
25 78
66 8
66 71
66 8
66 71
66 8
66 71
60 16
60 25
25 64
25 16
64 16
64 16
54 48
54 32
54 67
54 52
54 49
54 48
48 54
54 49
48 43
83 56
83 87
49 54
60 15
80 56
80 67
80 49
80 70
80 43
80 55
80 50
14 11
57 24
57 26
57 35
60 15
83 85
33 84
54 49
80 25
25 64
43 56
21 30
56 43
67 54
43 63
64 16
30 60
80 25
21 49
87 84
87 46
23 60
55 32
55 32
48 11
37 53
53 37
24 46
24 26
24 35
24 57
67 49
49 67
49 67
49 67
48 54
50 52
49 4
49 56
49 32
49 87
49 58
32 49
19 70
85 29
49 54
53 37
49 60
46 55
49 43
49 43
49 54
49 67
64 16
55 80
64 16
55 80
24 35
50 24
64 16
35 24
67 49
55 32
39 1
49 56
24 35
50 24
83 87
26 57
57 26
26 57
57 26
26 57
26 57
57 26
26 57
57 26
26 57
57 26
56 49
49 15
24 54
48 24
21 60
77 15
24 54
61 43
48 54
54 49
44 11
44 60
43 61
87 49
49 87
55 4
60 16
39 80
39 12
39 11
48 61
85 61
56 87
26 35
26 35
54 48
24 35
24 35
87 56
60 16
30 60
29 49
49 78
83 56
71 8
71 66
71 30
71 8
71 66
60 12
60 21
83 56
26 46
26 24
26 27
26 35
26 57
52 57
49 54
49 54
52 57
49 43
87 49
49 54
23 57
57 23
49 43
57 27
25 16
23 25
16 25
49 4
54 50
56 54
52 57
25 78
57 52
48 40
60 15
43 56
23 60
35 25
35 64
35 85
35 1
35 19
25 78
83 56
48 57
54 63
33 46
67 49
62 23
25 23
80 25
57 48
52 57
52 60
60 52
80 39
54 65
48 54
60 16
16 64
48 25
87 25
25 87
23 25
23 25
25 23
23 25
39 80
14 15
83 56
77 14
67 48
54 52
39 11
35 33
88 60
43 49
87 1
87 83
87 83
80 70
57 24
57 26
57 65
65 24
70 43
70 43
48 54
26 57
50 17
54 48
48 24
83 56
43 2
43 56
48 54
35 46
35 26
35 65
87 56
56 83
83 1
50 65
57 46
57 24
57 26
57 65
57 35
80 70
57 52
66 71
54 2
62 52
52 62
48 24
24 48
67 25
35 16
24 65
65 24
1 35
57 46
57 24
57 26
57 65
57 35
65 24
29 60
23 60
23 58
24 65
30 11
84 65
83 35
83 35
35 26
60 29
54 2
48 57
26 25
37 56
11 39
57 48
54 48
16 61
25 26
87 56
30 60
35 26
24 26
23 35
66 71
66 71
66 71
43 40
48 50
64 16
50 48
71 8
71 66
71 66
71 30
66 71
71 66
71 30
71 66
66 71
71 8
71 66
85 83
83 85
83 85
8 17
8 66
8 71
1 25
1 64
1 85
1 35
70 43
43 70
35 23
80 23
80 62
56 83
14 15
35 25
35 64
24 54
44 1
54 48
1 44
48 54
4 38
83 56
54 49
83 56
43 11
48 11
50 11
35 11
38 4
39 11
23 11
23 62
51 26
4 38
4 49
43 40
43 40
43 70
43 56
54 14
44 11
19 16
19 25
19 64
19 9
19 85
19 1
19 35
11 43
62 29
11 48
11 50
11 35
11 23
11 44
35 22
83 1
43 39
80 25
23 39
80 11
87 39
39 43
25 11
39 37
39 80
14 54
14 35
33 84
11 61
38 4
29 1
43 49
43 80
43 56
43 67
43 70
43 50
83 56
61 11
23 1
30 63
67 43
35 25
35 64
4 55
60 16
22 11
14 33
14 13
83 56
14 44
43 49
62 23
83 23
23 9
23 58
23 30
23 60
64 19
23 62
62 1
54 14
80 39
26 51
77 61
56 83
43 49
26 46
26 27
26 35
77 61
25 35
85 1
33 84
33 3
11 48
54 24
80 70
80 43
60 30
60 30
24 54
54 24
48 54
16 61
52 62
77 15
23 60
16 60
16 64
33 84
54 49
30 60
54 49
23 60
54 48
52 57
1 85
49 11
50 65
57 24
57 26
57 35
23 55
15 70
16 64
16 1
19 16
77 60
51 26
46 1
85 1
83 1
11 49
83 56
23 62
35 16
57 26
57 46
57 24
57 26
62 23
49 43
49 54
54 67
54 67
57 24
57 26
57 80
49 56
84 88
80 70
67 54
35 39
62 11
49 67
49 15
48 54
57 52
48 25
77 49
49 77
25 48
48 25
57 46
57 24
57 26
54 60
54 48
48 54
24 46
24 26
24 35
24 57
25 48
14 15
54 48
24 50
25 48
49 56
52 57
80 49
64 16
80 25
43 49
64 16
43 16
83 1
11 48
52 57
85 46
19 25
48 11
48 54
19 25
11 48
54 48
52 62
62 52
52 62
62 52
25 35
71 8
71 66
71 30
71 66
71 8
71 23
71 30
71 66
71 30
71 8
71 66
71 30
71 8
71 66
71 30
71 87
87 83
19 1
9 17
80 25
84 52
48 11
49 43
60 54
62 23
84 88
48 11
25 49
49 25
11 48
54 60
11 60
35 23
35 21
35 87
35 58
35 30
52 84
48 61
87 35
52 84
85 16
85 37
83 56
85 25
85 30
25 44
18 63
30 35
49 54
39 1
83 85
49 86
1 39
35 49
39 1
67 54
83 87
49 80
14 15
38 4
64 16
51 46
51 38
51 26
51 27
51 37
61 56
24 83
77 15
83 87
71 8
71 66
71 8
71 66
71 30
71 8
71 66
71 30
71 8
71 66
71 30
18 71
71 66
77 60
77 86
87 83
16 64
4 38
86 15
77 86
25 80
49 43
51 26
84 52
70 19
52 57
35 9
35 23
35 58
35 63
35 17
35 46
35 26
86 15
26 35
4 38
19 35
70 19
24 57
25 24
85 83
35 19
87 83
83 1
56 83
14 44
14 13
48 25
37 85
29 62
57 46
57 24
57 26
57 35
57 24
71 66
71 30
88 14
88 15
49 30
49 87
77 15
49 23
49 21
49 58
49 35
35 49
48 24
30 67
88 79
83 1
1 83
24 50
83 1
14 88
67 30
16 25
71 8
71 60
71 23
71 7
71 62
71 66
71 21
71 44
71 81
71 30
71 88
49 78
49 64
49 86
1 18
80 1
33 84
85 46
18 1
49 67
49 54
14 11
62 60
62 23
62 7
62 5
62 66
62 49
62 21
62 44
62 81
62 69
62 30
62 88
64 1
50 43
80 25
35 26
0 1
0 64
26 35
35 23
35 21
35 87
35 58
35 30
87 35
85 83
85 64
85 31
85 1
14 16
14 25
14 35
25 77
30 23
30 21
30 87
30 35
30 58
54 67
87 30
87 30
23 46
35 14
23 62
54 67
22 29
22 29
22 29
31 68
31 68
67 54
25 85
84 52
48 54
48 67
46 23
26 46
26 24
26 35
26 57
54 48
67 54
29 62
48 54
54 48
56 50
71 66
71 30
48 54
52 57
52 57
43 54
52 57
33 84
85 46
85 53
85 25
57 52
0 64
0 70
80 39
39 80
61 56
61 31
61 68
61 37
61 77
61 56
61 31
61 68
61 37
61 77
48 43
46 23
52 50
52 57
80 32
80 41
80 76
8 66
8 71
54 48
17 8
54 48
43 56
22 3
30 60
54 49
71 8
87 49
43 49
49 43
26 85
29 60
26 18
26 46
26 27
18 26
35 1
1 35
83 39
83 56
39 83
30 60
77 60
67 49
16 64
11 61
11 39
1 18
43 49
54 32
83 1
23 60
23 7
23 59
23 62
23 5
23 66
23 21
23 44
23 81
23 69
23 30
23 88
54 60
32 54
14 35
44 66
49 77
48 54
35 14
77 49
83 56
49 43
83 56
88 61
56 49
54 32
54 52
54 48
48 54
60 62
52 84
52 50
52 57
52 17
83 87
57 52
50 52
85 30
85 30
30 60
33 84
32 61
57 61
29 61
21 66
8 61
52 61
57 61
70 19
1 18
1 64
30 67
84 52
49 43
48 54
60 49
77 60
60 16
60 67
60 54
60 15
58 71
54 67
60 16
14 35
9 61
67 54
2 54
71 66
71 8
71 30
71 58
71 63
35 14
35 16
43 56
7 60
26 46
26 24
26 27
26 57
54 67
67 54
32 54
16 60
57 84
57 50
57 17
48 54
35 25
49 60
60 49
36 60
16 60
85 30
83 1
57 46
57 24
57 26
57 65
57 35
57 26
1 83
80 25
0 71
19 16
58 60
60 30
48 60
48 54
30 60
14 16
14 25
14 35
71 8
71 66
71 66
71 58
71 30
71 63
49 43
35 14
26 46
26 24
26 27
26 57
48 54
60 25
11 58
25 60
52 54
43 49
60 25
54 67
88 39
39 88
35 61
67 54
54 60
49 87
52 57
48 54
48 24
52 54
54 52
43 56
23 21
23 87
23 35
23 58
23 30
52 54
52 57
49 12
12 49
77 60
43 49
49 48
60 15
49 23
64 19
49 12
49 85
49 11
49 80
57 46
57 24
57 26
57 65
87 30
60 15
54 67
49 25
49 60
80 25
53 60
33 84
33 84
25 49
71 8
71 66
83 1
18 13
14 44
14 13
0 1
70 19
70 0
70 19
70 0
70 19
70 0
70 19
70 0
70 19
70 0
70 19
70 0
83 39
60 16
60 67
60 54
60 15
21 30
57 26
80 70
51 26
51 39
25 15
39 51
77 25
77 60
33 84
60 15
61 67
77 60
70 80
80 70
80 70
44 30
44 30
25 16
21 30
23 30
78 39
49 15
30 60
49 50
60 30
60 16
60 67
60 54
60 15
43 49
43 80
43 56
43 67
43 50
57 46
57 24
57 26
57 65
50 49
49 50
49 54
26 18
26 46
26 27
25 78
49 70
77 52
80 57
52 77
49 54
77 52
69 30
69 60
60 69
52 84
52 50
52 57
52 17
66 88
84 52
57 52
50 52
14 35
26 27
49 70
35 16
17 52
49 80
43 49
43 61
54 67
54 49
54 49
56 43
49 54
71 8
71 66
71 58
71 30
71 8
71 23
71 66
71 58
71 30
71 8
71 66
71 0
83 56
61 56
56 83
52 62
82 0
82 0
49 50
50 49
67 54
54 67
80 25
52 57
39 24
84 17
8 17
24 39
16 60
54 25
51 26
77 61
25 54
87 83
83 85
83 1
39 24
48 54
54 23
48 54
77 61
66 71
25 80
71 8
71 66
71 0
71 30
30 39
30 58
71 8
71 30
71 8
71 66
63 84
64 16
83 56
56 83
24 39
14 16
14 25
14 35
0 71
60 54
60 48
60 15
12 11
25 14
57 46
57 24
57 26
57 65
57 35
83 1
70 43
25 80
49 43
25 80
48 24
52 57
24 48
77 49
52 57
49 43
9 8
9 58
48 11
48 30
54 78
70 19
70 0
30 48
70 19
70 0
71 66
71 0
71 58
71 8
71 23
71 66
71 0
71 58
71 66
71 0
71 66
71 0
57 52
11 48
11 12
17 18
8 17
8 17
22 37
1 85
64 16
16 64
50 80
38 4
39 24
78 54
24 39
67 49
67 54
77 25
16 61
64 16
11 49
29 60
16 49
24 46
24 26
24 57
49 11
49 16
4 16
16 4
52 4
52 67
25 80
43 49
60 49
30 60
38 4
23 60
60 30
49 56
49 43
18 13
25 60
37 53
37 38
37 26
37 4
21 60
37 18
37 46
85 16
0 82
0 82
82 0
71 8
71 66
71 8
71 66
1 83
8 17
26 24
11 58
26 46
26 24
26 27
26 57
26 46
26 24
26 27
26 57
14 54
19 16
61 38
35 23
88 60
9 15
14 33
14 13
35 14
23 35
77 61
25 80
48 54
0 39
11 58
54 48
30 60
77 9
67 54
1 64
26 27
26 27
49 43
33 84
33 84
33 3
57 46
57 24
57 26
14 35
33 84
14 15
57 24
24 57
49 46
48 54
43 49
64 16
26 57
35 14
35 14
3 22
67 25
0 82
0 39
48 12
0 89
67 49
1 39
39 1
48 54
54 48
19 25
48 54
83 56
83 87
48 54
54 48
48 54
49 43
43 49
66 8
25 60
49 43
84 52
30 44
71 66
71 8
71 8
71 66
71 8
71 66
71 0
54 48
16 64
60 15
52 84
21 60
49 14
24 26
49 54
70 85
43 67
67 44
83 19
67 19
77 16
49 54
35 14
49 67
35 14
38 4
4 38
71 0
71 66
71 30
64 16
64 16
64 16
38 4
4 38
0 64
4 38
65 24
82 0
82 0
48 54
48 63
0 71
0 71
0 82
0 82
0 82
46 26
14 13
14 15
77 60
80 25
14 33
21 60
0 82
77 14
54 48
30 60
54 49
54 49
49 54
29 60
71 0
71 58
71 30
71 8
71 66
71 58
71 8
71 66
71 0
16 19
29 60
29 23
29 7
29 59
29 62
29 5
29 66
29 49
29 21
29 44
29 81
29 30
29 88
85 46
85 31
85 83
85 87
0 64
70 19
70 0
61 56
87 83
60 30
0 64
0 71
0 1
0 70
30 67
71 8
71 0
71 17
71 66
43 49
66 69
3 22
48 24
8 60
56 83
54 67
60 16
60 22
46 49
66 69
60 29
16 25
16 35
54 67
83 56
24 48
57 46
57 24
57 26
57 35
57 80
57 46
57 24
57 26
57 35
57 80
17 84
22 3
48 24
60 16
67 32
0 71
0 39
0 82
0 39
0 71
0 82
0 71
0 71
35 23
58 60
54 49
0 71
0 82
0 39
61 16
61 56
77 61
43 83
49 54
49 67
60 21
71 8
71 66
71 58
71 8
71 66
71 58
71 0
71 58
71 0
71 8
71 66
71 0
71 58
71 8
71 66
71 0
71 8
71 66
71 58
71 8
71 66
71 8
71 66
71 58
71 8
71 66
71 58
71 17
71 8
71 66
71 0
71 58
71 17
83 43
22 3
82 0
33 14
48 24
33 35
84 52
84 52
84 52
21 60
21 60
18 17
60 61
49 54
33 84
33 3
71 8
71 66
71 58
71 17
71 8
71 60
71 23
71 7
71 62
71 66
71 21
71 44
71 81
71 58
71 30
71 88
67 54
49 86
22 3
9 16
80 70
3 22
4 38
82 0
54 2
48 63
48 54
54 63
0 71
0 39
0 82
54 67
14 44
14 13
60 21
56 43
23 58
4 38
26 46
11 30
46 26
22 3
48 24
80 50
26 46
49 54
3 22
57 46
57 24
57 26
48 24
4 1
4 53
4 22
4 35
4 26
4 11
2 44
4 84
48 84
48 24
8 17
56 49
16 19
39 23
39 24
54 24
22 3
23 60
23 7
23 59
23 62
23 5
23 66
23 21
23 44
23 81
23 69
23 30
23 88
67 49
39 11
26 61
35 4
48 24
54 49
54 78
49 16
49 16
49 67
24 48
24 48
49 54
52 61
4 35
14 44
26 18
49 43
35 57
35 25
57 35
48 54
67 54
49 70
48 54
11 49
3 22
84 4
11 4
16 25
16 19
4 11
4 84
0 71
48 12
19 16
25 16
63 61
46 61
19 89
19 16
19 25
19 64
19 9
19 85
19 1
19 35
11 4
35 24
35 46
35 19
56 43
88 61
17 61
14 35
4 84
4 3
12 61
18 61
18 66
49 54
71 0
71 8
71 66
71 0
71 17
71 8
71 66
71 0
71 17
71 8
71 66
71 0
71 8
71 66
71 17
25 88
71 8
71 66
71 0
71 17
71 8
71 66
71 0
71 17
71 8
71 66
71 0
71 17
35 14
35 14
14 35
88 25
54 48
67 49
35 85
29 60
23 58
85 35
60 54
77 88
77 88
26 4
54 67
54 32
54 52
54 49
54 48
52 54
4 26
84 4
54 52
49 67
35 60
54 24
35 24
4 84
4 62
32 54
0 1
30 23
77 60
77 9
77 60
77 25
23 60
23 7
23 59
23 62
23 5
23 66
23 21
23 44
23 81
23 69
23 30
23 88
49 64
16 25
35 25
57 52
57 52
48 54
54 48
54 67
54 49
1 4
87 23
25 77
67 54
67 54
24 57
4 1
61 54
54 49
17 9
64 16
54 49
29 60
64 49
64 16
16 64
64 16
49 70
49 64
48 61
82 0
25 35
35 33
61 48
77 60
11 4
4 46
4 38
4 11
57 52
77 61
77 60
77 73
54 67
54 32
54 52
54 49
54 48
49 11
49 54
54 49
54 52
38 4
49 54
16 9
26 46
26 24
26 27
26 57
80 70
24 26
26 24
16 25
48 67
48 54
48 24
61 54
88 60
88 16
88 15
54 52
52 57
52 57
49 53
35 4
24 11
4 61
4 35
49 70
35 33
17 61
67 49
67 54
67 49
67 54
64 1
54 48
77 60
4 53
35 33
60 15
16 64
16 60
33 35
48 49
48 54
54 48
54 49
60 15
35 25
35 4
19 35
35 19
19 16
19 25
19 64
19 9
19 85
19 1
19 35
49 48
29 60
67 49
67 54
48 49
4 35
57 46
57 24
57 26
54 52
54 50
54 17
54 50
87 85
87 83
23 8
60 25
60 21
60 44
38 4
22 3
57 52
33 84
33 84
33 84
33 84
4 38
4 38
4 38
80 25
48 54
71 8
71 66
71 0
71 8
71 66
71 0
71 8
71 66
71 0
71 17
71 8
71 66
71 0
71 30
71 17
71 8
71 66
71 0
71 17
71 8
71 66
71 0
71 17
71 8
71 66
71 0
71 17
71 8
71 66
71 0
71 8
71 66
71 0
71 0
71 8
71 66
71 0
71 17
71 0
11 4
60 15
11 49
11 61
14 54
49 11
35 25
23 58
54 67
54 24
54 52
54 48
54 52
4 38
38 4
16 19
22 15
30 3
49 54
38 4
60 15
48 49
11 49
48 54
11 61
54 48
61 11
54 49
58 39
49 60
49 78
4 38
14 88
23 58
60 15
88 25
49 60
23 58
23 58
23 29
58 44
25 88
4 11
58 23
88 25
58 39
58 23
25 26
11 4
87 35
87 83
49 43
80 49
4 11
80 25
54 49
54 49
54 49
1 4
71 8
71 66
71 0
71 8
71 66
71 0
71 17
1 25
1 64
1 85
1 35
71 8
71 66
71 0
71 17
71 8
71 66
71 0
71 8
71 66
71 0
71 17
71 8
71 66
71 0
71 17
21 44
71 8
71 0
71 17
52 67
21 44
21 44
52 57
77 60
80 52
4 38
4 1
80 25
49 43
14 44
54 49
19 16
19 25
19 64
19 9
19 85
19 1
19 35
4 38
85 19
23 58
54 49
1 85
1 83
57 49
57 49
57 49
38 4
54 49
1 19
1 83
80 49
82 0
0 71
0 39
54 49
0 39
0 82
0 71
32 80
25 11
54 49
80 49
46 4
19 1
25 78
43 16
67 49
77 60
9 19
54 49
52 49
11 25
25 80
35 9
80 49
35 88
50 57
49 80
80 49
24 54
50 52
60 66
60 44
60 88
48 12
52 57
52 17
52 57
30 67
80 25
57 52
7 60
50 65
52 57
35 26
52 57
1 85
50 54
50 24
71 8
71 66
71 0
71 8
71 66
71 8
71 66
71 0
71 8
71 66
71 0
71 8
71 66
71 0
71 8
71 66
71 0
71 17
35 25
71 8
71 66
71 0
71 17
71 8
71 66
71 0
71 17
71 66
71 0
71 66
71 0
71 8
71 66
71 0
71 17
60 25
35 25
43 25
85 16
85 25
48 25
54 49
82 0
0 71
0 82
0 39
88 25
87 25
0 71
88 60
88 15
52 25
26 46
26 24
26 27
26 35
26 57
19 25
37 25
67 25
53 25
49 54
49 25
26 25
54 25
46 25
14 25
32 25
80 25
24 25
80 32
30 25
83 25
57 52
88 25
25 11
56 25
23 25
11 25
24 49
77 88
57 25
22 88
22 25
85 53
85 64
49 43
49 80
48 54
54 48
67 54
67 54
67 54
8 25
57 54
54 57
12 48
25 89
25 16
25 64
25 85
25 1
25 19
25 35
1 25
0 71
0 71
0 39
60 56
67 54
61 60
44 25
49 67
14 44
71 66
71 8
71 66
71 0
71 17
71 8
71 66
71 0
71 17
25 30
48 25
67 25
58 8
58 39
58 23
58 66
58 11
58 30
60 16
87 56
84 52
80 25
16 60
71 8
71 66
71 0
71 17
71 8
71 66
71 0
71 8
71 66
71 0
71 8
71 66
71 0
71 17
88 60
88 15
88 60
88 15
88 60
88 16
88 15
3 22
38 4
82 0
77 16
77 60
52 84
52 84
60 15
76 49
67 54
76 52
52 50
88 60
88 15
77 52
52 50
52 77
50 49
54 67
57 26
24 46
24 26
24 57
67 54
26 24
16 9
57 26
24 26
77 52
26 4
26 57
26 24
77 61
60 16
54 49
49 76
54 49
49 54
4 26
26 35
87 61
60 30
66 60
66 7
66 59
66 62
66 5
66 21
66 44
66 81
66 30
66 88
52 84
52 17
44 61
54 57
57 54
35 61
84 49
16 60
0 71
0 71
0 1
0 71
0 71
0 82
1 83
49 84
60 16
49 54
54 48
82 0
0 71
0 39
0 82
0 71
0 1
11 61
54 24
67 54
24 54
4 3
54 49
54 24
24 54
33 84
48 54
49 54
24 46
71 8
71 66
71 0
71 8
71 66
71 0
71 8
71 66
71 0
71 8
71 66
71 0
71 8
71 66
71 0
71 8
71 66
71 0
71 8
71 66
71 8
71 66
71 8
71 66
46 24
67 54
88 25
82 39
88 19
88 25
0 39
0 82
0 39
0 82
0 71
0 39
0 82
0 70
0 82
0 71
0 39
0 82
0 82
0 39
0 1
25 88
25 88
39 82
39 82
39 11
39 11
77 61
77 73
54 48
30 71
88 15
60 23
60 62
60 23
60 62
48 49
48 15
21 60
44 30
25 88
50 24
77 61
24 46
70 19
49 54
44 25
44 25
49 54
77 61
32 49
77 61
4 22
63 49
54 67
54 32
54 52
54 49
54 48
54 49
54 49
57 50
49 54
24 46
4 53
4 85
4 38
4 37
22 60
22 60
46 24
9 16
0 71
0 71
67 54
60 15
22 4
49 54
60 16
24 46
60 67
60 54
60 53
60 51
60 16
60 15
44 14
44 14
24 46
24 26
50 54
4 22
26 24
60 16
60 15
24 26
26 24
54 50
24 26
26 24
24 26
26 24
50 54
24 26
3 22
54 67
73 77
77 73
80 70
49 54
60 15
60 15
71 8
71 66
71 0
71 8
71 66
71 0
71 8
71 66
71 8
71 66
71 0
71 17
58 71
3 4
82 0
82 39
54 49
54 49
26 24
0 71
0 82
0 71
0 82
60 15
24 54
24 26
26 24
24 26
54 49
26 24
54 49
54 49
57 46
57 24
57 26
57 65
26 57
25 19
25 19
54 49
70 19
70 0
70 19
70 0
24 54
48 49
48 24
14 16
54 24
50 54
35 16
66 86
80 43
4 38
24 26
26 24
57 46
57 24
57 26
57 65
26 57
24 57
57 46
57 24
57 26
57 65
24 49
24 57
26 57
67 54
4 38
46 24
46 26
46 65
46 57
26 46
26 24
26 65
26 57
57 26
26 57
46 26
33 84
33 3
71 0
38 4
82 0
82 0
82 39
82 0
54 67
54 52
54 49
63 54
77 60
24 83
54 63
50 54
83 24
33 84
67 54
54 60
4 46
67 54
54 49
49 54
43 70
70 43
24 26
26 24
16 64
54 67
54 32
54 52
54 49
54 48
50 43
24 26
26 24
54 67
43 67
60 16
60 15
49 52
57 46
57 26
82 39
82 0
0 70
0 71
0 39
0 71
14 44
14 33
14 13
54 49
43 2
46 4
77 73
48 63
60 88
44 25
77 60
77 73
62 52
24 46
14 44
24 26
26 24
24 26
26 24
24 26
49 54
38 4
12 11
4 46
4 38
57 54
57 39
77 73
1 39
60 29
49 54
0 71
0 70
0 39
0 82
0 71
0 82
54 49
49 54
49 54
2 39
77 60
54 24
66 8
66 71
49 54
49 67
32 48
54 49
49 57
49 48
49 54
48 32
24 46
14 44
30 60
46 4
49 43
4 38
88 14
82 39
82 39
82 0
70 19
70 0
60 30
48 54
54 49
54 24
54 48
25 80
39 82
25 88
83 1
54 16
54 67
4 1
4 26
4 3
4 84
4 11
4 46
67 54
24 26
54 67
54 60
26 24
14 33
46 4
60 54
60 22
60 49
17 63
82 0
7 60
7 23
7 62
7 44
2 24
67 49
67 54
77 15
49 67
49 54
49 54
57 46
57 24
57 26
70 19
70 0
49 54
49 43
21 60
62 88
57 46
57 24
57 26
26 57
67 49
26 46
26 24
26 57
54 67
60 73
24 26
60 44
24 7
44 60
11 58
24 26
26 24
1 16
1 64
35 25
71 8
71 66
71 0
71 17
71 8
71 66
71 0
25 35
71 8
71 66
71 0
71 17
71 8
71 66
71 0
71 30
71 8
71 66
71 0
71 8
71 66
71 0
71 30
71 17
71 0
71 8
71 66
71 0
71 8
71 66
71 0
71 8
71 66
71 0
71 8
71 66
71 0
71 8
71 66
71 0
88 60
88 60
88 60
82 0
82 39
82 39
82 0
48 24
26 39
77 60
66 71
4 26
60 30
39 26
73 60
26 30
44 14
16 64
7 88
14 44
54 48
87 56
48 54
43 49
43 80
43 56
43 67
43 50
48 54
48 24
80 43
48 24
48 24
24 48
73 49
50 84
49 43
49 73
43 49
43 80
43 56
43 67
43 50
88 14
88 14
82 0
82 39
54 48
70 19
70 0
0 82
73 49
0 82
0 82
0 70
0 82
0 71
7 43
7 71
7 57
49 54
49 48
43 2
43 56
14 61
38 4
70 19
70 0
26 4
2 24
85 16
85 25
70 19
70 0
30 66
87 0
48 43
88 44
88 14
32 67
49 54
87 39
87 82
39 87
87 39
24 48
24 2
49 32
49 67
49 54
49 52
49 48
32 49
83 64
83 1
60 44
48 24
48 49
39 80
52 49
83 87
85 25
32 54
23 62
23 59
23 9
23 58
49 73
49 48
49 23
32 54
9 63
54 67
54 32
54 52
54 49
54 48
48 24
25 60
25 60
48 24
24 48
24 48
14 88
16 25
16 25
14 54
14 44
14 48
14 51
88 14
35 16
54 24
82 39
82 39
82 0
82 0
82 39
7 60
0 82
0 71
0 82
0 71
0 39
0 82
0 71
0 71
0 71
0 82
0 71
0 82
48 49
48 24
54 48
49 54
35 25
35 64
35 9
35 19
43 49
43 80
43 56
43 67
43 50
39 24
48 54
60 29
60 29
83 1
14 25
35 16
16 64
43 49
43 80
43 56
43 67
43 50
48 49
48 24
24 39
54 24
85 64
64 73
73 64
14 16
49 54
49 52
82 0
39 24
39 80
30 39
30 78
30 25
30 46
30 9
30 26
30 35
30 58
30 63
30 80
30 17
0 39
0 82
0 71
0 82
0 71
48 54
0 70
0 39
0 72
0 82
0 71
0 71
54 63
49 54
60 61
60 73
48 54
49 54
24 54
54 24
54 48
24 39
77 60
77 73
77 60
77 73
54 50
2 43
48 24
24 48
62 52
54 67
54 49
46 26
26 46
24 50
2 14
84 63
35 30
49 54
49 54
33 84
0 64
0 1
49 16
49 54
71 8
71 66
71 0
71 30
71 8
71 66
71 0
71 30
71 0
71 0
71 66
71 8
71 66
71 0
71 8
71 66
71 0
71 30
14 44
64 85
88 25
88 19
71 8
71 66
71 0
71 8
71 66
71 8
71 66
71 17
4 38
4 38
54 24
82 0
88 25
54 49
39 24
54 49
24 39
54 49
25 88
54 73
25 88
30 60
49 54
67 43
32 67
67 32
77 60
26 30
2 24
2 24
25 85
24 48
2 43
77 60
50 63
49 43
32 67
44 14
24 39
49 54
50 43
80 57
43 25
30 26
58 21
77 60
54 49
80 24
4 84
43 60
49 54
60 43
43 25
60 16
82 39
54 49
2 63
21 58
88 15
71 8
71 0
71 30
71 17
70 56
60 16
22 60
62 60
38 4
60 16
70 19
70 0
14 60
19 70
44 60
88 15
80 73
19 70
39 24
39 82
77 60
77 73
88 60
60 16
16 60
16 60
88 25
35 16
35 25
14 16
49 54
44 60
16 35
25 88
87 24
52 84
19 1
14 16
35 16
84 4
49 64
19 70
7 25
16 25
16 35
16 25
16 35
39 87
87 39
87 1
70 19
35 16
35 25
38 4
77 73
24 57
62 52
25 16
16 60
49 54
49 54
49 54
0 70
0 39
0 82
0 71
11 39
70 19
70 0
54 57
50 63
77 25
66 71
11 60
35 19
35 1
2 24
24 2
54 73
48 24
35 19
80 24
24 80
80 24
24 80
85 64
57 54
80 24
48 54
24 80
48 49
48 15
60 62
48 63
60 16
43 49
88 19
56 87
16 60
16 60
60 16
88 14
88 14
88 14
88 14
88 25
14 88
88 14
88 14
88 14
88 14
88 14
88 14
88 14
25 88
49 63
77 73
14 88
87 39
49 15
4 84
17 63
43 49
43 80
43 70
88 14
88 14
57 39
57 7
57 46
57 24
57 66
57 83
57 26
57 87
57 35
57 17
26 18
26 46
26 53
26 51
26 38
26 27
26 37
87 46
39 57
87 57
49 54
48 54
70 43
84 17
71 8
71 66
71 0
71 8
71 66
71 0
71 8
71 66
71 0
43 59
16 25
2 24
17 63
49 54
49 50
49 48
83 1
46 87
49 54
60 16
39 11
0 71
0 71
87 46
0 71
0 71
52 63
30 44
85 31
85 31
30 80
85 25
46 87
48 24
25 16
26 24
24 26
26 24
26 57
25 80
14 15
80 73
60 66
73 80
38 4
35 25
26 46
26 24
26 27
26 57
85 37
35 16
43 60
80 25
48 24
14 60
14 44
14 13
14 60
14 44
14 13
24 48
4 38
49 54
23 8
23 60
23 7
23 59
23 62
23 5
23 66
23 21
23 44
23 29
23 69
23 58
23 30
23 88
87 56
43 67
16 15
64 85
54 49
54 63
67 43
87 56
2 24
49 15
83 1
30 71
60 73
48 54
44 14
77 60
62 60
62 23
62 7
62 5
62 66
62 49
62 21
62 44
62 81
62 69
62 30
62 88
23 59
14 60
14 44
77 16
77 60
87 56
30 71
26 30
48 54
54 48
64 85
25 44
54 32
85 64
25 14
85 64
57 80
77 60
77 73
60 16
84 63
77 60
77 73
48 54
77 60
77 60
48 43
85 9
85 83
85 7
85 25
85 64
85 31
85 1
85 87
85 35
64 16
56 87
87 56
38 4
57 46
57 24
57 26
57 65
57 35
4 49
49 4
14 33
77 60
25 16
16 25
88 25
25 88
0 70
25 62
85 44
48 24
63 17
87 35
60 8
60 66
60 44
60 88
24 48
48 54
48 24
16 25
16 25
30 84
1 24
84 17
49 15
24 1
49 43
16 60
16 25
88 14
88 14
85 64
85 64
39 1
39 1
54 48
54 48
73 60
73 60
73 16
73 16
73 54
73 54
52 62
52 62
77 16
77 60
77 16
77 60
49 48
49 48
37 53
37 38
37 26
37 4
37 53
37 38
37 26
37 4
52 63
52 63
57 63
57 63
48 49
48 49
48 63
48 63
48 54
48 54
49 48
49 48
85 16
85 16
83 1
83 1
57 46
57 24
57 26
57 27
57 80
57 46
57 24
57 26
57 27
57 80
52 63
52 63
67 49
67 49
49 54
49 67
49 54
49 67
64 85
64 85
1 16
1 16
25 16
25 16
38 4
38 4
85 64
85 64
24 54
24 54
60 16
60 16
1 4
1 4
14 88
14 88
17 63
17 63
4 1
4 1
70 43
70 43
11 39
11 39
11 60
11 60
11 23
11 23
63 49
63 49
39 11
39 11
76 57
76 57
1 4
1 4
1 16
1 16
4 1
4 1
26 24
26 24
57 24
57 24
25 16
25 16
14 44
14 44
64 85
64 85
54 48
54 48
54 48
54 48
54 48
54 48
88 60
88 60
49 54
49 50
49 48
49 54
49 50
49 48
60 88
60 15
60 88
60 15
2 24
2 43
2 24
2 43
14 73
14 73
57 26
57 26
24 46
24 26
24 35
24 57
24 46
24 26
24 35
24 57
85 64
85 64
33 84
33 84
48 24
48 24
52 62
52 62
26 57
26 57
26 24
26 24
26 57
26 57
26 57
26 57
26 57
26 57
49 48
49 48
38 4
38 4
4 38
4 38
54 73
54 73
64 0
64 0
57 26
57 26
14 44
14 44
16 73
16 73
16 60
16 49
16 60
16 49
23 35
23 35
14 44
14 13
14 44
14 13
14 44
14 13
14 44
14 13
88 60
88 60
49 50
49 50
49 50
49 50
56 83
56 87
56 83
56 87
56 43
56 43
60 88
60 15
60 88
60 15
50 49
50 49
52 57
52 57
35 23
35 23
71 8
71 66
71 0
71 8
71 66
71 0
71 8
71 66
71 0
71 8
71 66
71 0
71 8
71 66
71 0
71 8
71 66
71 0
67 54
67 54
23 62
23 62
60 73
60 73
64 16
64 16
25 19
25 19
49 50
49 50
87 82
87 82
4 25
4 25
35 23
35 66
35 23
35 66
35 59
35 59
35 71
35 71
35 46
35 26
35 46
35 26
82 39
82 39
85 64
85 64
49 15
49 15
35 59
35 66
35 71
35 59
35 66
35 71
73 16
73 16
49 73
49 73
54 67
54 67
35 66
35 71
35 66
35 71
35 59
35 59
60 73
60 73
14 44
14 44
8 66
8 71
8 66
8 71
49 67
49 50
49 67
49 50
49 54
49 54
54 67
54 49
54 67
54 49
50 49
50 49
83 1
83 1
67 63
67 63
49 54
49 67
49 54
49 67
49 54
49 54
49 73
23 46
23 66
23 71
61 56
71 8
71 66
71 8
71 66
71 0
71 8
71 66
71 0
71 8
71 66
71 0
71 8
71 66
71 8
71 66
71 0
71 8
71 66
71 0
26 46
60 73
16 85
16 35
25 16
38 4
25 16
35 48
35 84
25 16
23 46
23 46
16 85
16 35
16 85
16 35
16 85
16 35
82 39
82 0
0 64
60 62
18 46
35 16
71 8
71 66
71 0
71 8
71 66
71 66
71 0
71 8
71 66
71 0
71 8
71 66
71 0
64 0
39 8
39 60
39 23
39 7
39 62
39 66
39 35
39 71
39 11
39 30
39 88
85 16
85 4
77 15
77 15
4 85
60 15
23 35
60 15
60 15
71 46
23 39
23 8
23 62
23 66
23 44
23 35
23 71
23 30
48 35
71 8
71 66
71 0
39 23
35 16
88 78
77 16
66 7
48 24
43 67
85 16
48 35
54 73
60 16
73 24
48 54
54 48
35 85
71 8
71 66
71 0
35 48
44 4
44 4
38 4
39 83
39 87
43 49
43 80
43 56
43 67
43 70
43 55
43 50
60 73
60 66
16 54
82 39
82 39
82 39
82 39
73 60
67 63
85 35
54 73
30 23
30 9
30 85
30 13
30 63
30 17
60 67
48 54
50 43
60 16
54 73
46 18
46 23
46 71
43 50
23 30
23 62
23 46
48 54
48 54
84 35
25 78
66 60
85 35
85 73
73 85
35 84
18 46
50 54
4 38
1 24
64 1
64 85
60 66
44 60
60 44
4 44
67 54
1 83
24 57
24 48
25 16
54 63
48 24
0 71
54 63
77 16
77 60
77 16
77 60
77 25
87 56
24 26
43 56
43 56
87 56
24 49
43 56
48 24
48 54
88 25
24 48
11 39
11 73
2 54
73 11
54 48
83 1
23 35
63 49
54 24
54 48
35 23
48 24
0 1
0 1
1 39
83 56
60 12
60 59
60 30
1 35
1 35
87 56
54 24
77 25
54 48
48 54
4 38
56 43
33 84
48 54
35 26
80 54
17 54
71 66
60 16
60 67
60 54
60 52
60 15
54 48
70 43
70 19
70 0
48 54
48 54
24 54
52 62
88 73
23 62
54 15
63 54
85 64
83 39
64 85
24 54
85 64
85 73
52 54
48 54
4 85
4 38
4 85
80 54
85 4
62 60
60 30
80 32
80 32
4 85
88 14
54 24
54 24
39 83
85 4
25 80
48 24
33 84
33 84
48 54
33 84
54 48
23 62
48 67
48 54
48 24
62 52
83 56
60 16
33 84
16 60
87 63
83 56
23 60
23 62
52 16
60 23
60 16
14 88
16 52
25 1
38 4
38 4
88 14
71 0
71 8
71 66
71 0
71 8
71 66
71 0
71 8
71 66
71 0
71 30
71 8
71 66
71 0
14 88
88 25
48 24
54 49
24 48
39 80
48 67
25 88
48 4
44 73
54 25
54 52
70 25
11 60
48 4
24 48
57 24
48 24
71 8
71 60
71 23
71 7
71 62
71 66
71 21
71 44
71 58
71 30
48 24
44 73
25 16
77 48
54 67
4 85
54 60
26 57
26 57
57 26
26 57
4 48
44 14
14 44
67 54
88 25
88 14
88 86
60 11
60 15
60 30
60 66
60 30
60 16
60 15
60 15
30 60
88 15
88 14
54 52
7 60
7 23
7 59
7 62
7 66
7 44
7 71
43 80
43 70
38 4
25 89
25 16
25 64
25 85
25 1
25 19
25 35
43 80
43 70
67 25
80 43
84 52
39 80
70 43
73 11
67 54
70 43
87 56
44 14
35 88
14 44
60 16
60 54
60 15
54 60
54 15
54 63
39 80
39 1
77 54
11 25
12 4
54 67
54 52
4 12
52 62
54 48
23 62
23 62
62 23
25 12
25 39
25 11
73 54
57 76
57 52
57 76
57 52
48 54
54 48
73 54
44 73
67 54
73 44
25 73
73 25
4 48
60 54
60 15
60 15
60 15
60 73
16 60
16 15
48 4
48 54
44 60
4 48
35 25
83 1
54 67
54 52
4 48
4 48
48 54
54 48
2 43
48 54
2 43
57 54
48 54
73 60
52 54
23 54
35 64
57 26
16 60
60 73
60 16
4 38
54 57
54 48
0 39
54 73
2 43
24 54
48 54
0 64
4 38
85 0
43 49
56 43
48 12
12 48
48 54
1 85
1 85
64 1
83 87
30 71
87 83
61 56
54 48
54 48
48 54
62 52
88 14
54 67
32 54
14 88
54 73
54 48
48 67
60 66
60 30
60 44
60 73
24 46
60 15
52 17
25 19
25 1
80 25
77 73
54 48
48 54
25 80
38 4
38 4
16 35
14 33
14 35
14 33
14 35
1 16
35 14
14 35
16 35
22 88
4 38
85 1
80 46
77 60
77 60
4 38
4 38
4 38
4 38
1 25
85 1
85 46
38 4
0 70
88 15
88 60
88 15
57 76
57 52
83 1
48 54
83 1
46 85
46 80
52 54
54 24
54 67
54 52
48 24
1 16
25 16
88 15
88 14
14 88
2 43
48 54
48 54
64 1
54 48
48 54
52 54
52 60
52 62
77 25
77 25
77 25
77 25
54 52
77 25
54 48
24 54
48 54
48 54
38 4
48 67
48 24
0 64
4 12
25 77
54 49
52 62
4 14
54 48
57 46
57 24
57 26
77 49
62 52
26 46
26 24
26 27
26 57
57 26
57 46
57 24
57 27
9 16
77 49
49 43
35 16
46 26
38 4
38 4
26 46
26 27
25 80
30 66
24 46
24 26
24 27
24 57
49 77
77 49
70 19
70 0
70 19
70 0
80 25
9 16
49 15
7 88
88 15
25 80
0 71
0 1
0 70
0 71
0 70
88 7
46 25
52 62
88 73
77 60
35 16
35 14
77 49
49 77
88 15
7 57
25 46
25 80
25 35
26 46
26 24
26 27
26 35
26 57
54 48
24 26
35 25
35 26
52 50
48 12
24 46
24 26
24 27
24 57
48 54
48 73
62 52
88 15
80 25
48 73
49 60
80 25
49 60
25 80
35 49
57 52
80 25
49 35
52 57
49 15
62 52
62 52
83 1
52 73
14 60
14 54
14 48
35 85
48 14
85 16
85 35
88 15
80 25
88 15
14 48
14 51
46 26
14 35
35 14
58 11
11 58
49 15
58 11
25 80
9 16
54 48
48 54
52 62
48 24
24 48
24 46
49 73
14 73
24 48
48 54
48 24
23 8
23 60
23 7
23 59
23 62
23 5
23 66
23 21
23 44
23 29
23 69
23 58
23 30
23 88
77 73
49 15
73 14
49 60
52 57
14 4
38 4
38 4
14 88
38 4
38 4
38 4
4 14
38 4
38 4
14 4
4 14
80 25
54 48
87 19
48 54
11 4
48 67
35 25
67 54
80 25
4 11
49 60
49 23
49 7
49 62
49 66
49 21
49 44
49 30
49 88
54 48
38 4
38 4
38 4
62 52
48 54
67 54
58 21
21 58
35 14
88 15
14 35
88 15
24 46
35 14
73 16
52 17
1 64
62 1
14 35
48 54
52 62
80 35
35 80
23 62
85 1
1 64
1 64
30 66
49 43
33 49
49 33
33 14
58 23
0 71
0 82
14 25
14 35
49 54
85 1
88 73
32 55
23 1
54 48
14 49
11 49
1 23
23 1
8 1
8 17
1 8
71 8
71 7
71 66
71 0
71 58
71 30
71 8
71 66
71 30
73 88
54 24
24 54
71 0
48 24
51 14
14 51
23 58
1 83
1 85
1 64
71 8
71 66
71 0
71 30
1 25
58 83
83 58
71 8
71 66
71 0
71 8
71 66
71 0
71 30
71 0
71 8
71 66
71 0
71 30
23 66
23 71
80 76
80 76
14 33
14 15
57 46
57 24
57 26
57 27
26 57
77 49
23 8
23 60
23 7
23 59
23 62
23 5
23 66
23 21
23 44
23 29
23 69
23 58
23 30
23 88
77 60
77 14
14 77
82 39
49 78
49 78
26 58
58 26
26 58
49 60
49 15
49 43
26 27
83 25
26 21
26 46
26 24
26 27
26 57
87 83
9 23
49 54
85 16
85 25
85 19
85 6
83 1
49 80
49 56
49 67
49 43
49 50
25 85
23 58
85 25
70 19
77 60
83 49
54 48
49 83
25 80
80 25
11 85
11 49
33 14
83 49
1 16
54 49
85 11
60 16
60 15
14 33
35 25
11 85
35 16
77 60
77 14
19 70
57 30
16 35
56 49
57 30
49 56
44 14
80 64
80 85
80 30
57 52
52 57
14 33
14 33
14 49
82 0
82 39
82 0
82 39
82 39
0 82
0 71
30 57
77 49
49 14
49 77
35 14
57 30
87 56
26 46
26 27
26 35
26 57
56 87
26 46
26 27
26 35
26 57
77 49
49 77
52 62
73 60
87 56
14 35
14 49
49 14
16 73
49 25
49 77
77 60
23 49
54 16
54 67
82 0
82 39
25 16
23 62
80 25
14 49
56 43
85 16
14 73
71 8
71 66
25 12
83 56
25 12
19 70
57 46
57 24
57 26
30 60
0 70
0 71
0 70
48 24
49 60
77 15
11 49
1 16
44 49
19 64
19 1
19 70
19 87
11 39
49 43
80 25
25 80
35 83
44 49
35 14
14 49
62 60
60 62
21 49
82 0
82 39
82 0
82 0
0 39
0 64
0 70
0 19
0 71
0 70
71 8
71 66
71 0
24 54
64 49
77 15
52 62
49 64
25 16
49 14
44 60
14 49
14 35
14 33
14 13
35 0
14 44
49 77
22 29
25 49
77 49
49 77
44 13
24 54
16 60
24 48
16 49
35 14
16 19
60 29
14 35
82 0
0 71
0 71
25 56
25 56
56 43
19 16
44 13
24 54
54 24
2 43
57 46
57 24
57 26
57 27
57 35
24 54
35 25
24 57
57 24
24 57
57 24
24 57
82 0
52 17
56 87
54 24
71 64
24 54
77 60
54 24
24 54
14 33
14 35
14 13
25 80
2 49
25 85
85 35
14 88
82 0
0 39
0 70
0 64
0 19
0 71
0 71
49 43
39 11
85 25
85 19
85 35
26 46
26 24
26 27
26 35
26 57
0 39
52 25
24 35
62 52
25 52
19 64
57 52
0 64
71 8
71 66
82 0
70 0
70 0
70 0
44 60
77 60
49 43
77 15
57 24
24 46
24 26
24 27
24 35
24 57
57 43
57 80
49 43
80 23
80 59
80 64
80 17
80 87
49 43
46 24
64 85
54 48
82 0
48 67
67 54
73 54
24 46
24 26
24 27
24 57
49 77
80 87
67 52
52 76
4 38
12 48
1 16
67 32
67 54
67 52
49 67
67 49
24 54
85 16
67 54
77 60
77 60
48 24
48 54
77 49
57 46
57 24
57 26
57 27
73 60
73 60
54 48
54 48
85 46
26 46
26 24
26 27
26 57
57 26
57 46
57 24
57 27
82 0
82 39
26 57
83 35
0 71
70 19
70 19
70 19
70 19
14 25
14 35
24 83
1 16
83 1
57 46
57 24
57 26
26 57
57 24
24 57
24 57
60 16
71 8
71 66
71 30
71 8
71 66
71 8
71 66
71 0
71 30
71 8
71 66
71 0
71 30
11 39
11 12
48 54
60 16
60 15
48 54
25 89
25 16
25 64
25 85
25 1
25 19
25 35
25 73
85 64
60 15
14 33
70 19
70 0
35 24
35 26
35 57
57 24
57 52
54 48
54 24
54 52
2 43
32 67
12 54
83 87
49 43
70 19
70 0
39 76
39 80
62 52
49 56
56 49
24 46
24 35
24 57
32 67
24 26
14 35
48 24
48 54
43 80
77 43
35 14
48 54
24 54
57 46
57 24
57 26
80 43
14 35
23 62
83 56
71 8
71 7
71 66
71 0
71 30
71 0
71 30
71 8
71 66
71 0
71 30
71 8
71 66
71 0
71 30
71 8
71 66
71 0
38 4
35 24
24 46
24 26
24 27
24 57
33 14
24 26
54 12
12 54
70 19
70 0
14 60
4 38
26 24
54 60
4 14
64 87
14 33
14 13
24 7
26 46
26 24
26 27
26 35
26 57
26 7
16 54
56 87
87 56
4 38
49 77
49 43
4 38
77 49
49 77
71 8
71 66
71 0
60 12
23 9
23 58
88 39
12 60
88 60
88 15
88 13
38 4
49 77
73 54
77 49
4 38
77 49
57 46
57 24
57 26
88 25
88 35
87 56
4 38
62 52
35 88
13 88
62 52
62 60
88 52
14 88
88 14
4 48
14 88
67 53
67 37
80 25
80 25
60 62
38 4
2 43
88 14
80 0
60 22
49 60
14 88
88 14
62 52
62 52
14 88
14 49
2 24
2 43
14 16
57 24
35 14
88 52
12 60
24 57
12 60
16 14
24 57
14 35
14 16
35 14
60 49
70 19
70 0
43 67
2 43
88 14
48 54
14 88
48 24
54 60
24 54
83 39
70 19
70 0
14 88
19 64
71 8
71 66
71 0
71 30
71 8
71 66
71 0
71 8
71 66
71 0
71 8
71 66
71 0
1 16
71 8
71 66
71 0
71 8
71 66
71 0
71 8
71 66
71 0
77 60
77 54
49 77
60 54
77 49
11 39
60 43
60 15
82 0
82 39
82 0
82 0
82 0
0 71
0 70
0 71
0 82
0 71
0 71
0 71
0 82
38 4
38 4
24 63
57 52
57 52
17 52
24 54
80 4
4 80
22 88
4 80
80 67
0 71
0 82
0 70
24 48
4 14
24 54
63 17
70 19
70 0
54 60
54 49
17 52
57 52
57 76
57 76
62 52
57 52
54 24
62 52
38 4
73 60
24 54
14 4
54 60
43 37
19 70
17 52
39 18
39 23
39 1
39 83
39 63
18 39
17 52
43 2
24 54
48 54
54 48
57 52
85 9
83 1
54 77
77 54
0 82
0 71
49 15
62 52
54 52
11 25
44 60
85 73
64 1
33 73
62 52
25 11
52 62
52 62
52 62
83 25
25 83
32 25
62 52
77 49
62 52
62 52
85 64
49 77
25 52
52 62
52 25
48 78
25 80
62 23
17 52
52 17
80 25
4 14
4 85
4 38
43 54
43 67
48 49
48 15
11 25
88 25
88 73
73 88
88 73
52 57
67 43
77 60
25 88
25 80
88 25
80 25
52 57
52 17
25 80
54 43
52 17
54 16
17 52
57 52
43 54
54 43
52 57
64 1
52 57
38 85
25 89
25 16
25 64
25 9
25 85
25 1
25 19
25 35
43 44
17 52
60 44
60 16
14 15
14 15
44 43
24 26
24 27
24 35
24 57
35 56
82 0
82 0
82 0
0 64
0 82
0 71
0 71
52 17
0 82
0 64
0 82
0 71
0 82
0 71
0 71
60 44
60 30
17 52
60 73
44 60
30 60
18 46
18 53
18 85
18 38
18 26
18 27
18 37
18 4
57 24
24 57
60 30
0 82
0 71
88 73
30 60
88 73
85 39
85 23
85 16
85 46
85 9
85 21
85 83
85 44
85 0
85 27
85 58
85 30
85 7
85 25
85 64
85 31
85 1
85 19
85 35
73 60
73 88
57 24
57 26
49 73
1 9
49 77
70 19
70 0
70 19
70 0
83 39
0 82
24 48
1 89
1 25
1 64
1 85
1 35
26 24
57 76
49 43
12 60
25 16
88 14
14 88
16 85
48 24
85 16
52 73
25 80
73 52
24 48
80 32
54 67
54 24
54 48
73 11
88 14
35 25
67 54
77 49
2 51
14 88
52 57
57 52
60 30
54 73
73 54
24 48
52 57
35 16
35 25
35 64
35 9
35 85
35 1
24 48
57 52
9 16
80 39
77 81
88 14
48 24
30 60
30 44
0 82
0 71
0 82
48 24
63 54
62 52
70 80
62 52
54 63
25 80
80 25
24 48
24 48
57 52
52 57
52 62
52 54
48 25
48 24
80 76
82 0
25 48
0 82
52 62
48 25
52 62
16 54
16 9
16 25
60 15
76 52
2 24
2 43
77 60
52 76
25 80
24 46
24 26
24 27
24 35
24 57
76 52
43 2
85 1
85 0
43 56
12 48
37 22
37 22
22 56
48 12
56 22
83 1
71 8
71 66
71 30
71 8
71 66
71 8
71 66
85 16
71 8
71 66
71 0
71 8
71 66
71 0
14 44
14 33
14 13
35 46
35 26
35 27
14 88
80 67
83 1
16 15
60 21
60 77
60 16
8 17
0 82
82 0
35 7
26 46
26 24
26 27
26 35
26 57
26 46
26 24
26 27
26 35
26 57
26 46
26 24
26 27
26 35
26 57
26 46
26 24
26 27
26 35
26 57
26 46
26 24
26 27
26 35
26 57
43 77
2 14
2 14
25 35
71 8
71 66
71 0
71 30
71 8
71 66
71 0
71 8
71 66
71 0
71 30
71 8
71 66
71 0
71 30
71 8
71 66
71 0
71 30
71 8
71 66
71 0
0 71
0 71
52 17
0 1
0 82
0 82
0 1
21 60
77 73
52 17
17 52
73 77
48 54
73 88
52 17
16 60
16 73
19 35
71 8
71 66
71 0
71 30
0 82
0 71
0 82
0 71
52 57
52 48
52 17
48 54
48 52
48 57
48 17
35 19
52 17
52 54
52 17
77 16
70 19
70 0
54 52
54 24
54 48
43 56
43 2
52 54
43 37
83 39
39 83
48 54
54 52
49 43
16 9
17 52
52 57
57 52
52 17
52 57
57 52
57 52
48 25
52 57
0 71
0 71
82 0
17 52
70 19
70 0
52 17
25 48
9 16
77 60
48 25
57 52
52 57
52 17
52 76
88 14
57 52
57 52
88 73
52 57
0 82
0 71
17 83
52 57
57 52
49 48
57 52
52 57
52 57
48 54
66 8
66 7
66 59
0 71
0 70
54 48
88 54
48 54
54 88
14 88
54 63
80 76
38 4
38 4
54 63
0 82
0 82
0 82
38 4
71 83
82 0
77 49
77 73
49 77
77 49
77 60
77 73
54 22
54 52
22 54
83 71
83 17
52 54
48 78
48 73
11 60
52 62
54 52
62 52
52 62
62 52
70 19
70 0
52 62
73 48
25 80
26 25
52 54
52 62
52 62
52 62
25 26
83 71
83 17
73 52
62 52
71 8
71 66
71 0
71 30
52 73
54 52
52 62
52 54
52 62
52 57
54 52
52 54
52 62
62 60
54 52
52 32
80 25
80 70
25 35
25 80
57 52
9 23
54 60
70 19
70 0
77 73
24 26
26 24
24 26
26 24
44 30
43 80
64 85
24 26
82 0
35 85
85 64
88 25
88 25
88 14
1 83
14 88
54 48
37 18
82 0
18 46
18 53
18 85
18 38
18 26
18 27
18 37
18 4
2 43
25 88
60 12
12 60
64 16
23 58
54 76
54 24
54 63
83 25
83 56
25 83
26 46
26 24
26 27
26 35
26 57
60 16
48 54
48 24
48 63
48 24
54 48
88 14
88 25
80 76
32 52
26 46
26 24
26 27
26 35
26 57
25 80
80 25
43 60
25 80
26 46
26 24
26 27
26 35
26 57
16 9
33 13
49 54
49 54
49 54
80 25
25 16
43 80
35 25
48 24
24 48
48 24
48 24
24 48
24 48
85 64
64 85
82 0
0 39
0 82
0 71
88 73
73 88
14 25
14 35
52 62
52 62
35 80
52 62
62 52
62 52
52 62
52 62
1 85
14 88
26 46
88 25
88 30
35 26
26 35
14 88
85 1
0 71
35 26
1 85
80 35
4 38
57 52
46 85
52 57
52 32
35 39
32 52
30 88
85 46
82 0
82 0
39 35
83 1
52 48
14 49
35 80
70 19
70 0
80 35
71 0
71 30
71 8
71 66
71 0
71 30
71 8
71 66
71 0
44 85
26 46
26 24
26 27
26 35
26 57
2 24
2 43
58 4
24 48
49 43
66 7
83 39
43 80
48 24
85 64
48 54
48 52
48 54
85 35
85 44
82 0
52 54
80 25
88 86
88 15
52 37
35 85
52 17
88 25
25 80
33 14
32 4
0 1
39 83
32 4
83 39
4 32
4 38
4 32
17 52
26 46
26 24
26 27
26 35
26 57
52 17
80 43
80 25
25 80
80 25
4 38
48 24
76 80
64 85
88 25
88 14
52 57
43 80
77 16
77 60
25 88
63 54
63 54
49 54
37 52
14 13
14 33
14 35
14 88
52 37
54 52
71 8
71 0
71 30
52 54
77 73
49 56
49 43
77 16
57 52
57 73
54 60
25 60
54 63
54 73
73 16
85 64
16 9
9 16
64 85
52 57
85 64
63 54
77 16
9 23
64 85
63 54
71 8
71 0
52 78
57 78
48 24
24 48
78 52
85 64
89 25
89 64
89 85
89 1
89 35
25 88
48 26
26 48
64 85
1 89
82 0
82 0
54 48
0 71
48 54
48 60
48 54
48 4
38 4
54 63
60 15
26 46
26 24
26 27
26 35
26 57
26 46
26 24
26 27
26 35
26 57
87 85
35 25
48 54
48 24
48 63
88 25
71 8
71 66
71 0
71 8
71 66
71 0
71 8
71 66
71 0
71 30
25 88
60 56
14 35
48 4
85 87
4 48
52 78
52 78
14 88
62 52
62 60
35 56
70 19
70 0
0 71
62 52
52 62
49 56
49 43
77 73
38 4
56 25
52 62
52 62
70 19
70 0
49 56
49 67
49 43
49 55
49 50
49 80
70 19
70 0
62 52
52 62
62 60
25 80
60 16
60 15
60 16
60 15
78 52
48 24
60 22
52 78
24 48
38 4
58 25
25 58
14 88
85 64
64 85
0 71
0 71
88 14
52 76
52 57
76 52
49 54
14 88
9 63
82 0
82 0
49 54
82 0
17 52
43 82
70 82
2 82
49 54
60 15
0 71
0 71
76 82
35 14
44 60
73 82
39 23
4 58
71 8
71 66
71 8
71 0
71 8
71 66
71 0
71 58
38 4
88 73
88 15
44 8
44 60
44 23
44 7
44 59
44 62
44 66
44 21
44 58
44 30
44 88
86 88
48 54
60 16
60 15
50 49
52 17
85 64
77 60
18 46
18 53
18 85
18 38
18 26
18 27
18 37
18 4
38 82
77 60
60 15
60 44
48 24
70 80
24 48
48 24
80 49
24 48
60 77
77 60
49 43
73 60
52 73
35 49
49 35
14 44
14 33
14 13
1 83
4 58
44 58
4 38
4 38
58 4
52 17
2 24
52 76
35 49
73 52
76 52
70 19
70 0
70 19
70 0
70 56
70 43
70 80
52 76
70 80
35 39
76 52
39 35
52 37
70 19
70 0
64 85
52 60
52 37
48 49
77 60
77 60
77 60
26 46
26 24
26 27
26 35
26 57
35 57
2 43
14 49
70 19
70 0
44 60
2 43
70 43
70 19
70 0
70 80
60 52
43 2
52 60
25 21
2 43
2 43
77 21
83 1
38 4
17 52
52 17
88 73
57 35
76 57
52 57
73 88
76 57
35 46
35 24
35 26
13 44
77 60
43 49
43 56
43 16
43 54
77 60
83 44
77 60
83 44
87 56
14 44
14 33
14 13
87 56
56 87
25 16
52 76
52 17
17 52
67 57
76 52
49 16
75 85
16 49
23 8
23 60
23 7
23 59
23 62
23 5
23 66
23 21
23 44
23 29
23 71
23 58
23 30
23 47
85 75
57 76
83 39
52 76
12 39
75 44
76 57
76 52
56 83
56 87
70 19
70 0
12 4
30 44
60 39
24 26
24 46
24 57
26 24
24 57
4 38
4 38
83 56
4 12
77 16
52 17
4 12
87 56
60 4
83 1
16 60
60 16
14 49
17 52
35 14
14 35
1 83
83 1
80 25
76 52
48 63
18 46
18 53
18 85
18 38
18 26
18 27
18 37
83 1
35 18
35 7
35 46
35 27
35 48
48 35
1 89
1 25
1 64
1 9
1 19
1 35
77 25
17 52
18 35
83 1
25 77
60 21
77 25
33 14
14 73
83 1
38 4
2 43
2 37
44 73
44 73
54 48
49 14
48 24
2 24
67 24
2 24
14 44
14 33
14 13
30 60
83 1
14 60
14 16
14 44
23 47
24 2
60 16
1 89
1 9
1 19
9 16
80 24
77 16
77 60
63 13
48 57
24 46
24 26
71 44
70 19
70 0
70 80
44 85
44 64
44 64
44 64
44 64
49 37
16 64
53 37
46 18
71 64
60 54
54 60
60 73
13 44
13 14
35 25
35 64
35 1
35 19
35 46
35 24
35 26
35 57
0 82
60 44
77 25
77 25
77 60
25 77
35 25
25 80
1 35
77 25
80 25
54 52
54 49
14 13
54 63
24 54
54 63
87 56
26 46
25 80
49 54
54 63
23 8
23 60
23 7
23 59
23 62
23 5
23 66
23 21
23 44
23 29
23 71
23 58
23 30
23 47
24 26
14 88
54 49
2 43
48 54
77 60
49 54
64 19
49 15
54 49
60 77
77 49
13 44
77 60
44 13
35 14
4 38
14 35
19 16
49 1
56 43
35 16
4 60
52 60
52 73
73 52
60 52
60 4
16 25
25 16
80 52
83 56
1 49
54 52
82 0
82 0
76 52
82 0
77 60
2 52
77 49
49 77
77 49
25 80
24 52
52 54
63 52
35 14
85 1
80 76
80 57
1 85
85 1
50 52
14 35
76 80
38 4
1 85
85 1
88 25
67 52
25 88
13 14
43 37
43 2
70 82
70 56
70 67
70 49
70 43
70 19
70 80
35 25
35 25
60 11
37 2
37 43
14 25
14 35
35 25
49 54
24 57
25 80
57 35
85 44
43 37
43 2
35 56
35 16
77 60
35 57
35 14
47 74
60 16
35 14
88 73
83 1
14 35
77 60
17 52
1 83
1 83
83 1
25 1
83 1
83 1
38 4
54 48
67 54
52 54
48 25
52 54
14 35
54 52
25 48
26 24
11 12
52 76
76 52
56 49
26 46
26 24
26 27
26 35
26 57
24 25
52 37
17 52
24 26
54 24
49 25
26 24
52 78
39 52
52 78
60 44
44 60
60 44
58 11
24 48
11 58
87 56
88 14
48 24
16 35
16 25
16 1
71 18
11 60
25 35
25 16
25 35
14 88
49 43
49 25
49 25
25 49
11 60
85 64
82 0
52 76
48 57
54 48
43 60
49 60
11 12
83 1
83 56
52 17
52 73
67 54
76 54
49 25
54 24
49 87
49 87
25 49
49 25
64 85
87 24
87 24
35 16
57 48
16 25
16 1
16 35
52 17
87 56
87 56
38 4
35 1
1 16
1 16
26 46
26 27
54 60
54 63
1 16
35 64
77 25
77 25
77 25
44 30
44 60
54 52
52 54
52 17
60 44
23 30
11 30
14 13
12 30
76 30
48 43
35 30
54 60
46 18
25 35
77 14
4 38
38 4
76 54
54 52
60 66
58 30
54 60
54 76
52 50
13 18
17 30
13 30
17 52
48 57
57 48
57 48
16 25
80 39
80 76
50 52
48 57
52 76
76 52
52 76
76 52
82 0
82 0
82 0
30 60
54 76
54 48
76 54
54 2
54 76
52 78
52 76
38 4
76 52
25 15
25 16
25 4
83 1
76 63
76 48
76 17
76 52
48 76
17 76
60 30
54 63
44 83
78 52
78 52
54 63
14 4
76 54
73 52
52 73
26 46
26 24
26 27
26 35
26 57
1 16
26 46
26 24
26 27
26 35
26 57
24 26
26 24
52 76
76 52
35 14
63 76
14 35
52 78
56 87
63 17
16 35
87 49
16 25
14 35
60 12
60 23
60 7
60 59
60 72
60 62
60 66
60 49
60 21
60 68
60 44
60 71
60 11
60 30
16 25
25 35
85 64
0 71
0 71
1 64
49 87
30 60
87 24
60 12
60 23
60 7
60 59
60 72
60 62
60 66
60 49
60 21
60 68
60 44
60 71
60 11
60 30
60 44
14 25
14 35
35 14
60 12
60 23
60 7
60 59
60 72
60 62
60 66
60 49
60 21
60 68
60 44
60 71
60 11
60 30
60 12
60 23
60 7
60 59
60 72
60 62
60 66
60 49
60 21
60 68
60 44
60 71
60 11
60 30
35 16
44 60
25 21
16 25
35 25
25 35
35 25
30 71
13 14
1 60
1 16
1 25
44 60
77 14
14 77
35 16
21 25
77 14
30 60
76 52
48 76
52 76
24 76
80 76
25 21
11 60
11 76
32 76
44 60
25 16
25 16
49 25
12 60
25 49
76 52
23 60
54 63
76 11
76 55
60 15
63 76
0 82
0 71
54 52
54 50
2 76
52 76
76 52
54 76
76 54
52 76
54 76
76 52
13 44
13 14
76 54
21 25
83 56
4 25
43 49
25 4
1 25
25 80
76 24
80 25
16 64
71 8
71 66
71 0
71 58
71 30
64 16
71 8
71 66
71 0
71 58
71 30
71 8
71 66
71 0
71 8
71 66
71 0
71 17
71 0
71 58
71 30
44 58
44 60
18 46
18 53
18 85
18 38
18 26
18 27
18 37
0 82
71 8
71 66
71 0
71 58
18 4
14 44
4 18
18 4
49 25
25 49
4 18
38 18
64 16
82 0
30 66
30 71
82 0
1 83
49 25
26 18
32 54
32 54
26 46
26 24
26 27
26 35
26 57
16 35
87 56
71 8
71 66
71 0
71 8
71 66
67 54
76 57
35 46
60 22
60 22
43 49
2 76
26 35
54 43
24 25
43 54
48 76
44 14
76 48
54 63
14 44
35 25
18 46
18 53
18 38
18 26
18 27
18 37
56 43
26 35
49 43
25 16
43 49
43 56
43 67
16 25
49 56
49 67
49 43
16 25
57 76
57 80
23 59
23 58
23 30
25 16
76 57
47 30
89 25
89 1
89 35
80 57
52 4
71 8
71 0
80 70
80 43
1 25
35 25
25 1
25 35
43 49
35 1
35 25
49 78
25 16
60 73
49 56
83 71
25 16
16 25
16 25
25 16
48 54
76 17
78 52
49 56
52 78
25 16
25 78
16 25
60 15
82 0
0 71
0 82
0 82
60 22
49 60
71 8
71 66
71 0
71 8
71 66
71 0
71 58
71 30
71 8
71 66
71 0
14 35
24 53
52 78
52 17
14 25
14 35
52 54
52 11
30 60
54 63
54 52
49 16
52 24
60 30
30 60
60 30
60 54
25 24
25 24
30 60
25 24
24 52
24 25
60 30
52 24
78 52
24 46
25 16
52 78
60 73
30 60
57 48
35 14
16 25
16 49
16 25
0 82
0 71
0 39
0 82
49 25
25 49
37 52
48 57
11 52
52 37
37 52
82 0
82 0
1 83
1 83
11 60
77 25
63 54
25 35
25 35
25 16
54 63
77 73
52 37
54 73
73 77
16 25
25 16
18 13
54 64
49 80
80 25
25 80
25 80
80 25
71 8
71 66
71 0
71 58
71 30
2 43
2 43
71 30
71 66
71 0
71 7
71 8
2 43
57 48
24 48
24 48
24 48
24 48
2 24
24 48
2 25
25 48
2 14
2 14
25 48
19 25
24 48
24 48
19 70
2 82
4 38
52 60
60 12
76 54
35 12
87 42
42 87
87 42
42 87
87 42
35 14
60 15
14 35
14 35
67 25
48 54
48 54
80 49
80 56
80 67
80 70
80 43
54 48
54 32
54 76
54 52
54 48
7 57
7 85
67 80
63 17
60 16
60 16
60 25
60 54
60 53
60 15
60 16
60 25
60 54
60 53
60 15
60 73
89 25
89 64
89 1
89 74
89 35
32 54
52 54
12 39
12 80
35 14
14 35
71 8
71 66
71 0
85 7
57 7
48 54
87 39
48 54
49 16
54 16
89 16
71 8
71 7
71 66
71 58
71 8
71 7
71 66
71 17
32 54
14 59
77 15
54 67
54 32
54 76
54 52
54 48
48 54
54 48
32 54
54 32
54 60
52 17
30 57
17 45
48 24
24 63
11 60
73 16
85 73
83 56
0 70
0 89
76 57
88 73
54 48
82 0
35 57
60 16
60 54
60 53
60 15
35 69
54 48
54 48
11 12
54 48
54 60
66 8
66 8
66 7
37 60
11 60
77 13
64 85
60 53
60 37
11 78
18 46
18 53
18 85
18 38
18 26
18 27
18 37
18 4
37 60
37 18
80 70
37 60
60 16
60 37
57 76
57 30
13 44
76 57
2 43
80 76
87 39
18 37
63 73
48 54
54 48
60 73
2 43
18 58
43 54
16 73
64 85
83 39
22 58
16 60
13 58
83 56
63 54
85 64
0 70
54 52
33 14
70 19
70 0
70 19
70 0
70 19
70 0
70 19
70 0
70 19
70 0
70 19
12 11
26 24
26 46
26 24
26 27
26 35
11 52
77 67
37 18
38 4
35 12
12 35
43 49
43 56
43 67
43 70
43 55
43 80
2 39
71 8
71 7
71 66
71 0
71 8
71 7
71 66
71 0
71 30
71 17
71 8
71 7
71 66
71 0
71 58
71 30
71 17
71 8
71 7
71 66
71 8
71 7
71 66
71 0
71 8
71 7
71 66
71 8
71 66
71 0
71 0
71 8
71 66
71 0
71 8
71 7
71 0
4 38
71 8
71 66
71 0
39 2
83 56
70 19
70 0
54 67
54 56
54 67
54 49
82 1
4 38
43 2
43 37
4 38
54 50
54 57
50 54
54 43
54 43
17 10
76 63
49 60
24 63
2 43
43 2
73 60
60 49
67 54
18 58
38 4
42 58
67 54
30 60
16 64
48 63
82 0
80 39
80 76
57 35
80 57
57 80
60 49
49 60
36 60
36 15
60 15
35 16
77 49
77 60
77 73
49 77
14 33
19 16
60 49
25 1
44 85
25 86
16 19
85 44
4 14
64 85
11 12
66 71
66 88
51 26
88 60
88 15
83 39
58 8
58 39
58 23
58 66
58 71
58 13
58 28
58 30
58 47
63 54
45 54
52 54
45 42
45 42
73 16
60 13
60 8
60 13
60 7
60 66
60 44
54 56
35 14
42 45
14 16
14 60
14 44
14 16
14 35
54 63
54 63
23 49
54 16
54 2
83 1
0 64
0 72
35 26
60 73
44 60
60 44
70 19
70 0
76 73
76 80
43 49
58 30
73 76
73 60
23 31
24 7
24 46
24 26
24 27
26 35
77 73
43 49
75 85
35 26
58 23
48 16
26 35
64 16
83 39
19 16
77 15
77 15
4 38
80 31
42 45
45 42
45 63
0 64
0 82
42 45
42 83
42 87
42 47
87 42
42 45
42 47
87 42
87 45
87 42
64 0
64 85
31 33
45 24
45 24
42 45
45 42
45 42
45 63
33 31
73 60
42 45
45 42
45 42
42 45
87 42
73 60
60 73
31 33
83 1
48 54
14 35
48 16
54 48
48 63
16 48
44 14
44 33
44 13
70 19
16 54
47 10
47 74
47 28
32 25
60 73
16 9
54 48
24 45
49 48
45 87
48 49
54 48
48 54
66 8
49 23
49 66
35 26
35 25
35 24
35 27
35 57
26 35
26 24
26 35
23 49
49 54
49 38
42 56
35 16
1 16
30 71
33 31
4 49
31 33
49 4
24 63
16 25
16 73
11 12
45 24
45 63
45 24
45 63
43 49
4 49
54 16
49 43
71 8
71 7
71 66
71 0
71 30
71 17
71 8
71 7
71 0
71 30
80 76
80 76
76 54
57 24
54 76
8 71
23 59
54 80
54 48
48 54
48 54
48 54
82 0
82 0
80 54
4 52
63 24
38 4
4 22
35 1
4 18
25 4
4 87
4 30
24 63
4 88
4 19
19 4
45 42
42 45
48 54
54 48
88 60
88 60
33 14
4 25
4 19
66 58
4 27
35 25
25 80
73 77
73 54
80 25
25 35
14 33
42 45
25 4
60 88
4 38
23 59
23 66
42 45
83 1
83 1
42 45
54 48
54 48
39 12
39 76
39 1
39 83
39 11
39 80
52 57
52 4
54 45
70 19
35 46
35 24
35 26
35 27
35 33
33 60
35 12
73 60
35 9
88 25
33 23
88 25
4 52
77 73
52 4
77 73
4 52
43 70
43 56
70 19
70 0
70 43
42 45
8 66
43 56
43 49
46 24
46 26
46 27
46 35
1 39
0 70
0 70
0 82
0 1
0 70
60 47
88 60
4 38
45 42
45 42
60 33
82 0
82 0
11 73
17 18
80 76
48 54
83 1
54 48
67 32
67 54
67 52
35 59
42 45
1 9
43 56
44 60
25 44
44 25
43 49
87 1
12 48
48 12
4 27
88 4
88 4
64 1
4 88
26 24
45 48
1 87
42 56
48 54
83 87
42 45
42 83
42 87
26 46
26 24
26 27
26 35
30 4
44 30
30 23
60 73
82 0
35 25
70 43
0 64
0 1
0 82
0 71
0 70
14 73
11 60
44 60
44 73
26 24
24 26
11 58
4 30
4 10
42 45
30 8
30 23
30 59
30 66
30 71
4 27
77 73
73 14
73 14
35 18
35 12
35 23
35 59
35 9
35 10
35 33
35 28
35 58
35 17
49 43
54 60
23 30
14 73
4 38
45 63
45 48
0 70
70 19
80 70
54 48
48 54
43 16
43 54
24 54
60 88
43 49
43 56
43 49
12 25
44 13
25 12
12 25
25 12
48 24
25 12
54 48
25 77
12 25
25 12
48 54
25 35
8 66
8 71
0 1
49 43
52 76
35 64
35 46
25 15
89 0
89 0
89 0
10 4
60 44
60 23
60 7
60 59
60 72
60 62
60 66
60 49
60 21
60 68
60 44
60 71
60 30
35 18
35 12
35 59
35 66
35 33
35 11
33 64
54 49
49 54
54 49
49 47
49 33
25 15
77 25
73 58
73 13
49 33
49 47
88 60
88 25
25 60
25 88
77 60
77 73
24 26
80 70
77 60
77 73
78 44
83 39
83 1
83 39
83 56
83 64
83 85
83 1
83 87
80 76
74 8
74 10
74 47
73 77
80 70
0 1
48 54
56 43
77 60
77 73
73 77
14 16
14 15
14 4
49 86
48 54
82 0
54 48
35 16
77 49
24 45
4 14
4 14
14 4
49 77
42 45
31 68
11 60
11 60
77 49
48 87
31 64
11 60
64 85
16 9
63 54
4 17
4 22
4 8
0 70
0 70
0 82
17 45
71 8
71 66
71 0
71 58
71 30
54 63
54 48
83 1
60 16
60 54
60 15
88 19
45 24
54 32
54 52
54 48
4 9
49 60
49 60
25 80
80 25
87 35
36 60
36 15
54 24
63 54
24 54
14 10
14 44
14 33
14 35
14 13
76 11
70 19
7 8
7 23
7 59
7 66
7 71
0 70
0 82
0 71
0 70
0 70
0 82
35 87
12 39
11 76
10 47
87 35
76 11
80 39
80 76
76 39
4 38
4 25
48 80
54 63
54 24
4 10
4 10
49 56
49 43
26 46
26 24
26 27
26 35
70 19
70 0
49 56
49 43
24 48
54 24
75 13
48 24
24 48
24 57
60 30
25 32
30 71
42 45
48 54
63 54
87 0
4 18
4 30
4 17
24 63
4 25
32 25
63 24
32 25
16 25
63 17
4 87
54 48
48 54
0 70
0 71
82 0
0 70
0 64
71 8
71 7
71 0
54 60
24 54
80 76
33 13
67 54
25 32
32 25
19 1
1 19
83 39
2 43
19 85
19 85
17 63
54 52
54 48
54 24
16 19
60 22
60 22
48 25
54 48
11 60
48 54
25 48
48 25
63 17
4 10
39 13
77 67
24 25
60 16
8 66
8 71
87 25
52 81
52 81
54 80
82 0
80 76
43 49
43 56
43 80
43 49
43 56
43 80
48 24
56 25
54 24
9 4
25 87
87 25
43 49
24 54
4 88
4 9
54 24
54 24
54 63
11 25
25 11
30 60
30 71
18 46
18 53
18 85
18 38
18 26
18 27
18 37
18 4
60 30
58 78
4 10
4 18
63 54
60 16
77 67
45 25
42 25
35 13
58 23
14 25
85 44
60 16
60 16
83 25
63 58
71 60
71 8
71 7
71 66
71 0
71 30
24 54
61 55
4 10
54 63
26 46
26 24
26 27
26 35
26 46
54 48
80 54
35 25
70 19
70 0
14 25
66 8
66 71
66 30
25 14
66 71
66 30
66 71
48 54
32 54
48 54
35 13
14 25
4 88
35 74
70 19
70 0
23 60
24 54
30 23
30 66
30 71
26 24
49 43
1 83
35 13
23 66
52 24
71 8
71 7
71 66
71 0
49 43
44 23
80 67
43 67
16 19
23 58
24 52
73 16
16 19
23 60
73 54
77 60
77 60
66 23
66 30
58 23
8 7
8 66
8 71
1 71
1 71
46 26
63 54
26 46
4 38
19 16
19 25
54 63
54 63
88 4
77 49
77 60
77 73
77 73
48 54
4 9
83 39
52 54
60 11
83 1
83 87
60 16
60 54
60 15
54 60
83 1
83 87
85 64
73 53
66 71
54 24
12 11
54 45
24 54
60 77
70 19
70 0
19 16
16 73
73 16
49 60
49 73
49 23
23 49
60 73
16 19
11 60
9 4
24 54
25 16
63 54
54 48
0 70
0 82
0 70
0 70
0 70
0 70
0 70
0 89
0 82
0 70
0 89
0 82
0 71
32 73
35 85
1 89
1 25
1 64
1 19
1 74
1 35
66 60
11 60
60 22
85 38
24 54
30 60
60 30
73 48
85 64
30 73
25 16
52 17
25 52
87 25
30 60
25 22
25 45
25 42
73 30
82 0
54 24
42 25
54 24
52 25
38 4
24 45
45 25
16 73
16 85
4 38
63 54
54 4
66 8
66 71
66 8
66 23
66 7
66 71
66 58
66 30
77 16
80 76
54 63
54 16
45 63
85 38
85 38
32 54
66 30
26 46
26 24
26 27
26 35
63 45
44 60
48 76
38 85
52 17
25 80
75 23
25 16
47 23
70 19
70 0
0 82
52 54
26 46
26 24
10 47
10 47
10 47
10 47
60 73
47 74
63 54
77 60
77 73
77 60
77 73
54 60
73 14
54 63
54 60
47 42
47 74
54 48
63 54
60 8
60 10
60 42
60 83
60 87
60 33
60 13
60 28
60 58
60 86
60 12
60 56
60 23
60 14
60 7
60 72
60 22
60 62
60 5
60 66
60 31
60 49
60 21
60 43
60 68
60 44
60 29
60 71
60 11
60 30
60 47
60 15
12 39
71 8
71 66
71 0
1 83
10 47
10 47
10 47
54 48
54 52
54 52
54 60
52 54
88 60
88 73
54 60
48 54
48 24
54 24
70 19
70 0
70 19
70 0
85 64
76 80
67 43
43 67
14 60
14 73
47 23
74 23
76 39
76 80
26 46
26 24
73 16
73 60
63 54
32 42
54 63
0 70
25 73
24 54
42 25
25 42
42 25
24 26
26 24
76 57
25 19
54 48
25 30
47 23
47 23
26 46
26 24
10 74
73 77
54 14
9 17
44 30
54 32
54 45
54 48
48 54
80 54
80 43
85 35
43 80
48 73
52 54
73 48
35 73
24 46
24 26
26 24
73 35
54 48
48 54
73 77
35 25
54 14
87 42
54 32
54 52
54 48
48 54
52 54
63 54
87 39
87 45
87 1
87 42
54 63
83 1
83 1
54 32
54 52
54 48
52 54
54 24
32 54
54 60
24 54
24 54
24 54
24 54
54 24
25 12
35 33
89 0
0 82
0 70
0 89
0 82
14 54
54 58
70 19
70 0
54 24
23 30
54 24
54 48
0 82
0 71
85 73
26 46
26 24
26 27
26 35
43 25
1 83
60 23
23 60
54 48
76 39
54 2
52 54
16 73
11 58
24 46
24 26
24 35
48 15
26 24
48 54
35 24
58 11
11 60
64 13
73 22
66 8
66 71
66 8
66 71
76 39
76 24
