11 39
48 54
69 60
69 60
33 84
33 84
33 84
54 48
54 48
57 24
57 26
57 65
48 54
22 54
57 26
48 22
54 48
57 26
4 38
25 71
69 30
83 56
60 16
60 22
57 24
57 26
57 65
16 60
16 22
24 57
22 54
29 60
57 26
57 26
69 66
69 21
69 30
69 60
65 54
39 54
39 64
14 77
61 56
33 84
38 4
33 84
54 65
70 80
66 4
85 64
24 54
65 24
69 60
48 24
60 21
0 89
54 67
38 4
14 77
57 24
57 26
57 65
57 35
57 24
57 26
57 65
23 60
23 7
23 59
23 62
23 5
23 66
23 21
23 44
23 81
23 69
23 30
23 88
24 65
49 60
69 60
25 49
65 35
54 24
54 16
16 35
87 56
87 56
54 16
25 14
14 25
49 25
24 65
23 59
23 62
23 66
23 69
23 58
66 4
60 7
60 69
60 15
54 48
87 56
85 25
85 64
85 1
85 19
85 35
33 84
33 3
25 85
48 54
85 39
85 39
87 56
48 25
64 1
64 19
87 56
19 64
19 1
19 64
19 1
54 49
38 53
38 4
33 84
33 3
77 14
87 56
83 80
83 82
1 83
88 60
88 15
1 64
88 60
88 15
48 51
55 80
43 56
43 67
43 49
43 55
43 50
43 80
70 19
54 16
55 43
80 25
80 83
12 55
29 49
49 43
57 7
57 24
57 26
57 65
57 35
57 80
69 81
35 88
84 33
84 54
83 1
88 15
33 84
50 43
24 65
16 61
61 35
48 54
48 67
83 25
56 87
25 83
48 54
48 24
49 43
48 67
48 54
87 56
48 24
24 48
87 56
87 56
9 43
69 23
69 66
69 21
69 35
69 30
43 9
49 67
35 69
87 84
87 23
87 46
87 33
49 43
69 35
49 43
57 24
67 49
70 80
70 80
49 29
70 80
25 1
35 83
33 84
55 80
64 1
54 65
61 29
80 55
57 24
57 26
57 65
57 35
65 54
87 1
67 48
83 1
48 78
29 60
69 60
38 69
80 69
80 70
57 24
57 26
57 65
24 57
57 24
57 26
57 65
57 35
57 26
14 25
14 25
14 35
43 69
69 23
69 66
69 21
69 30
49 43
19 25
19 64
19 85
19 1
19 35
43 49
35 19
55 69
48 12
19 35
70 19
16 49
49 16
83 56
85 46
48 54
49 16
83 64
83 1
83 19
83 87
83 1
85 65
16 49
49 16
57 24
88 25
54 48
1 64
77 61
60 14
88 60
14 60
61 57
57 61
60 88
48 24
43 56
43 67
43 49
43 55
43 50
43 80
54 61
48 24
4 66
83 56
83 1
49 43
25 35
77 61
57 24
83 87
54 16
85 31
87 56
25 16
60 16
54 65
43 9
54 16
85 46
65 24
65 50
77 61
60 54
49 43
83 87
57 24
57 26
57 65
57 35
58 84
58 23
58 11
58 66
55 25
60 88
83 25
60 88
60 88
4 66
80 12
25 83
58 39
58 85
52 62
38 4
48 54
38 4
16 32
16 4
16 15
67 49
49 32
49 67
49 54
49 52
49 48
43 56
43 67
43 55
43 50
70 19
61 56
67 43
80 43
25 19
32 80
46 85
80 55
55 80
4 16
87 83
48 54
39 11
43 56
43 55
43 50
70 19
70 24
24 70
50 43
49 60
48 78
55 43
14 25
14 86
43 56
43 67
43 49
43 55
43 50
43 80
49 43
77 61
43 56
43 67
43 49
43 55
43 50
43 80
55 80
49 67
57 24
57 26
57 65
57 80
43 55
43 30
80 25
25 2
29 49
80 25
43 49
57 26
49 43
46 65
23 58
58 23
48 54
54 48
67 48
65 24
48 54
48 24
24 65
87 56
38 4
54 48
43 49
4 67
23 58
38 4
29 49
55 49
49 55
70 19
70 19
70 19
61 56
54 16
54 50
83 82
1 88
80 70
65 46
55 80
80 55
35 14
57 24
57 65
88 60
54 48
19 70
49 67
49 67
77 61
32 16
38 4
88 60
57 46
57 24
57 26
57 65
57 87
57 80
57 46
57 24
57 26
57 65
57 87
57 80
38 4
16 88
16 88
33 84
29 49
25 78
78 25
48 54
54 48
88 60
51 26
88 60
88 60
88 60
4 46
77 88
33 84
33 84
1 58
1 58
1 58
49 29
38 4
88 77
38 4
8 66
8 17
83 1
83 87
49 67
49 54
54 67
54 49
16 61
49 67
77 15
54 32
54 67
54 52
54 49
54 48
88 60
83 4
77 88
33 84
16 64
80 70
65 54
88 60
88 15
88 60
88 16
88 15
77 88
29 49
88 60
88 15
25 88
88 60
88 15
48 67
65 54
80 55
43 49
52 57
80 57
49 54
54 49
25 88
54 24
83 35
88 60
88 16
88 15
88 60
88 16
57 24
57 26
57 65
88 16
88 15
88 16
88 25
39 11
24 54
80 55
63 54
38 4
57 24
57 26
57 65
25 19
25 88
88 60
88 16
88 15
54 65
88 60
88 16
83 1
4 83
77 61
55 11
57 24
57 65
88 60
88 16
88 15
48 65
54 16
54 67
11 55
49 43
38 4
54 67
54 65
43 56
43 67
43 49
43 55
43 50
43 80
48 24
48 54
48 65
77 61
43 55
83 1
83 1
16 60
16 25
70 19
4 38
77 61
77 61
38 4
54 65
19 70
77 25
83 56
25 16
88 25
88 25
88 25
83 56
77 25
88 25
88 25
25 60
25 16
16 25
19 70
46 18
48 24
38 4
38 4
48 24
25 88
88 25
65 48
49 43
43 49
49 43
24 65
11 86
11 78
11 39
