11 39
48 54
69 60
69 60
33 84
33 84
33 84
54 48
54 48
57 24
57 26
57 65
48 54
22 54
57 26
48 22
54 48
57 26
4 38
25 71
69 30
83 56
60 16
60 22
57 24
57 26
57 65
16 60
16 22
24 57
22 54
29 60
57 26
57 26
69 66
69 21
69 30
69 60
65 54
39 54
39 64
14 77
61 56
33 84
38 4
33 84
54 65
70 80
66 4
85 64
24 54
65 24
69 60
48 24
60 21
0 89
54 67
38 4
14 77
57 24
57 26
57 65
57 35
57 24
57 26
57 65
23 60
23 7
23 59
23 62
23 5
23 66
23 21
23 44
23 81
23 69
23 30
23 88
24 65
49 60
69 60
25 49
65 35
54 24
54 16
16 35
87 56
87 56
54 16
25 14
14 25
49 25
24 65
23 59
23 62
23 66
23 69
23 58
66 4
60 7
60 69
60 15
54 48
87 56
85 25
85 64
85 1
85 19
85 35
33 84
33 3
25 85
48 54
85 39
85 39
87 56
48 25
64 1
64 19
87 56
19 64
19 1
19 64
19 1
54 49
38 53
38 4
33 84
33 3
77 14
87 56
83 80
83 82
1 83
88 60
88 15
1 64
88 60
88 15
48 51
55 80
43 56
43 67
43 49
43 55
43 50
43 80
70 19
54 16
55 43
80 25
80 83
12 55
29 49
49 43
57 7
57 24
57 26
57 65
57 35
57 80
69 81
35 88
84 33
84 54
83 1
88 15
33 84
50 43
24 65
16 61
61 35
48 54
48 67
83 25
56 87
25 83
48 54
48 24
49 43
48 67
48 54
87 56
48 24
24 48
87 56
87 56
9 43
69 23
69 66
69 21
69 35
69 30
43 9
49 67
35 69
87 84
87 23
87 46
87 33
49 43
69 35
49 43
57 24
67 49
70 80
70 80
49 29
70 80
25 1
35 83
33 84
55 80
64 1
54 65
61 29
80 55
57 24
57 26
57 65
57 35
65 54
87 1
67 48
83 1
48 78
29 60
69 60
38 69
80 69
80 70
57 24
57 26
57 65
24 57
57 24
57 26
57 65
57 35
57 26
14 25
14 25
14 35
43 69
69 23
69 66
69 21
69 30
49 43
19 25
19 64
19 85
19 1
19 35
43 49
35 19
55 69
48 12
19 35
70 19
16 49
49 16
83 56
85 46
48 54
49 16
83 64
83 1
83 19
83 87
83 1
85 65
16 49
49 16
57 24
88 25
54 48
1 64
77 61
60 14
88 60
14 60
61 57
57 61
60 88
48 24
43 56
43 67
43 49
43 55
43 50
43 80
54 61
48 24
4 66
83 56
83 1
49 43
25 35
77 61
57 24
83 87
54 16
85 31
87 56
25 16
60 16
54 65
43 9
54 16
85 46
65 24
65 50
77 61
60 54
49 43
83 87
57 24
57 26
57 65
57 35
58 84
58 23
58 11
58 66
55 25
60 88
83 25
60 88
60 88
4 66
80 12
25 83
58 39
58 85
52 62
38 4
48 54
38 4
16 32
16 4
16 15
67 49
49 32
49 67
49 54
49 52
49 48
43 56
43 67
43 55
43 50
70 19
61 56
67 43
80 43
25 19
32 80
46 85
80 55
55 80
4 16
87 83
48 54
39 11
43 56
43 55
43 50
70 19
70 24
24 70
50 43
49 60
48 78
55 43
14 25
14 86
43 56
43 67
43 49
43 55
43 50
43 80
49 43
77 61
43 56
43 67
43 49
43 55
43 50
43 80
55 80
49 67
57 24
57 26
57 65
57 80
43 55
43 30
80 25
25 2
29 49
80 25
43 49
57 26
49 43
46 65
23 58
58 23
48 54
54 48
67 48
65 24
48 54
48 24
24 65
87 56
38 4
54 48
43 49
4 67
23 58
38 4
29 49
55 49
49 55
70 19
70 19
70 19
61 56
54 16
54 50
83 82
1 88
80 70
65 46
55 80
80 55
35 14
57 24
57 65
88 60
54 48
19 70
49 67
49 67
77 61
32 16
38 4
88 60
57 46
57 24
57 26
57 65
57 87
57 80
57 46
57 24
57 26
57 65
57 87
57 80
38 4
16 88
16 88
33 84
29 49
25 78
78 25
48 54
54 48
88 60
51 26
88 60
88 60
88 60
4 46
77 88
33 84
33 84
1 58
1 58
1 58
49 29
38 4
88 77
38 4
8 66
8 17
83 1
83 87
49 67
49 54
54 67
54 49
16 61
49 67
77 15
54 32
54 67
54 52
54 49
54 48
88 60
83 4
77 88
33 84
16 64
80 70
65 54
88 60
88 15
88 60
88 16
88 15
77 88
29 49
88 60
88 15
25 88
88 60
88 15
48 67
65 54
80 55
43 49
52 57
80 57
49 54
54 49
25 88
54 24
83 35
88 60
88 16
88 15
88 60
88 16
57 24
57 26
57 65
88 16
88 15
88 16
88 25
39 11
24 54
80 55
63 54
38 4
57 24
57 26
57 65
25 19
25 88
88 60
88 16
88 15
54 65
88 60
88 16
83 1
4 83
77 61
55 11
57 24
57 65
88 60
88 16
88 15
48 65
54 16
54 67
11 55
49 43
38 4
54 67
54 65
43 56
43 67
43 49
43 55
43 50
43 80
48 24
48 54
48 65
77 61
43 55
83 1
83 1
16 60
16 25
70 19
4 38
77 61
77 61
38 4
54 65
19 70
77 25
83 56
25 16
88 25
88 25
88 25
83 56
77 25
88 25
88 25
25 60
25 16
16 25
19 70
46 18
48 24
38 4
38 4
48 24
25 88
88 25
65 48
49 43
43 49
49 43
24 65
11 86
11 78
11 39
77 61
39 11
57 65
52 57
48 24
24 65
11 39
52 57
70 55
85 64
85 31
70 19
70 19
78 11
57 65
88 54
54 88
54 67
54 65
70 19
70 19
19 70
43 60
24 48
57 24
24 58
55 32
57 65
24 26
49 43
43 56
43 67
43 49
43 70
43 55
43 50
43 80
49 43
50 43
48 43
48 54
48 65
80 55
61 56
58 24
57 65
60 16
49 43
49 43
88 60
70 43
70 19
70 19
39 80
39 80
48 24
58 68
58 21
58 81
58 64
21 60
21 62
21 5
21 66
21 44
21 81
21 30
21 88
11 78
87 83
78 11
77 43
54 67
54 65
84 33
70 19
70 19
70 19
33 84
49 43
43 77
49 43
49 43
88 25
64 58
23 58
60 7
60 69
60 15
48 24
66 71
66 71
66 71
4 64
83 56
83 1
29 60
66 60
66 62
66 5
66 44
66 81
66 30
66 88
49 80
49 43
54 48
43 48
39 11
49 64
50 43
48 54
88 25
88 25
16 60
23 60
23 7
23 59
23 62
23 5
23 66
23 21
23 44
23 81
23 69
23 30
23 88
49 54
16 60
25 78
33 84
83 56
83 1
83 87
60 16
60 67
60 54
60 15
85 88
70 80
80 70
77 60
77 60
60 77
30 69
21 55
87 56
88 60
77 61
4 38
77 61
38 4
25 4
4 25
77 61
54 52
60 66
29 60
44 22
83 82
83 64
87 56
49 78
83 56
56 83
54 48
48 54
56 87
87 56
85 87
63 17
52 54
62 23
62 66
33 84
83 56
64 16
22 44
64 16
83 1
0 70
80 25
38 4
48 54
88 84
64 85
87 85
57 67
85 64
49 54
54 22
50 57
60 30
16 64
60 29
87 56
87 1
87 83
83 1
3 67
30 66
11 39
38 4
39 11
18 46
18 53
18 38
18 26
18 37
11 30
44 49
14 15
85 46
55 64
55 50
48 54
25 88
88 8
26 65
26 46
26 24
26 65
26 57
3 15
48 54
39 11
49 60
54 48
60 29
54 48
48 54
83 1
57 67
57 52
11 39
48 54
65 46
65 24
65 26
39 11
57 24
57 26
48 2
48 67
48 24
32 80
57 26
57 26
87 21
54 48
2 48
25 88
84 88
85 66
85 66
85 66
54 48
19 9
64 16
24 48
48 24
87 1
87 83
64 16
88 60
88 16
88 15
23 60
23 7
23 59
23 62
23 5
23 66
23 21
23 44
23 81
23 69
23 30
23 88
70 19
70 19
4 38
38 4
49 60
4 38
18 46
18 53
18 38
18 26
18 37
65 24
14 88
55 25
55 80
25 55
70 19
80 70
16 9
54 65
49 44
38 4
23 66
48 65
43 49
54 65
32 65
2 65
54 65
54 16
48 24
71 66
67 65
71 66
67 54
33 84
19 70
52 65
54 67
80 55
17 65
70 19
11 39
11 55
24 65
24 65
43 56
43 67
43 49
43 55
43 50
43 80
70 19
22 54
60 22
52 84
84 65
39 11
49 60
18 8
51 38
4 38
49 55
49 80
60 38
60 15
46 66
16 32
16 4
4 38
4 38
38 4
38 4
38 54
38 54
38 54
11 39
54 60
54 67
85 64
60 54
60 38
60 15
65 24
65 24
87 83
35 43
50 52
87 83
87 83
57 52
88 25
88 60
88 15
88 14
88 14
50 67
52 57
38 4
14 88
14 33
38 60
33 84
60 38
60 38
60 54
84 52
52 84
85 46
54 65
49 32
49 67
49 54
49 52
49 48
2 14
71 66
80 55
38 4
49 16
55 25
49 55
49 60
24 46
24 26
24 65
24 57
55 49
55 80
55 84
55 63
55 17
49 55
54 67
54 65
54 48
35 56
56 35
54 65
88 61
80 55
80 57
18 46
18 53
18 38
18 26
18 37
18 4
64 1
83 1
23 58
50 67
26 46
26 24
26 65
26 57
44 14
44 33
44 13
24 46
24 26
24 65
24 57
57 26
25 11
14 33
65 26
66 71
66 69
66 71
66 60
66 7
66 59
66 62
66 5
66 21
66 44
66 81
66 30
66 88
66 71
4 18
85 35
70 19
70 19
70 19
70 19
70 19
70 19
70 19
70 19
70 19
70 19
70 19
70 19
70 19
70 19
70 19
70 19
70 19
70 19
35 85
85 64
35 14
49 54
85 16
85 25
85 64
85 9
85 1
85 19
85 35
1 61
87 63
35 85
61 1
43 14
85 24
4 32
4 38
63 65
63 24
18 46
18 53
18 38
18 26
18 37
71 66
65 24
71 8
83 1
33 14
25 85
83 85
48 85
87 85
62 88
83 85
83 1
38 4
65 24
65 24
65 24
65 24
24 65
65 24
65 24
83 85
48 54
24 65
55 70
55 50
55 80
14 56
19 70
83 85
88 60
88 16
88 15
70 19
77 60
77 49
49 77
83 85
23 60
23 7
23 59
23 62
23 5
23 66
23 21
23 44
23 81
23 69
23 30
23 88
67 43
23 60
23 7
23 59
23 62
23 5
23 66
23 21
23 44
23 81
23 69
23 30
23 88
60 77
77 49
43 67
85 9
49 32
49 67
49 54
49 52
49 48
71 66
71 66
24 65
71 66
71 66
85 25
48 49
48 15
43 56
43 67
43 49
43 70
43 55
43 50
43 80
80 43
57 26
26 57
57 26
26 57
25 85
57 26
85 16
85 25
85 9
85 19
85 35
32 55
70 43
58 66
26 49
80 55
29 60
26 49
67 54
66 58
83 56
14 86
46 85
65 54
30 60
49 55
55 49
58 66
84 52
84 52
84 52
25 78
88 61
26 24
26 65
26 57
24 65
86 14
35 56
70 19
55 80
33 14
57 46
57 24
57 26
57 65
44 60
57 80
80 57
52 37
70 19
70 19
24 65
71 8
71 30
71 66
71 8
71 30
71 8
71 66
71 30
71 8
71 66
32 25
51 26
67 60
19 70
70 19
70 19
57 24
57 26
57 65
26 57
57 26
26 57
25 88
26 57
14 86
57 26
57 26
35 56
35 14
35 16
35 25
66 58
14 35
35 14
25 85
87 35
57 24
57 26
57 65
57 35
83 8
83 25
83 62
83 46
83 24
83 65
83 50
83 37
83 63
83 86
58 66
80 55
25 88
55 80
80 55
70 19
25 88
55 80
37 60
4 46
4 24
4 58
4 64
4 53
4 32
4 56
24 4
4 87
4 1
4 12
58 4
32 4
87 4
30 60
80 55
77 15
77 15
43 56
43 67
43 49
43 70
43 55
43 50
43 80
55 80
43 2
43 37
87 46
87 83
16 60
25 16
16 60
9 16
57 65
30 55
16 54
65 57
67 32
23 30
78 37
88 15
32 67
77 88
88 25
88 15
88 35
38 32
57 26
26 57
57 26
61 60
23 46
23 9
23 58
23 30
88 2
88 54
2 88
80 25
61 16
54 88
71 66
71 8
71 66
71 30
71 66
71 30
71 66
71 30
71 66
49 60
88 61
23 62
88 78
88 84
80 55
88 14
88 86
88 39
88 25
25 67
61 88
67 25
88 66
88 8
49 85
87 39
49 83
61 56
49 23
49 29
49 63
49 17
49 71
49 66
55 49
55 25
49 55
25 49
25 55
46 23
48 65
49 60
35 26
26 35
14 88
39 88
19 16
19 25
19 64
19 9
19 85
19 1
19 35
23 39
23 46
25 88
88 60
88 15
88 25
83 1
26 51
83 85
83 56
83 1
83 1
85 4
4 38
48 65
24 65
12 4
48 60
48 54
54 49
4 85
4 12
85 4
58 39
58 11
58 30
4 85
60 48
4 85
48 60
48 54
54 49
60 30
49 54
88 60
88 15
77 60
60 15
88 25
56 4
4 53
83 56
4 64
4 46
56 83
4 85
83 56
62 60
62 23
62 7
62 5
62 66
62 49
62 21
62 44
62 81
62 69
62 30
62 88
43 80
49 32
49 52
49 48
49 32
49 52
49 48
49 32
49 52
49 48
49 67
49 15
12 4
49 60
22 88
88 60
88 16
88 15
16 25
38 4
4 12
80 56
80 67
80 49
80 70
80 43
80 55
80 50
80 70
32 25
88 14
88 60
85 4
25 14
14 88
80 56
80 67
80 49
80 70
80 43
80 55
80 50
83 56
88 60
4 1
88 25
48 54
60 16
22 88
83 56
64 16
66 71
4 38
18 26
80 55
48 54
3 15
35 25
1 4
48 54
38 4
80 43
85 83
85 31
4 38
77 3
4 1
33 84
54 60
35 46
35 26
14 33
49 54
1 64
67 32
77 61
16 64
11 60
37 18
37 46
37 53
37 51
37 38
37 26
37 4
37 27
88 25
63 17
49 32
49 67
49 54
49 52
49 48
48 54
48 24
24 48
88 60
64 16
22 3
87 83
33 26
4 37
60 23
60 7
60 59
60 72
60 62
60 5
60 66
60 49
60 21
60 68
60 44
60 29
60 71
60 30
4 49
14 35
83 56
26 46
26 24
26 27
26 35
26 57
26 35
80 25
67 43
54 67
30 60
87 83
43 67
25 68
30 12
60 16
77 60
67 43
60 30
60 62
60 67
87 84
24 87
55 80
54 48
66 71
30 60
30 23
30 7
30 72
30 62
30 5
30 66
30 49
30 21
30 68
30 44
30 81
30 71
30 69
67 54
80 55
25 80
24 21
49 70
23 58
23 30
54 32
54 67
54 52
54 49
54 48
54 32
54 67
54 52
54 49
54 48
85 31
52 54
49 54
80 55
48 60
48 54
60 23
60 62
83 87
87 83
24 56
54 24
56 24
83 1
23 9
49 54
80 56
80 67
80 49
80 70
80 43
80 55
80 50
39 11
67 48
30 60
56 43
29 60
60 88
60 25
57 24
57 26
60 11
48 54
60 15
54 48
48 25
19 70
80 39
55 25
25 48
48 25
84 52
39 60
55 80
60 54
11 60
54 60
80 55
77 15
33 84
80 49
25 60
49 80
48 54
55 80
54 78
54 22
54 53
54 52
54 44
54 37
26 46
26 24
26 27
26 35
26 57
54 48
57 26
26 57
57 26
80 55
26 57
57 26
26 57
57 26
48 54
49 54
2 78
60 43
16 25
83 56
85 64
85 1
43 49
25 64
25 64
25 78
66 8
66 71
66 8
66 71
66 8
66 71
60 16
60 25
25 64
25 16
64 16
64 16
54 48
54 32
54 67
54 52
54 49
54 48
48 54
54 49
48 43
83 56
83 87
49 54
60 15
80 56
80 67
80 49
80 70
80 43
80 55
80 50
14 11
57 24
57 26
57 35
60 15
83 85
33 84
54 49
80 25
25 64
43 56
21 30
56 43
67 54
43 63
64 16
30 60
80 25
21 49
87 84
87 46
23 60
55 32
55 32
48 11
37 53
53 37
24 46
24 26
24 35
24 57
67 49
49 67
49 67
49 67
48 54
50 52
49 4
49 56
49 32
49 87
49 58
32 49
19 70
85 29
49 54
53 37
49 60
46 55
49 43
49 43
49 54
49 67
64 16
55 80
64 16
55 80
24 35
50 24
64 16
35 24
67 49
55 32
39 1
49 56
24 35
50 24
83 87
26 57
57 26
26 57
57 26
26 57
26 57
57 26
26 57
57 26
26 57
57 26
56 49
49 15
24 54
48 24
21 60
77 15
24 54
61 43
48 54
54 49
44 11
44 60
43 61
87 49
49 87
55 4
60 16
39 80
39 12
39 11
48 61
85 61
56 87
26 35
26 35
54 48
24 35
24 35
87 56
60 16
30 60
29 49
49 78
83 56
71 8
71 66
71 30
71 8
71 66
60 12
60 21
83 56
26 46
26 24
26 27
26 35
26 57
52 57
49 54
49 54
52 57
49 43
87 49
49 54
23 57
57 23
49 43
57 27
25 16
23 25
16 25
49 4
54 50
56 54
52 57
25 78
57 52
48 40
60 15
43 56
23 60
35 25
35 64
35 85
35 1
35 19
25 78
83 56
48 57
54 63
33 46
67 49
62 23
25 23
80 25
57 48
52 57
52 60
60 52
80 39
54 65
48 54
60 16
16 64
48 25
87 25
25 87
23 25
23 25
25 23
23 25
39 80
14 15
83 56
77 14
67 48
54 52
39 11
35 33
88 60
43 49
87 1
87 83
87 83
80 70
57 24
57 26
57 65
65 24
70 43
70 43
48 54
26 57
50 17
54 48
48 24
83 56
43 2
43 56
48 54
35 46
35 26
35 65
87 56
56 83
83 1
50 65
57 46
57 24
57 26
57 65
57 35
80 70
57 52
66 71
54 2
62 52
52 62
48 24
24 48
67 25
35 16
24 65
65 24
1 35
57 46
57 24
57 26
57 65
57 35
65 24
29 60
23 60
23 58
24 65
30 11
84 65
83 35
83 35
35 26
60 29
54 2
48 57
26 25
37 56
11 39
57 48
54 48
16 61
25 26
87 56
30 60
35 26
24 26
23 35
66 71
66 71
66 71
43 40
48 50
64 16
50 48
71 8
71 66
71 66
71 30
66 71
71 66
71 30
71 66
66 71
71 8
71 66
85 83
83 85
83 85
8 17
8 66
8 71
1 25
1 64
1 85
1 35
70 43
43 70
35 23
80 23
80 62
56 83
14 15
35 25
35 64
24 54
44 1
54 48
1 44
48 54
4 38
83 56
54 49
83 56
43 11
48 11
50 11
35 11
38 4
39 11
23 11
23 62
51 26
4 38
4 49
43 40
43 40
43 70
43 56
54 14
44 11
19 16
19 25
19 64
19 9
19 85
19 1
19 35
11 43
62 29
11 48
11 50
11 35
11 23
11 44
35 22
83 1
43 39
80 25
23 39
80 11
87 39
39 43
25 11
39 37
39 80
14 54
14 35
33 84
11 61
38 4
29 1
43 49
43 80
43 56
43 67
43 70
43 50
83 56
61 11
23 1
30 63
67 43
35 25
35 64
4 55
60 16
22 11
14 33
14 13
83 56
14 44
43 49
62 23
83 23
23 9
23 58
23 30
23 60
64 19
23 62
62 1
54 14
80 39
26 51
77 61
56 83
43 49
26 46
26 27
26 35
77 61
25 35
85 1
33 84
33 3
11 48
54 24
80 70
80 43
60 30
60 30
24 54
54 24
48 54
16 61
52 62
77 15
23 60
16 60
16 64
33 84
54 49
30 60
54 49
23 60
54 48
52 57
1 85
49 11
50 65
57 24
57 26
57 35
23 55
15 70
16 64
16 1
19 16
77 60
51 26
46 1
85 1
83 1
11 49
83 56
23 62
35 16
57 26
57 46
57 24
57 26
62 23
49 43
49 54
54 67
54 67
57 24
57 26
57 80
49 56
84 88
80 70
67 54
35 39
62 11
49 67
49 15
48 54
57 52
48 25
77 49
49 77
25 48
48 25
57 46
57 24
57 26
54 60
54 48
48 54
24 46
24 26
24 35
24 57
25 48
14 15
54 48
24 50
25 48
49 56
52 57
80 49
64 16
80 25
43 49
64 16
43 16
83 1
11 48
52 57
85 46
19 25
48 11
48 54
19 25
11 48
54 48
52 62
62 52
52 62
62 52
25 35
71 8
71 66
71 30
71 66
71 8
71 23
71 30
71 66
71 30
71 8
71 66
71 30
71 8
71 66
71 30
71 87
87 83
19 1
9 17
80 25
84 52
48 11
49 43
60 54
62 23
84 88
48 11
25 49
49 25
11 48
54 60
11 60
35 23
35 21
35 87
35 58
35 30
52 84
48 61
87 35
52 84
85 16
85 37
83 56
85 25
85 30
25 44
18 63
30 35
49 54
39 1
83 85
49 86
1 39
35 49
39 1
67 54
83 87
49 80
14 15
38 4
64 16
51 46
51 38
51 26
51 27
51 37
61 56
24 83
77 15
83 87
71 8
71 66
71 8
71 66
71 30
71 8
71 66
71 30
71 8
71 66
71 30
18 71
71 66
77 60
77 86
87 83
16 64
4 38
86 15
77 86
25 80
49 43
51 26
84 52
70 19
52 57
35 9
35 23
35 58
35 63
35 17
35 46
35 26
86 15
26 35
4 38
19 35
70 19
24 57
25 24
85 83
35 19
87 83
83 1
56 83
14 44
14 13
48 25
37 85
29 62
57 46
57 24
57 26
57 35
57 24
71 66
71 30
88 14
88 15
49 30
49 87
77 15
49 23
49 21
49 58
49 35
35 49
48 24
30 67
88 79
83 1
1 83
24 50
83 1
14 88
67 30
16 25
71 8
71 60
71 23
71 7
71 62
71 66
71 21
71 44
71 81
71 30
71 88
49 78
49 64
49 86
1 18
80 1
33 84
85 46
18 1
49 67
49 54
14 11
62 60
62 23
62 7
62 5
62 66
62 49
62 21
62 44
62 81
62 69
62 30
62 88
64 1
50 43
80 25
35 26
0 1
0 64
26 35
35 23
35 21
35 87
35 58
35 30
87 35
85 83
85 64
85 31
85 1
14 16
14 25
14 35
25 77
30 23
30 21
30 87
30 35
30 58
54 67
87 30
87 30
23 46
35 14
23 62
54 67
22 29
22 29
22 29
31 68
31 68
67 54
25 85
84 52
48 54
48 67
46 23
26 46
26 24
26 35
26 57
54 48
67 54
29 62
48 54
54 48
56 50
71 66
71 30
48 54
52 57
52 57
43 54
52 57
33 84
85 46
85 53
85 25
57 52
0 64
0 70
80 39
39 80
61 56
61 31
61 68
61 37
61 77
61 56
61 31
61 68
61 37
61 77
48 43
46 23
52 50
52 57
80 32
80 41
80 76
8 66
8 71
54 48
17 8
54 48
43 56
22 3
30 60
54 49
71 8
87 49
43 49
49 43
26 85
29 60
26 18
26 46
26 27
18 26
35 1
1 35
83 39
83 56
39 83
30 60
77 60
67 49
16 64
11 61
11 39
1 18
43 49
54 32
83 1
23 60
23 7
23 59
23 62
23 5
23 66
23 21
23 44
23 81
23 69
23 30
23 88
54 60
32 54
14 35
44 66
49 77
48 54
35 14
77 49
83 56
49 43
83 56
88 61
56 49
54 32
54 52
54 48
48 54
60 62
52 84
52 50
52 57
52 17
83 87
57 52
50 52
85 30
85 30
30 60
33 84
32 61
57 61
29 61
21 66
8 61
52 61
57 61
70 19
1 18
1 64
30 67
84 52
49 43
48 54
60 49
77 60
60 16
60 67
60 54
60 15
58 71
54 67
60 16
14 35
9 61
67 54
2 54
71 66
71 8
71 30
71 58
71 63
35 14
35 16
43 56
