24 153
24 91
130 165
135 168
58 73
73 45
73 58
163 164
163 123
163 147
163 75
134 145
68 167
65 78
137 82
73 58
137 52
23 156
91 24
91 153
127 137
40 30
40 2
40 142
40 24
7 80
56 135
68 146
68 167
68 146
35 52
91 24
164 163
147 163
140 7
140 155
140 36
140 27
140 156
140 126
140 7
140 80
140 155
140 46
140 69
140 36
140 51
140 27
140 152
140 44
140 11
140 71
163 147
91 24
91 24
86 130
165 137
165 52
165 5
165 14
165 60
165 127
165 35
165 130
91 24
111 56
57 65
150 37
37 150
117 37
37 117
57 24
68 167
27 7
27 46
27 36
27 11
27 71
57 24
27 12
140 36
140 11
140 7
140 36
140 11
33 130
7 27
7 27
137 165
154 66
146 97
171 169
171 144
2 142
63 65
63 65
71 27
63 65
66 154
71 27
58 37
55 117
55 45
55 73
55 58
55 150
55 99
27 71
142 2
142 2
46 27
171 119
2 142
135 56
135 168
63 65
24 91
168 135
24 91
24 91
91 63
91 63
91 63
91 76
91 63
91 63
76 91
24 142
24 157
24 91
127 35
157 24
157 63
10 91
10 24
63 153
97 65
24 91
24 153
24 10
153 63
91 24
153 63
63 153
142 24
24 142
73 45
73 58
35 127
127 35
63 65
141 39
78 65
57 24
65 97
82 137
82 104
82 47
82 3
127 137
127 165
137 127
137 127
127 137
127 137
23 156
137 127
137 127
46 71
137 39
127 137
64 130
3 82
3 14
3 165
3 130
71 46
146 157
164 163
9 168
165 127
127 165
24 91
9 56
9 89
24 2
24 2
24 2
94 167
2 24
24 2
2 24
24 2
39 127
2 40
39 82
39 47
39 3
127 39
91 76
91 63
91 63
91 24
91 24
24 91
24 91
24 142
66 52
63 91
63 153
63 153
63 91
63 153
91 24
91 76
91 63
91 63
39 137
39 127
39 165
91 63
91 63
63 153
165 39
91 24
141 137
141 104
141 47
141 39
63 91
91 24
153 24
80 156
80 23
80 156
80 23
142 24
165 137
157 24
165 52
165 14
165 35
165 39
165 130
157 146
45 73
171 169
141 39
86 165
169 171
91 24
56 111
167 43
167 65
56 9
56 89
86 82
56 135
56 111
24 91
24 153
56 168
24 157
91 2
24 91
24 91
24 2
165 137
24 142
91 24
2 24
24 91
24 2
24 142
24 153
24 2
56 168
56 89
142 24
24 91
24 2
24 142
86 82
171 169
171 144
45 73
45 150
165 137
165 137
165 86
73 45
63 43
2 24
52 137
47 137
47 104
33 137
66 154
163 164
142 2
167 68
167 146
157 97
127 39
140 156
140 126
140 7
140 80
140 155
140 46
140 69
140 36
140 51
140 27
140 152
140 44
140 11
140 71
7 140
73 37
122 163
51 80
140 7
130 64
63 91
66 154
163 122
66 33
80 51
150 37
142 24
86 165
37 150
127 165
137 165
150 73
165 127
137 165
165 127
127 165
165 127
142 24
144 169
146 68
146 167
47 165
111 56
111 89
24 91
24 63
153 63
33 82
33 66
33 5
33 154
33 130
24 91
66 154
91 63
56 168
47 3
56 89
45 73
45 150
45 55
73 37
86 35
55 45
55 45
156 7
153 91
153 24
153 63
3 130
163 164
73 45
153 94
153 94
77 7
91 153
153 91
153 24
33 5
63 106
57 24
104 86
104 35
140 36
145 171
156 140
156 126
156 7
156 80
156 155
156 46
156 23
156 36
156 51
156 27
156 152
156 44
156 11
156 71
3 82
37 73
146 63
111 56
111 85
66 154
97 65
155 80
155 27
164 123
164 123
35 72
164 123
60 86
146 63
5 86
82 86
39 137
39 141
39 86
165 127
24 153
24 2
56 168
56 135
56 111
56 85
3 165
24 40
2 24
2 142
2 24
142 91
142 2
165 60
153 63
24 59
24 94
24 2
24 142
24 78
24 59
24 10
24 91
24 57
163 122
58 73
72 86
72 35
2 18
7 80
80 156
80 23
137 39
137 165
146 24
66 137
66 52
66 86
60 92
68 146
130 86
68 146
47 86
3 86
39 86
91 24
91 24
111 56
153 63
66 127
64 14
157 146
27 156
3 86
92 86
137 39
137 165
154 52
154 86
137 86
33 86
33 130
157 63
55 117
55 45
55 37
55 73
55 58
55 150
55 99
55 117
55 45
55 37
55 73
55 58
55 150
55 99
7 80
24 142
65 43
35 86
14 165
23 156
23 126
23 7
23 46
23 152
23 44
63 153
142 24
63 43
142 2
2 142
24 142
2 91
2 24
142 24
39 137
39 141
39 127
39 165
24 142
35 127
24 2
24 2
153 63
142 2
56 168
56 85
56 111
56 111
56 85
43 65
43 63
43 167
10 24
43 63
44 23
58 73
2 142
127 66
127 35
86 165
127 165
147 75
153 63
23 49
153 146
58 73
171 28
33 82
33 5
171 145
66 52
171 147
7 156
7 126
7 80
7 155
7 46
7 23
7 36
7 51
7 27
7 152
7 44
7 11
7 71
78 146
56 168
56 89
167 65
156 7
10 24
91 2
23 80
130 165
65 97
56 89
56 85
140 156
140 126
140 7
140 80
140 155
140 46
140 69
140 36
140 51
140 27
140 152
140 44
140 11
140 71
85 56
142 40
63 43
63 43
141 39
3 86
3 35
146 63
127 35
142 40
56 85
56 168
56 89
56 121
63 106
142 24
142 24
43 63
43 63
165 137
86 82
86 137
86 3
86 35
86 130
64 137
35 127
76 146
80 23
146 142
2 18
75 147
9 56
9 89
45 37
45 73
68 97
86 130
65 167
142 146
5 33
127 35
146 142
142 2
122 147
3 82
3 14
3 165
3 130
2 142
65 167
37 45
35 127
65 43
35 127
7 156
7 126
7 80
7 155
7 46
7 23
7 36
7 51
7 27
7 152
7 44
7 11
7 71
146 63
127 35
56 9
127 35
37 45
37 73
35 127
2 18
142 2
127 35
153 24
35 104
167 68
127 165
68 146
45 37
45 73
153 24
144 169
146 91
146 24
45 37
3 82
3 137
3 104
3 47
3 86
3 35
3 39
86 165
163 164
144 171
45 37
163 122
37 45
37 45
37 45
2 142
127 39
63 106
75 147
57 146
57 63
39 127
39 127
63 146
63 65
63 57
127 39
63 146
146 63
63 43
63 118
165 127
63 68
63 68
137 165
5 86
30 24
40 10
147 75
24 153
24 91
24 2
24 142
24 153
80 27
163 164
68 63
127 66
127 154
46 69
137 141
130 64
137 141
163 164
165 86
163 164
167 43
57 63
23 156
23 126
23 7
23 46
23 152
23 44
44 23
165 137
56 111
56 85
165 137
66 127
127 66
122 163
163 122
56 111
56 85
56 89
10 157
171 147
171 145
2 142
56 89
153 63
163 164
56 111
10 40
68 97
35 72
157 10
142 91
142 2
142 24
39 141
39 130
23 80
33 130
28 147
142 40
86 52
24 91
24 2
24 142
142 24
91 2
91 24
24 91
24 2
24 142
24 94
24 78
24 59
24 10
24 30
24 30
24 91
24 153
24 63
24 57
24 10
24 91
24 91
24 2
24 142
43 167
24 91
24 2
24 142
24 142
24 57
24 153
24 91
24 2
24 142
2 18
2 142
2 30
91 142
91 63
142 91
80 23
142 24
142 24
24 142
24 91
24 2
24 142
24 91
24 2
24 142
142 2
142 91
142 2
142 24
57 24
57 24
137 39
137 165
91 24
2 142
2 142
2 24
2 142
2 24
24 2
24 142
24 2
24 142
24 91
24 2
24 142
142 2
142 91
142 2
142 24
32 151
24 40
40 24
24 91
24 57
24 91
24 94
91 2
91 142
91 24
91 24
91 24
23 156
23 80
91 63
24 2
24 142
24 40
24 2
24 142
24 153
24 40
2 24
24 2
24 91
24 91
24 91
24 91
24 142
24 153
153 24
24 91
24 153
24 91
24 30
40 24
2 24
80 23
30 24
64 130
86 137
86 52
86 5
86 14
86 60
86 127
86 35
86 165
86 130
127 165
122 163
140 156
140 126
140 7
140 80
140 155
140 46
140 69
140 36
140 51
140 27
140 152
140 44
140 11
140 71
36 140
153 91
153 24
127 137
9 168
165 82
165 127
111 56
111 85
111 89
82 127
91 24
91 153
137 127
142 2
127 82
127 165
91 153
47 82
47 137
47 104
47 3
47 39
51 27
156 80
28 147
37 117
24 2
127 137
73 58
163 164
2 18
155 7
142 2
171 144
2 142
76 146
27 71
171 145
39 82
165 137
165 39
2 142
68 63
57 91
57 24
82 39
94 153
30 24
91 24
91 153
91 63
91 24
24 91
24 91
24 30
24 91
35 86
127 165
153 63
68 146
71 27
71 27
91 153
156 80
156 23
140 156
140 126
140 7
140 80
140 155
140 46
140 69
140 36
140 51
140 27
140 152
140 44
140 11
140 71
163 123
2 91
39 137
39 3
137 104
137 141
137 47
140 93
35 104
47 104
47 3
73 45
33 130
137 82
137 104
137 141
137 47
137 3
137 39
63 24
63 153
82 33
165 127
86 79
10 142
10 142
142 24
76 65
86 165
135 168
76 65
168 135
33 130
63 68
63 76
63 153
63 167
45 73
63 68
65 97
65 76
65 78
65 97
65 76
68 63
2 142
2 91
2 24
165 39
63 91
168 56
63 91
63 94
14 165
142 2
142 10
24 142
30 24
10 142
63 91
24 91
24 91
63 106
63 106
24 30
24 91
24 2
63 91
56 168
153 24
63 153
63 153
63 106
153 40
63 153
153 63
63 153
153 63
24 91
24 59
24 91
24 40
24 153
91 63
24 153
24 40
24 91
24 65
24 153
156 162
64 130
63 91
164 163
153 24
163 164
153 24
82 141
2 24
146 76
33 130
164 163
27 80
164 122
33 130
154 127
46 152
86 137
86 3
86 35
86 130
140 36
127 154
137 64
130 33
165 137
140 156
140 126
140 7
140 80
140 155
140 46
140 69
140 36
140 51
140 27
140 152
140 44
140 11
140 71
153 68
153 76
153 63
153 167
68 153
86 137
86 3
86 35
86 130
46 152
91 30
91 24
46 152
130 33
46 152
46 152
140 156
140 126
140 7
140 80
140 155
140 46
140 69
140 36
140 51
140 27
140 152
140 44
140 11
140 71
46 152
130 64
130 165
94 63
2 91
2 24
94 63
66 154
47 137
164 123
45 73
123 164
123 163
123 122
33 82
56 111
65 76
24 153
52 137
157 63
24 91
28 75
146 63
46 27
140 7
140 11
71 27
168 9
168 9
97 146
30 91
122 28
63 146
63 94
63 153
157 146
24 91
63 94
32 151
24 91
63 118
63 94
63 91
63 43
63 76
63 24
63 153
63 65
63 57
10 157
24 91
24 63
153 63
91 24
91 2
91 24
91 2
91 142
91 24
94 157
94 63
24 91
24 2
24 142
24 91
24 91
24 91
24 2
24 142
64 130
73 45
130 52
130 60
2 91
2 142
2 24
146 24
46 156
28 75
2 10
165 86
80 156
80 23
71 27
80 156
80 23
135 168
63 153
157 10
153 68
153 76
153 63
153 167
63 106
56 111
56 89
168 135
168 9
140 7
140 11
76 97
76 65
140 7
140 36
140 44
140 11
76 63
167 153
68 76
68 153
68 63
68 167
76 153
65 97
65 97
91 2
91 142
91 24
91 24
56 168
56 168
171 119
33 82
33 5
91 24
165 137
165 52
165 5
165 14
165 60
165 127
165 35
165 130
63 106
82 154
146 91
146 97
146 167
167 146
169 144
157 63
63 157
157 63
142 2
142 24
97 146
63 157
157 63
157 94
71 27
24 153
24 10
91 24
91 2
24 146
24 91
24 2
24 2
24 2
24 91
24 91
24 91
24 30
24 91
24 2
24 142
24 40
24 30
24 91
24 2
24 142
24 40
24 91
24 10
24 91
24 153
24 10
24 153
24 63
24 153
156 126
156 46
156 23
156 152
156 44
47 137
47 104
47 3
35 86
86 165
65 24
155 44
28 134
28 164
28 0
28 123
63 24
63 118
63 94
63 91
63 43
63 76
63 24
63 153
63 65
63 57
27 71
86 165
63 24
141 86
141 125
141 35
86 165
2 142
2 24
168 9
130 64
40 153
152 44
56 168
56 9
56 89
130 64
63 113
167 65
144 169
169 144
146 63
73 150
24 59
24 2
24 142
24 65
142 2
142 24
24 63
94 157
86 165
63 24
24 94
24 78
24 59
24 10
2 142
111 56
111 89
24 91
24 91
24 59
24 2
24 142
24 40
146 24
71 27
94 24
122 164
24 91
63 43
63 153
65 43
24 10
24 91
24 153
24 10
24 63
24 94
24 153
63 68
63 43
97 65
94 43
94 24
94 63
94 57
10 24
142 2
142 24
142 2
142 91
142 2
142 24
23 156
156 23
24 94
24 43
24 63
24 57
24 10
24 2
24 142
24 91
24 2
24 142
56 111
63 94
63 43
63 24
63 57
63 153
63 153
30 24
127 165
142 2
142 63
66 154
65 148
65 148
75 164
65 148
2 24
148 65
65 148
63 106
28 134
5 165
137 52
63 2
63 142
66 154
63 91
137 82
137 52
137 3
23 156
63 65
64 130
97 65
168 9
137 3
168 56
28 119
56 168
63 106
65 148
65 97
65 97
66 127
168 135
168 9
146 24
171 169
171 144
63 113
140 7
140 155
140 69
140 11
56 111
56 89
165 127
65 97
63 2
63 142
63 43
2 142
142 2
168 56
151 65
151 65
151 91
151 43
151 76
151 24
151 63
151 65
151 91
151 63
151 43
151 65
151 76
151 24
56 135
56 168
121 56
66 154
68 97
68 113
137 82
137 104
137 141
137 47
137 3
137 39
33 82
33 66
73 45
86 165
146 63
33 82
156 23
10 91
10 24
167 68
152 44
144 169
45 117
171 145
117 45
68 167
56 111
56 89
56 135
56 85
56 85
68 153
153 91
153 24
153 68
171 123
68 153
85 56
56 168
153 63
153 68
153 76
153 63
153 167
171 123
154 52
154 52
153 91
153 24
123 171
153 91
153 24
132 111
56 85
56 9
150 37
23 80
37 150
141 137
141 104
141 47
141 39
141 64
141 125
23 156
23 80
73 150
63 2
94 57
73 58
63 153
156 23
144 122
122 144
52 86
23 156
23 80
130 165
35 104
148 65
171 169
171 169
23 156
23 80
23 156
23 80
167 68
167 146
3 86
94 153
137 127
135 56
2 91
2 142
2 24
2 40
142 2
2 142
23 80
80 23
80 23
80 23
80 23
47 137
47 104
156 46
86 82
86 137
86 3
86 35
86 130
137 82
127 66
127 137
146 24
140 156
140 126
140 7
140 80
140 155
140 46
140 69
140 36
140 51
140 27
140 152
140 44
140 11
140 71
63 153
167 43
167 65
86 130
146 63
127 165
52 66
119 28
167 68
167 146
28 144
28 163
28 122
23 156
63 106
3 104
156 46
64 130
165 127
14 52
14 5
14 60
14 165
5 137
142 2
142 2
142 2
56 111
56 89
44 155
44 155
80 23
127 82
127 165
171 169
127 35
43 63
35 127
82 127
82 165
127 35
43 65
23 156
75 147
23 80
142 2
52 66
52 60
52 154
2 142
2 142
80 23
56 9
63 106
56 89
63 2
63 2
142 2
32 151
40 2
2 142
32 151
