24 153
24 91
130 165
135 168
58 73
73 45
73 58
163 164
163 123
163 147
163 75
134 145
68 167
65 78
137 82
73 58
137 52
23 156
91 24
91 153
127 137
40 30
40 2
40 142
40 24
7 80
56 135
68 146
68 167
68 146
35 52
91 24
164 163
147 163
140 7
140 155
140 36
140 27
140 156
140 126
140 7
140 80
140 155
140 46
140 69
140 36
140 51
140 27
140 152
140 44
140 11
140 71
163 147
91 24
91 24
86 130
165 137
165 52
165 5
165 14
165 60
165 127
165 35
165 130
91 24
111 56
57 65
150 37
37 150
117 37
37 117
57 24
68 167
27 7
27 46
27 36
27 11
27 71
57 24
27 12
140 36
140 11
140 7
140 36
140 11
33 130
7 27
7 27
137 165
154 66
146 97
171 169
171 144
2 142
63 65
63 65
71 27
63 65
66 154
71 27
58 37
55 117
55 45
55 73
55 58
55 150
55 99
27 71
142 2
142 2
46 27
171 119
2 142
135 56
135 168
63 65
24 91
168 135
24 91
24 91
91 63
91 63
91 63
91 76
91 63
91 63
76 91
24 142
24 157
24 91
127 35
157 24
157 63
10 91
10 24
63 153
97 65
24 91
24 153
24 10
153 63
91 24
153 63
63 153
142 24
24 142
73 45
73 58
35 127
127 35
63 65
141 39
78 65
57 24
65 97
82 137
82 104
82 47
82 3
127 137
127 165
137 127
137 127
127 137
127 137
23 156
137 127
137 127
46 71
137 39
127 137
64 130
3 82
3 14
3 165
3 130
71 46
146 157
164 163
9 168
165 127
127 165
24 91
9 56
9 89
24 2
24 2
24 2
94 167
2 24
24 2
2 24
24 2
39 127
2 40
39 82
39 47
39 3
127 39
91 76
91 63
91 63
91 24
91 24
24 91
24 91
24 142
66 52
63 91
63 153
63 153
63 91
63 153
91 24
91 76
91 63
91 63
39 137
39 127
39 165
91 63
91 63
63 153
165 39
91 24
141 137
141 104
141 47
141 39
63 91
91 24
153 24
80 156
80 23
80 156
80 23
142 24
165 137
157 24
165 52
165 14
165 35
165 39
165 130
157 146
45 73
171 169
141 39
86 165
169 171
91 24
56 111
167 43
167 65
56 9
56 89
86 82
56 135
56 111
24 91
24 153
56 168
24 157
91 2
24 91
24 91
24 2
165 137
24 142
91 24
2 24
24 91
24 2
24 142
24 153
24 2
56 168
56 89
142 24
24 91
24 2
24 142
86 82
171 169
171 144
45 73
45 150
165 137
165 137
165 86
73 45
63 43
2 24
52 137
47 137
47 104
33 137
66 154
163 164
142 2
167 68
167 146
157 97
127 39
140 156
140 126
140 7
140 80
140 155
140 46
140 69
140 36
140 51
140 27
140 152
140 44
140 11
140 71
7 140
73 37
122 163
51 80
140 7
130 64
63 91
66 154
163 122
66 33
80 51
150 37
142 24
86 165
37 150
127 165
137 165
150 73
165 127
137 165
165 127
127 165
165 127
142 24
144 169
146 68
146 167
47 165
111 56
111 89
24 91
24 63
153 63
33 82
33 66
33 5
33 154
33 130
24 91
66 154
91 63
56 168
47 3
56 89
45 73
45 150
45 55
73 37
86 35
55 45
55 45
156 7
153 91
153 24
153 63
3 130
163 164
73 45
153 94
153 94
77 7
91 153
153 91
153 24
33 5
63 106
57 24
104 86
104 35
140 36
145 171
156 140
156 126
156 7
156 80
156 155
156 46
156 23
156 36
156 51
156 27
156 152
156 44
156 11
156 71
3 82
37 73
146 63
111 56
111 85
66 154
97 65
155 80
155 27
164 123
164 123
35 72
164 123
60 86
146 63
5 86
82 86
39 137
39 141
39 86
165 127
24 153
24 2
56 168
56 135
56 111
56 85
3 165
24 40
2 24
2 142
2 24
142 91
142 2
165 60
153 63
24 59
24 94
24 2
24 142
24 78
24 59
24 10
24 91
24 57
163 122
58 73
72 86
72 35
2 18
7 80
80 156
80 23
137 39
137 165
146 24
66 137
66 52
66 86
60 92
68 146
130 86
68 146
47 86
3 86
39 86
91 24
91 24
111 56
153 63
66 127
64 14
157 146
27 156
3 86
92 86
137 39
137 165
154 52
154 86
137 86
33 86
33 130
157 63
55 117
55 45
55 37
55 73
55 58
55 150
55 99
55 117
55 45
55 37
55 73
55 58
55 150
55 99
7 80
24 142
65 43
35 86
14 165
23 156
23 126
23 7
23 46
23 152
23 44
63 153
142 24
63 43
142 2
2 142
24 142
2 91
2 24
142 24
39 137
39 141
39 127
39 165
24 142
35 127
24 2
24 2
153 63
142 2
56 168
56 85
56 111
56 111
56 85
43 65
43 63
43 167
10 24
43 63
44 23
58 73
2 142
127 66
127 35
86 165
127 165
147 75
153 63
23 49
153 146
58 73
171 28
33 82
33 5
171 145
66 52
171 147
7 156
7 126
7 80
7 155
7 46
7 23
7 36
7 51
7 27
7 152
7 44
7 11
7 71
78 146
56 168
56 89
167 65
156 7
10 24
91 2
23 80
130 165
65 97
56 89
56 85
140 156
140 126
140 7
140 80
140 155
140 46
140 69
140 36
140 51
140 27
140 152
140 44
140 11
140 71
85 56
142 40
63 43
63 43
141 39
3 86
3 35
146 63
127 35
142 40
56 85
56 168
56 89
56 121
63 106
142 24
142 24
43 63
43 63
165 137
86 82
86 137
86 3
86 35
86 130
64 137
35 127
76 146
80 23
146 142
2 18
75 147
9 56
9 89
45 37
45 73
68 97
86 130
65 167
142 146
5 33
127 35
146 142
142 2
122 147
3 82
3 14
3 165
3 130
2 142
65 167
37 45
35 127
65 43
35 127
7 156
7 126
7 80
7 155
7 46
7 23
7 36
7 51
7 27
7 152
7 44
7 11
7 71
146 63
127 35
56 9
127 35
37 45
37 73
35 127
2 18
142 2
127 35
153 24
35 104
167 68
127 165
68 146
45 37
45 73
153 24
144 169
146 91
146 24
45 37
3 82
3 137
3 104
3 47
3 86
3 35
3 39
86 165
163 164
144 171
45 37
163 122
37 45
37 45
37 45
2 142
127 39
63 106
75 147
57 146
57 63
39 127
39 127
63 146
63 65
63 57
127 39
63 146
146 63
63 43
63 118
165 127
63 68
63 68
137 165
5 86
30 24
40 10
147 75
24 153
24 91
24 2
24 142
24 153
80 27
163 164
68 63
127 66
127 154
46 69
137 141
130 64
137 141
163 164
165 86
163 164
167 43
57 63
23 156
23 126
23 7
23 46
23 152
23 44
44 23
165 137
56 111
56 85
165 137
66 127
127 66
122 163
163 122
56 111
56 85
56 89
10 157
171 147
171 145
2 142
56 89
153 63
163 164
56 111
10 40
68 97
35 72
157 10
142 91
142 2
142 24
39 141
39 130
23 80
33 130
28 147
142 40
86 52
24 91
24 2
24 142
142 24
91 2
91 24
24 91
24 2
24 142
24 94
24 78
24 59
24 10
24 30
24 30
24 91
24 153
24 63
24 57
24 10
24 91
24 91
24 2
24 142
43 167
24 91
24 2
24 142
24 142
24 57
24 153
24 91
24 2
24 142
2 18
2 142
2 30
91 142
91 63
142 91
80 23
142 24
142 24
24 142
24 91
24 2
24 142
24 91
24 2
24 142
142 2
142 91
142 2
142 24
57 24
57 24
137 39
137 165
91 24
2 142
2 142
2 24
2 142
2 24
24 2
24 142
24 2
24 142
24 91
24 2
24 142
142 2
142 91
142 2
142 24
32 151
24 40
40 24
24 91
24 57
24 91
24 94
91 2
91 142
91 24
91 24
91 24
23 156
23 80
91 63
24 2
24 142
24 40
24 2
24 142
24 153
24 40
2 24
24 2
24 91
24 91
24 91
24 91
24 142
24 153
153 24
24 91
24 153
24 91
24 30
40 24
2 24
80 23
30 24
64 130
86 137
86 52
86 5
86 14
86 60
86 127
86 35
86 165
86 130
127 165
122 163
140 156
140 126
140 7
140 80
140 155
140 46
140 69
140 36
140 51
140 27
140 152
140 44
140 11
140 71
36 140
153 91
153 24
127 137
9 168
165 82
165 127
111 56
111 85
111 89
82 127
91 24
91 153
137 127
142 2
127 82
127 165
91 153
47 82
47 137
47 104
47 3
47 39
51 27
156 80
28 147
37 117
24 2
127 137
73 58
163 164
2 18
155 7
142 2
171 144
2 142
76 146
27 71
171 145
39 82
165 137
165 39
2 142
68 63
57 91
57 24
82 39
94 153
30 24
91 24
91 153
91 63
91 24
24 91
24 91
24 30
24 91
35 86
127 165
153 63
68 146
71 27
71 27
91 153
156 80
156 23
140 156
140 126
140 7
140 80
140 155
140 46
140 69
140 36
140 51
140 27
140 152
140 44
140 11
140 71
163 123
2 91
39 137
39 3
137 104
137 141
137 47
140 93
35 104
47 104
47 3
73 45
33 130
137 82
137 104
137 141
137 47
137 3
137 39
63 24
63 153
82 33
165 127
86 79
10 142
10 142
142 24
76 65
86 165
135 168
76 65
168 135
33 130
63 68
63 76
63 153
63 167
45 73
63 68
65 97
65 76
65 78
65 97
65 76
68 63
2 142
2 91
2 24
165 39
63 91
168 56
63 91
63 94
14 165
142 2
142 10
24 142
30 24
10 142
63 91
24 91
24 91
63 106
63 106
24 30
24 91
24 2
63 91
56 168
153 24
63 153
63 153
63 106
153 40
63 153
153 63
63 153
153 63
24 91
24 59
24 91
24 40
24 153
91 63
24 153
24 40
24 91
24 65
24 153
156 162
64 130
63 91
164 163
153 24
163 164
153 24
82 141
2 24
146 76
33 130
164 163
27 80
164 122
33 130
154 127
46 152
86 137
86 3
86 35
86 130
140 36
127 154
137 64
130 33
165 137
140 156
140 126
140 7
140 80
140 155
140 46
140 69
140 36
140 51
140 27
140 152
140 44
140 11
140 71
153 68
153 76
153 63
153 167
68 153
86 137
86 3
86 35
86 130
46 152
91 30
91 24
46 152
130 33
46 152
46 152
140 156
140 126
140 7
140 80
140 155
140 46
140 69
140 36
140 51
140 27
140 152
140 44
140 11
140 71
46 152
130 64
130 165
94 63
2 91
2 24
94 63
66 154
47 137
164 123
45 73
123 164
123 163
123 122
33 82
56 111
65 76
24 153
52 137
157 63
24 91
28 75
146 63
46 27
140 7
140 11
71 27
168 9
168 9
97 146
30 91
122 28
63 146
63 94
63 153
157 146
24 91
63 94
32 151
24 91
63 118
63 94
63 91
63 43
63 76
63 24
63 153
63 65
63 57
10 157
24 91
24 63
153 63
91 24
91 2
91 24
91 2
91 142
91 24
94 157
94 63
24 91
24 2
24 142
24 91
24 91
24 91
24 2
24 142
64 130
73 45
130 52
130 60
2 91
2 142
2 24
146 24
46 156
28 75
2 10
165 86
80 156
80 23
71 27
80 156
80 23
135 168
63 153
157 10
153 68
153 76
153 63
153 167
63 106
56 111
56 89
168 135
168 9
140 7
140 11
76 97
76 65
140 7
140 36
140 44
140 11
76 63
167 153
68 76
68 153
68 63
68 167
76 153
65 97
65 97
91 2
91 142
91 24
91 24
56 168
56 168
171 119
33 82
33 5
91 24
165 137
165 52
165 5
165 14
165 60
165 127
165 35
165 130
63 106
82 154
146 91
146 97
146 167
167 146
169 144
157 63
63 157
157 63
142 2
142 24
97 146
63 157
157 63
157 94
71 27
24 153
24 10
91 24
91 2
24 146
24 91
24 2
24 2
24 2
24 91
24 91
24 91
24 30
24 91
24 2
24 142
24 40
24 30
24 91
24 2
24 142
24 40
24 91
24 10
24 91
24 153
24 10
24 153
24 63
24 153
156 126
156 46
156 23
156 152
156 44
47 137
47 104
47 3
35 86
86 165
65 24
155 44
28 134
28 164
28 0
28 123
63 24
63 118
63 94
63 91
63 43
63 76
63 24
63 153
63 65
63 57
27 71
86 165
63 24
141 86
141 125
141 35
86 165
2 142
2 24
168 9
130 64
40 153
152 44
56 168
56 9
56 89
130 64
63 113
167 65
144 169
169 144
146 63
73 150
24 59
24 2
24 142
24 65
142 2
142 24
24 63
94 157
86 165
63 24
24 94
24 78
24 59
24 10
2 142
111 56
111 89
24 91
24 91
24 59
24 2
24 142
24 40
146 24
71 27
94 24
122 164
24 91
63 43
63 153
65 43
24 10
24 91
24 153
24 10
24 63
24 94
24 153
63 68
63 43
97 65
94 43
94 24
94 63
94 57
10 24
142 2
142 24
142 2
142 91
142 2
142 24
23 156
156 23
24 94
24 43
24 63
24 57
24 10
24 2
24 142
24 91
24 2
24 142
56 111
63 94
63 43
63 24
63 57
63 153
63 153
30 24
127 165
142 2
142 63
66 154
65 148
65 148
75 164
65 148
2 24
148 65
65 148
63 106
28 134
5 165
137 52
63 2
63 142
66 154
63 91
137 82
137 52
137 3
23 156
63 65
64 130
97 65
168 9
137 3
168 56
28 119
56 168
63 106
65 148
65 97
65 97
66 127
168 135
168 9
146 24
171 169
171 144
63 113
140 7
140 155
140 69
140 11
56 111
56 89
165 127
65 97
63 2
63 142
63 43
2 142
142 2
168 56
151 65
151 65
151 91
151 43
151 76
151 24
151 63
151 65
151 91
151 63
151 43
151 65
151 76
151 24
56 135
56 168
121 56
66 154
68 97
68 113
137 82
137 104
137 141
137 47
137 3
137 39
33 82
33 66
73 45
86 165
146 63
33 82
156 23
10 91
10 24
167 68
152 44
144 169
45 117
171 145
117 45
68 167
56 111
56 89
56 135
56 85
56 85
68 153
153 91
153 24
153 68
171 123
68 153
85 56
56 168
153 63
153 68
153 76
153 63
153 167
171 123
154 52
154 52
153 91
153 24
123 171
153 91
153 24
132 111
56 85
56 9
150 37
23 80
37 150
141 137
141 104
141 47
141 39
141 64
141 125
23 156
23 80
73 150
63 2
94 57
73 58
63 153
156 23
144 122
122 144
52 86
23 156
23 80
130 165
35 104
148 65
171 169
171 169
23 156
23 80
23 156
23 80
167 68
167 146
3 86
94 153
137 127
135 56
2 91
2 142
2 24
2 40
142 2
2 142
23 80
80 23
80 23
80 23
80 23
47 137
47 104
156 46
86 82
86 137
86 3
86 35
86 130
137 82
127 66
127 137
146 24
140 156
140 126
140 7
140 80
140 155
140 46
140 69
140 36
140 51
140 27
140 152
140 44
140 11
140 71
63 153
167 43
167 65
86 130
146 63
127 165
52 66
119 28
167 68
167 146
28 144
28 163
28 122
23 156
63 106
3 104
156 46
64 130
165 127
14 52
14 5
14 60
14 165
5 137
142 2
142 2
142 2
56 111
56 89
44 155
44 155
80 23
127 82
127 165
171 169
127 35
43 63
35 127
82 127
82 165
127 35
43 65
23 156
75 147
23 80
142 2
52 66
52 60
52 154
2 142
2 142
80 23
56 9
63 106
56 89
63 2
63 2
142 2
32 151
40 2
2 142
32 151
23 156
155 44
155 44
130 64
167 68
167 146
167 68
167 146
140 156
140 126
140 7
140 80
140 155
140 46
140 69
140 36
140 51
140 27
140 152
140 44
140 11
140 71
71 27
127 137
127 165
142 2
63 106
140 152
2 142
146 63
63 153
63 157
140 7
140 155
27 71
130 64
91 24
27 155
153 91
153 24
153 63
39 141
153 63
91 153
153 63
155 36
5 33
165 52
165 104
165 5
165 141
165 60
165 35
165 39
144 171
165 137
165 52
165 39
52 66
52 154
63 153
82 3
3 82
39 141
39 141
68 63
28 70
28 134
28 164
28 163
28 171
28 122
28 161
28 0
28 123
28 147
28 114
28 75
28 144
28 128
35 39
39 92
82 86
78 65
39 141
122 164
122 28
82 47
47 82
3 39
92 39
3 47
47 82
47 3
3 47
10 91
82 47
76 78
65 24
97 43
2 142
142 2
7 140
146 97
146 167
68 63
142 2
43 97
91 10
24 65
24 91
24 91
80 156
137 82
137 104
137 141
137 47
137 3
137 39
63 76
140 7
140 155
140 46
140 69
140 36
140 51
140 152
140 44
140 11
140 71
39 141
140 36
169 171
86 52
7 27
91 24
91 153
94 157
63 167
91 63
157 63
65 43
65 167
36 46
97 65
146 63
171 123
91 24
24 91
24 153
7 12
7 80
65 97
65 43
65 63
91 24
55 37
165 137
165 137
91 24
144 171
65 24
80 23
80 7
157 146
63 146
63 43
63 65
24 91
24 94
24 153
24 91
24 94
24 78
24 59
24 65
24 10
2 24
91 24
24 91
24 91
24 2
24 142
24 91
24 2
24 142
24 2
24 142
24 146
24 91
24 153
24 91
24 91
24 153
24 91
24 153
24 10
91 2
91 2
91 24
91 24
91 59
24 10
91 24
24 30
24 94
24 43
24 63
24 57
24 2
24 142
24 142
24 2
24 142
2 91
2 142
2 24
2 24
24 91
24 2
24 142
24 2
91 2
24 91
24 63
24 2
24 91
24 2
24 142
52 66
52 60
52 154
142 91
142 2
142 24
142 24
142 24
91 2
91 142
91 24
153 91
153 24
153 24
153 40
91 2
153 24
24 91
24 2
24 142
153 24
153 40
24 142
2 24
142 24
142 91
142 2
142 24
168 89
56 135
56 9
56 135
56 9
24 2
24 142
24 91
24 2
24 142
24 153
24 40
2 24
24 2
24 91
24 153
24 63
2 142
2 24
63 94
63 43
63 24
63 57
63 24
2 18
63 91
63 24
63 153
24 94
24 43
24 63
24 57
24 63
91 24
63 24
91 24
63 24
63 24
91 24
24 63
24 63
142 2
142 24
153 63
24 91
24 91
24 91
24 2
24 142
24 91
24 2
24 63
24 91
24 91
68 146
68 167
71 155
39 141
146 24
146 91
68 146
68 167
167 68
167 68
68 167
164 123
144 171
137 82
35 104
35 127
127 35
142 24
142 24
165 3
157 63
45 150
86 137
86 52
86 5
86 14
86 60
86 127
86 35
86 165
86 130
65 167
150 45
150 45
51 80
167 146
127 165
33 130
154 52
28 145
45 150
146 68
65 167
45 150
150 45
63 57
150 45
45 150
45 150
45 150
114 28
63 106
140 156
140 126
140 7
140 80
140 155
140 46
140 69
140 36
140 51
140 27
140 152
140 44
140 11
140 71
150 45
150 45
150 45
68 167
45 150
45 150
153 63
150 45
63 97
154 66
24 142
171 145
65 43
24 2
24 142
65 43
167 65
24 91
2 142
2 24
24 2
24 2
24 146
63 153
146 24
2 24
122 75
24 2
94 2
24 91
24 91
153 63
24 91
24 91
24 91
24 63
80 51
64 82
64 137
64 104
64 141
64 47
64 3
64 39
78 65
71 36
35 82
35 137
35 52
35 104
35 141
35 14
35 60
35 127
35 3
35 39
35 165
35 130
154 52
137 39
71 27
127 35
28 134
35 127
127 35
140 36
33 130
45 73
156 80
156 23
7 80
78 76
78 65
111 56
140 7
140 11
157 146
156 80
146 157
80 7
43 65
33 5
2 24
91 59
165 137
153 24
137 165
157 63
33 5
68 167
153 63
64 130
71 27
39 141
39 141
37 105
104 35
82 3
10 91
9 56
60 52
43 57
63 153
57 43
24 167
24 91
24 2
24 91
24 2
153 63
24 63
153 24
24 2
24 142
71 27
33 82
33 5
137 165
33 130
39 141
39 141
142 24
23 156
23 126
23 7
23 46
23 152
23 44
140 7
91 24
91 167
140 7
150 58
65 97
140 7
65 97
140 7
86 79
73 45
130 35
82 52
137 165
156 80
45 73
137 165
76 146
68 97
10 24
146 76
137 165
137 165
2 142
146 91
64 130
142 2
24 91
58 45
134 145
171 28
171 119
45 58
28 147
80 156
167 68
167 59
65 148
156 80
156 80
148 97
148 43
148 146
148 63
148 167
148 65
7 36
3 52
58 45
7 36
167 148
167 91
148 167
3 52
30 24
119 147
44 80
24 153
142 24
18 153
44 80
44 80
167 68
167 146
44 80
44 80
2 142
35 127
3 52
153 63
153 63
64 130
80 44
80 44
80 44
65 148
65 148
130 64
10 24
154 66
91 24
127 35
47 86
91 146
33 5
35 104
35 127
122 28
127 35
65 148
127 86
60 52
57 63
122 164
57 24
63 2
63 113
76 65
165 52
97 65
75 147
152 27
57 146
63 91
63 24
146 94
146 63
65 76
63 146
65 76
63 57
57 68
63 157
63 153
63 24
24 63
24 91
24 63
24 91
24 153
24 63
24 94
24 91
24 153
24 63
24 57
94 91
94 24
94 153
94 63
94 57
137 165
24 153
24 40
24 10
24 94
24 153
24 30
24 2
24 142
24 30
24 91
24 153
24 10
24 91
94 10
24 91
24 91
24 91
137 127
45 58
153 24
99 105
147 75
140 7
23 156
63 153
46 23
46 23
153 63
157 63
119 75
63 91
63 24
63 153
63 57
73 45
63 153
114 28
63 153
144 169
23 80
80 23
60 52
147 119
63 153
63 153
91 24
24 153
24 40
63 68
63 157
71 27
63 157
2 142
63 91
63 24
153 63
63 24
140 156
140 126
140 7
140 80
140 155
140 46
140 69
140 36
140 51
140 27
140 152
140 44
140 11
140 71
167 43
167 65
152 44
43 91
157 63
27 7
27 80
27 46
27 36
27 11
27 71
91 2
91 142
24 63
142 91
142 2
24 63
24 91
24 91
43 63
86 165
39 141
165 14
94 57
153 40
153 63
91 24
91 24
24 91
24 91
24 91
153 40
57 94
56 111
56 85
40 24
40 153
64 130
130 64
36 140
36 140
152 44
66 154
36 140
33 82
33 5
33 130
68 63
153 24
153 40
153 68
153 76
153 63
153 167
39 141
39 165
39 130
27 71
66 154
92 154
154 66
33 5
154 127
57 65
28 164
153 68
57 24
164 28
33 5
33 138
28 164
3 52
65 43
137 39
164 28
91 43
114 28
23 80
3 52
37 99
152 155
45 58
58 45
45 58
68 153
64 130
43 91
157 63
65 148
127 154
127 137
24 153
24 40
2 91
24 57
2 91
146 65
24 91
154 52
140 156
140 126
140 7
140 80
140 155
140 46
140 69
140 36
140 51
140 27
140 152
140 44
140 11
140 71
140 156
140 126
140 7
140 80
140 155
140 46
140 69
140 36
140 51
140 27
140 152
140 44
140 11
140 71
137 127
127 137
24 59
157 146
66 52
68 167
24 91
24 91
24 94
24 78
24 59
24 10
63 65
24 2
63 153
63 24
63 57
2 24
24 2
24 91
5 86
5 33
76 78
39 141
82 165
9 87
51 80
66 154
140 156
140 126
140 7
140 80
140 155
140 46
140 69
140 36
140 51
140 27
140 152
140 44
140 11
140 71
40 2
40 24
86 3
23 80
3 86
28 147
122 164
137 127
140 80
40 24
140 27
36 140
23 80
127 137
137 127
127 137
66 154
141 39
68 97
91 2
91 24
146 97
146 43
154 52
60 52
66 52
66 86
40 24
40 153
137 86
86 137
36 140
68 146
104 86
104 35
65 97
72 86
72 35
39 141
111 56
60 86
33 86
33 130
39 141
63 153
153 63
35 104
65 43
130 86
146 65
57 65
154 52
154 86
82 52
76 153
97 65
3 86
91 153
24 43
24 65
153 91
24 153
24 153
24 63
47 86
23 156
23 80
23 156
63 91
63 24
23 156
99 37
146 68
63 113
63 65
63 153
57 94
57 91
57 24
57 153
57 63
111 85
111 56
111 89
39 137
39 86
24 91
24 94
24 91
24 153
24 63
24 57
56 111
56 89
142 24
24 91
24 63
24 142
142 91
142 24
24 40
40 24
36 155
39 141
39 141
39 141
39 141
130 64
66 154
35 86
28 147
92 86
169 147
66 52
82 86
147 169
5 86
28 147
37 99
28 147
28 147
28 147
63 91
63 24
148 43
78 76
68 153
155 36
2 24
148 65
155 156
155 140
155 126
155 7
155 80
155 12
155 46
155 93
155 23
155 36
155 51
155 27
155 152
155 44
155 11
155 136
155 71
148 65
153 68
153 76
153 63
153 167
24 91
24 63
24 91
24 142
23 80
142 24
127 52
60 52
66 33
66 154
33 66
40 24
40 153
155 27
155 152
65 106
76 78
146 24
155 27
155 152
65 97
66 52
91 24
35 104
68 146
91 24
97 146
91 146
24 146
63 153
91 2
91 24
91 2
91 24
94 57
80 23
80 51
80 23
80 23
63 153
2 30
24 91
80 23
94 57
153 63
137 165
146 24
37 117
37 73
165 137
146 63
146 24
154 52
119 147
156 80
156 23
146 91
23 80
140 7
140 7
154 52
24 146
146 24
91 2
57 94
91 2
91 24
28 70
28 134
28 164
28 163
28 171
28 122
28 161
28 0
28 123
28 147
28 114
28 75
28 144
28 128
63 146
142 91
142 24
91 24
91 59
39 137
39 141
39 127
39 165
39 130
91 142
91 24
86 165
45 58
66 154
91 24
24 91
24 142
33 86
33 82
33 66
33 130
146 91
146 24
63 65
165 86
3 52
63 153
30 2
30 2
2 30
142 91
142 24
24 153
63 68
94 57
63 43
140 156
140 126
140 7
140 80
140 155
140 46
140 69
140 36
140 51
140 27
140 152
140 44
140 11
140 71
140 156
140 126
140 7
140 80
140 155
140 46
140 69
140 36
140 51
140 27
140 152
140 44
140 11
140 71
140 156
140 126
140 7
140 80
140 155
140 46
140 69
140 36
140 51
140 27
140 152
140 44
140 11
140 71
78 76
45 58
3 52
86 130
64 130
64 130
140 7
140 155
58 45
153 63
33 5
78 76
57 94
76 78
24 91
24 153
119 123
24 63
24 91
24 142
155 156
156 155
76 146
137 82
137 104
137 141
137 47
137 3
137 39
153 68
153 76
153 63
153 167
39 137
130 33
28 147
140 7
140 155
140 156
140 126
140 7
140 80
140 155
140 46
140 69
140 36
140 51
140 27
140 152
140 44
140 11
140 71
146 24
87 56
135 56
146 167
146 68
91 106
91 24
24 153
33 130
155 27
155 152
134 145
45 58
45 58
165 39
58 45
3 82
87 168
78 146
64 130
91 24
24 91
91 24
165 137
165 52
165 5
165 14
165 60
165 127
165 35
165 130
134 28
137 165
137 39
57 43
27 71
24 91
24 91
30 2
94 43
94 24
94 63
94 167
94 65
94 10
94 57
94 157
142 91
142 24
80 23
122 163
24 91
91 142
91 24
91 24
45 58
24 142
24 59
94 157
94 57
94 153
64 130
82 52
102 58
73 45
130 64
23 156
23 126
23 7
23 46
23 152
23 44
23 136
165 86
130 82
153 76
153 167
153 68
153 63
146 65
45 58
146 24
7 80
146 91
73 117
73 45
73 37
73 55
73 58
73 150
155 152
142 2
3 52
140 156
140 126
140 7
140 80
140 155
140 46
140 69
140 36
140 51
140 27
140 152
140 44
140 11
140 71
140 156
140 126
140 7
140 80
140 155
140 46
140 69
140 36
140 51
140 27
140 152
140 44
140 11
140 71
52 3
155 156
155 140
155 126
155 7
155 80
155 12
155 46
155 93
155 23
155 36
155 51
155 27
155 152
155 44
155 11
155 136
155 71
142 24
78 146
24 142
9 87
142 91
142 24
152 44
65 43
150 58
104 35
153 94
24 94
24 78
24 59
24 10
155 152
130 33
130 165
155 126
130 14
24 2
2 142
24 91
24 2
24 142
126 155
76 146
156 126
156 46
156 23
156 152
156 44
148 43
57 94
57 91
57 24
57 153
57 63
155 126
97 65
45 58
45 58
87 56
87 9
39 137
39 165
39 130
142 2
142 91
142 2
142 24
142 91
142 2
142 24
33 130
157 94
65 97
142 91
142 2
142 24
146 97
2 91
2 142
2 24
97 146
94 153
56 135
94 157
56 135
56 85
56 135
94 157
130 33
135 56
82 3
165 39
33 130
111 89
117 37
37 117
117 37
52 60
52 60
52 60
52 66
52 154
65 43
37 117
99 37
111 89
66 154
64 130
45 73
86 35
35 82
140 156
140 126
140 7
140 80
140 155
140 46
140 69
140 36
140 51
140 27
140 152
140 44
140 11
140 71
73 45
57 65
37 99
111 89
157 63
28 114
111 88
156 126
156 46
156 23
156 152
156 44
60 52
35 86
86 35
3 82
52 60
35 86
86 35
64 82
35 82
130 82
35 86
130 82
126 80
117 73
73 117
127 86
86 127
127 86
60 52
130 82
73 45
68 153
111 56
91 146
43 63
111 89
165 137
165 52
165 5
165 14
165 60
165 127
165 35
165 130
23 156
23 80
23 156
23 80
3 52
52 3
154 52
52 154
153 63
153 91
153 24
153 40
142 91
142 2
142 24
91 24
91 2
89 111
89 111
52 82
123 164
52 154
154 52
130 64
52 154
82 52
52 86
154 52
130 82
52 86
86 52
35 86
66 154
86 52
86 35
23 152
52 60
52 82
154 66
33 138
52 86
123 134
123 147
73 117
73 37
82 52
119 147
153 68
153 76
153 63
153 167
123 134
123 134
86 52
3 86
3 35
51 80
140 156
140 126
140 7
140 80
140 155
140 46
140 69
140 36
140 51
140 27
140 152
140 44
140 11
140 71
156 46
156 152
111 56
111 85
111 88
60 52
37 117
37 73
130 82
52 60
134 70
37 99
75 147
56 135
56 135
56 111
56 89
2 18
78 68
73 117
56 135
52 154
117 73
154 52
154 52
130 82
60 52
3 52
82 130
52 3
130 82
52 60
117 37
122 163
86 52
52 86
86 82
68 78
76 68
76 153
23 156
23 80
23 155
23 51
23 152
23 44
82 86
155 23
82 130
37 117
130 82
45 58
63 94
153 24
153 40
63 153
63 97
63 97
57 94
97 63
154 52
86 52
97 63
57 146
52 86
52 86
87 135
87 56
87 9
87 85
87 168
87 56
87 9
97 76
142 91
142 2
142 24
142 40
91 2
91 24
91 59
153 40
91 24
91 24
91 2
91 142
91 24
91 59
52 60
63 97
63 97
63 97
63 68
80 23
44 23
80 23
63 43
63 65
156 126
156 46
156 23
156 152
156 44
82 130
63 91
63 24
63 57
137 64
137 3
137 130
154 52
137 82
137 104
137 141
137 47
137 3
137 39
154 52
37 117
65 63
63 24
52 154
117 37
37 117
65 97
147 164
117 37
164 147
165 127
165 39
52 60
63 97
63 157
63 76
63 146
119 75
127 165
28 123
130 165
165 127
63 91
63 24
66 154
23 152
37 117
63 91
63 24
63 94
63 94
63 65
164 147
76 97
164 147
142 91
142 2
66 154
65 148
140 156
140 126
140 7
140 80
140 155
140 46
140 69
140 36
140 51
140 27
140 152
140 44
140 11
140 71
148 65
63 43
43 65
94 63
94 65
146 24
63 43
63 65
146 30
63 94
63 65
163 75
97 65
154 52
142 91
142 2
142 24
60 52
77 7
68 153
68 63
52 60
60 52
57 94
165 39
57 94
111 56
111 89
111 56
24 153
24 40
24 146
24 91
30 146
24 63
73 58
64 130
33 130
46 27
46 71
146 30
130 33
68 146
63 146
63 65
45 73
140 7
140 155
140 36
140 44
140 11
140 71
63 153
140 7
140 155
140 11
66 154
140 7
140 155
140 93
140 36
140 11
3 52
92 72
92 82
92 64
92 137
92 52
92 104
92 115
92 66
92 5
92 141
92 47
92 6
92 14
92 60
92 127
92 86
92 3
92 138
92 35
92 39
92 33
92 165
92 154
68 153
73 117
117 73
85 56
171 119
171 144
97 65
68 153
140 7
97 65
71 46
154 52
123 163
123 163
123 163
123 163
2 142
2 24
154 137
28 171
111 56
111 89
57 94
57 43
63 146
23 80
63 146
63 43
65 97
64 130
146 76
65 97
111 56
111 85
111 89
80 23
63 91
63 43
63 24
63 57
153 24
153 40
39 92
68 63
130 64
144 171
65 43
73 117
65 43
52 154
63 68
63 91
63 24
52 66
140 156
140 126
140 7
140 80
140 155
140 46
140 69
140 36
140 51
140 27
140 152
140 44
140 11
140 71
63 65
63 65
37 117
52 3
63 153
68 153
68 63
65 43
23 80
144 171
63 146
65 63
65 43
65 76
66 52
63 65
111 56
111 85
111 89
63 65
57 91
57 43
57 24
57 63
111 56
111 85
111 89
76 146
63 91
63 43
63 24
63 57
63 68
63 153
2 18
2 142
2 142
56 111
56 89
28 134
28 123
43 57
56 111
24 2
2 24
24 91
24 153
24 63
142 2
63 68
63 24
63 146
63 65
56 111
56 89
123 28
156 80
156 23
58 150
154 52
73 37
64 130
52 154
154 52
122 163
122 163
154 52
52 154
142 24
153 68
137 165
154 52
65 68
117 37
117 73
52 154
39 137
73 117
111 56
111 89
154 66
33 82
33 66
137 127
142 24
117 73
66 115
64 130
66 154
157 146
71 140
9 56
43 91
43 24
43 63
43 57
171 28
144 171
28 171
10 40
23 156
23 80
91 24
91 2
91 142
91 24
91 63
91 57
57 43
91 24
91 63
91 24
3 82
3 137
3 47
3 39
80 23
91 63
66 154
80 23
137 3
148 65
71 27
24 142
142 24
24 142
142 2
142 24
142 24
24 91
142 91
142 24
24 2
24 142
24 91
24 142
24 63
24 2
142 91
142 24
65 97
65 76
65 78
43 65
24 91
24 153
24 91
24 142
66 154
2 24
2 24
157 63
24 2
24 2
24 91
39 137
39 127
39 165
24 91
2 24
24 91
2 24
24 2
24 91
24 146
56 9
24 91
24 153
24 63
2 24
24 91
24 91
24 91
24 2
24 142
24 91
24 2
65 43
65 167
165 137
165 39
146 24
2 91
36 140
36 140
142 91
142 2
142 24
46 27
3 52
142 10
64 130
52 3
3 52
37 117
23 80
91 24
2 142
80 23
94 157
43 148
76 106
94 157
52 3
2 91
56 135
140 155
140 71
56 111
35 104
140 36
140 11
140 71
24 91
94 157
24 91
24 91
24 142
140 7
140 155
140 36
140 11
140 71
153 76
153 167
153 68
153 63
24 91
24 2
9 87
9 87
91 24
156 23
39 137
39 141
39 127
39 165
2 24
57 65
43 65
156 23
156 44
24 91
24 59
24 91
24 2
24 91
24 153
24 10
137 165
165 86
165 130
165 86
165 130
68 153
137 39
137 165
24 91
24 142
24 40
24 91
24 59
146 76
68 153
63 91
63 43
63 24
63 153
111 56
63 153
63 153
63 91
63 24
63 153
24 91
24 43
24 153
24 63
63 91
63 43
63 24
63 153
2 63
24 91
24 2
24 142
24 91
24 2
24 142
63 2
63 68
91 24
24 91
91 142
91 24
91 24
91 24
91 153
91 63
56 111
56 135
56 9
91 2
91 24
123 164
123 164
154 66
76 146
73 58
146 76
51 80
155 27
43 91
43 24
43 153
43 63
91 2
135 9
65 43
65 167
97 10
2 91
127 39
9 135
9 56
27 51
24 153
24 40
24 91
73 45
91 24
56 135
153 68
153 63
45 58
56 135
56 9
56 135
56 9
9 87
73 58
142 91
142 24
24 91
24 142
142 91
142 24
142 40
142 91
142 24
24 91
24 43
24 153
24 63
24 142
164 122
2 24
24 2
146 24
24 146
167 43
148 43
91 2
91 142
91 24
142 2
91 24
65 97
65 78
27 155
167 68
75 119
119 75
24 91
68 153
140 93
140 36
140 11
140 71
92 72
92 82
92 64
92 137
92 52
92 104
92 115
92 66
92 5
92 141
92 47
92 6
92 14
92 60
92 127
92 86
92 3
92 138
92 35
92 39
92 33
92 165
92 154
146 63
154 92
3 92
33 92
82 92
47 92
165 92
91 24
91 153
72 92
91 24
91 63
155 140
91 24
144 171
56 9
56 111
127 92
24 91
24 63
63 146
63 146
63 153
63 91
63 24
40 91
40 142
40 24
24 91
24 142
24 40
40 91
115 52
115 66
163 122
82 137
3 92
14 92
164 122
167 43
140 7
33 14
137 92
134 119
137 82
137 104
137 141
137 47
137 3
137 39
86 52
171 144
3 52
52 3
3 82
3 137
60 92
57 63
57 65
3 82
3 137
3 104
3 86
122 28
36 140
10 142
142 10
39 137
165 137
165 141
165 127
165 39
146 63
10 142
27 80
39 137
39 127
39 165
33 137
24 94
24 78
24 59
24 10
24 142
24 91
24 59
63 153
24 2
10 40
75 98
137 82
137 104
137 141
137 47
137 3
137 39
86 165
71 46
154 66
52 92
46 27
154 66
82 64
57 65
146 24
46 71
165 137
165 127
165 39
165 130
36 140
137 52
167 68
24 91
39 137
24 91
24 59
157 146
152 155
152 27
165 52
165 60
165 127
165 86
165 35
165 130
2 24
28 163
130 33
171 169
171 70
171 134
171 164
171 163
171 159
171 119
171 122
171 161
171 25
171 123
171 28
171 147
171 114
171 145
171 75
171 144
171 128
28 134
28 164
28 171
28 0
28 123
28 147
171 169
171 70
171 134
171 164
171 163
171 159
171 119
171 122
171 161
171 25
171 123
171 28
171 147
171 114
171 145
171 75
171 144
171 128
24 91
63 91
63 24
63 153
146 91
146 24
152 155
63 68
24 91
24 146
78 76
75 171
65 97
65 76
65 78
146 68
146 167
146 57
65 43
146 68
63 91
171 119
171 145
171 119
171 145
63 94
63 91
63 43
63 76
63 65
63 57
63 94
63 146
63 65
39 137
39 127
39 165
39 137
39 86
24 63
63 68
63 76
63 153
63 167
63 24
24 91
24 91
24 91
91 2
91 63
91 24
91 24
91 24
91 153
91 10
91 59
142 40
130 165
39 47
47 39
40 10
63 91
40 24
40 10
56 89
40 24
40 153
163 98
163 98
163 98
163 98
155 156
155 140
155 126
155 7
155 80
155 12
155 46
155 93
155 23
155 36
155 51
155 27
155 152
155 44
155 11
155 136
155 71
130 64
78 76
111 56
0 134
80 155
23 156
23 80
64 130
156 80
156 23
80 23
140 7
140 155
140 93
140 36
140 11
140 71
97 113
97 63
56 89
2 40
2 91
2 24
2 142
2 30
2 18
142 2
2 142
57 24
142 24
142 24
91 2
91 63
63 106
97 148
65 43
65 167
137 39
165 127
157 63
71 155
148 97
165 127
155 27
155 152
65 76
140 156
140 126
140 7
140 80
140 155
140 46
140 69
140 36
140 51
140 27
140 152
140 44
140 11
140 71
127 165
127 165
127 165
146 76
10 65
57 65
63 94
63 94
146 94
146 63
94 63
153 24
153 40
76 146
30 2
2 30
154 92
65 106
146 76
142 91
142 2
142 24
33 66
33 14
33 154
153 24
153 40
91 24
137 82
52 165
157 146
52 86
155 152
155 152
56 9
92 154
126 71
9 56
137 82
137 104
137 141
137 47
137 3
137 39
122 169
122 134
122 164
122 163
122 171
122 119
122 123
122 28
122 147
122 145
122 144
127 86
127 165
94 63
130 127
141 137
141 104
141 47
130 33
65 43
65 94
65 63
65 167
65 57
132 89
130 86
130 165
3 66
57 65
132 111
60 86
60 165
33 82
33 66
33 5
66 154
146 68
28 171
167 43
23 80
40 10
43 167
63 65
63 94
24 142
24 57
94 91
94 76
94 24
94 153
94 63
94 65
94 57
24 40
24 91
24 10
94 65
165 137
91 94
91 24
82 6
82 6
82 6
82 6
82 6
82 6
82 6
82 6
82 6
82 6
82 6
82 6
82 6
82 6
82 6
82 6
82 6
80 23
99 105
23 80
165 52
80 23
35 86
35 165
71 126
171 145
68 167
111 132
150 58
155 152
134 123
142 10
10 142
142 10
23 80
167 43
80 23
47 82
47 137
47 104
47 3
10 142
63 91
91 63
111 85
28 163
28 122
63 153
52 165
153 94
167 68
86 165
137 141
57 94
57 63
57 24
57 24
163 122
57 94
146 94
146 63
146 94
171 119
171 119
144 122
11 140
140 152
140 44
63 94
137 82
137 104
137 141
137 47
137 3
137 39
94 76
94 57
9 56
122 163
163 144
140 156
140 126
140 7
140 80
140 155
140 46
140 69
140 36
140 51
140 27
140 152
140 44
140 11
140 71
66 154
80 152
144 163
47 66
63 153
66 47
165 86
56 9
56 85
63 94
63 97
63 106
63 106
123 164
123 164
46 155
63 91
63 76
63 24
155 152
23 44
23 44
23 44
86 165
140 156
140 126
140 7
140 80
140 155
140 46
140 69
140 36
140 51
140 27
140 152
140 44
140 11
140 71
156 126
156 7
156 46
156 23
156 152
156 44
94 91
94 76
94 24
94 153
94 63
94 65
94 57
137 165
28 134
28 164
28 163
28 171
28 122
28 161
28 0
28 123
28 147
28 114
28 75
28 144
28 128
76 78
94 24
94 146
78 76
171 119
171 145
146 68
163 169
163 134
163 164
163 171
163 119
163 122
163 123
163 28
163 147
163 145
163 144
123 119
33 5
86 165
165 86
91 24
134 119
147 119
86 165
91 94
91 24
91 63
86 165
44 156
165 86
156 126
156 7
156 46
156 23
156 152
156 44
86 165
137 165
76 106
57 24
157 146
146 76
87 9
156 155
146 63
165 137
63 146
63 153
63 43
63 65
56 135
56 89
23 156
23 80
80 23
94 91
94 76
94 24
94 153
94 63
94 65
94 57
142 10
94 91
94 76
94 24
94 153
94 63
94 65
94 57
94 91
94 76
94 24
94 153
94 63
94 65
94 57
154 66
23 156
73 45
163 134
122 134
144 169
144 70
144 134
144 164
144 163
144 159
144 171
144 119
144 122
144 161
144 0
144 98
144 123
144 28
144 147
144 114
144 145
144 75
144 128
153 94
23 156
23 80
94 63
94 153
146 63
23 80
94 153
164 123
153 94
127 14
65 148
44 7
57 91
57 24
57 63
164 28
157 10
140 156
140 126
140 7
140 80
140 155
140 46
140 69
140 36
140 51
140 27
140 152
140 44
140 11
140 71
140 156
140 126
140 7
140 80
140 155
140 46
140 69
140 36
140 51
140 27
140 152
140 44
140 11
140 71
140 156
140 126
140 7
140 80
140 155
140 46
140 69
140 36
140 51
140 27
140 152
140 44
140 11
140 71
140 156
140 126
140 7
140 80
140 155
140 46
140 69
140 36
140 51
140 27
140 152
140 44
140 11
140 71
140 36
80 23
80 23
57 94
73 117
73 45
73 37
73 55
73 58
73 150
94 57
63 157
157 63
63 97
63 106
63 65
63 106
63 106
44 23
52 3
57 94
94 57
65 94
65 63
134 119
63 24
63 106
94 65
91 63
91 24
94 63
57 63
156 80
156 23
153 63
65 148
9 87
63 106
137 165
137 5
137 165
137 82
137 104
137 141
137 47
137 3
137 39
156 23
63 157
91 63
91 63
24 91
24 153
24 63
24 57
24 91
24 59
142 91
142 2
142 24
153 63
123 164
7 12
146 24
80 23
80 44
23 44
66 52
66 86
58 117
58 73
58 150
23 156
47 86
40 2
130 127
63 106
63 113
28 119
24 146
146 24
63 91
76 157
76 157
63 91
63 24
85 111
85 56
85 89
23 156
23 80
60 86
164 134
130 86
72 86
72 35
52 66
52 60
52 154
104 86
104 35
71 126
56 85
163 171
154 52
154 86
3 86
35 104
63 106
80 23
155 27
56 85
56 85
43 167
63 91
63 76
63 24
63 153
85 111
85 56
85 89
80 27
63 91
63 24
126 71
71 126
63 157
63 106
2 142
63 153
23 80
35 86
33 86
33 130
82 86
82 86
167 43
167 65
56 85
56 89
56 85
142 2
142 24
63 153
56 85
135 56
24 91
24 63
24 91
24 63
24 2
24 142
24 91
24 146
24 63
24 91
10 24
141 130
155 152
80 23
80 156
146 167
28 134
9 56
137 86
119 28
119 28
119 28
119 28
119 28
142 91
142 24
27 80
140 80
10 24
56 9
27 46
56 135
23 156
23 44
91 63
135 56
130 60
167 146
148 65
57 65
44 23
157 63
157 76
65 43
65 167
142 40
43 167
63 68
63 43
111 135
111 56
60 130
40 153
135 111
135 56
99 45
99 73
99 58
99 117
99 37
63 91
99 37
99 45
99 73
99 58
99 117
63 91
117 99
66 133
33 133
153 24
153 10
63 91
2 40
68 43
68 63
76 157
154 82
171 144
58 99
142 157
135 56
157 142
142 157
167 43
167 65
157 63
23 156
23 140
23 136
63 146
157 142
63 157
87 56
24 91
24 142
157 146
52 165
165 52
142 157
39 137
39 104
39 141
39 47
39 3
39 35
2 18
56 9
56 111
56 85
56 89
56 87
9 56
24 91
24 91
24 63
24 91
24 91
24 91
24 91
24 2
24 142
2 24
24 2
63 91
63 76
63 24
56 9
23 156
130 82
117 73
71 27
92 86
140 156
140 126
140 7
140 80
140 155
140 46
140 69
140 36
140 51
140 27
140 152
140 44
140 11
140 71
140 23
9 56
86 165
58 73
33 82
33 5
130 165
87 56
71 36
91 76
91 24
91 63
65 43
2 91
137 3
148 65
28 134
28 164
28 163
28 171
28 122
28 161
28 0
28 123
28 147
28 114
28 75
28 144
28 128
91 63
65 57
63 153
63 91
63 76
63 24
57 65
153 63
135 168
135 56
135 9
68 146
57 146
146 57
43 97
43 157
43 76
43 24
43 153
43 63
2 148
80 44
43 68
63 24
63 57
24 63
24 91
24 63
24 57
24 91
91 24
24 10
63 43
24 2
24 142
24 63
24 57
24 91
142 91
142 2
142 24
142 63
63 68
63 43
91 76
91 24
91 63
63 68
63 43
24 142
24 91
24 10
24 91
24 2
24 153
24 63
24 40
24 57
153 24
153 40
123 164
73 117
3 39
35 104
9 56
165 127
94 157
57 91
57 24
57 63
65 148
63 153
35 104
91 63
91 63
157 63
68 43
68 43
30 2
2 30
148 43
23 80
137 165
24 63
80 23
80 156
80 156
82 137
82 104
82 3
153 40
46 27
78 76
40 24
40 153
40 24
40 153
9 87
24 57
71 27
24 91
24 59
24 63
56 87
0 164
63 24
87 56
87 9
87 85
63 153
9 56
63 91
63 76
63 24
43 68
43 63
56 9
10 24
10 24
63 91
63 76
63 24
40 153
24 91
24 153
153 63
56 87
56 9
56 87
56 9
56 87
56 9
56 87
56 9
56 9
56 87
56 9
56 9
56 87
56 9
56 9
40 153
24 91
24 76
24 63
153 40
24 10
153 40
24 91
24 2
24 142
24 63
24 153
24 40
24 91
24 59
24 91
24 10
24 94
24 78
24 59
24 10
24 91
24 153
24 153
24 91
24 91
24 2
24 142
24 153
24 63
24 40
24 57
130 86
33 82
130 82
140 80
82 130
71 27
82 130
2 24
91 2
71 27
5 86
35 86
122 163
130 82
127 14
56 87
56 9
57 24
56 9
56 9
56 9
82 130
65 148
43 157
146 43
52 35
148 65
24 57
24 40
24 63
56 9
157 146
169 171
9 56
146 94
146 157
24 91
24 63
56 9
56 9
56 87
157 146
52 66
9 56
9 56
68 43
68 63
9 56
63 106
68 43
68 63
91 24
24 91
63 68
63 43
91 24
68 43
68 63
63 91
63 76
142 91
142 24
63 106
2 30
56 9
56 87
56 9
56 9
153 40
24 91
24 142
24 91
24 91
24 91
123 164
123 164
33 82
33 5
146 63
33 130
86 3
146 68
27 46
3 86
86 52
52 86
127 14
65 106
65 106
157 142
73 117
23 80
23 44
146 63
80 23
44 23
23 80
23 44
44 23
63 146
91 24
14 86
43 68
43 63
71 36
14 86
33 14
146 68
71 27
123 164
76 24
24 76
80 23
68 146
68 167
140 11
146 57
24 91
146 10
14 165
78 68
91 76
91 63
91 24
91 153
9 56
9 56
78 68
10 146
63 68
63 43
91 24
68 43
68 63
56 135
56 9
24 91
78 68
63 68
63 43
63 68
63 43
63 68
63 43
63 65
78 68
57 91
57 2
57 142
57 24
57 63
24 57
57 24
56 9
40 24
40 153
24 57
146 68
80 156
9 87
117 73
9 87
9 87
140 7
140 155
140 46
140 152
140 44
140 11
140 71
9 87
9 56
68 43
68 63
76 78
76 146
66 52
78 68
47 82
33 5
11 140
68 78
68 167
33 82
33 5
153 91
78 68
68 78
9 87
56 9
56 9
9 56
63 91
91 153
9 56
86 165
86 165
165 137
157 24
140 80
63 65
148 65
24 2
24 94
24 10
65 97
65 97
157 94
157 94
63 106
63 24
63 57
63 24
63 57
57 24
57 63
30 2
24 91
24 153
24 91
24 91
153 40
24 91
24 91
24 91
24 91
63 106
40 146
24 97
24 157
24 153
24 10
24 2
24 146
24 2
24 142
76 91
76 63
127 137
64 130
127 86
163 122
130 141
146 63
137 127
82 137
52 66
52 60
52 154
52 66
3 137
73 150
140 156
140 126
140 7
140 80
140 155
140 46
140 69
140 36
140 51
140 27
140 152
140 44
140 11
140 71
127 137
130 82
91 142
140 7
140 11
140 11
123 75
52 127
46 155
146 97
28 114
57 65
165 127
57 94
57 76
137 3
24 91
24 2
24 142
24 153
24 63
24 40
24 57
57 24
97 146
82 52
3 137
33 82
33 66
33 5
33 154
33 130
80 23
80 44
40 24
146 91
23 80
154 66
80 23
45 58
137 3
137 82
137 64
43 24
43 153
57 76
146 68
146 167
45 73
164 163
142 24
127 165
33 5
23 156
14 127
97 24
146 68
3 104
3 141
3 47
39 3
3 39
30 2
57 65
165 127
63 24
63 2
63 142
63 24
63 57
63 91
63 24
63 91
63 76
63 91
63 76
63 91
63 76
91 24
91 24
91 2
91 24
80 156
91 2
63 91
63 76
65 57
169 144
7 80
117 58
76 157
2 30
171 145
86 82
86 52
86 127
86 3
86 35
137 82
135 56
135 89
155 80
155 27
76 63
155 46
91 2
91 24
153 24
157 146
63 91
63 76
73 61
2 91
2 24
27 80
91 2
91 24
28 134
28 164
28 163
28 171
28 122
28 161
28 0
28 123
28 147
28 114
28 75
28 144
28 128
66 86
140 46
140 27
140 27
146 57
123 171
111 135
111 56
82 35
37 58
52 127
111 9
137 82
111 56
157 24
24 59
142 10
153 142
153 24
153 40
142 10
2 142
43 65
140 156
140 126
140 7
140 80
140 155
140 46
140 69
140 36
140 51
140 27
140 152
140 44
140 11
140 71
127 52
28 123
63 153
9 56
146 24
153 91
153 24
165 3
30 2
43 68
43 63
30 2
63 153
63 153
142 2
167 146
167 68
66 33
66 154
127 165
154 52
165 137
165 52
165 5
165 14
165 60
165 127
165 86
165 35
165 130
78 24
27 46
122 164
52 127
148 146
117 58
9 56
76 63
127 137
146 2
146 142
146 24
146 57
140 27
63 91
63 76
140 7
33 5
33 14
56 9
142 146
137 52
63 91
63 24
140 7
140 155
140 46
65 148
140 156
140 126
140 7
140 80
140 155
140 46
140 69
140 36
140 51
140 27
140 152
140 44
140 11
140 71
140 7
68 166
140 152
140 11
140 71
140 152
140 11
91 24
140 46
140 36
140 152
56 111
165 64
164 122
64 165
91 24
56 9
56 9
56 135
146 167
56 135
2 24
119 123
33 82
33 5
57 91
57 153
163 164
163 122
85 56
140 7
140 155
140 46
86 64
9 56
64 86
64 165
157 63
56 9
9 56
9 56
9 56
73 58
65 43
97 65
91 24
71 46
46 71
71 46
122 169
140 51
23 80
140 27
140 27
40 153
65 43
80 23
65 148
153 43
146 68
146 167
46 80
68 146
146 68
35 52
23 156
23 80
35 52
97 10
60 52
9 56
63 153
97 148
97 68
97 146
97 167
27 71
63 91
56 135
56 89
56 9
56 9
80 23
80 156
73 45
73 58
73 58
28 134
28 164
28 163
28 171
28 122
28 161
28 0
28 123
28 147
28 114
28 75
28 144
28 128
137 82
137 52
52 82
52 137
52 35
5 33
65 43
35 82
153 91
153 24
167 68
167 146
171 147
28 123
28 123
63 43
63 106
63 68
43 97
43 106
140 7
140 155
140 36
140 152
140 11
140 71
91 24
91 24
65 68
91 24
91 2
91 24
35 104
78 76
82 52
82 35
86 52
71 27
24 10
35 82
43 167
10 24
63 91
63 167
142 2
63 68
63 43
63 68
63 43
63 68
63 43
63 113
63 65
24 2
24 142
24 63
24 57
24 146
24 91
24 91
24 157
154 66
82 137
82 104
82 47
82 3
80 156
45 73
167 68
167 146
167 68
167 146
58 73
80 156
71 155
140 80
140 27
63 68
63 43
68 43
68 63
140 7
140 152
140 11
140 71
63 106
146 63
153 63
63 43
157 24
157 68
157 146
68 157
146 157
157 68
68 157
145 171
123 147
33 82
33 5
33 154
65 63
24 157
33 82
33 5
91 2
91 142
91 24
24 91
24 2
24 142
24 153
24 63
24 40
24 57
91 59
24 91
91 24
24 91
24 2
24 142
43 167
35 104
119 123
157 24
24 157
157 146
137 82
137 104
137 141
137 47
137 3
137 39
154 52
140 11
57 146
163 75
63 106
65 63
24 2
24 146
146 63
146 24
63 167
146 24
24 146
91 24
91 63
87 56
91 24
91 59
91 63
63 106
63 57
63 91
24 2
24 59
24 10
57 106
57 63
57 24
24 57
24 2
24 142
24 59
24 63
24 57
63 24
63 24
24 91
45 58
45 58
56 87
56 9
35 104
141 127
45 58
35 104
45 58
23 156
5 39
130 127
127 137
127 141
127 39
127 165
140 156
140 126
140 7
140 80
140 155
140 46
140 69
140 36
140 51
140 27
140 152
140 44
140 11
140 71
23 156
23 140
23 126
23 7
23 80
23 155
23 12
23 46
23 36
23 51
23 27
23 152
23 44
23 11
23 71
44 23
46 23
80 23
140 23
11 23
3 86
3 35
148 157
33 5
9 56
122 163
111 103
103 111
56 111
35 127
3 82
3 104
3 141
3 47
80 156
140 156
140 126
140 7
140 80
140 155
140 46
140 69
140 36
140 51
140 27
140 152
140 44
140 11
140 71
156 80
127 14
127 52
127 52
127 52
130 64
5 39
5 39
97 65
146 68
52 60
80 156
47 72
141 137
141 104
141 47
141 39
137 141
45 150
140 156
140 126
140 7
140 80
140 155
140 46
140 69
140 36
140 51
140 27
140 152
140 44
140 11
140 71
122 75
146 68
122 163
52 60
68 43
68 63
127 52
65 148
3 137
3 104
3 47
3 86
3 35
86 39
97 65
148 65
97 78
78 97
39 165
75 119
39 165
122 163
122 163
126 12
65 148
132 103
132 85
39 52
9 56
23 80
23 156
23 80
127 104
127 35
33 82
33 5
33 14
103 132
80 23
80 23
167 68
167 146
33 5
44 23
65 148
65 106
73 45
73 45
148 65
167 68
167 146
71 27
56 135
71 27
35 104
127 86
39 82
14 86
153 24
153 40
115 52
123 164
146 91
73 58
65 97
65 97
146 68
146 167
122 163
97 65
140 156
140 126
140 7
140 80
140 155
140 46
140 69
140 36
140 51
140 27
140 152
140 44
140 11
140 71
15 10
52 115
44 80
44 80
80 44
80 44
56 9
123 164
130 165
68 146
68 167
76 113
137 165
5 86
130 86
65 148
150 58
58 150
58 45
78 76
140 7
140 93
140 36
140 152
140 44
140 11
140 71
140 27
140 156
140 126
140 7
140 80
140 155
140 46
140 69
140 36
140 51
140 152
140 44
140 11
140 71
28 163
35 86
140 7
150 45
45 150
103 87
68 146
146 157
171 119
171 119
37 105
140 27
140 156
140 126
140 7
140 80
140 155
140 46
140 69
140 36
140 51
140 152
140 44
140 11
140 71
140 11
148 65
171 28
28 164
28 123
146 157
111 56
60 86
65 148
111 89
23 80
23 156
23 80
56 111
80 23
137 86
86 137
72 86
146 97
137 86
137 82
137 104
137 141
137 47
137 3
137 39
97 146
14 3
24 57
56 87
56 103
28 0
157 146
3 104
76 146
157 148
163 122
39 82
24 59
57 24
146 24
28 134
28 164
28 163
28 171
28 122
28 161
28 0
28 123
28 147
28 114
28 75
28 144
28 128
24 146
24 57
24 2
24 59
142 146
165 127
10 24
10 15
24 10
2 24
2 91
2 24
2 91
24 57
24 59
142 24
142 24
24 142
2 91
2 24
45 58
2 91
2 24
2 91
2 24
2 91
2 24
2 91
2 24
2 91
2 24
2 91
2 24
91 24
91 24
91 2
91 24
91 2
91 24
2 24
28 134
28 75
56 9
57 24
91 24
91 63
91 59
91 63
91 59
115 52
64 141
33 14
82 39
135 56
35 86
75 28
73 58
73 45
146 24
33 86
72 86
72 35
82 137
82 130
33 86
146 157
146 68
146 167
64 138
164 123
140 27
140 156
140 126
140 7
140 80
140 155
140 46
140 69
140 36
140 51
140 152
140 44
140 11
140 71
27 155
51 126
51 126
66 33
66 154
82 86
154 52
57 24
87 89
153 91
144 28
157 63
135 56
66 52
66 86
5 86
57 65
60 165
57 94
57 76
14 130
40 91
40 24
40 153
40 10
155 27
155 152
155 71
135 56
47 86
164 145
157 24
76 97
76 78
76 65
57 146
35 86
140 27
140 156
140 126
140 7
140 80
140 155
140 46
140 69
140 36
140 51
140 152
140 44
140 11
140 71
104 86
104 35
27 155
91 153
71 27
3 86
164 122
122 164
122 163
3 86
154 52
154 86
171 169
27 71
35 104
71 46
71 27
157 146
146 157
14 86
14 165
167 65
167 43
103 132
97 65
157 146
157 146
39 137
39 86
39 130
23 156
23 44
91 40
91 2
91 24
91 153
91 24
91 2
91 24
91 146
94 157
94 157
64 130
92 86
28 75
64 130
66 154
66 154
164 163
164 122
163 122
145 164
130 86
146 157
87 89
91 59
146 91
91 146
146 91
104 86
146 91
103 132
157 148
78 146
75 119
119 75
141 60
65 76
65 76
91 146
171 145
171 119
157 94
66 154
91 24
86 35
91 59
155 80
155 27
154 66
28 119
33 5
137 86
71 27
56 135
56 9
56 89
56 9
111 87
24 91
24 91
24 91
56 135
94 157
80 140
154 66
68 146
68 167
9 132
9 103
80 155
153 146
80 155
80 155
64 130
97 65
97 68
146 68
167 146
43 146
43 106
119 164
122 164
68 146
68 167
80 156
33 5
146 157
97 65
119 123
56 9
23 80
130 165
56 135
65 106
56 9
56 89
80 155
23 156
28 171
37 117
37 45
37 73
37 58
37 150
65 76
23 156
9 56
126 23
156 23
155 80
155 27
9 103
65 148
146 153
65 148
56 9
46 23
91 24
91 24
80 23
52 66
91 24
91 153
91 24
91 157
91 24
97 65
91 106
148 65
40 153
156 23
65 57
103 132
103 9
140 36
140 152
140 11
146 68
146 167
46 23
39 82
57 65
65 57
39 86
167 146
27 140
43 65
57 65
157 91
78 146
153 63
103 132
103 9
80 156
27 140
164 122
148 146
43 65
65 97
65 97
154 66
148 170
130 64
39 52
64 130
43 65
27 140
23 156
43 148
65 148
65 148
156 80
156 23
65 148
65 148
65 148
146 63
155 46
52 66
52 154
73 117
156 140
64 104
56 9
56 87
56 87
56 132
148 65
56 87
33 5
40 153
9 87
9 56
10 40
122 163
82 39
44 23
167 65
167 43
167 65
167 43
146 57
146 68
146 167
9 56
9 89
156 80
156 23
123 164
122 164
122 163
37 117
37 45
37 73
37 58
37 150
37 99
57 65
57 146
111 103
140 36
65 148
153 63
63 94
36 140
65 97
68 167
148 170
97 65
148 65
68 167
68 167
119 28
122 163
111 89
65 63
65 63
10 24
10 153
10 40
63 91
63 24
65 63
65 63
51 27
140 36
153 76
153 63
153 146
146 148
148 146
97 65
44 80
44 152
63 65
122 164
146 68
146 167
37 99
146 63
97 65
35 165
52 165
24 157
80 44
142 91
170 148
63 153
40 10
35 104
35 104
35 72
63 97
63 24
63 113
63 153
63 91
63 24
24 57
30 2
91 142
142 91
91 142
142 2
142 91
91 40
91 142
153 63
2 142
86 165
126 156
126 46
126 23
126 152
126 44
146 24
141 165
165 86
39 137
73 58
153 63
142 2
40 10
140 27
140 156
140 126
140 7
140 80
140 155
140 46
140 69
140 36
140 51
140 152
140 44
140 11
140 71
58 73
127 165
57 146
140 7
140 36
140 11
56 9
23 156
2 142
57 24
56 111
56 85
97 65
9 56
24 94
24 78
24 59
24 10
2 24
111 56
111 85
23 156
23 126
23 7
23 46
23 152
23 44
46 23
91 24
78 146
157 24
23 156
44 23
146 78
65 97
65 148
24 153
3 52
86 3
86 35
24 153
3 137
3 47
156 23
86 92
63 106
165 127
7 126
127 165
137 127
146 78
56 9
97 148
126 7
148 97
132 56
91 24
132 111
56 132
153 63
153 63
156 80
156 23
167 43
165 127
156 23
56 9
157 76
9 56
39 165
157 146
153 76
153 63
43 65
43 167
56 9
56 9
56 9
164 119
56 9
24 91
24 157
153 24
24 153
153 24
56 9
24 91
56 9
24 94
24 78
24 59
24 10
153 24
153 40
24 91
24 153
24 91
24 153
24 153
40 153
76 157
127 66
127 154
35 86
35 104
35 104
35 104
146 157
165 137
167 65
167 43
9 56
9 56
9 89
137 165
156 7
152 23
152 44
157 76
9 56
9 56
9 56
23 156
23 80
80 23
141 86
130 64
86 141
86 165
33 5
73 45
73 58
2 30
153 63
153 24
153 40
157 76
146 153
153 24
65 43
146 94
65 76
65 76
76 157
65 97
65 76
65 78
65 106
97 65
167 43
148 65
65 43
63 153
9 56
9 89
63 153
63 153
57 65
24 91
56 111
56 9
40 153
56 9
40 153
130 64
44 155
155 44
36 140
64 130
127 35
63 153
146 24
27 71
43 65
37 117
37 45
37 73
37 58
63 153
146 24
85 56
68 97
68 167
97 68
97 167
76 65
37 73
52 3
37 99
68 146
68 167
157 63
157 76
91 24
68 63
68 43
23 156
23 80
23 44
91 24
91 153
167 68
167 97
57 146
44 23
156 23
156 23
57 146
57 94
56 85
111 56
91 24
80 23
28 122
73 45
28 122
28 122
91 106
23 80
68 97
68 167
146 91
14 5
80 23
157 146
23 80
140 7
140 11
94 10
63 113
148 43
157 76
9 56
56 111
56 135
56 87
56 9
76 157
171 28
68 43
68 63
68 43
68 63
71 27
71 27
157 65
43 65
127 137
73 37
73 37
23 156
23 156
103 9
80 23
130 165
156 7
23 156
68 97
68 167
23 156
167 65
167 43
91 146
91 24
33 5
39 5
39 130
146 91
146 63
146 167
63 97
63 43
63 65
142 2
56 103
2 142
56 9
94 63
142 2
103 56
73 45
153 91
65 157
127 86
141 86
141 86
167 68
80 23
61 58
23 80
57 24
127 165
73 58
56 9
56 89
56 135
56 168
58 73
36 7
36 140
73 45
73 58
58 73
61 73
61 117
61 58
91 24
63 94
63 106
9 56
9 89
7 36
45 73
36 7
65 148
36 140
157 63
157 63
57 94
57 146
57 63
35 104
155 152
155 44
97 65
97 78
28 164
28 171
28 123
28 164
28 171
28 123
111 103
63 94
63 24
63 146
63 57
94 146
91 94
91 24
2 142
24 63
63 157
24 153
24 91
30 24
24 30
24 142
24 153
24 40
24 153
24 40
30 24
142 24
142 24
24 142
24 142
24 30
24 91
24 153
24 2
24 142
24 91
142 24
142 2
24 142
57 94
24 43
56 111
24 10
24 10
24 91
156 126
156 46
156 23
156 152
156 44
165 137
165 39
86 14
86 3
86 35
33 5
33 82
119 28
146 68
2 142
170 65
66 154
122 119
75 134
148 65
111 56
117 37
146 63
63 157
78 65
37 117
63 157
45 73
167 63
9 132
33 5
78 76
18 2
18 24
119 28
56 111
56 111
119 122
64 83
2 18
153 63
5 64
24 153
63 113
24 18
140 27
140 156
140 126
140 7
140 80
140 155
140 46
140 69
140 36
140 51
140 152
140 44
140 11
140 71
137 82
137 104
137 141
137 47
137 3
137 39
28 122
35 104
86 127
97 65
122 119
122 28
66 154
78 97
122 163
97 78
68 146
68 167
127 52
35 104
127 66
127 33
165 86
24 30
63 24
63 24
63 106
142 24
63 157
142 2
24 30
56 85
24 30
24 30
10 94
63 68
24 142
24 91
24 91
142 24
24 142
24 91
24 91
24 2
153 24
153 40
153 63
141 86
80 23
91 24
141 130
33 5
46 152
130 64
142 24
127 141
127 165
9 132
150 58
154 66
156 23
63 68
157 24
35 104
91 24
28 122
35 104
40 24
40 153
71 27
122 28
140 7
140 11
111 103
103 111
111 103
23 140
140 23
36 140
127 141
127 165
39 5
39 130
153 24
153 40
43 148
27 11
27 7
27 46
27 36
27 71
148 65
5 39
40 24
40 153
97 24
71 27
7 27
10 63
142 24
63 68
153 24
153 40
153 24
153 40
153 24
153 40
142 91
142 2
142 24
153 24
24 2
24 142
24 91
24 2
24 91
24 142
24 142
65 43
65 91
65 24
24 153
24 40
24 142
24 142
24 157
24 2
24 91
24 65
24 91
24 91
24 153
24 63
24 91
24 153
63 142
63 24
63 153
135 56
142 24
27 46
150 58
43 65
130 33
146 167
140 27
140 156
140 126
140 7
140 80
140 155
140 46
140 69
140 36
140 51
140 152
140 44
140 11
140 71
153 24
63 65
45 99
111 56
111 85
27 71
73 45
73 58
3 82
3 104
3 141
3 47
3 86
3 35
156 80
156 23
5 60
2 142
2 142
2 91
2 24
68 146
68 167
2 24
146 65
165 130
167 68
153 63
134 169
134 70
134 164
134 163
134 171
134 119
134 122
134 161
134 0
134 98
134 123
134 28
134 147
134 114
134 145
134 75
134 144
33 5
68 97
68 167
167 97
85 111
85 56
40 24
40 153
37 45
37 73
45 73
56 111
97 68
97 167
56 89
111 56
111 85
97 167
40 153
86 52
130 82
39 104
56 168
56 135
3 39
66 52
56 9
56 89
27 155
153 40
140 7
140 36
140 11
140 11
37 117
37 45
117 73
167 43
82 3
153 24
153 40
35 104
68 167
111 103
137 165
157 24
35 52
51 27
30 24
169 171
43 167
24 157
24 153
24 40
24 10
24 10
24 10
24 91
24 63
24 59
24 91
24 63
24 91
24 153
24 30
24 91
24 142
24 2
33 5
33 14
165 39
45 73
153 91
153 24
153 40
153 91
153 24
153 40
153 24
23 156
23 156
122 119
122 164
130 165
164 122
164 122
171 169
111 103
146 24
64 141
63 153
122 163
63 153
63 153
163 164
157 146
63 153
157 146
63 65
94 63
63 113
87 9
85 56
91 24
91 24
91 24
56 85
56 103
56 168
56 87
56 9
56 103
97 65
9 56
63 43
91 2
146 68
146 167
91 24
91 24
63 106
63 94
63 94
63 153
119 75
122 28
87 9
140 36
87 56
140 155
140 71
71 27
91 24
35 104
68 146
91 24
91 153
91 40
68 167
91 63
91 24
91 59
153 91
153 24
153 40
91 63
91 24
91 24
91 153
91 40
9 87
9 103
91 63
103 111
164 122
91 24
3 39
91 24
43 148
127 137
40 91
40 24
40 153
40 10
73 37
40 24
73 117
142 2
146 94
94 146
146 94
24 43
24 40
24 153
40 153
24 94
94 24
111 85
24 167
24 59
169 171
40 153
40 24
40 153
24 153
24 40
24 91
24 146
24 91
58 150
99 105
75 119
23 80
146 24
57 24
57 63
33 5
47 3
3 47
150 117
45 58
85 111
117 150
37 117
37 45
142 91
142 24
140 7
140 155
140 46
140 36
140 51
140 152
140 44
140 11
140 71
56 87
45 58
63 106
94 24
87 56
63 57
57 63
63 91
91 63
91 59
91 24
63 91
63 24
63 59
56 87
123 164
63 118
63 91
63 76
63 24
63 153
57 63
57 63
24 91
24 146
27 71
24 94
24 94
24 63
63 57
24 63
24 153
119 75
146 24
146 68
146 167
63 157
75 119
27 71
24 40
117 37
63 157
24 146
117 73
153 24
24 153
24 91
37 117
111 103
9 56
153 24
24 63
24 153
153 40
46 152
153 24
24 153
146 68
146 167
146 57
23 80
40 24
40 153
10 24
9 56
10 118
10 24
23 80
142 24
56 9
24 10
24 91
24 142
10 24
148 65
91 24
142 91
142 24
142 24
71 27
9 56
71 27
71 27
24 142
24 91
24 142
24 10
24 10
24 91
24 142
24 91
24 91
142 24
142 91
142 24
142 91
142 24
142 24
24 142
24 142
24 2
24 142
63 91
63 24
63 24
63 91
63 24
63 153
63 91
63 24
63 153
24 91
24 63
153 24
10 24
24 10
24 91
10 24
24 142
24 10
142 24
153 24
24 142
24 63
43 167
40 153
45 37
45 73
80 23
80 23
103 56
23 80
80 23
163 164
163 122
43 24
39 82
39 104
39 47
39 3
127 66
127 154
43 78
127 52
66 33
52 127
97 24
156 80
156 23
23 156
23 126
23 7
23 46
23 152
23 44
56 103
23 44
23 80
44 23
56 111
122 163
66 52
87 89
97 94
24 91
80 23
66 92
91 142
91 24
24 91
24 91
91 24
91 142
91 24
24 94
24 43
24 78
24 59
24 10
24 91
24 142
24 63
24 59
24 91
24 94
91 24
91 63
94 97
94 24
24 97
142 91
142 24
24 91
37 45
24 91
24 142
146 24
24 91
91 142
24 146
82 137
82 104
82 47
82 3
82 39
82 33
167 43
58 45
45 58
142 24
3 52
43 65
97 94
147 75
141 64
24 94
155 80
24 142
2 91
24 2
24 142
56 111
56 87
56 9
56 103
65 148
65 148
23 44
65 43
56 9
56 9
40 91
9 56
9 56
167 24
56 9
2 24
24 2
24 167
24 40
24 153
24 97
24 146
36 140
127 141
127 165
146 24
45 73
127 3
97 78
3 52
140 27
140 156
140 126
140 7
140 80
140 155
140 46
140 69
140 36
140 51
140 152
140 44
140 11
140 71
86 127
164 163
43 68
80 44
122 119
57 146
57 63
91 24
140 27
140 156
140 126
140 7
140 80
140 155
140 46
140 69
140 36
140 51
140 152
140 44
140 11
140 71
44 156
44 156
127 141
127 165
127 141
94 24
97 113
56 121
146 97
119 122
75 147
130 165
45 58
37 45
152 155
37 45
130 64
78 157
64 130
23 80
64 130
73 37
94 97
97 94
155 27
155 152
155 27
155 152
146 91
146 24
146 57
146 76
127 141
10 91
10 24
10 153
10 40
44 80
35 104
68 43
68 63
56 9
9 103
142 24
68 43
68 63
80 23
80 23
80 44
2 91
2 24
87 56
56 103
24 153
24 40
24 142
24 153
24 153
24 91
24 91
24 40
121 56
156 126
156 46
156 23
156 152
156 44
56 121
56 9
56 87
9 56
127 141
39 82
39 137
39 47
122 119
44 80
157 63
157 146
165 130
157 94
80 44
157 146
97 24
97 157
68 43
68 63
157 97
97 157
130 64
91 106
94 10
86 165
73 37
39 141
127 141
119 122
91 153
68 97
68 167
91 24
3 47
56 9
97 68
97 167
148 65
146 68
45 37
45 73
146 157
3 47
23 156
45 150
157 146
148 65
167 68
167 146
23 156
146 157
157 78
94 24
103 56
103 168
103 87
103 9
85 56
104 86
94 10
87 56
35 52
85 111
91 142
91 24
91 142
91 24
142 91
142 24
142 24
142 24
91 2
91 142
91 24
91 24
24 142
24 142
24 91
2 91
142 24
24 97
142 91
24 142
24 97
24 167
24 63
24 153
24 94
24 78
24 59
24 10
142 24
24 63
24 142
142 24
142 153
56 9
87 56
87 9
24 142
24 91
24 91
24 59
24 91
24 59
24 10
68 146
68 167
163 164
163 122
45 37
142 24
9 56
153 76
153 63
153 65
2 30
153 10
52 35
78 157
2 18
24 146
86 130
35 52
73 150
68 146
68 167
111 56
111 85
130 86
43 10
24 40
56 87
137 104
137 141
137 47
68 63
68 43
154 52
94 24
94 146
94 157
24 94
94 24
46 152
46 152
46 152
46 152
153 24
91 142
114 28
142 91
91 2
91 142
91 142
28 171
122 163
142 91
146 91
146 63
52 35
152 156
82 3
171 28
156 80
156 23
171 28
171 28
171 28
63 91
63 106
63 65
24 63
24 167
85 56
85 56
65 97
65 63
56 111
56 85
56 89
56 111
56 85
56 89
56 85
28 114
24 153
24 63
24 91
24 142
24 124
24 2
97 10
24 142
24 94
2 24
142 91
24 2
24 91
24 91
24 142
24 2
24 40
2 24
52 154
82 52
2 24
140 46
140 36
140 152
140 11
140 71
91 24
91 153
91 24
167 65
167 43
157 146
156 126
156 46
156 23
156 152
156 44
122 163
56 135
152 46
2 142
9 56
35 104
56 89
56 89
56 9
58 73
58 150
63 68
63 43
94 24
73 58
23 80
73 150
156 23
163 164
80 23
7 156
156 23
127 141
127 165
23 156
141 14
66 52
9 56
9 103
24 94
24 78
24 59
24 10
94 24
24 94
94 24
14 82
80 156
80 23
63 157
63 153
63 106
63 106
63 68
63 43
63 157
94 24
94 153
94 97
142 24
30 24
142 2
2 142
63 153
24 30
24 142
63 153
165 39
63 65
63 157
63 146
63 94
153 24
153 94
23 80
130 52
130 60
23 156
37 45
117 73
39 165
47 141
27 155
165 127
170 65
68 63
117 73
68 63
165 137
39 82
39 137
39 104
39 47
39 3
111 89
82 3
80 23
44 23
23 44
7 80
23 156
156 23
28 134
28 164
28 163
28 171
28 122
28 161
28 0
28 123
28 147
28 114
28 75
28 128
3 82
3 137
3 104
3 141
3 47
3 86
3 39
87 89
76 63
58 117
7 80
63 24
94 24
94 153
154 66
122 163
27 155
27 46
94 146
80 27
27 80
2 18
87 56
87 132
56 87
63 153
56 87
63 94
63 153
153 63
2 24
87 56
56 111
56 85
56 89
56 87
63 94
28 122
33 5
33 5
27 71
23 156
23 80
156 23
140 11
43 167
153 63
153 94
40 153
167 65
167 43
153 40
153 40
63 91
63 153
94 63
94 153
63 91
63 153
94 63
63 65
9 87
45 37
68 63
146 68
94 63
146 94
134 119
134 114
122 119
63 68
63 153
63 91
63 43
63 153
63 65
80 23
56 103
56 89
56 87
56 9
56 103
56 87
56 9
56 103
37 45
123 119
119 28
28 171
127 141
127 141
127 141
127 141
45 37
23 156
148 68
45 37
117 37
37 117
37 45
37 45
23 80
23 44
97 65
94 146
94 146
23 156
147 28
28 147
56 111
117 37
37 117
145 171
103 111
27 155
86 14
86 3
86 35
65 106
65 76
65 76
146 65
63 43
65 43
23 156
23 44
137 165
9 103
33 5
33 82
33 82
82 3
10 40
103 9
9 103
44 23
44 23
63 153
63 65
47 3
63 153
65 78
94 63
103 9
63 106
9 56
146 63
63 157
63 106
9 56
148 43
43 63
43 65
40 10
111 56
111 56
63 94
63 94
91 142
91 142
56 111
56 111
56 9
56 9
91 24
91 142
9 56
56 9
91 24
153 91
153 24
153 63
153 63
153 63
142 91
153 91
153 24
153 63
153 65
91 2
142 91
94 78
154 66
165 5
165 141
165 60
165 130
63 91
63 24
63 153
63 65
91 142
80 23
91 153
91 142
33 66
52 66
52 154
28 161
28 147
28 145
167 146
92 86
117 37
44 126
58 37
37 117
155 27
153 91
153 63
153 24
68 63
68 97
68 167
97 68
97 167
45 37
45 73
82 52
153 91
58 37
140 27
140 156
140 126
140 7
140 80
140 155
140 46
140 69
140 36
140 51
140 152
140 44
140 11
140 71
52 66
52 154
33 86
33 130
37 45
37 45
37 73
154 52
154 66
142 91
91 63
63 91
63 43
63 153
63 65
63 118
63 91
63 43
63 153
63 91
63 43
63 153
63 65
86 141
91 24
91 59
91 153
39 137
39 86
39 130
40 142
40 2
40 24
24 91
24 63
24 153
24 63
24 91
24 153
24 65
24 10
2 40
56 111
56 89
56 111
56 85
56 89
94 24
94 153
72 86
72 35
130 86
103 9
78 68
148 65
82 86
66 52
66 86
47 86
57 94
52 35
137 86
33 5
33 82
33 66
153 2
153 142
156 23
91 146
23 156
82 3
91 63
86 35
68 78
5 86
78 68
98 164
68 78
9 103
33 130
78 65
43 63
9 103
9 103
35 86
155 80
33 130
60 86
76 65
43 63
43 65
130 33
58 150
3 86
154 52
154 86
23 156
140 7
140 155
140 46
140 69
140 152
140 44
140 11
140 71
33 82
103 111
33 5
140 27
140 156
140 126
140 7
140 80
140 155
140 46
140 69
140 36
140 51
140 152
140 44
140 11
140 71
165 52
52 60
111 89
165 52
66 154
65 148
65 148
65 97
146 65
167 63
167 94
167 43
146 65
94 63
146 91
65 153
111 89
65 97
104 86
104 35
43 65
43 65
103 56
103 168
103 87
103 9
9 56
9 168
9 87
9 103
56 111
56 85
56 89
24 91
80 23
80 44
130 33
44 80
103 56
103 168
103 87
103 9
153 63
140 27
140 156
140 126
140 7
140 80
140 155
140 46
140 69
140 36
140 51
140 152
140 44
140 11
140 71
86 165
46 152
165 86
43 63
43 94
43 167
99 45
127 141
127 165
130 82
148 65
85 56
27 155
134 114
27 155
10 40
56 103
15 10
97 167
10 43
10 94
10 63
10 167
28 123
28 123
103 56
92 52
103 56
9 56
167 97
56 103
97 167
103 56
103 168
103 87
103 9
103 56
103 168
103 87
103 9
7 140
40 10
91 24
91 59
167 97
103 89
103 89
9 103
97 167
97 146
103 9
9 103
5 165
167 97
167 97
10 40
91 24
40 10
80 44
56 85
78 76
24 91
153 24
153 40
142 2
2 142
157 63
153 24
153 91
164 123
142 40
91 24
91 24
91 24
146 148
146 97
146 43
63 153
63 91
63 24
63 153
63 157
142 24
63 91
63 24
63 153
63 91
63 24
63 153
63 91
63 24
63 153
24 142
24 10
63 153
63 91
63 24
63 146
24 94
24 78
24 59
24 10
24 94
24 78
24 59
24 10
24 91
24 91
63 94
63 24
63 153
63 91
63 24
94 24
63 68
63 153
63 153
24 91
40 153
40 24
40 142
24 142
24 2
24 94
24 94
94 24
24 91
91 153
91 24
91 63
24 91
24 94
24 10
91 24
24 91
91 24
24 2
24 91
24 142
24 124
24 2
142 2
142 24
2 142
111 132
111 103
80 51
63 91
63 153
63 24
122 164
122 147
122 163
63 106
103 56
68 63
163 164
163 122
146 91
146 63
146 24
63 106
56 103
56 135
56 111
56 85
56 89
33 130
103 111
28 147
28 114
63 91
63 24
63 146
28 147
28 114
51 27
122 163
76 63
85 56
140 7
63 76
155 27
137 165
63 76
63 94
63 106
157 63
97 167
148 65
28 134
28 134
65 63
153 91
153 24
153 63
63 153
155 152
153 63
63 106
146 65
146 63
63 65
63 91
63 24
63 153
28 134
28 123
91 24
91 153
91 63
57 63
91 153
91 63
91 24
91 113
91 24
65 106
153 91
153 63
153 24
153 91
153 24
153 63
65 97
65 106
65 167
137 165
91 142
3 137
127 137
170 157
153 40
146 157
111 103
165 52
45 58
45 37
45 73
45 150
150 45
63 106
37 45
155 80
155 27
97 65
63 24
65 157
77 7
163 122
165 137
157 65
39 165
148 97
43 65
23 156
23 80
56 135
146 68
157 63
46 27
56 85
56 135
72 35
72 165
142 24
63 91
63 24
63 153
63 65
63 91
63 24
63 153
63 65
63 65
63 91
63 24
63 153
63 91
63 153
148 65
63 153
63 153
142 2
142 153
56 9
91 153
91 24
91 63
91 24
2 142
2 24
2 142
2 153
80 23
127 137
23 156
137 82
137 104
137 141
137 47
137 3
137 39
140 36
103 132
127 137
121 56
56 89
147 119
157 65
63 91
63 153
63 24
142 124
65 76
142 2
142 153
167 157
163 122
157 167
157 146
122 163
153 142
153 2
163 164
163 122
153 63
153 91
142 91
142 2
142 24
137 64
142 91
142 24
140 80
103 111
140 155
140 36
140 44
140 11
140 71
28 134
28 134
142 2
142 153
28 134
10 40
52 60
2 142
2 153
156 80
156 23
10 24
140 80
140 27
140 156
140 126
140 7
140 80
140 155
140 46
140 69
140 36
140 51
140 152
140 44
140 11
140 71
157 146
146 68
146 167
156 23
65 57
127 141
146 63
146 91
43 65
43 167
157 63
43 167
153 142
153 2
153 94
153 63
153 91
153 94
153 63
86 137
86 52
86 5
86 14
86 60
86 127
86 35
86 165
86 130
33 130
24 2
155 156
2 24
56 85
85 56
65 43
56 111
56 85
68 146
28 171
28 119
63 91
63 24
63 106
142 24
63 91
63 153
135 87
87 135
63 106
127 52
63 106
56 85
127 141
43 167
65 97
135 87
47 39
47 82
47 104
47 125
63 153
87 135
37 73
43 167
155 126
65 170
122 163
28 145
28 134
56 111
56 89
56 111
56 85
56 89
43 57
43 65
63 146
167 43
63 153
63 2
63 153
127 130
5 82
5 47
5 3
5 33
5 130
127 141
127 137
65 97
43 167
63 91
63 153
63 65
43 167
7 162
111 103
24 146
24 63
24 91
24 2
24 153
56 111
56 85
56 89
24 10
24 2
153 63
24 91
153 24
24 63
24 142
24 142
24 91
24 153
2 24
24 2
24 153
153 24
24 153
56 111
56 85
2 24
153 24
24 142
24 153
153 24
24 153
24 142
142 24
24 153
24 142
24 142
24 142
24 40
153 24
40 24
153 24
24 153
24 91
24 91
72 35
24 40
111 56
111 85
111 89
39 86
56 89
63 91
63 153
63 65
76 65
63 24
45 37
37 45
68 146
68 167
56 111
56 85
56 89
56 111
56 85
56 89
63 91
63 24
45 150
150 45
76 65
56 111
56 85
56 89
57 43
28 171
28 122
56 111
56 85
56 89
63 91
63 24
63 153
63 65
43 106
63 91
63 24
63 153
63 65
91 146
46 152
63 91
63 153
63 65
63 91
63 24
63 153
63 65
140 27
140 156
140 126
140 7
140 80
140 155
140 46
140 69
140 36
140 51
140 152
140 44
140 11
140 71
24 63
24 59
141 86
146 24
167 43
24 146
154 52
66 52
56 9
155 80
155 44
142 2
142 24
24 142
7 27
146 24
24 63
24 91
24 146
146 24
146 68
24 63
24 91
24 153
24 65
24 91
24 91
24 142
24 30
24 124
30 24
142 24
91 24
91 24
68 63
137 104
124 24
156 23
24 91
24 91
122 98
28 164
137 82
137 104
137 141
137 47
137 3
137 39
97 65
97 148
122 98
122 134
98 134
146 63
65 148
24 124
124 24
170 65
24 124
146 68
24 63
24 94
24 78
24 59
24 10
124 24
122 164
28 134
28 164
28 163
28 171
28 122
28 161
28 0
28 123
28 147
28 114
28 75
28 128
63 94
63 24
63 78
63 59
63 10
10 59
39 82
39 137
39 104
39 47
39 3
7 80
82 83
52 66
52 154
5 33
63 91
63 24
33 66
39 47
167 68
91 59
146 91
146 24
146 57
146 76
63 91
63 153
63 91
63 153
91 63
91 153
146 91
146 10
45 73
165 52
165 35
114 28
63 91
63 76
63 24
63 153
63 65
63 91
63 153
63 153
65 91
65 63
63 91
63 24
91 63
91 24
63 153
63 91
63 153
63 91
63 65
63 76
63 24
87 89
65 43
43 157
63 91
63 106
56 111
56 85
56 89
63 94
94 63
94 146
63 94
63 94
24 63
63 24
63 76
63 65
63 24
24 91
24 91
24 63
24 63
157 63
24 91
94 63
24 91
24 2
24 91
24 63
24 153
24 40
24 94
24 30
24 2
91 63
91 24
56 9
91 24
91 63
91 97
91 76
91 153
91 63
91 65
91 76
91 63
91 63
91 153
91 24
91 40
91 24
91 2
91 153
91 142
91 24
24 91
24 142
24 91
24 54
24 91
24 153
24 40
142 91
142 24
40 24
24 40
24 54
24 142
24 91
63 91
63 24
24 91
24 63
153 40
153 24
24 40
24 153
153 24
153 40
153 24
153 91
153 24
153 40
24 91
24 153
24 40
9 56
24 59
24 91
24 63
2 91
24 124
24 43
142 91
142 24
24 153
24 142
24 91
153 24
91 63
153 24
153 91
153 63
153 91
153 91
153 63
91 153
91 24
91 40
153 91
153 24
153 40
153 24
91 63
91 24
24 91
24 153
24 40
91 2
91 2
164 123
40 91
153 24
153 40
80 7
80 44
30 24
24 30
44 80
154 127
30 24
43 24
80 44
2 91
2 91
2 24
65 148
2 24
7 80
65 43
39 47
127 86
9 56
51 80
7 27
76 63
148 157
56 87
56 135
85 111
9 56
65 148
157 148
2 124
65 148
65 148
91 24
122 134
130 141
157 65
148 157
82 33
47 39
47 82
65 148
65 148
65 148
170 65
65 148
3 82
3 47
3 86
65 148
82 83
82 33
97 65
97 78
3 154
65 148
135 56
140 36
78 97
163 122
65 148
27 140
91 63
60 52
91 24
91 59
60 52
63 153
85 56
170 148
146 91
24 43
24 2
24 91
63 91
63 24
122 163
2 24
122 28
167 65
167 43
24 91
24 63
167 65
167 43
77 7
33 82
24 91
33 82
154 3
5 33
33 14
24 2
24 2
2 24
27 155
27 152
146 68
43 148
43 106
170 148
43 170
56 111
56 85
56 89
56 9
10 167
28 122
86 14
86 3
86 35
47 39
47 82
47 137
47 104
47 125
10 157
97 91
97 63
97 76
148 65
146 43
28 98
76 94
63 91
94 76
148 157
63 91
155 27
76 94
156 155
157 148
27 155
27 152
137 127
155 80
155 44
27 71
94 76
2 10
127 141
141 127
94 24
137 127
3 64
47 137
47 125
142 91
142 2
82 33
148 57
57 148
57 43
111 103
65 148
65 148
91 76
91 24
91 63
91 63
65 148
91 59
71 27
9 56
43 167
91 63
91 2
91 24
63 106
63 106
63 106
63 106
63 106
2 91
167 65
167 43
167 146
97 146
68 146
142 24
142 146
63 146
43 146
135 56
117 73
103 111
152 155
152 27
86 165
140 7
140 36
140 11
140 7
65 63
153 146
65 97
65 97
65 97
65 97
146 68
146 97
65 97
165 52
165 14
165 60
165 35
165 130
157 10
46 152
27 155
27 152
169 171
91 2
91 142
2 124
155 27
85 56
56 111
56 85
56 89
153 91
153 63
153 24
63 91
63 76
63 65
146 148
146 68
146 167
43 167
28 147
63 153
117 73
68 97
68 167
123 164
43 57
65 148
56 111
56 85
56 89
56 9
39 137
39 141
39 165
91 24
91 24
167 68
167 97
167 65
167 43
45 37
45 73
169 171
167 65
167 43
97 68
97 167
51 27
91 24
91 153
91 153
91 24
91 40
153 91
153 24
153 91
37 45
37 73
37 45
68 97
68 167
91 24
91 24
91 153
86 52
91 153
153 91
153 24
153 91
78 146
140 27
140 156
140 126
140 7
140 80
140 155
140 46
140 69
140 36
140 51
140 152
140 44
140 11
140 71
167 68
167 97
57 146
57 146
2 124
56 111
56 85
56 85
56 121
165 86
56 89
56 85
165 39
142 24
57 63
56 135
91 153
24 91
24 142
124 24
24 91
24 153
24 124
153 91
153 24
142 24
24 91
24 153
24 146
24 146
24 94
24 91
24 142
24 124
24 2
24 40
24 2
24 142
24 91
24 153
24 91
24 91
80 156
154 82
86 137
2 142
2 124
2 24
2 40
76 170
154 66
146 24
123 164
142 24
117 73
142 124
142 2
142 24
142 40
47 137
47 104
47 3
122 119
91 24
91 59
91 63
163 122
167 68
167 146
91 40
91 142
91 30
91 124
91 24
91 54
91 40
91 24
91 146
142 91
142 24
91 142
91 24
9 135
85 56
119 122
66 154
140 27
140 156
140 126
140 7
140 80
140 155
140 46
140 69
140 36
140 51
140 152
140 44
140 11
140 71
94 24
2 142
2 124
2 24
2 40
45 73
140 7
142 124
142 2
142 24
142 40
91 153
91 24
52 82
137 82
103 9
167 68
167 146
82 104
140 36
56 85
68 146
68 167
122 163
163 122
146 167
146 94
71 27
146 68
146 167
165 137
165 141
165 127
165 35
165 39
124 142
124 2
124 24
124 40
91 94
91 157
91 63
91 24
91 153
91 24
91 63
91 97
91 76
2 142
2 124
2 24
2 40
124 142
124 2
124 24
124 40
124 24
91 153
91 94
91 2
91 2
91 24
91 153
91 24
91 63
121 56
121 85
121 89
23 69
24 91
24 142
24 142
24 2
24 91
24 142
24 94
24 142
24 124
24 2
24 40
24 142
91 24
24 91
24 91
24 153
24 10
33 64
130 13
30 91
137 82
137 104
137 141
137 47
137 3
137 39
153 91
142 24
76 63
140 27
140 156
140 126
140 7
140 80
140 155
140 46
140 69
140 36
140 51
140 152
140 44
140 11
140 71
146 94
130 165
52 35
146 76
146 76
56 135
56 121
56 89
58 150
73 45
111 56
65 148
140 80
150 58
60 165
155 80
155 44
154 60
91 30
124 91
124 59
163 122
167 68
165 86
167 68
163 122
5 165
56 135
35 165
35 72
35 104
35 127
35 86
165 5
30 146
54 30
54 124
54 91
54 2
54 142
54 24
54 40
54 30
54 124
54 91
54 2
54 142
54 24
54 40
127 35
127 165
46 27
24 91
2 124
2 142
2 24
2 54
2 40
35 104
52 165
35 165
35 86
35 104
142 54
78 97
78 97
78 97
124 2
170 43
170 76
170 65
2 124
2 142
2 24
2 40
124 142
124 2
124 24
124 40
2 142
2 124
2 24
2 40
124 2
124 142
124 2
124 24
124 40
2 124
2 142
2 24
2 40
124 142
124 2
124 24
124 40
124 142
124 2
124 24
124 54
124 40
54 124
54 2
54 142
54 24
10 40
24 54
2 124
2 124
2 142
2 54
24 10
24 10
124 142
124 2
124 54
24 10
2 142
2 124
2 54
2 124
124 142
124 2
124 54
124 142
124 2
124 40
43 148
43 91
2 142
2 124
2 40
10 24
10 24
10 24
24 10
24 10
24 142
24 94
24 78
24 59
24 10
24 124
10 40
142 124
142 2
142 54
142 2
2 142
124 142
124 2
2 124
2 124
2 142
124 2
124 142
124 2
124 2
2 124
30 24
39 82
39 137
39 47
39 3
39 35
39 165
130 165
148 91
76 78
76 65
127 137
153 24
153 40
14 165
153 24
153 40
7 27
146 91
146 148
3 82
3 137
3 104
3 141
3 47
3 86
3 39
3 154
148 146
167 10
87 89
157 146
124 2
24 30
154 66
2 124
24 91
24 91
122 164
122 28
153 40
114 28
28 122
24 10
148 91
24 78
65 43
43 170
65 43
153 24
153 40
66 154
122 28
78 24
65 97
65 78
28 122
153 24
153 40
146 78
80 140
170 65
24 78
78 65
78 24
58 73
91 24
91 24
51 80
142 24
140 156
140 7
140 36
140 51
140 152
140 11
28 164
140 36
65 97
155 80
155 44
127 141
14 165
164 28
164 163
65 97
65 76
65 78
5 165
164 122
164 134
27 71
97 65
28 164
27 71
86 165
146 91
146 24
146 15
24 15
27 7
65 43
65 148
167 43
78 97
97 78
165 5
2 124
87 56
142 24
157 65
7 27
170 65
56 87
142 24
80 27
30 24
148 43
148 65
43 65
43 167
10 167
94 91
10 40
94 24
10 40
10 40
94 24
94 10
10 167
39 137
39 5
39 141
39 127
39 165
43 106
130 52
78 146
78 146
115 52
68 146
68 167
140 27
140 156
140 126
140 7
140 80
140 155
140 46
140 69
140 36
140 51
140 152
140 44
140 11
140 71
163 122
157 146
10 146
24 30
58 45
58 45
167 10
135 56
135 89
91 30
91 124
91 2
91 142
91 24
91 54
91 40
10 94
164 28
91 63
91 24
80 44
91 148
91 146
91 148
57 63
57 146
57 43
130 52
24 94
157 57
24 91
46 27
94 10
150 58
146 91
82 3
148 91
142 91
82 137
52 115
146 142
146 30
146 124
24 146
65 43
146 24
142 91
142 24
82 86
39 165
43 65
78 146
65 148
146 78
130 64
156 7
2 124
65 148
10 167
27 7
27 46
27 36
27 71
130 165
75 28
148 65
9 56
127 141
28 75
148 30
148 124
7 27
57 43
63 153
137 130
75 147
63 106
63 153
46 27
30 24
115 52
54 124
54 91
54 2
54 142
54 24
124 91
124 142
124 2
124 24
124 54
54 124
54 91
54 59
54 24
153 24
146 91
146 59
146 54
36 27
148 43
65 106
65 43
63 153
122 28
137 82
137 104
137 141
137 47
137 3
137 39
82 137
35 52
28 122
27 140
27 80
54 146
54 30
54 124
54 91
54 142
54 24
54 40
91 30
91 124
91 146
52 115
146 54
82 52
82 35
63 76
63 76
63 153
142 24
65 76
155 80
122 28
155 80
155 44
141 165
28 122
122 28
167 43
130 82
28 122
153 24
153 40
153 91
153 63
153 24
153 65
56 135
56 135
56 135
146 68
146 167
56 89
33 5
33 82
85 56
140 7
140 36
140 51
140 152
140 44
140 11
140 71
33 5
33 82
40 24
40 153
33 5
33 5
43 167
63 153
167 10
124 54
63 97
63 106
30 54
97 63
63 97
167 43
63 118
94 24
94 24
54 146
54 30
54 124
30 54
124 54
167 10
124 2
2 124
124 2
2 124
124 2
2 124
24 142
24 91
24 91
24 2
24 40
24 30
24 54
24 124
24 2
24 30
24 124
24 91
24 142
24 54
24 40
24 142
24 153
24 94
24 94
24 142
24 142
24 91
24 91
24 91
24 94
24 91
154 66
154 66
146 68
142 24
52 130
170 65
65 170
2 124
2 142
2 24
2 24
2 40
157 166
37 73
73 37
146 63
146 24
157 63
148 43
167 65
167 43
170 65
165 137
56 135
56 121
56 89
71 27
65 148
54 124
54 24
54 24
148 65
97 10
142 2
142 54
142 54
142 24
156 23
167 68
54 142
54 142
86 165
86 165
141 165
142 54
24 142
24 2
24 2
2 124
2 142
2 24
2 40
2 24
86 165
142 24
142 2
24 124
24 2
24 146
63 153
24 54
63 153
24 54
24 142
24 2
63 157
24 142
63 91
63 24
63 153
63 65
43 148
157 63
54 142
24 2
43 148
37 73
37 58
54 24
63 106
54 24
54 146
56 135
2 24
142 54
24 54
24 2
10 24
10 40
10 40
82 60
56 85
10 153
142 24
63 153
63 153
24 10
63 118
24 124
24 2
24 142
24 40
54 24
94 10
56 121
40 10
153 63
153 63
153 10
91 153
91 10
91 153
91 24
91 59
91 2
91 24
91 54
91 30
91 124
91 142
91 24
91 54
91 15
91 40
91 63
91 63
91 63
91 59
91 2
10 94
91 142
10 153
10 40
91 2
91 124
24 91
10 91
91 24
91 24
24 91
24 10
10 97
10 24
10 157
130 64
130 64
157 10
60 82
2 91
163 122
163 123
37 117
37 73
82 60
65 157
124 91
103 85
150 58
27 140
27 80
142 91
142 24
146 91
28 134
28 164
28 163
28 171
28 119
28 122
28 161
28 0
28 98
28 123
28 147
28 114
28 75
28 128
39 82
170 65
122 163
146 76
3 104
87 56
153 24
169 171
140 27
140 156
140 126
140 7
140 80
140 155
140 46
140 69
140 36
140 51
140 152
140 44
140 11
140 71
56 85
78 170
78 65
7 44
63 153
56 87
44 7
114 119
10 157
10 153
146 76
68 63
10 40
76 146
3 104
10 24
165 86
65 78
91 2
33 130
91 43
91 148
2 91
91 24
91 24
91 153
82 39
10 167
10 167
91 24
82 137
137 82
91 153
10 24
91 124
156 23
91 146
91 10
91 24
91 153
91 40
124 91
73 150
148 157
170 78
10 91
10 94
28 164
65 97
65 78
92 137
170 65
65 170
65 153
9 87
82 137
63 68
115 52
91 10
27 155
63 68
56 111
148 91
148 76
155 27
155 152
137 82
87 56
63 153
63 153
63 91
142 15
63 68
157 65
56 87
56 9
56 85
27 51
137 82
10 91
10 153
54 30
54 124
54 91
54 2
54 142
54 24
54 40
164 70
82 137
124 54
54 30
54 124
54 91
54 2
54 142
54 24
54 40
2 54
56 9
142 30
142 124
142 91
142 2
142 24
142 54
142 40
142 10
10 142
54 124
10 40
10 97
10 24
10 40
40 10
137 82
82 137
124 54
157 63
24 30
24 124
24 91
24 2
24 142
24 54
24 40
24 91
24 153
24 142
124 24
63 24
63 10
148 170
10 94
10 97
10 24
10 40
24 124
24 94
124 24
24 91
24 91
24 91
24 54
142 91
142 24
142 24
54 124
15 142
24 142
142 24
142 15
24 142
24 142
24 91
24 142
142 24
142 24
10 40
56 121
30 24
140 27
140 156
140 126
140 7
140 80
140 155
140 46
140 69
140 36
140 51
140 152
140 44
140 11
140 71
165 52
165 60
111 56
135 56
56 89
165 137
27 46
46 27
46 27
156 23
155 27
155 152
71 27
169 171
142 2
23 156
33 5
33 82
82 3
163 122
152 156
152 7
152 46
152 23
152 44
46 152
130 14
152 156
152 7
152 46
152 23
152 44
152 126
56 111
56 135
14 165
75 147
156 11
5 83
5 33
140 27
140 156
140 126
140 7
140 80
140 155
140 46
140 69
140 36
140 51
140 152
140 44
140 11
140 71
103 111
155 140
155 27
155 156
155 140
155 126
155 7
155 80
155 46
155 69
155 36
155 51
155 152
155 44
155 11
155 71
155 71
56 67
140 46
140 36
140 51
140 152
140 44
140 11
140 71
111 103
103 111
80 44
52 60
52 60
52 60
73 37
9 56
40 153
66 60
52 66
52 154
63 76
63 153
97 65
97 170
170 97
56 85
54 30
54 124
54 91
54 2
54 142
54 24
54 146
54 40
80 156
80 23
153 63
30 91
153 24
153 40
153 63
10 146
10 24
10 24
56 9
56 87
2 142
146 10
167 43
65 170
65 170
65 170
33 5
5 82
5 33
33 154
66 154
66 154
39 141
82 47
157 146
154 66
167 68
2 40
65 43
2 24
2 30
2 124
2 142
2 54
68 97
2 142
2 24
2 24
78 97
86 165
124 142
124 30
124 2
124 54
28 119
2 124
65 43
65 170
146 167
124 2
86 35
28 119
35 86
9 56
140 7
163 122
2 124
2 142
2 124
47 82
52 115
124 2
124 2
10 91
2 124
10 24
163 122
3 47
78 65
91 63
43 170
167 146
63 76
63 153
146 78
146 78
63 153
63 91
63 106
63 153
63 153
146 153
146 63
146 91
63 65
63 106
63 153
63 106
63 65
63 106
63 153
63 91
63 24
63 153
43 24
63 65
142 24
142 91
30 24
24 30
24 91
24 142
24 153
24 40
24 91
24 43
24 63
24 153
24 65
24 10
24 2
2 24
40 91
142 2
24 91
24 2
2 24
24 91
94 24
94 10
24 94
24 2
24 63
24 94
24 63
24 10
94 10
24 91
24 63
24 146
30 24
80 44
80 44
169 171
127 165
65 63
135 56
65 63
146 24
140 27
140 156
140 126
140 7
140 80
140 155
140 46
140 69
140 36
140 51
140 152
140 44
140 11
140 71
146 24
33 86
33 130
28 114
28 114
56 135
65 97
65 78
146 153
146 63
146 91
65 97
65 78
72 86
72 35
65 106
65 97
65 97
65 148
35 86
68 146
68 167
65 148
52 60
52 130
57 146
28 134
28 164
28 163
28 171
28 122
28 161
28 0
28 98
28 123
28 147
28 114
28 75
28 128
28 134
28 164
28 163
28 171
28 122
28 161
28 0
28 98
28 123
28 147
28 114
28 75
28 128
104 86
104 35
122 134
134 122
10 94
170 65
24 146
140 11
146 24
154 52
154 86
24 146
66 52
66 86
24 153
24 40
146 68
2 124
2 142
2 54
86 165
24 153
24 40
78 146
115 52
78 97
97 78
24 2
91 59
2 24
78 97
91 153
91 63
91 146
97 78
87 56
47 86
91 59
56 85
94 63
63 91
63 153
63 146
91 153
91 63
91 146
52 115
82 33
2 124
24 142
24 124
24 2
24 40
152 7
7 152
78 97
97 78
92 86
63 94
2 142
2 124
2 24
2 40
146 91
39 104
39 82
39 47
39 3
94 63
135 56
24 142
24 124
24 2
24 40
82 86
43 10
11 140
122 163
43 24
142 2
142 24
142 24
56 9
56 9
56 67
56 9
56 121
153 40
153 24
153 40
153 24
153 24
153 40
153 63
153 40
153 24
153 63
153 106
56 9
153 63
153 106
142 2
142 24
44 156
43 167
43 65
150 58
165 137
9 56
9 56
56 9
39 47
156 23
9 56
78 76
39 86
39 130
60 86
56 9
37 45
37 73
122 164
122 163
122 164
122 163
137 165
156 80
91 24
91 24
91 59
146 65
91 146
130 86
91 30
156 23
146 91
146 24
146 65
146 91
2 142
126 155
165 14
39 137
9 103
73 117
146 167
137 165
24 142
24 40
137 86
56 132
24 142
24 124
24 2
24 54
24 40
137 165
103 111
78 76
9 56
24 59
56 9
91 40
146 57
165 137
165 52
165 5
165 14
165 60
165 127
165 35
165 130
57 146
91 10
24 59
24 142
146 57
155 27
65 170
65 170
65 170
57 146
146 57
24 91
24 63
24 59
39 82
37 99
80 23
94 63
39 127
80 23
63 91
63 24
63 59
63 68
170 148
170 148
24 63
153 40
153 24
63 106
63 153
63 65
153 24
153 40
63 24
170 148
170 148
170 148
170 148
170 148
170 148
170 148
170 76
170 148
170 43
2 40
24 142
24 2
94 63
10 167
40 91
142 24
142 24
24 142
24 142
94 24
24 142
24 30
24 124
24 54
24 15
24 40
24 94
10 167
124 142
124 30
124 54
111 103
24 10
24 10
30 24
30 124
24 30
24 2
54 124
124 54
10 24
10 91
10 24
10 24
10 24
2 24
121 56
24 10
24 2
24 10
54 124
142 91
142 2
142 24
2 24
124 54
63 94
63 91
63 24
97 24
63 91
63 24
63 113
54 124
153 24
153 40
40 91
