24 153
24 91
130 165
135 168
58 73
73 45
73 58
163 164
163 123
163 147
163 75
134 145
68 167
65 78
137 82
73 58
137 52
23 156
91 24
91 153
127 137
40 30
40 2
40 142
40 24
7 80
56 135
68 146
68 167
68 146
35 52
91 24
164 163
147 163
140 7
140 155
140 36
140 27
140 156
140 126
140 7
140 80
140 155
140 46
140 69
140 36
140 51
140 27
140 152
140 44
140 11
140 71
163 147
91 24
91 24
86 130
165 137
165 52
165 5
165 14
165 60
165 127
165 35
165 130
91 24
111 56
57 65
150 37
37 150
117 37
37 117
57 24
68 167
27 7
27 46
27 36
27 11
27 71
57 24
27 12
140 36
140 11
140 7
140 36
140 11
33 130
7 27
7 27
137 165
154 66
146 97
171 169
171 144
2 142
63 65
63 65
71 27
63 65
66 154
71 27
58 37
55 117
55 45
55 73
55 58
55 150
55 99
27 71
142 2
142 2
46 27
171 119
2 142
135 56
135 168
63 65
24 91
168 135
24 91
24 91
91 63
91 63
91 63
91 76
91 63
91 63
76 91
24 142
24 157
24 91
127 35
157 24
157 63
10 91
10 24
63 153
97 65
24 91
24 153
24 10
153 63
91 24
153 63
63 153
142 24
24 142
73 45
73 58
35 127
127 35
63 65
141 39
78 65
57 24
65 97
82 137
82 104
82 47
82 3
127 137
127 165
137 127
137 127
127 137
127 137
23 156
137 127
137 127
46 71
137 39
127 137
64 130
3 82
3 14
3 165
3 130
71 46
146 157
164 163
9 168
165 127
127 165
24 91
9 56
9 89
24 2
24 2
24 2
94 167
2 24
24 2
2 24
24 2
39 127
2 40
39 82
39 47
39 3
127 39
91 76
91 63
91 63
91 24
91 24
24 91
24 91
24 142
66 52
63 91
63 153
63 153
63 91
63 153
91 24
91 76
91 63
91 63
39 137
39 127
39 165
91 63
91 63
63 153
165 39
91 24
141 137
141 104
141 47
141 39
63 91
91 24
153 24
80 156
80 23
80 156
80 23
142 24
165 137
157 24
165 52
165 14
165 35
165 39
165 130
157 146
45 73
171 169
141 39
86 165
169 171
91 24
56 111
167 43
167 65
56 9
56 89
86 82
56 135
56 111
24 91
24 153
56 168
24 157
91 2
24 91
24 91
24 2
165 137
24 142
91 24
2 24
24 91
24 2
24 142
24 153
24 2
56 168
56 89
142 24
24 91
24 2
24 142
86 82
171 169
171 144
45 73
45 150
165 137
165 137
165 86
73 45
63 43
2 24
52 137
47 137
47 104
33 137
66 154
163 164
142 2
167 68
167 146
157 97
127 39
140 156
140 126
140 7
140 80
140 155
140 46
140 69
140 36
140 51
140 27
140 152
140 44
140 11
140 71
7 140
73 37
122 163
51 80
140 7
130 64
63 91
66 154
163 122
66 33
80 51
150 37
142 24
86 165
37 150
127 165
137 165
150 73
165 127
137 165
165 127
127 165
165 127
142 24
144 169
146 68
146 167
47 165
111 56
111 89
24 91
24 63
153 63
33 82
33 66
33 5
33 154
33 130
24 91
66 154
91 63
56 168
47 3
56 89
45 73
45 150
45 55
73 37
86 35
55 45
55 45
156 7
153 91
153 24
153 63
3 130
163 164
73 45
153 94
153 94
77 7
91 153
153 91
153 24
33 5
63 106
57 24
104 86
104 35
140 36
145 171
156 140
156 126
156 7
156 80
156 155
156 46
156 23
156 36
156 51
156 27
156 152
156 44
156 11
156 71
3 82
37 73
146 63
111 56
111 85
66 154
97 65
155 80
155 27
164 123
164 123
35 72
164 123
60 86
146 63
5 86
82 86
39 137
39 141
39 86
165 127
24 153
24 2
56 168
56 135
56 111
56 85
3 165
24 40
2 24
2 142
2 24
142 91
142 2
165 60
153 63
24 59
24 94
24 2
24 142
24 78
24 59
24 10
24 91
24 57
163 122
58 73
72 86
72 35
2 18
7 80
80 156
80 23
137 39
137 165
146 24
66 137
66 52
66 86
60 92
68 146
130 86
68 146
47 86
3 86
39 86
91 24
91 24
111 56
153 63
66 127
64 14
157 146
27 156
3 86
92 86
137 39
137 165
154 52
154 86
137 86
33 86
33 130
157 63
55 117
55 45
55 37
55 73
55 58
55 150
55 99
55 117
55 45
55 37
55 73
55 58
55 150
55 99
7 80
24 142
65 43
35 86
14 165
23 156
23 126
23 7
23 46
23 152
23 44
63 153
142 24
63 43
142 2
2 142
24 142
2 91
2 24
142 24
39 137
39 141
39 127
39 165
24 142
35 127
24 2
24 2
153 63
142 2
56 168
56 85
56 111
56 111
56 85
43 65
43 63
43 167
10 24
43 63
44 23
58 73
2 142
127 66
127 35
86 165
127 165
147 75
153 63
23 49
153 146
58 73
171 28
33 82
33 5
171 145
66 52
171 147
7 156
7 126
7 80
7 155
7 46
7 23
7 36
7 51
7 27
7 152
7 44
7 11
7 71
78 146
56 168
56 89
167 65
156 7
10 24
91 2
23 80
130 165
65 97
56 89
56 85
140 156
140 126
140 7
140 80
140 155
140 46
140 69
140 36
140 51
140 27
140 152
140 44
140 11
140 71
85 56
142 40
63 43
63 43
141 39
3 86
3 35
146 63
127 35
142 40
56 85
56 168
56 89
56 121
63 106
142 24
142 24
43 63
43 63
165 137
86 82
86 137
86 3
86 35
86 130
64 137
35 127
76 146
80 23
146 142
2 18
75 147
9 56
9 89
45 37
45 73
68 97
86 130
65 167
142 146
5 33
127 35
146 142
142 2
122 147
3 82
3 14
3 165
3 130
2 142
65 167
37 45
35 127
65 43
35 127
7 156
7 126
7 80
7 155
7 46
7 23
7 36
7 51
7 27
7 152
7 44
7 11
7 71
146 63
127 35
56 9
127 35
37 45
37 73
35 127
2 18
142 2
127 35
153 24
35 104
167 68
127 165
68 146
45 37
45 73
153 24
144 169
146 91
146 24
45 37
3 82
3 137
3 104
3 47
3 86
3 35
3 39
86 165
163 164
144 171
45 37
163 122
37 45
37 45
37 45
2 142
127 39
63 106
75 147
57 146
57 63
39 127
39 127
63 146
63 65
63 57
127 39
63 146
146 63
63 43
63 118
165 127
63 68
63 68
137 165
5 86
30 24
40 10
147 75
24 153
24 91
24 2
24 142
24 153
80 27
163 164
68 63
127 66
127 154
46 69
137 141
130 64
137 141
163 164
165 86
163 164
167 43
57 63
23 156
23 126
23 7
23 46
23 152
23 44
44 23
165 137
56 111
56 85
165 137
66 127
127 66
122 163
163 122
56 111
56 85
56 89
10 157
171 147
171 145
2 142
56 89
153 63
163 164
56 111
10 40
68 97
35 72
157 10
142 91
142 2
142 24
39 141
39 130
23 80
33 130
28 147
142 40
86 52
24 91
24 2
24 142
142 24
91 2
91 24
24 91
24 2
24 142
24 94
24 78
24 59
24 10
24 30
24 30
24 91
24 153
24 63
24 57
24 10
24 91
24 91
24 2
24 142
43 167
24 91
24 2
24 142
24 142
24 57
24 153
24 91
24 2
24 142
2 18
2 142
2 30
91 142
91 63
142 91
80 23
142 24
142 24
24 142
24 91
24 2
24 142
24 91
24 2
24 142
142 2
142 91
142 2
142 24
57 24
57 24
137 39
137 165
91 24
2 142
2 142
2 24
2 142
2 24
24 2
24 142
24 2
24 142
24 91
24 2
24 142
142 2
142 91
142 2
142 24
32 151
24 40
40 24
24 91
24 57
24 91
24 94
91 2
91 142
91 24
91 24
91 24
23 156
23 80
91 63
24 2
24 142
24 40
24 2
24 142
24 153
24 40
2 24
24 2
24 91
24 91
24 91
24 91
24 142
24 153
153 24
24 91
24 153
24 91
24 30
40 24
2 24
80 23
30 24
64 130
86 137
86 52
86 5
86 14
86 60
86 127
86 35
86 165
86 130
127 165
122 163
140 156
140 126
140 7
140 80
140 155
140 46
140 69
140 36
140 51
140 27
140 152
140 44
140 11
140 71
36 140
153 91
153 24
127 137
9 168
165 82
165 127
111 56
111 85
111 89
82 127
91 24
91 153
137 127
142 2
127 82
127 165
91 153
47 82
47 137
47 104
47 3
47 39
51 27
156 80
28 147
37 117
24 2
127 137
73 58
163 164
2 18
155 7
142 2
171 144
2 142
76 146
27 71
171 145
39 82
165 137
165 39
2 142
68 63
57 91
57 24
82 39
94 153
30 24
91 24
91 153
91 63
91 24
24 91
24 91
24 30
24 91
35 86
127 165
153 63
68 146
71 27
71 27
91 153
156 80
156 23
140 156
140 126
140 7
140 80
140 155
140 46
140 69
140 36
140 51
140 27
140 152
140 44
140 11
140 71
163 123
2 91
39 137
39 3
137 104
137 141
137 47
140 93
35 104
47 104
47 3
73 45
33 130
137 82
137 104
137 141
137 47
137 3
137 39
63 24
63 153
82 33
165 127
86 79
10 142
10 142
142 24
76 65
86 165
135 168
76 65
168 135
33 130
63 68
63 76
63 153
63 167
45 73
63 68
65 97
65 76
65 78
65 97
65 76
68 63
2 142
2 91
2 24
165 39
63 91
168 56
63 91
63 94
14 165
142 2
142 10
24 142
30 24
10 142
63 91
24 91
24 91
63 106
63 106
24 30
24 91
24 2
63 91
56 168
153 24
63 153
63 153
63 106
153 40
63 153
153 63
63 153
153 63
24 91
24 59
24 91
24 40
24 153
91 63
24 153
24 40
24 91
24 65
24 153
156 162
64 130
63 91
164 163
153 24
163 164
153 24
82 141
2 24
146 76
33 130
164 163
27 80
164 122
33 130
154 127
46 152
86 137
86 3
86 35
86 130
140 36
127 154
137 64
130 33
165 137
140 156
140 126
140 7
140 80
140 155
140 46
140 69
140 36
140 51
140 27
140 152
140 44
140 11
140 71
153 68
153 76
153 63
153 167
68 153
86 137
86 3
86 35
86 130
46 152
91 30
91 24
46 152
130 33
46 152
46 152
140 156
140 126
140 7
140 80
140 155
140 46
140 69
140 36
140 51
140 27
140 152
140 44
140 11
140 71
46 152
130 64
130 165
94 63
2 91
2 24
94 63
66 154
47 137
164 123
45 73
123 164
123 163
123 122
33 82
56 111
65 76
24 153
52 137
157 63
24 91
28 75
146 63
46 27
140 7
140 11
71 27
168 9
168 9
97 146
30 91
122 28
63 146
63 94
63 153
157 146
24 91
63 94
32 151
24 91
63 118
63 94
63 91
63 43
63 76
63 24
63 153
63 65
63 57
10 157
24 91
24 63
153 63
91 24
91 2
91 24
91 2
91 142
91 24
94 157
94 63
24 91
24 2
24 142
24 91
24 91
24 91
24 2
24 142
64 130
73 45
130 52
130 60
2 91
2 142
2 24
146 24
46 156
28 75
2 10
165 86
80 156
80 23
71 27
80 156
80 23
135 168
63 153
157 10
153 68
153 76
153 63
153 167
63 106
56 111
56 89
168 135
168 9
140 7
140 11
76 97
76 65
140 7
140 36
140 44
140 11
76 63
167 153
68 76
68 153
68 63
68 167
76 153
65 97
65 97
91 2
91 142
91 24
91 24
56 168
56 168
171 119
33 82
33 5
91 24
165 137
165 52
165 5
165 14
165 60
165 127
165 35
165 130
63 106
82 154
146 91
146 97
146 167
167 146
169 144
157 63
63 157
157 63
142 2
142 24
97 146
63 157
157 63
157 94
71 27
24 153
24 10
91 24
91 2
24 146
24 91
24 2
24 2
24 2
24 91
24 91
24 91
24 30
24 91
24 2
24 142
24 40
24 30
24 91
24 2
24 142
24 40
24 91
24 10
24 91
24 153
24 10
24 153
24 63
24 153
156 126
156 46
156 23
156 152
156 44
47 137
47 104
47 3
35 86
86 165
65 24
155 44
28 134
28 164
28 0
28 123
63 24
63 118
63 94
63 91
63 43
63 76
63 24
63 153
63 65
63 57
27 71
86 165
63 24
141 86
141 125
141 35
86 165
2 142
2 24
168 9
130 64
40 153
152 44
56 168
56 9
56 89
130 64
63 113
167 65
144 169
169 144
146 63
73 150
24 59
24 2
24 142
24 65
142 2
142 24
24 63
94 157
86 165
63 24
24 94
24 78
24 59
24 10
2 142
111 56
111 89
24 91
24 91
24 59
24 2
24 142
24 40
146 24
71 27
94 24
122 164
24 91
63 43
63 153
65 43
24 10
24 91
24 153
24 10
24 63
24 94
24 153
63 68
63 43
97 65
94 43
94 24
94 63
94 57
10 24
142 2
142 24
142 2
142 91
142 2
142 24
23 156
156 23
24 94
24 43
24 63
24 57
24 10
24 2
24 142
24 91
24 2
24 142
56 111
63 94
63 43
63 24
63 57
63 153
63 153
30 24
127 165
142 2
142 63
66 154
65 148
65 148
75 164
65 148
2 24
148 65
65 148
63 106
28 134
5 165
137 52
63 2
63 142
66 154
63 91
137 82
137 52
137 3
23 156
63 65
64 130
97 65
168 9
137 3
168 56
28 119
56 168
63 106
65 148
65 97
65 97
66 127
168 135
168 9
146 24
171 169
171 144
63 113
140 7
140 155
140 69
140 11
56 111
56 89
165 127
65 97
63 2
63 142
63 43
2 142
142 2
168 56
151 65
151 65
151 91
151 43
151 76
151 24
151 63
151 65
151 91
151 63
151 43
151 65
151 76
151 24
56 135
56 168
121 56
66 154
68 97
68 113
137 82
137 104
137 141
137 47
137 3
137 39
33 82
33 66
73 45
86 165
146 63
33 82
156 23
10 91
10 24
167 68
152 44
144 169
45 117
171 145
117 45
68 167
56 111
56 89
56 135
56 85
56 85
68 153
153 91
153 24
153 68
171 123
68 153
85 56
56 168
153 63
153 68
153 76
153 63
153 167
171 123
154 52
154 52
153 91
153 24
123 171
153 91
153 24
132 111
56 85
56 9
150 37
23 80
37 150
141 137
141 104
141 47
141 39
141 64
141 125
23 156
23 80
73 150
63 2
94 57
73 58
63 153
156 23
144 122
122 144
52 86
23 156
23 80
130 165
35 104
148 65
171 169
171 169
23 156
23 80
23 156
23 80
167 68
167 146
3 86
94 153
137 127
135 56
2 91
2 142
2 24
2 40
142 2
2 142
23 80
80 23
80 23
80 23
80 23
47 137
47 104
156 46
86 82
86 137
86 3
86 35
86 130
137 82
127 66
127 137
146 24
140 156
140 126
140 7
140 80
140 155
140 46
140 69
140 36
140 51
140 27
140 152
140 44
140 11
140 71
63 153
167 43
167 65
86 130
146 63
127 165
52 66
119 28
167 68
167 146
28 144
28 163
28 122
23 156
63 106
3 104
156 46
64 130
165 127
14 52
14 5
14 60
14 165
5 137
142 2
142 2
142 2
56 111
56 89
44 155
44 155
80 23
127 82
127 165
171 169
127 35
43 63
35 127
82 127
82 165
127 35
43 65
23 156
75 147
23 80
142 2
52 66
52 60
52 154
2 142
2 142
80 23
56 9
63 106
56 89
63 2
63 2
142 2
32 151
40 2
2 142
32 151
23 156
155 44
155 44
130 64
167 68
167 146
167 68
167 146
140 156
140 126
140 7
140 80
140 155
140 46
140 69
140 36
140 51
140 27
140 152
140 44
140 11
140 71
71 27
127 137
127 165
142 2
63 106
140 152
2 142
146 63
63 153
63 157
140 7
140 155
27 71
130 64
91 24
27 155
153 91
153 24
153 63
39 141
153 63
91 153
153 63
155 36
5 33
165 52
165 104
165 5
165 141
165 60
165 35
165 39
144 171
165 137
165 52
165 39
52 66
52 154
63 153
82 3
3 82
39 141
39 141
68 63
28 70
28 134
28 164
28 163
28 171
28 122
28 161
28 0
28 123
28 147
28 114
28 75
28 144
28 128
35 39
39 92
82 86
78 65
39 141
122 164
122 28
82 47
47 82
3 39
92 39
3 47
47 82
47 3
3 47
10 91
82 47
76 78
65 24
97 43
2 142
142 2
7 140
146 97
146 167
68 63
142 2
43 97
91 10
24 65
24 91
24 91
80 156
137 82
137 104
137 141
137 47
137 3
137 39
63 76
140 7
140 155
140 46
140 69
140 36
140 51
140 152
140 44
140 11
140 71
39 141
140 36
169 171
86 52
7 27
91 24
91 153
94 157
63 167
91 63
157 63
65 43
65 167
36 46
97 65
146 63
171 123
91 24
24 91
24 153
7 12
7 80
65 97
65 43
65 63
91 24
55 37
165 137
165 137
91 24
144 171
65 24
80 23
80 7
157 146
63 146
63 43
63 65
24 91
24 94
24 153
24 91
24 94
24 78
24 59
24 65
24 10
2 24
91 24
24 91
24 91
24 2
24 142
24 91
24 2
24 142
24 2
24 142
24 146
24 91
24 153
24 91
24 91
24 153
24 91
24 153
24 10
91 2
91 2
91 24
91 24
91 59
24 10
91 24
24 30
24 94
24 43
24 63
24 57
24 2
24 142
24 142
24 2
24 142
2 91
2 142
2 24
2 24
24 91
24 2
24 142
24 2
91 2
24 91
24 63
24 2
24 91
24 2
24 142
52 66
52 60
52 154
142 91
142 2
142 24
142 24
142 24
91 2
91 142
91 24
153 91
153 24
153 24
153 40
91 2
153 24
24 91
24 2
24 142
153 24
153 40
24 142
2 24
142 24
142 91
142 2
142 24
168 89
56 135
56 9
56 135
56 9
24 2
24 142
24 91
24 2
24 142
24 153
24 40
2 24
24 2
24 91
24 153
24 63
2 142
2 24
63 94
63 43
63 24
63 57
63 24
2 18
63 91
63 24
63 153
24 94
24 43
24 63
24 57
24 63
91 24
63 24
91 24
63 24
63 24
91 24
24 63
24 63
142 2
142 24
153 63
24 91
24 91
24 91
24 2
24 142
24 91
24 2
24 63
24 91
24 91
68 146
68 167
71 155
39 141
146 24
146 91
68 146
68 167
167 68
167 68
68 167
164 123
144 171
137 82
35 104
35 127
127 35
142 24
142 24
165 3
157 63
45 150
86 137
86 52
86 5
86 14
86 60
86 127
86 35
86 165
86 130
65 167
150 45
150 45
51 80
167 146
127 165
33 130
154 52
28 145
45 150
146 68
65 167
45 150
150 45
63 57
150 45
45 150
45 150
45 150
114 28
63 106
140 156
140 126
140 7
140 80
140 155
140 46
140 69
140 36
140 51
140 27
140 152
140 44
140 11
140 71
150 45
150 45
150 45
68 167
45 150
45 150
153 63
150 45
63 97
154 66
24 142
171 145
65 43
24 2
24 142
65 43
167 65
24 91
2 142
2 24
24 2
24 2
24 146
63 153
146 24
2 24
122 75
24 2
94 2
24 91
24 91
153 63
24 91
24 91
24 91
24 63
80 51
64 82
64 137
64 104
64 141
64 47
64 3
64 39
78 65
71 36
35 82
35 137
35 52
35 104
35 141
35 14
35 60
35 127
35 3
35 39
35 165
35 130
154 52
137 39
71 27
127 35
28 134
35 127
127 35
140 36
33 130
45 73
156 80
156 23
7 80
78 76
78 65
111 56
140 7
140 11
157 146
156 80
146 157
80 7
43 65
33 5
2 24
91 59
165 137
153 24
137 165
157 63
33 5
68 167
153 63
64 130
71 27
39 141
39 141
37 105
104 35
82 3
10 91
9 56
60 52
43 57
63 153
57 43
24 167
24 91
24 2
24 91
24 2
153 63
24 63
153 24
24 2
24 142
71 27
33 82
33 5
137 165
33 130
39 141
39 141
142 24
23 156
23 126
23 7
23 46
23 152
23 44
140 7
91 24
91 167
140 7
150 58
65 97
140 7
65 97
140 7
86 79
73 45
130 35
82 52
137 165
156 80
45 73
137 165
76 146
68 97
10 24
146 76
137 165
137 165
2 142
146 91
64 130
142 2
24 91
58 45
134 145
171 28
171 119
45 58
28 147
80 156
167 68
167 59
65 148
156 80
156 80
148 97
148 43
148 146
148 63
148 167
148 65
7 36
3 52
58 45
7 36
167 148
167 91
148 167
3 52
30 24
119 147
44 80
24 153
142 24
18 153
44 80
44 80
167 68
167 146
44 80
44 80
2 142
35 127
3 52
153 63
153 63
64 130
80 44
80 44
80 44
65 148
65 148
130 64
10 24
154 66
91 24
127 35
47 86
91 146
33 5
35 104
35 127
122 28
127 35
65 148
127 86
60 52
57 63
122 164
57 24
63 2
63 113
76 65
165 52
97 65
75 147
152 27
57 146
63 91
63 24
146 94
146 63
65 76
63 146
65 76
63 57
57 68
63 157
63 153
63 24
24 63
24 91
24 63
24 91
24 153
24 63
24 94
24 91
24 153
24 63
24 57
94 91
94 24
94 153
94 63
94 57
137 165
24 153
24 40
24 10
24 94
24 153
24 30
24 2
24 142
24 30
24 91
24 153
24 10
24 91
94 10
24 91
24 91
24 91
137 127
45 58
153 24
99 105
147 75
140 7
23 156
63 153
46 23
46 23
153 63
157 63
119 75
63 91
63 24
63 153
63 57
73 45
63 153
114 28
63 153
144 169
23 80
80 23
60 52
147 119
63 153
63 153
91 24
24 153
24 40
63 68
63 157
71 27
63 157
2 142
63 91
63 24
153 63
63 24
140 156
140 126
140 7
140 80
140 155
140 46
140 69
140 36
140 51
140 27
140 152
140 44
140 11
140 71
167 43
167 65
152 44
43 91
157 63
27 7
27 80
27 46
27 36
27 11
27 71
91 2
91 142
24 63
142 91
142 2
24 63
24 91
24 91
43 63
86 165
39 141
165 14
94 57
153 40
153 63
91 24
91 24
24 91
24 91
24 91
153 40
57 94
56 111
56 85
40 24
40 153
64 130
130 64
36 140
36 140
152 44
66 154
36 140
33 82
33 5
33 130
68 63
153 24
153 40
153 68
153 76
153 63
153 167
39 141
39 165
39 130
27 71
66 154
92 154
154 66
33 5
154 127
57 65
28 164
153 68
57 24
164 28
33 5
33 138
28 164
3 52
65 43
137 39
164 28
91 43
114 28
23 80
3 52
37 99
152 155
45 58
58 45
45 58
68 153
64 130
43 91
157 63
65 148
127 154
127 137
24 153
24 40
2 91
24 57
2 91
146 65
24 91
154 52
140 156
140 126
140 7
140 80
140 155
140 46
140 69
140 36
140 51
140 27
140 152
140 44
140 11
140 71
140 156
140 126
140 7
140 80
140 155
140 46
140 69
140 36
140 51
140 27
140 152
140 44
140 11
140 71
137 127
127 137
24 59
157 146
66 52
68 167
24 91
24 91
24 94
24 78
24 59
24 10
63 65
24 2
63 153
63 24
63 57
2 24
24 2
24 91
5 86
5 33
76 78
39 141
82 165
9 87
51 80
66 154
140 156
140 126
140 7
140 80
140 155
140 46
140 69
140 36
140 51
140 27
140 152
140 44
140 11
140 71
40 2
40 24
86 3
23 80
3 86
28 147
122 164
137 127
140 80
40 24
140 27
36 140
23 80
127 137
137 127
127 137
66 154
141 39
68 97
91 2
91 24
146 97
146 43
154 52
60 52
66 52
66 86
40 24
40 153
137 86
86 137
36 140
68 146
104 86
104 35
65 97
72 86
72 35
39 141
111 56
60 86
33 86
33 130
39 141
63 153
153 63
35 104
65 43
130 86
146 65
57 65
154 52
154 86
82 52
76 153
97 65
3 86
91 153
24 43
24 65
153 91
24 153
24 153
24 63
47 86
23 156
23 80
23 156
63 91
63 24
23 156
99 37
146 68
63 113
63 65
63 153
57 94
57 91
57 24
57 153
57 63
111 85
111 56
111 89
39 137
39 86
24 91
24 94
24 91
24 153
24 63
24 57
56 111
56 89
142 24
24 91
24 63
24 142
142 91
142 24
24 40
40 24
36 155
39 141
39 141
39 141
39 141
130 64
66 154
35 86
28 147
92 86
169 147
66 52
82 86
147 169
5 86
28 147
37 99
28 147
28 147
28 147
63 91
63 24
148 43
78 76
68 153
155 36
2 24
148 65
155 156
155 140
155 126
155 7
155 80
155 12
155 46
155 93
155 23
155 36
155 51
155 27
155 152
155 44
155 11
155 136
155 71
148 65
153 68
153 76
153 63
153 167
24 91
24 63
24 91
24 142
23 80
142 24
127 52
60 52
66 33
66 154
33 66
40 24
40 153
155 27
155 152
65 106
76 78
146 24
155 27
155 152
65 97
66 52
91 24
35 104
68 146
91 24
97 146
91 146
24 146
63 153
91 2
91 24
91 2
91 24
94 57
80 23
80 51
80 23
80 23
63 153
2 30
24 91
80 23
94 57
153 63
137 165
146 24
37 117
37 73
165 137
146 63
146 24
154 52
119 147
156 80
156 23
146 91
23 80
140 7
140 7
154 52
24 146
146 24
91 2
57 94
91 2
91 24
28 70
28 134
28 164
28 163
28 171
28 122
28 161
28 0
28 123
28 147
28 114
28 75
28 144
28 128
63 146
142 91
142 24
91 24
91 59
39 137
39 141
39 127
39 165
39 130
91 142
91 24
86 165
45 58
66 154
91 24
24 91
24 142
33 86
33 82
33 66
33 130
146 91
146 24
63 65
165 86
3 52
63 153
30 2
30 2
2 30
142 91
142 24
24 153
63 68
94 57
63 43
140 156
140 126
140 7
140 80
140 155
140 46
140 69
140 36
140 51
140 27
140 152
140 44
140 11
140 71
140 156
140 126
140 7
140 80
140 155
140 46
140 69
140 36
140 51
140 27
140 152
140 44
140 11
140 71
140 156
140 126
140 7
140 80
140 155
140 46
140 69
140 36
140 51
140 27
140 152
140 44
140 11
140 71
78 76
45 58
3 52
86 130
64 130
64 130
140 7
140 155
58 45
153 63
33 5
78 76
57 94
76 78
24 91
24 153
119 123
24 63
24 91
24 142
155 156
156 155
76 146
137 82
137 104
137 141
137 47
137 3
137 39
153 68
153 76
153 63
153 167
39 137
130 33
28 147
140 7
140 155
140 156
140 126
140 7
140 80
140 155
140 46
140 69
140 36
140 51
140 27
140 152
140 44
140 11
140 71
146 24
87 56
135 56
146 167
146 68
91 106
91 24
24 153
33 130
155 27
155 152
134 145
45 58
45 58
165 39
58 45
3 82
87 168
78 146
64 130
91 24
24 91
91 24
165 137
165 52
165 5
165 14
165 60
165 127
165 35
165 130
134 28
137 165
137 39
57 43
27 71
24 91
24 91
30 2
94 43
94 24
94 63
94 167
94 65
94 10
94 57
94 157
142 91
142 24
80 23
122 163
24 91
91 142
91 24
91 24
45 58
24 142
24 59
94 157
94 57
94 153
64 130
82 52
102 58
73 45
130 64
23 156
23 126
23 7
23 46
23 152
23 44
23 136
165 86
130 82
153 76
153 167
153 68
153 63
146 65
45 58
146 24
7 80
146 91
73 117
73 45
73 37
73 55
73 58
73 150
155 152
142 2
3 52
140 156
140 126
140 7
140 80
140 155
140 46
140 69
140 36
140 51
140 27
140 152
140 44
140 11
140 71
140 156
140 126
140 7
140 80
140 155
140 46
140 69
140 36
140 51
140 27
140 152
140 44
140 11
140 71
52 3
155 156
155 140
155 126
155 7
155 80
155 12
155 46
155 93
155 23
155 36
155 51
155 27
155 152
155 44
155 11
155 136
155 71
142 24
78 146
24 142
9 87
142 91
142 24
152 44
65 43
150 58
104 35
153 94
24 94
24 78
24 59
24 10
155 152
130 33
130 165
155 126
130 14
24 2
2 142
24 91
24 2
24 142
126 155
76 146
156 126
156 46
156 23
156 152
156 44
148 43
57 94
57 91
57 24
57 153
57 63
155 126
97 65
45 58
45 58
87 56
87 9
39 137
39 165
39 130
142 2
142 91
142 2
142 24
142 91
142 2
142 24
33 130
157 94
65 97
142 91
142 2
142 24
146 97
2 91
2 142
2 24
97 146
94 153
56 135
94 157
56 135
56 85
56 135
94 157
130 33
135 56
82 3
165 39
33 130
111 89
117 37
37 117
117 37
52 60
52 60
52 60
52 66
52 154
65 43
37 117
99 37
111 89
66 154
64 130
45 73
86 35
35 82
140 156
140 126
140 7
140 80
140 155
140 46
140 69
140 36
140 51
140 27
140 152
140 44
140 11
140 71
73 45
57 65
37 99
111 89
157 63
28 114
111 88
156 126
156 46
156 23
156 152
156 44
60 52
35 86
86 35
3 82
52 60
35 86
86 35
64 82
35 82
130 82
35 86
130 82
126 80
117 73
73 117
127 86
86 127
127 86
60 52
130 82
73 45
68 153
111 56
91 146
43 63
111 89
165 137
165 52
165 5
165 14
165 60
165 127
165 35
165 130
23 156
23 80
23 156
23 80
3 52
52 3
154 52
52 154
153 63
153 91
153 24
153 40
142 91
142 2
142 24
91 24
91 2
89 111
89 111
52 82
123 164
52 154
154 52
130 64
52 154
82 52
52 86
154 52
130 82
52 86
86 52
35 86
66 154
86 52
86 35
23 152
52 60
52 82
154 66
33 138
52 86
123 134
123 147
73 117
73 37
82 52
119 147
153 68
153 76
153 63
153 167
123 134
123 134
86 52
3 86
3 35
51 80
140 156
140 126
140 7
140 80
140 155
140 46
140 69
140 36
140 51
140 27
140 152
140 44
140 11
140 71
156 46
156 152
111 56
111 85
111 88
60 52
37 117
37 73
130 82
52 60
134 70
37 99
75 147
56 135
56 135
56 111
56 89
2 18
78 68
73 117
56 135
52 154
117 73
154 52
154 52
130 82
60 52
3 52
82 130
52 3
130 82
52 60
117 37
122 163
86 52
52 86
86 82
68 78
76 68
76 153
23 156
23 80
23 155
23 51
23 152
23 44
82 86
155 23
82 130
37 117
130 82
45 58
63 94
153 24
153 40
63 153
63 97
63 97
57 94
97 63
154 52
86 52
97 63
57 146
52 86
52 86
87 135
87 56
87 9
87 85
87 168
87 56
87 9
97 76
142 91
142 2
142 24
142 40
91 2
91 24
91 59
153 40
91 24
91 24
91 2
91 142
91 24
91 59
52 60
63 97
63 97
63 97
63 68
80 23
44 23
80 23
63 43
63 65
156 126
156 46
156 23
156 152
156 44
82 130
63 91
63 24
63 57
137 64
137 3
137 130
154 52
137 82
137 104
137 141
137 47
137 3
137 39
154 52
37 117
65 63
63 24
52 154
117 37
37 117
65 97
147 164
117 37
164 147
165 127
165 39
52 60
63 97
63 157
63 76
63 146
119 75
127 165
28 123
130 165
165 127
63 91
63 24
66 154
23 152
37 117
63 91
63 24
63 94
63 94
63 65
164 147
76 97
164 147
142 91
142 2
66 154
65 148
140 156
140 126
140 7
140 80
140 155
140 46
140 69
140 36
140 51
140 27
140 152
140 44
140 11
140 71
148 65
63 43
43 65
94 63
94 65
146 24
63 43
63 65
146 30
63 94
63 65
163 75
97 65
154 52
142 91
142 2
142 24
60 52
77 7
68 153
68 63
52 60
60 52
57 94
165 39
57 94
111 56
111 89
111 56
24 153
24 40
24 146
24 91
30 146
24 63
73 58
64 130
33 130
46 27
46 71
146 30
130 33
68 146
63 146
63 65
45 73
140 7
140 155
140 36
140 44
140 11
140 71
63 153
140 7
140 155
140 11
66 154
140 7
140 155
140 93
140 36
140 11
3 52
92 72
92 82
92 64
92 137
92 52
92 104
92 115
92 66
92 5
92 141
92 47
92 6
92 14
92 60
92 127
92 86
92 3
92 138
92 35
92 39
92 33
92 165
92 154
68 153
73 117
117 73
85 56
171 119
171 144
97 65
68 153
140 7
97 65
71 46
154 52
123 163
123 163
123 163
123 163
2 142
2 24
154 137
28 171
111 56
111 89
57 94
57 43
63 146
23 80
63 146
63 43
65 97
64 130
146 76
65 97
111 56
111 85
111 89
80 23
63 91
63 43
63 24
63 57
153 24
153 40
39 92
68 63
130 64
144 171
65 43
73 117
65 43
52 154
63 68
63 91
63 24
52 66
140 156
140 126
140 7
140 80
140 155
140 46
140 69
140 36
140 51
140 27
140 152
140 44
140 11
140 71
63 65
63 65
37 117
52 3
63 153
68 153
68 63
65 43
23 80
144 171
63 146
65 63
65 43
65 76
66 52
63 65
111 56
111 85
111 89
63 65
57 91
57 43
57 24
57 63
111 56
111 85
111 89
76 146
63 91
63 43
63 24
63 57
63 68
63 153
2 18
2 142
2 142
56 111
56 89
28 134
28 123
43 57
56 111
24 2
2 24
24 91
24 153
24 63
142 2
63 68
63 24
63 146
63 65
56 111
56 89
123 28
156 80
156 23
58 150
154 52
73 37
64 130
52 154
154 52
122 163
122 163
154 52
52 154
142 24
153 68
137 165
154 52
65 68
117 37
117 73
52 154
39 137
73 117
111 56
111 89
154 66
33 82
33 66
137 127
142 24
117 73
66 115
64 130
66 154
157 146
71 140
9 56
43 91
43 24
43 63
43 57
171 28
144 171
28 171
10 40
23 156
23 80
91 24
91 2
91 142
91 24
91 63
91 57
57 43
91 24
91 63
91 24
3 82
3 137
3 47
3 39
80 23
91 63
66 154
80 23
137 3
148 65
71 27
24 142
142 24
24 142
142 2
142 24
142 24
24 91
142 91
142 24
24 2
24 142
24 91
24 142
24 63
24 2
142 91
142 24
65 97
65 76
65 78
43 65
24 91
24 153
24 91
24 142
66 154
2 24
2 24
157 63
24 2
24 2
24 91
39 137
39 127
39 165
24 91
2 24
24 91
2 24
24 2
24 91
24 146
56 9
24 91
24 153
24 63
2 24
24 91
24 91
24 91
24 2
24 142
24 91
24 2
65 43
65 167
165 137
165 39
146 24
2 91
36 140
36 140
142 91
142 2
142 24
46 27
3 52
142 10
64 130
52 3
3 52
37 117
23 80
91 24
2 142
80 23
94 157
43 148
76 106
94 157
52 3
2 91
56 135
140 155
140 71
56 111
35 104
140 36
140 11
140 71
24 91
94 157
24 91
24 91
24 142
140 7
140 155
140 36
140 11
140 71
153 76
153 167
153 68
153 63
24 91
24 2
9 87
9 87
91 24
156 23
39 137
39 141
39 127
39 165
2 24
57 65
43 65
156 23
156 44
24 91
24 59
24 91
24 2
24 91
24 153
24 10
137 165
165 86
165 130
165 86
165 130
68 153
137 39
137 165
24 91
24 142
24 40
24 91
24 59
146 76
68 153
63 91
63 43
63 24
63 153
111 56
63 153
63 153
63 91
63 24
63 153
24 91
24 43
24 153
24 63
63 91
63 43
63 24
63 153
2 63
24 91
24 2
24 142
24 91
24 2
24 142
63 2
63 68
91 24
24 91
91 142
91 24
91 24
91 24
91 153
91 63
56 111
56 135
56 9
91 2
91 24
123 164
123 164
154 66
76 146
73 58
146 76
51 80
155 27
43 91
43 24
43 153
43 63
91 2
135 9
65 43
65 167
97 10
2 91
127 39
9 135
9 56
27 51
24 153
24 40
24 91
73 45
91 24
56 135
153 68
153 63
45 58
56 135
56 9
56 135
56 9
9 87
73 58
142 91
142 24
24 91
24 142
142 91
142 24
142 40
142 91
142 24
24 91
24 43
24 153
24 63
24 142
164 122
2 24
24 2
146 24
24 146
167 43
148 43
91 2
91 142
91 24
142 2
91 24
65 97
65 78
27 155
167 68
75 119
119 75
24 91
68 153
140 93
140 36
140 11
140 71
92 72
92 82
92 64
92 137
92 52
92 104
92 115
92 66
92 5
92 141
92 47
92 6
92 14
92 60
92 127
92 86
92 3
92 138
92 35
92 39
92 33
92 165
92 154
146 63
154 92
3 92
33 92
82 92
47 92
165 92
91 24
91 153
72 92
91 24
91 63
155 140
91 24
144 171
56 9
56 111
127 92
24 91
24 63
63 146
63 146
63 153
63 91
63 24
40 91
40 142
40 24
24 91
24 142
24 40
40 91
115 52
115 66
163 122
82 137
3 92
14 92
164 122
167 43
140 7
33 14
137 92
134 119
137 82
137 104
137 141
137 47
137 3
137 39
86 52
171 144
3 52
52 3
3 82
3 137
60 92
57 63
57 65
3 82
3 137
3 104
3 86
122 28
36 140
10 142
142 10
39 137
165 137
165 141
165 127
165 39
146 63
10 142
27 80
39 137
39 127
39 165
33 137
24 94
24 78
24 59
24 10
24 142
24 91
24 59
63 153
24 2
10 40
75 98
137 82
137 104
137 141
137 47
137 3
137 39
86 165
71 46
154 66
52 92
46 27
154 66
82 64
57 65
146 24
46 71
165 137
165 127
165 39
165 130
36 140
137 52
167 68
24 91
39 137
24 91
24 59
157 146
152 155
152 27
165 52
165 60
165 127
165 86
165 35
165 130
2 24
28 163
130 33
171 169
171 70
171 134
171 164
171 163
171 159
171 119
171 122
171 161
171 25
171 123
171 28
171 147
171 114
171 145
171 75
171 144
171 128
28 134
28 164
28 171
28 0
28 123
28 147
171 169
171 70
171 134
171 164
171 163
171 159
171 119
171 122
171 161
171 25
171 123
171 28
171 147
171 114
171 145
171 75
171 144
171 128
24 91
63 91
63 24
63 153
146 91
146 24
152 155
63 68
24 91
24 146
78 76
75 171
65 97
65 76
65 78
146 68
146 167
146 57
65 43
146 68
63 91
171 119
171 145
171 119
171 145
63 94
63 91
63 43
63 76
63 65
63 57
63 94
63 146
63 65
39 137
39 127
39 165
39 137
39 86
24 63
63 68
63 76
63 153
63 167
63 24
24 91
24 91
24 91
91 2
91 63
91 24
91 24
91 24
91 153
91 10
91 59
142 40
130 165
39 47
47 39
40 10
63 91
40 24
40 10
56 89
40 24
40 153
163 98
163 98
163 98
163 98
155 156
155 140
155 126
155 7
155 80
155 12
155 46
155 93
155 23
155 36
155 51
155 27
155 152
155 44
155 11
155 136
155 71
130 64
78 76
111 56
0 134
80 155
23 156
23 80
64 130
156 80
156 23
80 23
140 7
140 155
140 93
140 36
140 11
140 71
97 113
97 63
56 89
2 40
2 91
2 24
2 142
2 30
2 18
142 2
2 142
57 24
142 24
142 24
91 2
91 63
63 106
97 148
65 43
65 167
137 39
165 127
157 63
71 155
148 97
165 127
155 27
155 152
65 76
140 156
140 126
140 7
140 80
140 155
140 46
140 69
140 36
140 51
140 27
140 152
140 44
140 11
140 71
127 165
127 165
127 165
146 76
10 65
57 65
63 94
63 94
146 94
146 63
94 63
153 24
153 40
76 146
30 2
2 30
154 92
65 106
146 76
142 91
142 2
142 24
33 66
33 14
33 154
153 24
153 40
91 24
137 82
52 165
157 146
52 86
155 152
155 152
56 9
92 154
126 71
9 56
137 82
137 104
137 141
137 47
137 3
137 39
122 169
122 134
122 164
122 163
122 171
122 119
122 123
122 28
122 147
122 145
122 144
127 86
127 165
94 63
130 127
141 137
141 104
141 47
130 33
65 43
65 94
65 63
65 167
65 57
132 89
130 86
130 165
3 66
57 65
132 111
60 86
60 165
33 82
33 66
33 5
66 154
146 68
28 171
167 43
23 80
40 10
43 167
63 65
63 94
24 142
24 57
94 91
94 76
94 24
94 153
94 63
94 65
94 57
24 40
24 91
24 10
94 65
165 137
91 94
91 24
82 6
82 6
82 6
82 6
82 6
82 6
82 6
82 6
82 6
82 6
82 6
82 6
82 6
82 6
82 6
82 6
82 6
80 23
99 105
23 80
165 52
80 23
35 86
35 165
71 126
171 145
68 167
111 132
150 58
155 152
134 123
142 10
10 142
142 10
23 80
167 43
80 23
47 82
47 137
47 104
47 3
10 142
63 91
91 63
111 85
28 163
28 122
63 153
52 165
153 94
167 68
86 165
137 141
57 94
57 63
57 24
57 24
163 122
57 94
146 94
146 63
146 94
171 119
171 119
144 122
11 140
140 152
140 44
63 94
137 82
137 104
137 141
137 47
137 3
137 39
94 76
94 57
9 56
122 163
163 144
140 156
140 126
140 7
140 80
140 155
140 46
140 69
140 36
140 51
140 27
140 152
140 44
140 11
140 71
66 154
80 152
144 163
47 66
63 153
66 47
165 86
56 9
56 85
63 94
63 97
63 106
63 106
123 164
123 164
46 155
63 91
63 76
63 24
155 152
23 44
23 44
23 44
86 165
140 156
140 126
140 7
140 80
140 155
140 46
140 69
140 36
140 51
140 27
140 152
140 44
140 11
140 71
156 126
156 7
156 46
156 23
156 152
156 44
94 91
94 76
94 24
94 153
94 63
94 65
94 57
137 165
28 134
28 164
28 163
28 171
28 122
28 161
28 0
28 123
28 147
28 114
28 75
28 144
28 128
76 78
94 24
94 146
78 76
171 119
171 145
146 68
163 169
163 134
163 164
163 171
163 119
163 122
163 123
163 28
163 147
163 145
163 144
123 119
33 5
86 165
165 86
91 24
134 119
147 119
86 165
91 94
91 24
91 63
86 165
44 156
165 86
156 126
156 7
156 46
156 23
156 152
156 44
86 165
137 165
76 106
57 24
157 146
146 76
87 9
156 155
146 63
165 137
63 146
63 153
63 43
63 65
56 135
56 89
23 156
23 80
80 23
94 91
94 76
94 24
94 153
94 63
94 65
94 57
142 10
94 91
94 76
94 24
94 153
94 63
94 65
94 57
94 91
94 76
94 24
94 153
94 63
94 65
94 57
154 66
23 156
73 45
163 134
122 134
144 169
144 70
144 134
144 164
144 163
144 159
144 171
144 119
144 122
144 161
144 0
144 98
144 123
144 28
144 147
144 114
144 145
144 75
144 128
153 94
23 156
23 80
94 63
94 153
146 63
23 80
94 153
164 123
153 94
127 14
65 148
44 7
57 91
57 24
57 63
164 28
157 10
140 156
140 126
140 7
140 80
140 155
140 46
140 69
140 36
140 51
140 27
140 152
140 44
140 11
140 71
140 156
140 126
140 7
140 80
140 155
140 46
140 69
140 36
140 51
140 27
140 152
140 44
140 11
140 71
140 156
140 126
140 7
140 80
140 155
140 46
140 69
140 36
140 51
140 27
140 152
140 44
140 11
140 71
140 156
140 126
140 7
140 80
140 155
140 46
140 69
140 36
140 51
140 27
140 152
140 44
140 11
140 71
140 36
80 23
80 23
57 94
73 117
73 45
73 37
73 55
73 58
73 150
94 57
63 157
157 63
63 97
63 106
63 65
63 106
63 106
44 23
52 3
57 94
94 57
65 94
65 63
134 119
63 24
63 106
94 65
91 63
91 24
94 63
57 63
156 80
156 23
153 63
65 148
9 87
63 106
137 165
137 5
137 165
137 82
137 104
137 141
137 47
137 3
137 39
156 23
63 157
91 63
91 63
24 91
24 153
24 63
24 57
24 91
24 59
142 91
142 2
142 24
153 63
123 164
7 12
146 24
80 23
80 44
23 44
66 52
66 86
58 117
58 73
58 150
23 156
47 86
40 2
130 127
63 106
63 113
28 119
24 146
146 24
63 91
76 157
76 157
63 91
63 24
85 111
85 56
85 89
23 156
23 80
60 86
164 134
130 86
72 86
72 35
52 66
52 60
52 154
104 86
104 35
71 126
56 85
163 171
154 52
154 86
3 86
35 104
63 106
80 23
155 27
56 85
56 85
43 167
63 91
63 76
63 24
63 153
85 111
85 56
85 89
80 27
63 91
63 24
126 71
71 126
63 157
63 106
2 142
63 153
23 80
35 86
33 86
33 130
82 86
82 86
167 43
167 65
56 85
56 89
56 85
142 2
142 24
63 153
56 85
135 56
24 91
24 63
24 91
24 63
24 2
24 142
24 91
24 146
24 63
24 91
10 24
141 130
155 152
80 23
80 156
146 167
28 134
9 56
137 86
119 28
119 28
119 28
119 28
119 28
142 91
142 24
27 80
140 80
10 24
56 9
27 46
56 135
23 156
23 44
91 63
135 56
130 60
167 146
148 65
57 65
44 23
157 63
157 76
65 43
65 167
142 40
43 167
63 68
63 43
111 135
111 56
60 130
40 153
135 111
135 56
99 45
99 73
99 58
99 117
99 37
63 91
99 37
99 45
99 73
99 58
99 117
63 91
117 99
66 133
33 133
153 24
153 10
63 91
2 40
68 43
68 63
76 157
154 82
171 144
58 99
142 157
135 56
157 142
142 157
167 43
167 65
157 63
23 156
23 140
23 136
63 146
157 142
63 157
87 56
24 91
24 142
157 146
52 165
165 52
142 157
39 137
39 104
39 141
39 47
39 3
39 35
2 18
56 9
56 111
56 85
56 89
56 87
9 56
