223789 213163
223789 213163
376989 50329
26375 168366
376989 13813
453850 8
422097 8
99258 50329
184615 364376
184615 364376
184615 364375
92153 60337
75083 84647
75083 42182
364376 184615
364376 184615
442071 26139
163149 2417
33946 2417
10284 33946
10284 2417
325821 8
176481 2417
222533 38224
380338 519
5393 26637
5393 5393
104321 238279
408376 8
4665 92153
325916 325915
325916 325915
325915 325916
325915 325915
247125 463
325916 325915
325916 325915
224480 93318
50219 4665
50219 92153
205864 244881
205864 244881
47619 8
132827 26139
93269 93306
134554 33946
134554 2417
300856 18038
300856 18038
300856 511
206362 64911
18626 26375
168365 26375
89805 64911
331965 331967
325915 325916
325915 325915
203358 42514
203358 42514
80101 46842
2733 21469
2733 21469
331967 331965
331967 331967
383669 54200
235957 38224
149403 235556
149403 235556
197097 519
416098 3604
185901 2417
331320 331320
64375 19604
64375 519
64375 19604
64375 519
213163 213163
213163 223789
196145 6695
196145 6695
196145 30578
424732 677
424732 677
424732 26139
168554 142366
104498 123091
318838 302130
197061 88
197061 197061
197061 197061
197061 220
446328 5411
75470 4665
75470 3604
50295 50218
38819 33833
38819 50218
130621 3024
247674 519
33833 50231
33833 50231
114351 2687
195886 8
50222 33833
50231 33833
50231 33833
120250 2417
46996 33833
34790 120250
34790 2417
88078 8
207707 13812
162386 69340
43332 43332
43332 43332
43332 43332
445899 519
9229 3066
9229 3066
59343 3604
250401 3604
250401 59343
432622 3604
432622 59343
82732 3209
295958 295959
147510 3604
147510 59343
6669 9192
294403 3604
294403 59343
3066 9192
199121 9192
150805 19426
150805 8425
150805 8425
175283 3604
175283 59343
190062 3604
190062 59343
133812 9192
33463 8
54873 25115
146847 8
321340 321341
321340 321341
38517 193315
165978 2288
165978 2288
47517 7117
121932 7117
6645 73370
87074 7117
9231 3024
184805 26139
107640 131873
97154 7117
364376 184615
174754 2288
174754 2288
10367 170707
281951 170862
281951 11991
186184 66383
186184 70301
186184 70301
437786 226803
437786 226803
226803 226803
226803 437786
66383 186184
66383 66383
66383 70301
93337 9192
70301 186184
70301 186184
70301 66383
357642 519
449329 2417
84112 2417
296524 8
196130 47499
196130 47499
93252 6682
6672 73370
133111 133104
175719 133104
271995 73370
6701 93314
369148 3604
369148 59343
152027 8
62086 45382
62086 45382
182039 74294
182039 74294
242386 242386
376344 376345
376344 376345
47499 196130
47499 47499
183325 7216
296120 296119
296120 296119
296119 296120
296119 296119
6658 130621
137652 3604
315802 54200
64998 30225
64998 35376
105407 10269
109391 130621
288386 2417
28962 11597
67382 67382
93274 133437
6701 133437
207707 13812
176488 13813
265559 42178
285914 228311
285914 228311
93308 73367
229083 13627
105363 105364
105363 105364
120327 75458
75467 75458
75467 75458
228311 285914
228311 228311
52936 42178
52936 42178
16091 2417
195059 130621
5444 43367
143912 9192
285913 285914
285913 228311
165791 130621
119840 3604
202480 381222
160055 160055
86180 23440
391175 13813
6701 133435
170101 170103
93317 133435
15508 21543
15508 21543
29021 369760
279985 3604
75467 75458
75467 75458
73367 331
317429 3604
17172 85199
17172 85199
93321 133435
216483 9851
198298 294737
198298 294737
64911 88
404330 13813
319037 354622
374703 354622
454931 354622
431833 354622
431834 354622
445734 354622
3546 3546
132857 88
132857 64911
187903 2417
101238 35376
77058 8
351608 95871
430150 265187
430150 265187
45308 2417
180058 88
127808 6677
103447 88
103447 64911
6708 6640
101109 35376
16801 8
436094 122456
12510 1247
197357 9851
247581 12510
247581 1247
42179 42178
42179 42178
67503 2417
42180 88
42180 64911
42180 42178
42180 42178
414901 519
67517 67503
67517 2417
65919 67503
65919 2417
173138 109396
414901 62542
222663 22849
222663 38226
48344 404478
28866 67503
28866 2417
27983 64911
63144 35376
42418 37820
10335 9851
96537 42178
96537 42178
122193 383
130712 1988
53967 3604
209611 39422
153566 519
40819 37820
6677 73370
173728 1988
81181 17527
126658 37820
294547 241786
294547 241786
93336 131506
44726 9851
44726 216483
10381 162765
10381 162765
291390 67581
240985 119429
454953 1852
10381 162765
10381 162765
67868 115560
381704 8
149268 295866
149268 295866
27381 21469
27381 20
27381 50196
27381 50196
27381 51285
144996 519
6692 73370
295866 149268
295866 149268
42831 26139
297225 73973
425343 3604
166682 48526
166682 48526
343700 88846
242234 2417
413591 47756
170952 170707
139593 139598
124454 12510
124454 1247
199693 121293
199693 121293
199693 6642
89805 13813
329065 38224
378115 137174
378115 137174
428062 37820
9208 7117
29343 21203
29343 21203
122529 42831
122529 26139
379331 8161
451768 1988
95728 173141
206392 42831
206392 26139
212156 7117
67371 3604
89807 3604
227321 126670
109527 88695
205787 383
137967 8
368677 519
50512 192414
50512 192414
344200 9851
192414 50512
192414 192414
351018 35376
13123 13808
128811 3604
305865 152912
305865 152912
342229 2417
23243 40130
232850 74583
243882 61107
109527 13808
61142 218973
61142 218973
104567 2417
232850 104567
232850 2417
47498 151486
47519 7117
218584 2417
405101 3604
31850 31850
375960 375961
48344 74363
375960 375961
375960 375961
146642 29233
191794 9851
330158 54200
24343 2156
50910 553
119553 2156
166174 22849
166174 38226
10241 553
279316 2156
10343 2156
81105 2156
13790 8209
13790 8209
58294 185597
442197 21606
105545 8209
105545 13790
77999 21606
193230 2156
26629 553
144499 81492
63839 21606
94830 2156
332827 21606
98453 2156
128727 38224
35170 121433
35170 121433
98453 2156
68223 2156
50962 47666
50962 47666
387335 47666
156846 2156
174750 214542
162639 21606
237987 519
425441 103549
13808 92274
13808 92274
164745 14825
164745 14825
14825 164745
14825 164745
89805 42182
432626 21606
93314 39089
93314 39089
250231 1286
189328 519
433504 2156
189328 519
378310 8
208279 208279
160819 189332
21006 29233
59000 93171
168424 519
137174 378115
137174 137174
2149 9304
183496 26136
38937 148719
93171 88
2303 11876
18966 2156
374809 46754
315402 47666
204518 282673
295959 295958
295959 295959
126814 519
56426 50329
381956 47666
57623 194990
39089 6643
443983 2156
36970 519
198128 7117
198128 7117
206392 129505
206392 129505
147717 5438
129505 206392
129505 129505
132125 35376
48344 117742
67515 67503
30030 12567
122190 9851
122190 10335
194069 406342
314449 21606
87397 87400
43515 2417
439 13808
439 13808
92274 13808
92274 13808
182906 64911
95848 6704
95848 6704
95848 163487
252235 8
115818 43515
115818 2417
6704 6704
6704 163487
6704 95848
124904 2156
144338 42909
144338 93165
214087 2417
255850 88078
255850 8
17283 5438
378115 137174
378115 137174
162268 2156
124379 194069
6704 6674
6704 6674
6704 6696
6704 6674
6704 6674
6704 6696
101209 5438
420585 420585
76165 87449
376345 376344
376345 376344
147228 5438
32806 4129
32806 4129
145408 87449
364196 383
314411 383
113078 87449
60049 29233
29559 519
110577 154291
206362 88
206362 64911
199695 130621
185735 88
185735 88
185735 54070
101816 2911
11047 67260
11047 67260
135265 120250
2912 2911
58994 383
1054 720
1054 720
206362 2156
206362 13808
358677 47666
298559 383
409329 5438
357068 405863
202619 383
405863 405863
405863 357068
269340 46754
435071 405863
435071 357068
182043 94836
405863 405863
405863 357068
405863 435071
16770 22512
404613 404614
283614 3604
93293 133435
71729 463
368430 3604
37265 2517
143977 143977
216602 5438
343295 2156
145888 43515
145888 2417
254611 131506
189955 2911
77982 5438
324955 88
324955 324955
324955 324955
324955 1881
324955 64893
324955 88
324955 19604
324955 1881
324955 43742
324955 126291
82461 68419
142992 245362
93339 2156
329762 329763
265813 265816
265813 265813
145888 244067
77058 87449
295882 2156
158315 22512
198589 138242
64413 153760
64413 153760
88540 519
111821 38432
111821 38432
319542 344522
386251 1988
386251 9704
386251 103549
344524 319542
344524 344522
42289 43515
42289 2417
57114 57114
106209 175410
255320 176054
255320 176054
59173 35376
317866 3393
317866 3393
11135 6790
1912 5438
37361 383
152500 677
152500 677
16970 2417
122106 279929
122106 279929
28829 6790
28829 11135
54755 23336
14164 6790
14164 11135
320599 519
80077 80084
68498 6790
68498 11135
28829 216
28829 216
223125 13808
212560 17871
82741 17871
100771 17871
246346 519
395476 220
395476 220
26238 17871
44784 17871
193112 17871
369224 17871
272570 272569
3172 2911
205945 17871
223818 3549
223818 3549
82142 17871
242261 17871
23713 2247
369224 17871
786 17871
10053 39422
204518 93335
162855 39422
223143 157500
223143 157500
373751 332060
373751 332060
122729 14721
122729 14721
50218 35376
112667 79983
31187 50910
149824 15538
344524 319542
344524 344522
253094 319542
253094 344522
197357 17871
375960 375961
375960 375961
118375 6790
26251 17871
180597 47499
180597 150525
60845 191618
404614 404613
404614 404614
11223 17871
11223 17871
126500 11286
48344 22703
106217 383
73725 191618
80084 80077
80084 80084
51177 13808
80084 80077
80084 80077
154584 39101
118365 6790
118365 6790
178337 216
178337 216
10179 9903
10179 9903
116323 30228
118370 6790
319542 253094
319542 253094
319542 344522
432624 677
432624 677
242386 258313
242386 258313
258313 242386
258313 258313
326051 30228
326051 116323
396668 396669
396668 396669
89805 12751
447633 447398
447633 447398
87330 87400
135555 180570
266557 189779
266557 189779
95586 180570
84647 13808
396669 396668
396669 396668
95697 180570
189779 266557
189779 266557
191607 87400
70057 9903
148237 14577
130757 13812
50910 8209
320134 183099
47223 17866
76273 29756
76273 29756
287954 8
227558 14476
130791 786
130791 17871
152400 13809
64987 35376
51241 12751
51241 89805
51241 12751
11050 214138
107743 51241
107743 12751
447633 447398
447633 447398
320089 2417
20358 88277
329011 41733
329011 37820
416515 1276
198639 93165
187918 2417
33728 33737
42913 5438
6338 6338
51856 6338
329388 13811
42850 13809
381414 13811
11029 214138
170925 288089
18987 9682
46056 28996
126734 28996
94269 94869
415407 50512
415407 192414
260375 288408
260375 288408
82679 53351
279983 121548
231918 50867
288408 260375
288408 260375
343677 50867
26486 88
68391 90718
270513 677
270513 677
83622 81190
208997 50329
424239 93032
204111 90718
364295 121548
100414 519
100414 519
154573 5411
100414 17871
