223789 213163
223789 213163
376989 50329
26375 168366
376989 13813
453850 8
422097 8
99258 50329
184615 364376
184615 364376
184615 364375
92153 60337
75083 84647
75083 42182
364376 184615
364376 184615
442071 26139
163149 2417
33946 2417
10284 33946
10284 2417
325821 8
176481 2417
222533 38224
380338 519
5393 26637
5393 5393
104321 238279
408376 8
4665 92153
325916 325915
325916 325915
325915 325916
325915 325915
247125 463
325916 325915
325916 325915
224480 93318
50219 4665
50219 92153
205864 244881
205864 244881
47619 8
132827 26139
93269 93306
134554 33946
134554 2417
300856 18038
300856 18038
300856 511
206362 64911
18626 26375
168365 26375
89805 64911
331965 331967
325915 325916
325915 325915
203358 42514
203358 42514
80101 46842
2733 21469
2733 21469
331967 331965
331967 331967
383669 54200
235957 38224
149403 235556
149403 235556
197097 519
416098 3604
185901 2417
331320 331320
64375 19604
64375 519
64375 19604
64375 519
213163 213163
213163 223789
196145 6695
196145 6695
196145 30578
424732 677
424732 677
424732 26139
168554 142366
104498 123091
318838 302130
197061 88
197061 197061
197061 197061
197061 220
446328 5411
75470 4665
75470 3604
50295 50218
38819 33833
38819 50218
130621 3024
247674 519
33833 50231
33833 50231
114351 2687
195886 8
50222 33833
50231 33833
50231 33833
120250 2417
46996 33833
34790 120250
34790 2417
88078 8
207707 13812
162386 69340
43332 43332
43332 43332
43332 43332
445899 519
9229 3066
9229 3066
59343 3604
250401 3604
250401 59343
432622 3604
432622 59343
82732 3209
295958 295959
147510 3604
147510 59343
6669 9192
294403 3604
294403 59343
3066 9192
199121 9192
150805 19426
150805 8425
150805 8425
175283 3604
175283 59343
190062 3604
190062 59343
133812 9192
33463 8
54873 25115
146847 8
321340 321341
321340 321341
38517 193315
165978 2288
165978 2288
47517 7117
121932 7117
6645 73370
87074 7117
9231 3024
184805 26139
107640 131873
97154 7117
364376 184615
174754 2288
174754 2288
10367 170707
281951 170862
281951 11991
186184 66383
186184 70301
186184 70301
437786 226803
437786 226803
226803 226803
226803 437786
66383 186184
66383 66383
66383 70301
93337 9192
70301 186184
70301 186184
70301 66383
357642 519
449329 2417
84112 2417
296524 8
196130 47499
196130 47499
93252 6682
6672 73370
133111 133104
175719 133104
271995 73370
6701 93314
369148 3604
369148 59343
152027 8
62086 45382
62086 45382
182039 74294
182039 74294
242386 242386
376344 376345
376344 376345
47499 196130
47499 47499
183325 7216
296120 296119
296120 296119
296119 296120
296119 296119
6658 130621
137652 3604
315802 54200
64998 30225
64998 35376
105407 10269
109391 130621
288386 2417
28962 11597
67382 67382
93274 133437
6701 133437
207707 13812
176488 13813
265559 42178
285914 228311
285914 228311
93308 73367
229083 13627
105363 105364
105363 105364
120327 75458
75467 75458
75467 75458
228311 285914
228311 228311
52936 42178
52936 42178
16091 2417
195059 130621
5444 43367
143912 9192
285913 285914
285913 228311
165791 130621
119840 3604
202480 381222
160055 160055
86180 23440
391175 13813
6701 133435
170101 170103
93317 133435
15508 21543
15508 21543
29021 369760
279985 3604
75467 75458
75467 75458
73367 331
317429 3604
17172 85199
17172 85199
93321 133435
216483 9851
198298 294737
198298 294737
64911 88
404330 13813
319037 354622
374703 354622
454931 354622
431833 354622
431834 354622
445734 354622
3546 3546
132857 88
132857 64911
187903 2417
101238 35376
77058 8
351608 95871
430150 265187
430150 265187
45308 2417
180058 88
127808 6677
103447 88
103447 64911
6708 6640
101109 35376
16801 8
436094 122456
12510 1247
197357 9851
247581 12510
247581 1247
42179 42178
42179 42178
67503 2417
42180 88
42180 64911
42180 42178
42180 42178
414901 519
67517 67503
67517 2417
65919 67503
65919 2417
173138 109396
414901 62542
222663 22849
222663 38226
48344 404478
28866 67503
28866 2417
27983 64911
63144 35376
42418 37820
10335 9851
96537 42178
96537 42178
122193 383
130712 1988
53967 3604
209611 39422
153566 519
40819 37820
6677 73370
173728 1988
81181 17527
126658 37820
294547 241786
294547 241786
93336 131506
44726 9851
44726 216483
10381 162765
10381 162765
291390 67581
240985 119429
454953 1852
10381 162765
10381 162765
67868 115560
381704 8
149268 295866
149268 295866
27381 21469
27381 20
27381 50196
27381 50196
27381 51285
144996 519
6692 73370
295866 149268
295866 149268
42831 26139
297225 73973
425343 3604
166682 48526
166682 48526
343700 88846
242234 2417
413591 47756
170952 170707
139593 139598
124454 12510
124454 1247
199693 121293
199693 121293
199693 6642
89805 13813
329065 38224
378115 137174
378115 137174
428062 37820
9208 7117
29343 21203
29343 21203
122529 42831
122529 26139
379331 8161
451768 1988
95728 173141
206392 42831
206392 26139
212156 7117
67371 3604
89807 3604
227321 126670
109527 88695
205787 383
137967 8
368677 519
50512 192414
50512 192414
344200 9851
192414 50512
192414 192414
351018 35376
13123 13808
128811 3604
305865 152912
305865 152912
342229 2417
23243 40130
232850 74583
243882 61107
109527 13808
61142 218973
61142 218973
104567 2417
232850 104567
232850 2417
47498 151486
47519 7117
218584 2417
405101 3604
31850 31850
375960 375961
48344 74363
375960 375961
375960 375961
146642 29233
191794 9851
330158 54200
24343 2156
50910 553
119553 2156
166174 22849
166174 38226
10241 553
279316 2156
10343 2156
81105 2156
13790 8209
13790 8209
58294 185597
442197 21606
105545 8209
105545 13790
77999 21606
193230 2156
26629 553
144499 81492
63839 21606
94830 2156
332827 21606
98453 2156
128727 38224
35170 121433
35170 121433
98453 2156
68223 2156
50962 47666
50962 47666
387335 47666
156846 2156
174750 214542
162639 21606
237987 519
425441 103549
13808 92274
13808 92274
164745 14825
164745 14825
14825 164745
14825 164745
89805 42182
432626 21606
93314 39089
93314 39089
250231 1286
189328 519
433504 2156
189328 519
378310 8
208279 208279
160819 189332
21006 29233
59000 93171
168424 519
137174 378115
137174 137174
2149 9304
183496 26136
38937 148719
93171 88
2303 11876
18966 2156
374809 46754
315402 47666
204518 282673
295959 295958
295959 295959
126814 519
56426 50329
381956 47666
57623 194990
39089 6643
443983 2156
36970 519
198128 7117
198128 7117
206392 129505
206392 129505
147717 5438
129505 206392
129505 129505
132125 35376
48344 117742
67515 67503
30030 12567
122190 9851
122190 10335
194069 406342
314449 21606
87397 87400
43515 2417
439 13808
439 13808
92274 13808
92274 13808
182906 64911
95848 6704
95848 6704
95848 163487
252235 8
115818 43515
115818 2417
6704 6704
6704 163487
6704 95848
124904 2156
144338 42909
144338 93165
214087 2417
255850 88078
255850 8
17283 5438
378115 137174
378115 137174
162268 2156
124379 194069
6704 6674
6704 6674
6704 6696
6704 6674
6704 6674
6704 6696
101209 5438
420585 420585
76165 87449
376345 376344
376345 376344
147228 5438
32806 4129
32806 4129
145408 87449
364196 383
314411 383
113078 87449
60049 29233
29559 519
110577 154291
206362 88
206362 64911
199695 130621
185735 88
185735 88
185735 54070
101816 2911
11047 67260
11047 67260
135265 120250
2912 2911
58994 383
1054 720
1054 720
206362 2156
206362 13808
358677 47666
298559 383
409329 5438
357068 405863
202619 383
405863 405863
405863 357068
269340 46754
435071 405863
435071 357068
182043 94836
405863 405863
405863 357068
405863 435071
16770 22512
404613 404614
283614 3604
93293 133435
71729 463
368430 3604
37265 2517
143977 143977
216602 5438
343295 2156
145888 43515
145888 2417
254611 131506
189955 2911
77982 5438
324955 88
324955 324955
324955 324955
324955 1881
324955 64893
324955 88
324955 19604
324955 1881
324955 43742
324955 126291
82461 68419
142992 245362
93339 2156
329762 329763
265813 265816
265813 265813
145888 244067
77058 87449
295882 2156
158315 22512
198589 138242
64413 153760
64413 153760
88540 519
111821 38432
111821 38432
319542 344522
386251 1988
386251 9704
386251 103549
344524 319542
344524 344522
42289 43515
42289 2417
57114 57114
106209 175410
255320 176054
255320 176054
59173 35376
317866 3393
317866 3393
11135 6790
1912 5438
37361 383
152500 677
152500 677
16970 2417
122106 279929
122106 279929
28829 6790
28829 11135
54755 23336
14164 6790
14164 11135
320599 519
80077 80084
68498 6790
68498 11135
28829 216
28829 216
223125 13808
212560 17871
82741 17871
100771 17871
246346 519
395476 220
395476 220
26238 17871
44784 17871
193112 17871
369224 17871
272570 272569
3172 2911
205945 17871
223818 3549
223818 3549
82142 17871
242261 17871
23713 2247
369224 17871
786 17871
10053 39422
204518 93335
162855 39422
223143 157500
223143 157500
373751 332060
373751 332060
122729 14721
122729 14721
50218 35376
112667 79983
31187 50910
149824 15538
344524 319542
344524 344522
253094 319542
253094 344522
197357 17871
375960 375961
375960 375961
118375 6790
26251 17871
180597 47499
180597 150525
60845 191618
404614 404613
404614 404614
11223 17871
11223 17871
126500 11286
48344 22703
106217 383
73725 191618
80084 80077
80084 80084
51177 13808
80084 80077
80084 80077
154584 39101
118365 6790
118365 6790
178337 216
178337 216
10179 9903
10179 9903
116323 30228
118370 6790
319542 253094
319542 253094
319542 344522
432624 677
432624 677
242386 258313
242386 258313
258313 242386
258313 258313
326051 30228
326051 116323
396668 396669
396668 396669
89805 12751
447633 447398
447633 447398
87330 87400
135555 180570
266557 189779
266557 189779
95586 180570
84647 13808
396669 396668
396669 396668
95697 180570
189779 266557
189779 266557
191607 87400
70057 9903
148237 14577
130757 13812
50910 8209
320134 183099
47223 17866
76273 29756
76273 29756
287954 8
227558 14476
130791 786
130791 17871
152400 13809
64987 35376
51241 12751
51241 89805
51241 12751
11050 214138
107743 51241
107743 12751
447633 447398
447633 447398
320089 2417
20358 88277
329011 41733
329011 37820
416515 1276
198639 93165
187918 2417
33728 33737
42913 5438
6338 6338
51856 6338
329388 13811
42850 13809
381414 13811
11029 214138
170925 288089
18987 9682
46056 28996
126734 28996
94269 94869
415407 50512
415407 192414
260375 288408
260375 288408
82679 53351
279983 121548
231918 50867
288408 260375
288408 260375
343677 50867
26486 88
68391 90718
270513 677
270513 677
83622 81190
208997 50329
424239 93032
204111 90718
364295 121548
100414 519
100414 519
154573 5411
100414 17871
437923 8
60201 88
60201 26486
42137 88
42137 26486
31140 70037
369752 13809
198924 2156
43352 28996
211701 110933
9288 9288
9288 9288
149737 17939
122939 677
122939 677
340007 121548
42335 17939
107376 21606
35619 160420
162085 100414
162085 519
92688 15538
206362 13811
100306 9288
184623 122939
359385 1221
92688 13811
341759 33116
264063 9288
452671 88
452671 26486
140301 17939
114456 349
114456 349
170141 88
170141 26486
233404 94869
213519 121548
71148 5438
174346 174346
174346 174346
403954 28996
19640 11135
195446 43515
195446 2417
100868 121991
232891 1221
207704 28996
295584 3604
295584 59343
83479 17939
77846 17939
265816 265816
265816 265813
265816 265813
24919 17939
128623 40684
128623 40684
369236 1221
17600 88
17600 26486
242840 17939
145287 73754
343201 100414
343201 100414
197427 73941
104541 42170
104541 42170
19643 6338
26072 17145
26072 37001
26072 37001
107585 50456
142454 73754
258313 242386
106221 383
220523 519
244043 26755
244043 26755
245202 19
245202 19
171145 17871
453801 88
387223 17871
309547 39422
188761 188761
11516 1813
43693 80214
30539 17871
18506 50947
211640 17939
187228 17939
89805 13808
23616 143494
23979 50947
276071 2417
341901 100414
164744 177050
236406 267310
46053 9161
217322 39084
51853 73608
4 88
4 26486
107619 7399
10269 7399
329291 88
329291 26486
59072 88
59072 26486
118970 88
118970 26486
450774 88
450774 26486
57648 3604
78347 88
78347 26486
48985 88
48985 26486
22566 88
22566 26486
51652 88
51652 26486
268170 88
268170 26486
37240 88
37240 26486
6999 88
6999 26486
7394 88
7394 26486
167 88
167 26486
209474 88
209474 26486
159983 88
159983 26486
77768 77778
77768 77778
159981 88
159981 26486
350200 88
350200 26486
28333 88
28333 26486
248971 88
248971 26486
255849 88
255849 26486
510 4
457 26486
143654 4
143654 510
95455 88
95455 26486
368867 4
368867 510
142644 88
142644 26486
40851 88
40851 26486
4319 88
4319 26486
152095 4
152095 510
22682 4
22682 510
219218 17939
14054 4
14054 510
170702 4
170702 510
18270 88
18270 26486
36950 88
36950 26486
203001 88
203001 26486
107006 88
107006 26486
24688 88
24688 26486
69515 41479
210100 4
210100 510
142125 4
142125 510
143579 88
143579 26486
97560 86517
167846 39084
233730 88
233730 26486
171000 88
389738 88
389738 26486
199748 4
199748 510
155105 88
155105 43742
27357 88
27357 26486
130535 4
130535 510
108380 4
108380 510
25862 88
25862 26486
131430 88
131430 26486
106666 88
106666 26486
290756 88
290756 26486
148602 4
148602 510
1825 88
1825 26486
99846 4
99846 510
74938 28476
6269 2417
389890 88
28254 88
28254 26486
54738 4
54738 510
16304 50910
180842 4
180842 510
64528 88
64528 26486
255849 43515
255849 2417
113232 88
113232 26486
18665 64362
255849 463
5899 26486
27959 88
27959 26486
185591 4
185591 510
56132 88
56132 26486
337809 26486
185591 4
185591 510
124342 88
124342 26486
29459 88
29459 26486
37694 88
37694 26486
14517 88
14517 26486
79338 4
79338 510
56903 5914
154833 88
154833 26486
142623 17871
438160 88
438160 26486
172473 4
172473 510
37657 26486
37657 26486
36634 88
36634 26486
87890 88
87890 26486
152579 4
152579 510
126479 97560
33962 88
33962 26486
117051 4
117051 510
43676 88
43676 26486
135916 88
135916 26486
22505 88
22505 26486
67614 88
67614 26486
279880 88
279880 26486
42959 88
42959 26486
87889 88
87889 26486
212781 13765
70071 89338
7856 88
7856 26486
342129 88
342129 26486
91992 88
91992 26486
37001 17145
37001 17145
161069 4
161069 510
33551 88
33551 26486
151979 17871
164503 88
164503 26486
78750 4
78750 510
17520 88
17520 26486
118326 88
118326 26486
295227 88
295227 26486
138173 64362
155471 88
155471 26486
541 10253
60857 18065
74713 88
74713 26486
63406 19919
90459 4
90459 510
144247 18065
215675 28996
104059 88
104059 26486
371881 88
371881 26486
25907 109494
181364 88
181364 26486
190316 4
190316 510
216817 4
216817 510
122087 122102
122087 122102
258751 13765
141722 26153
141722 15489
141722 238236
181364 88
181364 26486
181364 26486
344287 88
344287 26486
245817 113290
138089 88
138089 26486
293156 74938
293156 28476
9131 88
9131 26486
18861 220
93195 88
93195 26486
28245 28390
6835 2417
139359 88
139359 26486
147421 60146
369633 13603
148247 60146
2374 44543
2374 44543
183569 88
183569 26486
74936 88
74936 26486
336508 88
336508 26486
101906 88
101906 26486
220954 13603
33548 88
33548 26486
202689 64906
179239 4
179239 510
89619 88
89619 216
89619 216
6078 38790
322495 322496
16016 38790
16936 6835
16936 2417
11256 38790
110262 110262
97293 70037
97293 70037
20488 88
166945 4
166945 510
79743 38790
106748 38790
428629 222088
95644 38790
129341 38790
126714 38790
28383 4
28383 510
80952 88
80952 26486
158289 2911
140970 88
140970 26486
73788 88
73788 1250
73788 26486
147993 38790
149346 88
149346 26486
27252 38790
160629 38790
147036 38790
88816 38790
260323 88
260323 26486
52944 88
52944 26486
261100 11286
87639 88
87639 26486
383807 113290
58488 88
58488 26486
344255 14621
26417 88
26417 26486
145918 38790
201308 4
201308 510
24513 4
24513 510
78328 1813
321527 113290
12751 89805
12751 89805
330171 279207
249877 88
249877 26486
89805 88
89805 26486
210905 2417
134290 88
134290 26486
12751 51241
89248 88
89248 26486
138801 88
14368 519
138663 1813
133067 88
133067 26486
433379 433378
433378 433379
433378 433378
36810 77616
36810 77616
433378 433379
433378 433379
182043 9161
30096 38790
126571 9161
97301 88
97301 26486
3624 88
3624 26486
144815 38790
77616 36810
77616 36810
110093 38790
279207 330171
279207 330171
89805 12751
1400 88
1400 26486
20031 88
20031 26486
108801 88
108801 26486
245543 77616
48226 38790
128871 38790
434675 4
434675 510
175569 38790
138666 1813
18057 38790
167681 35376
85847 88
85847 26486
50910 38790
70111 38790
23774 88
23774 26486
12751 38790
160382 67774
422463 463
247775 88
247775 26486
276891 38790
19113 38790
64606 38790
9351 38790
360557 38790
71430 38790
146704 38790
144646 38790
76940 38790
407383 38790
354323 88
354323 26486
7245 38790
4394 158097
4394 158097
55807 4
55807 510
23976 38790
264411 122444
168623 4
168623 510
302519 5438
13013 38790
328870 113290
194192 9903
96291 38790
130582 4
130582 510
139112 38790
305128 38790
166628 17871
133571 38790
71897 11135
3636 38790
157599 38790
76132 38790
19048 38790
223726 223718
72252 88
72252 26486
17561 88
17561 26486
278775 510
27202 5438
99707 38790
65474 88
65474 26486
24299 38790
124549 88
124549 26486
248466 17871
24593 88
24593 26486
403358 88
403358 26486
160612 38790
300983 300982
135427 74938
135427 28476
103759 38790
45677 88
45677 26486
99707 38790
99707 38790
16363 88
16363 26486
128817 4
128817 510
5123 38790
48084 38790
78328 38790
35839 38790
211369 38790
112862 38790
58769 38790
73813 88
73813 26486
101238 13798
261594 261597
281493 88
281493 26486
43420 88
43420 26486
49605 38790
115005 38790
136726 38790
24890 88
24890 26486
30097 13798
19335 88
19335 26486
52730 4
52730 510
354470 38790
340042 67774
137188 4
137188 510
57721 786
57721 764
57721 764
57721 17871
155034 38790
47309 38790
13808 26486
185057 88
185057 26486
13968 38790
168935 38790
16649 88
16649 26486
155637 88
155637 26486
303664 88
303664 26486
286005 88
286005 26486
109047 13603
212805 88
212805 26486
345303 300983
345303 300982
75689 88
75689 26486
264232 88
264232 26486
68221 38790
190887 88
190887 26486
255242 88
255242 26486
190120 383
108383 88
108383 26486
168677 88
168677 26486
73371 77616
46418 38790
93279 121466
93279 121466
394139 88
394139 26486
19295 38790
61732 88
61732 26486
221496 88
221496 26486
207728 38790
106644 88
106644 26486
1126 88
1126 26486
163347 20464
447852 88
447852 26486
158097 4394
158097 4394
26972 88
26972 26486
30422 88
30422 26486
414398 88
414398 26486
60587 20464
223914 38790
273860 88
273860 26486
287068 88
287068 26486
91965 38790
206354 38790
92528 4974
21804 88
21804 26486
44799 38790
424861 88
424861 26486
405484 88
405484 26486
196530 88
196530 26486
50218 35376
137490 88
137490 26486
168124 88
93620 88
93620 26486
271643 2417
145108 38790
140089 4974
140089 4974
190403 88
190403 26486
167769 38790
50434 88
309469 17939
185374 88
185374 26486
433329 88
433329 88
160633 38790
379097 677
379097 677
38532 88
38532 26486
106247 4974
366196 88
366196 50434
222831 88
222831 50434
62455 38790
125614 6410
440554 38790
31987 88
31987 26486
271518 88
271518 50434
271518 50434
422848 68686
422848 68686
152407 33728
152407 33737
415626 4
415626 510
239052 88
239052 26486
37983 38790
72252 38790
401841 88
401841 26486
418178 88
418178 26486
372698 4
372698 510
332257 2412
77346 88
77346 26486
415261 88
415261 26486
213518 121548
33142 33116
104057 35376
84953 4974
84953 4974
192086 99209
330639 88
330639 26486
272652 26139
376822 88
376822 26486
196531 88
196531 26486
6982 50920
50952 50920
41051 88
41051 26486
107693 38790
134283 38790
53393 88
53393 26486
140815 38790
434243 52774
24215 50920
129924 28390
129924 28390
105544 2417
41633 9682
173781 88
173781 26486
371274 50954
22036 38790
104567 22240
198531 88
198531 50434
414163 677
414163 677
242089 88
242089 26486
41152 50920
41152 24215
132478 2417
85441 38790
107353 4
107353 510
226555 88
226555 50434
89805 38790
90366 88
90366 26486
434932 88
434932 26486
275382 38790
298237 16649
298237 26486
19827 88
19827 26486
138665 38790
147808 38790
4582 65644
33097 9410
410627 88
410627 26486
49841 26486
204290 88
204290 50434
102804 88
102804 26486
65187 88
277321 88
277321 26486
35184 38790
110592 88
110592 26486
214857 88
214857 26486
104057 35376
134023 88
134023 26486
3248 236913
252733 4
252733 510
396290 88
396290 50434
35809 38790
25024 4
25024 510
22240 22240
134107 38790
104567 22240
104567 22240
73371 77616
51638 88
51638 26486
162863 38790
50114 22240
371136 88
31351 38790
2298 65644
266825 65644
77864 22240
77864 22240
16578 38790
346418 4
346418 510
447398 447398
447398 447633
32780 65644
256772 88
256772 50434
217972 217969
171095 38790
443450 443450
443450 443450
314759 88
314759 26486
205159 86224
17183 347845
17183 347845
265367 3369
265367 3369
24629 4
24629 510
110262 110262
271112 88
271112 26486
410700 88
410700 26486
3604 84647
327844 67774
327844 67774
261212 65644
209129 13123
98075 103503
437149 88
437149 26486
110388 38790
176199 84647
176199 3604
3933 84647
414398 84647
145550 4
145550 510
115966 38790
68939 84647
68939 3604
330895 4974
132436 88
132436 26486
23610 4
23610 510
99364 88
99364 26486
10945 4
10945 510
249095 4
249095 510
47402 65644
371197 4
371197 510
77457 4
77457 510
433476 211431
433476 211431
69269 5209
306807 275987
344380 38790
235395 1813
79185 88
140422 43577
140422 43577
236423 88
236423 26486
31032 88
31032 50434
86271 38790
211431 211431
211431 433476
400736 400736
78593 65867
22502 88
22502 26486
22502 26486
445189 211431
445189 433476
217828 88
217828 26486
260997 279602
260997 279602
314127 275987
77464 4
77464 510
10950 4
10950 510
264646 187393
264646 187393
235399 1813
416526 88
416526 26486
5192 1813
151045 2177
151045 2177
44524 40864
44524 40864
75580 88
75580 26486
25183 4
25183 510
91140 38790
52013 26397
143412 38790
124110 16527
124110 16527
433477 211431
433477 433476
50041 84647
50041 3604
377839 8
377839 8
722 4
722 510
124398 13603
219774 4
219774 510
385794 4
385794 510
301422 88
301422 26486
30437 60749
317218 88
317218 26486
279602 260997
279602 260997
17513 116002
17513 116002
47469 38790
422689 43515
422689 2417
256016 26486
152912 305865
152912 305865
128234 383
29767 1880
134333 13821
41378 88
41378 26486
132847 316003
132847 316003
261698 261212
261698 261212
1386 50920
360905 361530
134333 13821
199981 26486
397380 88
397380 26486
361932 4
361932 510
62353 65867
261212 261698
261212 261698
53575 110903
371590 88
371590 26486
326426 88
326426 26486
20849 72135
20849 72135
138591 113361
295225 57789
78406 88
78406 26486
72135 20849
72135 20849
205759 138420
216211 88
216211 26486
410906 88
410906 26486
312363 88
312363 26486
16022 39423
16022 39423
221430 88
221430 26486
413922 88
413922 50434
1359 50920
1358 50920
1358 1386
1551 88
1551 26486
1379 88
1379 26486
114140 65867
53144 88
53144 26486
1379 88
1379 1551
1379 1551
1379 26486
101550 67384
101550 67384
282758 84647
282758 3604
13537 1247
118602 143210
200881 88
200881 26486
282758 241066
282758 241066
114140 65867
149467 12751
63483 38790
36521 293801
36521 293801
50266 110903
355693 88
355693 26486
301047 53751
250519 3369
153793 50329
167306 88
167306 26486
318635 318636
318635 318635
278040 88
278040 26486
315529 53751
125077 38790
92219 88
92219 26486
387663 143210
79460 143210
130080 510
158836 88
93488 93476
31436 17871
3369 250519
3369 3369
350137 250519
350137 3369
214046 383
125419 290304
125419 290304
230462 510
230462 510
207261 250519
207261 3369
221339 250519
221339 3369
173131 250519
173131 3369
447008 250519
447008 3369
414756 250519
414756 3369
376324 250519
376324 3369
144339 250519
144339 3369
88491 250519
88491 3369
217948 250519
217948 3369
228148 204358
98473 8
387837 250519
387837 3369
354906 250519
354906 3369
436941 250519
436941 3369
199845 10140
199845 117037
199845 117037
442230 250519
442230 3369
343164 250519
343164 3369
230483 250519
230483 3369
173412 250519
173412 3369
12580 250519
12580 3369
94880 250519
94880 3369
451348 250519
451348 3369
234508 250519
234508 3369
225572 38790
335209 250519
335209 3369
249143 88
249143 26486
249143 26486
440430 250519
440430 3369
293802 250519
293802 3369
214507 250519
214507 3369
22313 250519
22313 3369
124298 250519
124298 3369
229706 250519
229706 3369
172534 250519
172534 3369
403936 250519
403936 3369
164139 250519
164139 3369
277659 250519
277659 3369
390202 250519
390202 3369
18852 250519
18852 3369
210119 250519
210119 3369
342980 250519
342980 3369
287700 250519
287700 3369
379254 88
379254 3369
243349 250519
243349 3369
328660 250519
328660 3369
206507 250519
206507 3369
388770 250519
388770 3369
155398 250519
155398 3369
65528 250519
65528 3369
378484 250519
378484 3369
282200 250519
282200 3369
438896 250519
438896 3369
230276 250519
230276 3369
313247 250519
313247 3369
36705 250519
36705 3369
207933 250519
207933 3369
305110 250519
305110 3369
190295 250519
190295 3369
368929 250519
368929 3369
4519 17871
388352 250519
388352 3369
436552 250519
436552 3369
374512 250519
374512 3369
408212 250519
408212 3369
279143 250519
279143 3369
342449 250519
351217 250519
351217 3369
62118 250519
62118 3369
403954 84647
403954 3604
140157 250519
140157 3369
74745 250519
74745 3369
350621 250519
350621 3369
262576 250519
262576 3369
357511 250519
357511 3369
435947 250519
435947 3369
370500 250519
370500 3369
413505 250519
413505 3369
450295 250519
450295 3369
255911 88
176341 250519
176341 3369
416773 250519
416773 3369
352384 250519
352384 3369
237221 250519
237221 3369
395980 250519
395980 3369
162536 250519
162536 3369
200968 250519
200968 3369
304552 250519
304552 3369
368666 250519
368666 3369
430515 250519
430515 3369
109113 4
109113 510
48768 250519
48768 3369
106880 59275
444396 250519
444396 3369
402196 250519
402196 3369
255217 250519
255217 3369
360025 250519
360025 3369
214999 250519
214999 3369
267206 250519
267206 3369
28596 16013
192017 250519
192017 3369
408509 250519
408509 3369
229624 250519
229624 3369
125393 250519
125393 3369
190296 250519
190296 3369
223917 250519
223917 3369
417245 250519
417245 3369
341298 250519
341298 3369
187094 220
187094 220
258526 250519
258526 3369
90366 250519
90366 3369
63279 29233
28539 4
28539 510
238743 250519
238743 3369
156007 250519
156007 3369
408440 250519
408440 3369
23120 250519
23120 3369
318636 318635
318636 318635
253403 250519
253403 3369
193604 250519
193604 3369
375587 250519
375587 3369
47615 250519
47615 3369
81202 250519
81202 3369
204230 250519
204230 3369
362218 250519
362218 3369
221069 250519
221069 3369
265531 250519
265531 3369
144977 250519
144977 3369
171050 250519
171050 3369
47220 51988
406349 250519
406349 3369
195518 250519
195518 3369
281188 250519
281188 3369
313724 250519
313724 3369
89922 88
89922 26486
196662 250519
257364 250519
257364 3369
315864 250519
315864 3369
96937 250519
96937 3369
367713 250519
367713 3369
6443 57654
6443 57654
272099 250519
272099 3369
429523 250519
429523 3369
371975 250519
371975 3369
258538 250519
258538 3369
239074 250519
239074 3369
77602 250519
77602 3369
420960 250519
420960 3369
331228 38790
39889 110903
318634 250519
318634 3369
240922 250519
240922 3369
131967 250519
131967 3369
413485 250519
413485 3369
412042 250519
412042 3369
331303 250519
331303 3369
402673 250519
402673 3369
449554 250519
449554 3369
239144 250519
239144 3369
179322 250519
179322 3369
191005 250519
191005 3369
176859 9990
199020 60350
434429 250519
434429 3369
275554 250519
275554 3369
347428 250519
347428 3369
337321 250519
337321 3369
396685 250519
396685 3369
397486 250519
397486 3369
176388 250519
176388 3369
195517 250519
195517 3369
234305 250519
234305 3369
120050 9990
398391 250519
398391 3369
357827 250519
357827 3369
242724 250519
242724 3369
191629 60350
193679 250519
193679 3369
115889 52934
390215 250519
390215 3369
425467 250519
425467 3369
69308 88
69308 26486
75578 250519
75578 3369
23910 93476
422561 250519
422561 3369
434877 250519
434877 3369
28673 28673
166454 9990
23116 12641
23116 12641
229230 250519
229230 3369
362624 250519
362624 3369
419211 250519
419211 3369
65851 60350
312498 250519
312498 3369
370624 250519
370624 3369
356993 356993
153386 9990
150704 250519
150704 3369
403726 250519
403726 3369
242523 143210
418633 250519
418633 3369
399551 250519
399551 3369
430894 250519
430894 3369
208505 88
208505 26486
132829 60350
165573 4730
165573 4730
92037 250519
92037 3369
65106 250519
217029 260344
217029 260344
344115 250519
344115 3369
400283 250519
400283 3369
447580 250519
447580 3369
53718 109267
348573 250519
348573 3369
37412 250519
37412 3369
53787 109267
342442 250519
342442 3369
15885 60350
392032 250519
392032 3369
262151 250519
262151 3369
78041 250519
78041 3369
320256 250519
320256 3369
274649 250519
274649 3369
255055 4
255055 510
228656 250519
228656 3369
406739 250519
406739 3369
449554 3369
423818 250519
423818 3369
244191 250519
244191 3369
384806 250519
384806 3369
268263 60350
398361 250519
398361 3369
143211 109267
143211 53787
417244 250519
417244 3369
248527 250519
248527 3369
386384 250519
386384 3369
280645 250519
280645 3369
53800 109267
303711 41382
73442 60350
167547 41382
135079 193932
135079 193932
294956 250519
294956 3369
190284 41382
435205 250519
435205 3369
49217 9990
291044 250519
291044 3369
248899 250519
248899 3369
348184 250519
348184 3369
175804 60350
142862 109267
295761 250519
295761 3369
92037 3369
25018 5021
25018 5021
454814 41382
373515 250519
373515 3369
295413 60350
406373 250519
406373 3369
100196 60350
225122 250519
225122 3369
167739 250519
167739 3369
282095 250519
282095 3369
308370 250519
308370 3369
240547 250519
240547 3369
142826 109267
280814 414939
280814 414939
280425 250519
280425 3369
53859 142826
53859 109267
190295 41382
321061 250519
321061 3369
63644 4475
333973 250519
333973 3369
301695 250519
301695 3369
4475 63644
4475 4475
40973 9951
129336 41382
428614 250519
428614 3369
40581 60350
411554 250519
411554 250519
411554 3369
51319 9951
51319 40973
401410 41382
216374 250519
216374 3369
123165 9951
123165 40973
53810 142826
53810 109267
64367 84647
64367 3604
398652 41382
47460 110903
365162 250519
365162 3369
234003 250519
234003 3369
81602 250519
81602 250519
81602 3369
62877 250519
62877 3369
290717 250519
290717 3369
421819 250519
421819 3369
162719 109267
162719 53718
384946 250519
384946 3369
417843 41382
387719 250519
387719 3369
424730 250519
424730 3369
138089 92037
138089 3369
367706 41382
367675 250519
367675 3369
395786 250519
395786 3369
329815 220
329815 220
443594 250519
443594 3369
115840 9903
243282 68285
243282 68285
362314 250519
362314 3369
162721 142823
302527 250519
302527 3369
112582 250519
112582 3369
261145 250519
261145 3369
5021 25018
5021 5021
133017 50920
26043 33281
118927 250519
118927 3369
142835 142823
209567 143210
12641 23116
12641 23116
276745 250519
276745 3369
179622 41382
194253 88
272516 250519
54312 5438
53819 142823
77943 8303
73591 250519
73591 3369
38327 36810
38327 77616
38327 77616
43352 22926
251497 96660
251497 96660
258317 242386
242386 242386
242386 258317
38327 3547
38327 3547
424033 250519
424033 3369
221823 88
221823 26486
119282 77616
258313 242386
118365 123163
440378 250519
440378 3369
274049 250519
207121 11876
455039 250519
455039 3369
242386 242386
242386 258313
242386 242386
196162 65644
213439 250519
213439 3369
201649 250519
201649 3369
196162 41382
346096 250519
143546 123165
247273 142823
74765 8303
250626 250519
250626 3369
350824 250519
350824 3369
264285 147068
264285 147068
324358 250519
324358 3369
347081 250519
347081 3369
395629 143210
44798 38790
46031 250519
430142 3369
430142 3369
16431 65644
371956 250519
371956 3369
23214 110903
23214 110903
25661 5371
293237 170623
279805 250519
279805 3369
209664 88
209664 26486
384164 12641
80281 142826
15717 65644
310788 250519
310788 3369
298623 41382
24658 179622
24658 179622
238911 250519
238911 3369
65032 12641
65032 12641
235296 250519
235296 3369
9951 164151
9951 164151
141204 250519
141204 3369
164151 9951
454734 63644
454734 4475
203046 253289
430600 250519
430600 3369
164031 70352
286355 203705
215785 250519
215785 3369
322465 12641
322465 12641
190847 65644
290304 125419
290304 290304
162541 204110
252636 250519
252636 3369
423736 204110
424606 204110
411422 250519
411422 3369
446240 204110
361614 204110
453599 204110
149249 250519
149249 3369
397128 250519
395194 250519
395194 3369
421370 250519
421370 3369
184994 123165
437910 204110
202743 204110
321079 88
321079 26486
400242 250519
400242 3369
177672 12641
130733 11555
182979 250519
182979 3369
8966 11876
381032 250519
381032 3369
191445 250519
191445 3369
205891 677
211529 41382
131388 177050
131388 164744
375746 250519
375746 3369
11876 13808
383308 250519
383308 3369
355203 250519
355203 3369
18975 88
18975 26486
75083 13808
75083 11876
363009 250519
363009 3369
180078 109267
219303 23314
42251 50218
142069 65644
214042 250519
214042 3369
404017 250519
404017 3369
376903 250519
376903 3369
436484 250519
436484 3369
313283 4
313283 510
108653 250519
108653 3369
132829 2417
70408 63644
70408 4475
166842 250519
166842 3369
93314 131506
71909 22648
447036 250519
447036 3369
424443 250519
424443 3369
199226 302647
126458 22240
126458 36091
126458 36091
51166 88
346255 93032
225714 38790
140109 15483
240896 677
240896 677
200645 302647
18665 77616
397066 250519
397066 3369
271257 88
271257 51166
81666 32641
81666 32641
26398 63931
297624 250519
297624 3369
137584 4
137584 510
425124 41382
182497 93476
115038 63931
406603 2156
396362 250519
396362 3369
183449 11876
183449 11876
16433 65644
305864 245839
54656 1134
405749 250519
405749 3369
303967 373505
39885 103447
288008 250519
288008 3369
1805 180482
25284 63931
141930 69529
141930 69529
413395 250519
413395 3369
289650 250519
289650 3369
171763 228379
147997 9951
105170 75908
105170 75908
297624 88
297624 26486
117033 125436
117033 125436
117033 117034
131640 119769
131640 119769
22743 88
22743 26486
259769 250519
259769 3369
119769 131640
119769 131640
43712 88
43712 26486
5695 88
5695 26486
242812 250519
242812 3369
67601 250519
67601 3369
48344 39885
398291 250519
398291 3369
426280 250519
426280 3369
81173 1296
7185 38602
7185 38602
179254 180482
179254 1805
398971 88
398971 26486
38602 38602
38602 7185
259593 250519
259593 3369
125436 125436
125436 117033
125436 117034
372884 250519
372884 3369
427276 250519
427276 3369
162325 38602
162325 38602
162325 7185
185595 63644
185595 4475
185595 4475
367674 250519
367674 3369
120115 63644
120115 4475
120115 185595
156105 38790
105828 65644
149053 143210
98831 88512
98831 88512
347622 250519
173392 41382
98831 88512
98831 88512
4665 26398
4665 63931
21782 1296
103447 39885
63070 250519
63070 3369
62883 26398
62883 4665
62883 63931
106211 26398
106211 4665
106211 63931
173422 250519
173422 3369
451012 250519
451012 3369
147325 147255
11978 1296
11978 21782
315855 41382
173391 41382
106570 38790
104521 250519
104521 3369
39124 6940
120301 6940
58939 6940
49184 6940
102477 6940
170787 6940
325810 250519
325810 3369
65253 6940
71485 6940
116284 6940
447778 41382
124898 6940
80858 6940
426445 6940
230147 136724
230147 136724
155672 6940
175567 250519
175567 3369
40249 6940
40249 6940
131538 6940
12042 5371
142408 16460
64729 6940
45463 6940
52322 1296
52322 21782
52322 11978
192128 6940
265408 6940
53613 6940
247996 147255
184039 6940
287057 6940
405667 143210
28993 28996
184039 6940
184039 6940
107 4
107 510
14570 6940
57473 6940
208328 6940
8702 6940
59356 6940
31082 6940
102406 6940
70629 6940
341261 6940
77700 41382
77700 60350
28958 28996
86903 63931
86903 63931
40255 6940
342910 6940
51816 6940
379012 250519
379012 3369
58870 4
58870 510
343014 250519
343014 3369
56543 6434
56543 6434
53243 6940
16869 88
16869 26486
43055 22648
43055 71909
427168 250519
427168 3369
134853 6940
273748 6940
29919 6940
404617 6940
445427 250519
445427 3369
353709 6940
57977 6940
51682 6940
19535 6940
50315 6940
329378 6940
228557 109267
200662 6940
53281 6940
70654 6940
16528 6940
178396 6940
111592 6940
324033 6940
125427 125419
141367 6940
104571 22240
328165 6940
8794 6940
147322 147255
57993 6940
114857 6940
133810 250519
133810 3369
124086 6940
33849 6940
324345 31617
171691 1296
171691 21782
432242 6940
96823 6940
80818 6940
97227 6940
116686 6940
133250 6940
120131 6940
43996 6940
56426 6940
265700 250519
265700 3369
198347 6940
242626 250519
242626 3369
452438 41382
5123 63931
78109 4
78109 510
365519 250519
365519 3369
149691 63931
86903 6940
86903 6940
234955 250519
234955 3369
8897 88
226133 250519
226133 3369
5310 23461
5114 63931
63386 6940
115567 6940
140109 63931
88838 103447
8897 88
8897 88
88838 39885
146284 88
146284 88
273680 250519
273680 3369
169614 65644
159525 6940
295820 6940
163684 6940
200332 18065
100316 6940
52210 6940
244358 250519
244358 3369
62564 6940
250519 3369
250519 3369
35015 57967
77400 57967
364847 57967
132182 90700
94062 6940
78556 93806
77400 57967
356205 6940
54028 6940
95037 6940
236064 171763
236064 171763
112018 57967
278548 6940
332563 48768
144568 1134
212363 250519
212363 3369
111181 1296
111181 21782
175065 26092
175065 26092
43322 1296
43322 21782
375626 250519
375626 3369
4884 6940
304826 6940
334930 6940
117693 206334
140109 4665
78770 47460
78770 110903
353830 250519
353830 3369
136907 4
136907 510
21730 6940
124378 38790
42909 38790
211730 6940
169664 4665
141039 38790
44316 4665
360072 6940
346234 6940
118274 6940
208623 250519
208623 3369
108133 38790
82781 38790
86079 6940
292035 292033
292035 292033
336896 6940
111005 6940
99573 250519
16309 4974
341003 6940
113135 6940
239829 250519
239829 3369
200218 41382
371075 6940
152985 24261
64257 6940
92221 3323
365518 250519
365518 3369
362327 250519
362327 3369
26963 1134
208442 250519
208442 3369
35985 88
35985 26486
404337 250519
404337 3369
243025 6940
243025 6940
356177 250519
356177 3369
8755 6940
414073 250519
414073 3369
446962 250519
446962 3369
57254 98639
243571 6940
83119 23461
82689 6940
42180 84647
42180 13808
52361 6940
367874 250519
367874 3369
531 1134
3604 63931
215090 215092
62001 9951
62001 40973
148232 6940
14170 250519
43056 43055
50322 1134
51992 1134
279049 6940
76471 1134
35207 1134
51071 63931
8897 1134
409193 250519
409193 3369
34148 1134
272765 88
10091 1134
113319 152985
113319 24261
365400 250519
365400 3369
382529 6940
45431 1134
421925 278029
420683 250519
420683 3369
28107 6940
14333 1134
166476 1134
64723 6940
139726 10819
169031 1134
128344 98639
39606 6940
208641 6940
11992 1134
81405 250519
81405 14170
27916 1134
272693 63931
87987 6940
114104 63931
71246 1134
52293 1134
97979 6940
25628 25633
51702 6940
113400 6940
213792 63931
393956 6940
137059 63931
66279 98639
66279 121801
66279 121801
111730 63931
42311 1134
82686 6940
11744 1134
4798 1134
38198 6940
38198 6940
419047 250519
419047 3369
19860 1134
422010 1134
200332 60350
98639 66279
98639 98639
98639 121801
61740 31216
6551 5114
6551 63931
432658 7690
432658 7690
42311 531
42311 531
42311 1134
305121 31216
197923 250519
197923 3369
419047 4412
419047 4412
113395 6940
86932 1134
385820 250519
385820 3369
110170 39885
53478 6940
191510 1134
130153 1134
14544 6940
214025 1134
106569 42907
394570 250519
394570 3369
393373 6940
405864 63931
379028 250519
379028 3369
186030 1134
111185 1296
111185 21782
294978 250519
294978 3369
153003 1134
337558 1134
212866 1134
24410 1134
212866 60350
247906 243432
126878 1134
98639 6940
408157 1134
379028 317
379028 317
426569 26139
53189 6940
64327 6940
159620 88
78043 407
78043 407
50319 6940
118814 1134
158065 1134
2149 63931
126878 4665
4804 1134
257829 250519
257829 3369
239203 1134
33356 6940
136801 37317
26054 379028
26054 317
373751 332060
373751 332060
428545 63931
31961 1134
80035 63931
85090 1134
399920 6940
272273 63931
270306 250519
270306 3369
219490 63931
416416 250519
416416 3369
93601 6940
178008 250519
178008 3369
284917 88
284917 50434
284917 50434
5506 63931
148526 6940
226372 250519
226372 3369
25083 161696
9324 123163
194952 1134
3919 1134
292033 292035
292033 292035
95829 1134
63480 6940
1160 1134
444567 250519
444567 3369
11876 4665
11876 26139
121801 98639
44119 37317
417826 250519
417826 3369
200711 250519
200711 3369
438386 2681
109246 63931
319162 250519
319162 3369
435474 63931
18973 1134
42119 63931
12843 11744
12843 1134
272656 1134
37308 37317
98625 1134
43939 6940
279771 250519
279771 3369
95235 57967
292035 292035
292035 292035
292035 292033
219490 3604
219490 3604
219490 63931
183768 88
183768 26486
63090 250519
63090 3369
278251 37317
24821 6940
164493 6940
272349 250519
133265 250519
133265 3369
23535 43684
122756 2417
46733 37317
46733 37308
212726 1134
105834 1134
18906 1134
244093 5114
244093 63931
195555 1134
298696 6940
23535 43684
55976 1134
122663 1134
121801 66279
121801 98639
121801 121801
77138 1134
262258 250519
262258 3369
359120 1134
116940 1134
53302 6940
23535 43684
67062 250519
67062 3369
170261 6940
292721 414260
10168 1134
245607 173417
44989 6940
195096 1134
151054 1134
93480 1134
168283 1134
141756 250519
141756 3369
208716 6940
426786 250519
426786 3369
20327 1134
145501 25589
37318 37317
232850 63931
95835 6940
263870 6940
71072 1134
35245 6940
261373 6940
79657 1134
93106 10247
13578 88
13578 26486
98100 145501
98100 25589
1147 1134
179799 121801
92499 1134
121887 38790
335810 6940
107442 31216
21608 1134
179882 1134
95660 10247
280783 6940
280783 6940
69642 10247
110442 6940
333584 250519
333584 3369
264874 250519
264874 3369
50353 1134
448155 250519
448155 3369
103787 1134
339266 250519
339266 3369
178634 250519
178634 3369
272348 250519
272348 272349
130622 6692
101977 1134
98100 145501
98100 201893
98100 201893
87268 38790
429815 250519
429815 3369
110463 35376
70524 1134
50570 37318
50570 37317
80101 207711
93596 6940
65774 1134
13815 1134
201893 145501
201893 98100
201893 98100
159116 57967
96734 250519
96734 3369
279875 279874
86995 77616
215024 1134
81674 51994
81674 64965
292035 292033
292035 292033
219007 1134
279050 250519
279050 3369
199234 1134
43896 1134
98829 1134
98311 38790
197024 1134
177943 1134
159332 1134
300580 250519
300580 3369
160176 1134
295742 250519
295742 3369
93481 1134
93481 1134
138041 1134
162569 98639
411878 6940
35249 6940
210904 63931
108920 88
286030 250519
286030 3369
411443 250519
411443 3369
44933 63931
68539 1134
348388 6940
133841 63931
330384 63931
220557 23578
220557 23578
23497 26762
61293 6940
449315 250519
449315 3369
182007 4098
182007 4098
418310 418309
6053 63931
182906 6940
158955 1134
213897 250519
213897 3369
289536 250519
289536 3369
300607 250519
300607 3369
123982 1134
110463 35376
36914 1134
21565 1134
195541 1134
299557 250519
299557 3369
72388 63931
415380 250519
415380 3369
83970 6940
4310 250519
4310 14170
80163 1134
292033 292035
292033 292035
238481 250519
238481 3369
188676 250519
224237 1134
364663 6940
100152 2417
98863 43684
238481 182979
43055 43056
43055 43056
43055 71909
285491 1134
310040 250519
310040 3369
130761 63931
46260 1134
38204 1134
7617 250519
7617 14170
287935 6940
125640 250519
125640 3369
50570 39683
380529 143210
1160 23200
64965 51994
64965 81674
64965 64965
61742 6940
167290 6940
395390 63931
58711 31216
215859 88
215859 26486
386972 250519
386972 3369
142002 1134
32641 81666
32641 81666
111732 6940
304001 250519
304001 3369
27676 63931
454065 1134
402999 63931
69034 250519
69034 3369
126099 65644
453007 250519
453007 3369
343932 6940
183976 6940
224595 17527
387811 250519
387811 3369
93249 250519
93249 3369
1160 23200
224603 8303
65223 6940
43899 1134
40973 31903
408238 250519
408238 3369
74376 37317
74376 37308
52093 87669
408507 1134
69034 69034
40056 1134
451267 250519
451267 3369
28331 63931
423981 1134
109994 84647
109994 3604
138216 22848
63486 6940
415002 250519
415002 3369
185993 63931
158955 404928
158955 404928
337963 6940
14375 50119
148421 1134
266037 41382
87770 250519
87770 3369
34167 27484
405525 220
311589 250519
311589 3369
370877 250519
370877 3369
327431 67062
327431 67062
355666 100419
143517 38790
404928 158955
404928 404928
421605 385188
421605 385188
337624 250519
65159 6940
41399 23461
283284 250519
283284 3369
200371 250519
200371 3369
73861 1134
250393 250519
250393 3369
35209 1134
62551 6940
170844 43684
170844 43684
452423 250519
452423 3369
76102 6940
211740 6940
26092 27484
233128 1296
233128 21782
95935 519
74376 27484
186091 27676
32433 27484
234582 214111
234582 214111
73709 27484
29963 88
73710 27484
332366 308160
30671 1134
158955 404928
158955 404928
202479 202476
419191 250519
419191 3369
62576 6940
353996 152985
353996 24261
385188 421605
385188 385188
5087 27484
204932 27484
171071 1134
325485 202476
133854 1134
393343 1296
393343 21782
155554 677
155554 677
80592 4665
393343 22240
245308 250519
245308 3369
61687 250519
61687 3369
325485 202476
80888 12698
59549 1321
306994 65644
350234 12698
202482 202476
30351 12698
290193 42559
139198 63931
158584 12698
1118 1321
138739 12698
129929 27484
233404 13808
233404 11876
51638 1134
118513 116633
118513 116633
319006 250519
319006 3369
189146 26139
207711 80101
150912 12698
186459 12698
23200 28951
57434 118513
286094 250519
286094 3369
337324 250519
337324 3369
98430 98433
5087 27484
268545 3369
268545 3369
207711 80101
207711 80101
23284 1321
116633 116633
116633 118513
23346 23314
621 1321
621 5693
134352 1134
233663 197322
233663 197322
133574 63931
59602 6940
306171 250519
306171 3369
104889 7424
207722 1221
234621 116633
234621 118513
338862 12698
277329 3369
277329 3369
143528 84647
143528 3604
145501 98100
145501 98100
123568 12698
422104 250519
118988 42
118988 42
196491 88
196491 26486
200423 168657
174678 250519
174678 3369
44415 22419
257249 42
378555 250519
378555 3369
168585 26092
93294 93257
99393 1321
82861 1321
422104 250519
422104 3369
372075 4
372075 510
5157 4665
39514 31216
311706 250519
311706 3369
404283 12698
301618 12698
12792 1321
215171 4
215171 510
301897 1611
47140 19808
7801 12159
7801 12159
130892 12698
9514 1321
325485 202476
369576 6940
202476 202479
70889 1134
138766 204931
128270 301843
128270 301843
339286 63931
325485 202479
76920 250519
76920 3369
73710 138766
73710 204931
31607 96684
208355 250519
208355 3369
157276 88
157276 26486
71133 6940
109001 519
48344 93294
58990 96684
133556 29810
405808 250519
405808 3369
27484 5137
4412 419047
4412 4412
66002 1134
226677 43684
226677 43684
28548 27484
398071 6940
182424 63931
18895 153143
119704 42
119704 119705
119704 119705
166629 23129
331456 250519
331456 3369
336911 250519
336911 3369
264041 5137
187719 68307
424465 250519
424465 3369
99919 68307
262501 250519
262501 3369
419191 88
262389 6940
8497 23129
78238 68307
437050 250519
437050 3369
66917 23129
191049 23881
27818 96684
124410 2156
377620 1134
334723 250519
334723 3369
449417 41382
284882 23129
43716 11555
8760 7424
109648 68307
121586 63931
783 23129
53100 63931
81933 12698
106741 1134
429140 250519
429140 3369
50219 26398
50219 4665
50219 63931
202476 202479
50219 4665
46317 42559
197061 88
228379 171763
197061 88
197061 197061
33360 27484
50241 11555
352997 243432
77562 11555
188408 43684
51580 42
306029 250519
306029 250519
306029 3369
192913 88
192913 26486
126231 1134
400158 250519
400158 3369
385572 68307
80101 80101
80101 207711
28578 12698
431919 250519
431919 3369
197061 88
197061 197061
197061 197061
138830 43684
206362 64911
113774 5280
157892 88
157892 26486
202439 104722
197061 88
197061 197061
197061 197061
228379 171763
197061 88
197061 197061
197061 197061
292933 250519
292933 3369
197061 88
197061 197061
197061 197061
175035 250519
175035 3369
337798 250519
337798 3369
322885 43684
322885 43684
390428 202479
207711 80101
207711 80101
28951 4936
28951 4936
216365 397128
216365 397128
2325 23129
243643 250519
243643 3369
133756 250519
133756 3369
213592 68307
43812 43797
12891 12810
12891 12810
12891 12895
5123 27484
5123 27484
190520 250519
190520 3369
171049 250519
171049 3369
100127 80101
100127 207711
63365 96684
97871 97871
143704 1134
43810 69991
378873 9682
80101 80101
80101 207711
87449 68307
283485 4
283485 510
194408 1134
173406 88
173406 26486
88963 4665
148122 23129
73365 93257
97881 97882
133528 99573
133528 250519
102661 1134
202648 202648
202648 202648
406033 250519
406033 3369
160038 73365
160038 93257
27682 65644
27682 65644
294416 1134
119705 119704
119705 119704
294416 88
294416 26486
28390 129924
28390 129924
445083 250519
445083 3369
257098 23129
7394 28390
232834 250519
232834 3369
411530 519
20411 42
111627 18895
111627 153143
198907 250519
198907 3369
274266 88
274266 108920
343984 6940
400258 250519
400258 3369
229691 8303
448833 67062
114693 97446
114693 97446
22567 2415
162686 19808
27394 27394
44086 84647
44086 3604
230753 88
230753 26486
416761 250519
416761 3369
446759 88
446759 88
248156 4
248156 510
17244 23129
201307 1134
20457 7424
132596 85386
2426 1321
118514 118513
103550 48661
82834 42
10273 158344
10273 158344
307383 23129
43597 1134
29648 10179
38599 1134
147324 147255
119705 119704
119705 119704
40176 1321
303035 250519
303035 3369
29012 9107
29012 9107
97382 43684
383474 250519
383474 3369
7684 4
7684 510
384944 250519
384944 3369
165992 6019
277858 59898
302219 1134
118513 118514
118513 118514
57367 10179
97385 15717
97385 65644
256774 43159
441746 23129
222421 1134
129289 68307
185254 43159
402729 250519
402729 3369
102223 1134
8966 4665
235712 3369
235712 3369
289037 21606
67504 10179
84225 10179
84225 10179
58294 185597
105041 4
105041 510
122711 18065
14966 14967
175911 170661
289037 432878
375074 5550
433144 63931
297081 250519
297081 3369
422355 250519
422355 3369
50862 37317
12879 10179
12879 10179
11962 85386
73604 43159
56536 18065
10179 88
396654 250519
396654 3369
273752 250519
273752 3369
377955 42
232981 26092
119364 116696
12692 12698
195999 250519
195999 3369
232981 26092
164116 88
164116 26486
102461 57967
34523 42
299771 46629
195999 41382
305541 67774
182254 10179
177265 42
173415 250519
173415 3369
36474 3604
393040 250519
393040 3369
215675 84647
215675 3604
172389 109072
172389 109072
172389 75483
22814 63931
393710 41382
360504 112309
360504 112309
410877 250519
410877 3369
393710 41382
181800 1134
286479 286479
2173 63931
140650 14621
331689 1134
92153 26398
92153 4665
92153 63931
444369 250519
444369 3369
81699 250519
81699 3369
359655 1292
220796 5137
187225 37317
77138 22814
248489 1134
77138 63931
10284 10375
44308 88
44308 10179
44308 10179
73034 68307
283614 223265
208279 208279
170661 75409
170661 75409
242165 12698
310224 1134
420798 250519
420798 3369
379840 3369
379840 3369
28993 28951
118574 143210
257071 257072
151159 60350
114247 16074
213389 13017
151159 15885
151159 15885
388222 388223
103135 45378
388223 388222
388223 388223
428416 250519
428416 3369
269512 42
432438 250519
432438 3369
382598 377119
93269 6692
390238 250519
370986 63931
307970 65644
273816 250519
273816 3369
28951 1988
84752 2156
353475 250519
353475 3369
1262 27682
22181 27682
32772 27682
208472 88
208472 50434
216348 216347
365054 23129
81241 42
81241 269512
1694 27682
13405 13405
15911 1262
15911 1262
2517 67190
165957 26398
165957 4665
165957 63931
419014 250519
419014 3369
8633 27682
47321 192870
47321 192870
401101 202479
169253 250519
169253 3369
75409 170661
75409 170661
162952 1296
162952 21782
143554 100703
65644 220
65644 220
1711 27682
18602 165
18602 140383
18602 140383
356803 250519
356803 3369
41988 120703
423158 250519
423158 3369
397799 1134
195520 250519
195520 3369
236113 250519
236113 3369
28572 27682
357796 4
357796 510
284994 1134
141253 23129
405018 250519
405018 3369
90840 2634
277554 38224
216345 143210
70191 9553
2944 27682
146005 1134
272565 250519
272565 3369
41791 12824
41791 12824
64016 88
26757 1999
26757 1999
196754 88
196754 26486
137179 1262
137179 27682
137179 27682
7801 63931
81674 59000
59000 81674
59000 59000
24759 27682
337623 250519
337623 3369
27577 27682
98897 96291
98897 96291
178957 31271
178957 31271
31271 178957
31271 31271
266569 250519
266569 3369
64065 6493
64065 6493
158446 88
158446 26486
163986 250519
163986 3369
208279 208279
90800 27682
285913 228311
285913 228311
285913 228311
285913 228311
387726 387729
21218 27682
297892 297890
6493 64065
6493 64065
293965 88
276653 250519
276653 3369
387729 387729
387729 387726
387729 387729
101238 35376
67178 96291
67178 96291
107250 27682
212348 59945
194076 85314
96291 67178
96291 67178
55038 27682
412299 250519
412299 3369
381578 276409
82700 27682
444117 4
444117 510
67178 96291
67178 67178
276984 303589
276984 303589
85475 27682
303589 276984
303589 303589
406365 341757
372343 27603
448181 250519
448181 3369
303589 276984
303589 276984
2960 27682
190299 41382
164519 27682
5137 18018
5137 18018
241776 176004
292738 286367
106200 5137
106200 5137
360751 250519
360751 3369
399419 250519
399419 3369
262590 59266
262590 59266
26708 26710
144422 32733
144422 32733
42866 846
154584 39029
154584 6669
5265 2944
5265 27682
262590 59266
71079 28476
4514 21397
29817 27682
245763 250519
245763 3369
255259 250519
255259 3369
444142 250519
444142 3369
85139 88
85139 26486
262590 59266
454663 250519
454663 3369
16429 1854
230541 415548
85550 1854
35514 72976
35514 72976
62809 1854
28860 1854
428296 1854
49803 1854
70439 846
4564 21397
175596 75485
44644 1134
285831 168621
42777 1854
42777 1854
42777 16429
23148 1134
382670 250519
382670 3369
235795 182706
48290 1854
48290 1854
302990 279133
38908 1134
89805 13808
8846 27682
46342 26486
25988 1854
17647 26620
17647 26620
26078 43038
340680 340679
51886 2417
58353 69164
313 10627
98204 67382
98204 67382
6658 39071
108099 1854
271148 244123
43017 39071
401878 250519
401878 3369
51886 96418
339266 63931
184727 5209
366288 250519
366288 3369
292754 109647
51373 51886
51373 2417
391460 3369
391460 3369
96263 27682
198186 129924
198186 28390
333869 250519
333869 3369
66891 67998
208361 208360
215673 250519
215673 3369
84216 28961
29228 161755
158476 1854
181576 51865
11257 26092
181102 1854
77040 67998
67132 43597
254599 88
254599 26486
427679 3369
171213 2681
228311 285913
228311 228311
200552 51865
77052 1134
377682 4665
377682 5157
132409 30578
226304 51865
380555 2681
187992 250519
187992 3369
192102 43597
259766 2681
365151 39071
158193 158163
158193 158163
2948 27682
433521 131634
93118 7462
93118 7462
281003 2681
341293 68307
29113 250519
29113 3369
202694 5137
276492 1134
150365 2681
55921 27682
453348 190355
453348 190355
91916 250519
91916 3369
93735 51865
105543 2681
81659 51865
121910 185789
239180 1134
73618 1854
341757 341757
174005 1134
238798 1134
267257 3369
267257 3369
34271 2276
402450 1134
342399 155142
122961 26757
122961 1999
48523 98021
89805 13808
382525 67998
132408 19426
132408 19426
390835 30578
395647 1134
394259 377119
50250 50242
50231 50242
98728 43597
73792 1854
1654 174138
1654 174138
117037 43704
117037 43704
38819 50242
380399 3369
380399 3369
38941 38941
354642 250519
354642 3369
100703 96291
100703 67178
100703 67178
239638 4
239638 510
130621 74352
46996 50242
237366 63931
197061 88
197061 197061
197061 197061
285052 250519
285052 3369
353794 250519
353794 3369
172139 81891
237415 153239
237415 153239
4690 81891
51460 5114
130939 50242
334214 2681
105452 26139
279133 302990
279133 302990
429921 250519
429921 3369
337321 12698
194409 1134
111127 2417
368 2125
115204 4
115204 510
170861 66265
434899 3369
191048 45924
130627 74352
106558 67695
106558 67695
50469 50465
50469 50465
135094 2125
107934 1134
107932 1134
39094 73476
345576 2681
353077 2681
25667 26757
391190 250519
391190 3369
307214 250519
307214 3369
142136 7977
379031 220
379031 220
106558 67695
106558 67695
9206 113100
200050 41382
39100 3024
92920 121505
92920 39162
133864 94874
56873 65644
133641 1854
414128 2417
452441 250519
452441 3369
56869 65644
105498 94874
3295 5114
210135 250519
210135 3369
429788 429789
403275 5245
38572 63931
269527 107891
178935 27682
309438 107891
41655 26091
454087 88
454087 26486
75682 21397
424641 220
424641 220
119239 4974
204768 299898
204768 299898
163524 1134
51292 94874
279133 302990
279133 302990
435460 250519
435460 3369
300621 42
97493 40164
383397 250519
383397 3369
37635 37635
167327 88
385356 250519
385356 3369
50112 1932
385356 250519
385356 3369
158970 207164
16155 9586
244187 244188
187818 122875
25125 25125
442999 250519
442999 3369
5550 375074
5550 375074
389295 250519
389295 3369
166498 1134
9941 51292
9941 94874
9941 94874
139974 88
298048 27682
62002 88
272232 250519
272232 3369
72390 8334
177678 1134
203128 63931
180352 15285
37793 8334
4876 6940
320360 6940
178937 298048
178937 27682
113783 23129
229912 250519
229912 3369
3724 1134
365499 250519
365499 3369
10319 94874
177051 4
177051 510
364206 7117
47499 7117
189570 189568
189570 189568
367891 1134
151845 2687
13627 38941
272232 60350
453833 131506
443087 1134
248083 1134
196329 7117
158242 79997
158242 200718
158242 200718
423145 1854
93331 39029
55537 91843
55537 91843
354819 250519
354819 3369
8352 111559
151683 88
151683 123416
94940 846
3013 2417
115684 201578
3064 1932
194811 98075
194811 103503
366115 250519
366115 3369
421510 250519
421510 3369
104498 50865
375326 6940
141604 93314
141628 93320
431370 250519
431370 3369
78413 81891
51292 51292
51292 9941
51292 94874
199703 93314
76826 6654
356970 176004
356970 176004
45006 1134
153653 6940
248112 1134
23472 2125
199695 93314
187743 50865
168293 3369
168293 3369
241836 2417
130670 94874
408145 390569
15976 1854
51390 51288
242520 250519
242520 3369
20891 9947
282983 330994
11622 27682
29234 63931
27695 88
27695 26486
80267 2417
80267 3013
275285 250519
275285 3369
401291 250519
401291 3369
21942 16328
166336 39029
129479 2417
129479 3013
404878 658
329102 329106
163200 14190
163200 14190
23061 658
120531 658
305285 2681
14123 658
70309 55526
24636 170623
49534 52934
215967 174906
172017 658
330125 658
278509 304627
7462 93118
7462 7462
449759 250519
449759 3369
168710 109063
101592 2417
101592 3013
29010 9107
29010 9107
386650 386651
153854 6940
107986 192759
99032 6940
108224 24033
449759 1988
123373 658
137722 9107
137722 9107
98851 94874
179645 1134
26425 9947
65904 9107
127879 88
111208 7901
73720 17262
327132 250519
327132 3369
395671 658
28964 65731
72278 1134
394053 124398
161805 14967
161805 14966
141628 6648
326558 1134
43592 1134
30852 85449
24992 27682
154579 6648
14294 1321
333023 21606
141628 6648
141628 6648
225874 42
368867 716
22217 1134
13567 6648
223602 88
179128 1134
140117 14444
255676 716
183511 50865
279653 716
174624 42
47001 10627
129847 716
22727 63931
37198 1854
302990 279133
133338 658
214880 658
201607 716
141628 6648
141628 6648
204480 716
176267 716
68633 38602
68633 38602
11336 11336
266688 1134
9539 716
67374 65904
67374 65904
67374 9107
67503 2417
47500 716
395551 716
141628 6648
141628 6648
257339 2681
81574 37317
199677 39071
44738 38790
141628 6648
141628 6648
119522 716
273163 716
452177 41382
293448 716
137200 6663
313885 2125
303727 5245
6707 6714
6707 6714
6707 6687
6707 6687
138320 716
121916 1854
68542 1134
2480 38654
2480 38654
2480 50044
79927 39029
174383 128723
174383 128723
6707 16188
6707 2288
6707 6659
384490 384489
384490 384489
444478 42
444478 174624
80945 6663
27980 48723
13254 23556
93296 6663
87697 36889
87697 36889
6642 6663
6642 6663
76460 1134
321476 6663
158431 8
370456 65904
370456 9107
29698 1134
384489 384489
384489 384490
151428 658
50175 1134
204522 6648
15294 11311
15294 11311
74016 74047
44141 37317
6668 6663
6668 6642
97170 93320
33825 158276
85460 38790
250138 716
21155 35622
126462 21979
126462 21979
39660 41353
262195 250519
262195 3369
24685 716
93294 154580
303217 519
303217 62542
78375 1854
23489 349
23489 349
199845 9231
199845 9231
430694 168820
9210 141628
54289 1134
354137 250519
354137 3369
207241 94874
114548 2417
196353 122324
47523 6648
148228 9816
148228 9816
6821 658
61874 6940
351694 6940
355932 154580
77601 658
303898 88
45898 27682
202555 716
162895 73476
52103 716
77058 76165
23243 40130
67382 13808
67382 13808
67382 26486
208867 27484
9186 141628
99975 208867
99975 27484
271166 63931
272772 272771
4974 84953
41041 28799
398152 8303
218320 716
6637 27682
328108 27484
263235 250519
263235 3369
22034 22034
346238 88
346238 26486
9964 11876
9964 11876
13383 11876
22556 8352
22556 111559
211454 716
358286 249636
26857 716
89880 2359
32567 42
86298 4974
86298 84953
271166 22814
26428 40164
382098 1134
172586 1134
53575 121423
53575 121423
431485 1134
89991 1286
21755 23461
276146 41353
185220 56225
4024 41353
176481 115546
176481 115546
287134 716
395552 716
447223 42
447223 174624
217467 1247
107825 48723
107825 27980
91439 26051
91439 26051
41792 9107
292835 292836
364482 26051
137200 39071
88407 63931
151204 151206
69813 158276
148273 88
148273 26486
81181 2174
81181 88
3603 8378
3603 3603
3603 519
86244 14957
39381 114780
303233 303232
137825 131506
93296 39071
17748 1134
187182 716
136897 10685
136897 10685
136897 79152
94713 185220
94713 185220
94768 519
446623 42
446623 174624
184880 11876
139342 21979
400237 26051
185220 185220
185220 94713
148228 148228
148228 148228
234670 26051
103293 6940
210399 349
210399 349
346165 297686
112228 93296
244984 22137
244984 22137
85461 1134
128070 43597
69906 88
69906 26486
85147 3055
31651 78718
31651 78718
361906 6940
81181 2174
81181 88
81181 2174
81181 2174
81181 88
361687 250519
361687 3369
164267 6940
22339 31653
22339 31653
105968 6940
184880 9964
184880 11876
184880 11876
83516 11876
1385 41353
361687 167343
361687 3369
198639 2174
198639 88
355932 154580
355932 154580
160615 5371
183946 22339
183946 22339
173782 6648
96859 250519
96859 3369
303217 1852
164944 131619
79986 8378
79986 3603
79986 519
95800 1134
339219 63931
179712 6940
75309 1134
360026 250519
360026 3369
61002 6940
287142 73476
55030 1134
102840 1134
328951 1852
185220 94713
46581 250519
46581 14170
89805 13603
46581 6940
23910 21979
19504 41353
328951 88
20073 8378
20073 3603
20073 519
16115 23464
94713 185220
94713 185220
145696 63931
10816 885
10816 885
240898 21979
240898 13268
85177 164116
85177 26486
23279 2415
149918 158800
97260 2412
19166 716
22288 84644
406353 1292
207385 23910
207385 21979
82997 67702
35382 2417
185379 2417
149402 76165
31651 78718
31651 78718
71240 69793
42170 13812
444454 250519
444454 3369
146799 27484
161839 161849
161839 161849
165721 27682
351579 201689
186866 267317
4839 26051
56022 35338
