18561 18393 -48938123
1301 23684 -46704167
315567 23684 -46291724
16103 23684 -45775883
40820 18393 -44677397
23684 23684 -38884447
24833 17828 -32048975
1909 17828 -32048217
106627 17828 -32044269
16814 17828 -32039698
31439 1471 -18541979
17725 17828 -17340237
2369 33096 -7494327
57149 33096 -7347404
39668 33096 -880346
4 5 0
4 27 683
10 27 722
4 10 911
41 43 935
5 63 966
50 27 985
4 20 1016
66 56 1052
5 50 1059
9 39 1220
77 39 1239
69 56 1346
4 50 1491
75 50 1508
4 68 1554
5 82 1576
24 68 1589
86 27 1603
66 35 1793
75 56 1877
35 45 1935
5 91 1957
103 50 2040
86 42 2043
41 56 2084
66 42 2215
35 56 2224
12 24 2237
91 82 2315
86 45 2368
9 76 2479
35 88 2535
66 68 2606
4 76 2657
46 10 2732
10 82 2845
103 20 2851
5 104 2948
9 109 3041
104 42 3047
66 104 3116
4 27 3131
35 91 3144
5 56 3151
116 27 3178
66 109 3280
35 15873 3544
10 56 3696
20 106 3718
24 56 3746
66 56 3795
41 118 3834
66 27 4010
41 4 4339
66 4 4452
94 4 4623
35 4 4722
35 27 4822
66 27 4905
130 27 4951
84 109 5170
41 109 5226
41 128 5432
136 56 5993
130 104 6229
132 43 6293
134 42 6444
41 56 6684
35 56 6697
141 56 6802
145 56 6858
132 94 6891
35 56 6949
132 56 6995
56 88 7099
88 56 7330
103 88 7378
45 88 7641
5 88 7684
5 27 8054
5 88 8385
152 50 8539
153 138 8841
143 138 8977
129 56 9074
134 27 9111
129 136 9491
129 7002 9797
134 136 9810
5 7002 9924
154 136 9992
28 42 10148
154 5 10311
154 4 10965
163 42 11405
46 27 11406
163 76 11729
165 165 11768
154 103 11905
129 56 11916
130 161 12030
165 161 12111
154 68 12356
28 154 12944
5 6005 13415
28 130 13750
169 6005 13794
57 24 13848
154 56 14018
169 56 14369
22 154 14392
154 156 14626
28 143 14919
57 156 14999
172 56 15616
28 170 15678
178 154 16590
129 154 16664
5 176 16946
176 130 17089
5 179 17191
5 154 17420
57 154 17495
5 143 17527
91 154 17545
73 5 20523
104 5 20528
186 76 20703
186 82 20843
186 170 21655
182 50 23285
115 154 23964
170 170 24230
188 82 24359
188 4 24736
188 35 26529
66 154 27108
188 56 27234
5 175 28117
192 170 29113
192 174 29727
66 175 30806
66 154 31102
194 170 31271
42 130 32248
116 56 32396
4 192 32470
115 175 32476
24 80 39122
5 199 39569
170 199 39654
192 199 41696
80 154 42095
26 91 43779
212 43 46527
23 154 47598
215 91 47793
212 115 48285
143 192 48351
23 76 48444
217 166 48485
23 5 48641
215 50 49014
212 68 49185
215 56 50108
192 192 50146
221 220 50502
134 220 50727
220 166 51149
50 66 51575
225 166 51707
47 166 51988
23 118 53123
24 224 53482
170 161 55672
154 161 55707
154 161 55810
161 161 56284
217 161 56497
234 161 57170
215 161 57545
235 56 57797
236 166 57936
236 154 58602
47 231 59394
20 231 59398
115 154 60035
143 238 60214
143 50 60942
23 234 60959
130 161 62434
143 161 62893
20 115 62987
215 115 63169
236 7 63944
20 7 64045
7 161 64345
241 7 64694
84 242 65940
4 242 65951
84 242 66218
211 242 66602
211 161 66943
66 242 67300
22 38 67483
66 38 67674
150 242 67695
35 109 67856
66 242 68176
35 109 68265
10 7 69273
235 242 69432
23 5786 69926
41 5786 70019
35 10 70448
41 242 71217
235 179 74001
88 138 75911
41 253 76398
109 253 76481
10 88 78801
253 253 79163
235 38 79223
10 253 79303
24 176 79889
169 130 79964
169 224 80146
228 76 80260
87 161 80290
253 253 80395
169 238 80530
150 87 80742
150 136 81833
4 10 84363
4 133 85978
88 133 86352
87 133 86623
10 133 86802
193 88 87334
42 234 88465
86 156 88469
155 133 88534
193 234 88572
193 115 88754
42 161 89073
42 38 92396
66 88 92882
66 4 93331
150 238 94550
44 161 95199
236 38 95608
108 231 96355
4 115 97593
22 264 102969
5 234 103063
115 58 106488
5 154 106796
115 154 108150
115 45 113163
41 36 114618
115 36 115074
66 5 115253
267 38 116186
267 115 116493
267 128 116812
115 45 117849
5 45 117925
42 263 125471
235 156 127331
211 38 128083
42 104 134793
151 104 135262
203 91417 136659
115 115 137714
273 115 138914
236 234 147607
136 179 147885
275 179 148586
22 4 156270
42 71 156419
263 242 157236
23 4 159558
130 109 160126
4 109 160130
20 4 160638
4 109 160807
20 109 161587
275 109 161807
211 109 161853
275 109 162149
66 128 163004
66 278 164742
66 278 166587
130 88 170886
236 88 170961
24 278 174542
234 234 176036
4 278 178194
154 56 179776
94 94 188761
4 5 192561
4 130 192842
130 5 193220
214 68 209787
214 214 210555
214 7002 210930
24 278 215922
67 109 216606
234 214 220096
115 278 220504
264 5 230877
203 214 232138
156 278 235702
42 5 240170
154 154 243205
43 35 243393
42 281 245751
282 35 247518
44 214 247780
282 234 247971
179 7 248105
130 114 248846
172 7 250206
169 7 250556
114 87 251467
5 7 251841
114 82322 253285
157 82322 253928
278 7 254011
278 87 254444
130 87 255048
169 27 258479
236 50 258674
5 87 259397
236 128 259428
109 82322 260341
84 87 261326
67 7 263033
7 56 263478
87 87 265582
87 87 265635
87 87 265803
241 87 266083
241 7 266640
130 87 266690
130 38 269974
115 38 270078
4 38 270093
87 87 273002
87 87 273049
87 87 273364
87 87 273537
87 87 273584
87 5 275051
35 35 281140
203 5 294323
57 45 298131
116 87 301787
11 234 306206
116 67 310445
44 5 310874
131 7 312658
109 67 315188
231 67 321709
130 172 327115
203 5 329183
235 171 332481
4 87 333652
259 7 336107
131 67 343139
42 109 346999
236 7 347453
87 163 349233
4 270059 358773
115 5 359697
253 7 360241
5 170 363733
4 5 364881
115 170 366786
289 170 370132
289 163 371493
211 87 389032
253 7 399577
292 114 400510
236 5 407519
10 7 409179
150 5 411861
57 150 413026
186 236 416792
130 236 417021
41 74307 420829
243 7 422080
296 281 431455
88 7 434252
41 114 434844
130 236 436340
88 7 440410
130 88 449925
130 88 450438
41 305 462557
42 305 462573
42 305 462846
41 305 462876
41 305 464278
42 305 464541
307 199 469706
47 305 477956
143 305 479629
236 305 480570
136 308 483769
306 87 484784
241 144 489642
47 234 494165
236 144 494755
41 305 495213
305 5786 495539
305 7002 495831
42 305 496393
35 308 496785
42 308 497699
4 305 499332
236 270 505866
114 114 507440
211 63 507820
130 305 507928
42 88 508751
323 236 521234
42 94 521360
324 9 521633
42 5 522230
115 199 526372
317 63 527038
156 88 529302
4 114 531100
17 114 531806
236 114 533932
236 5 534931
172 109 538504
41 109 541057
5 163 541503
130 41 543830
129 5 544734
306 41 547744
5 65 554277
5 5 556552
129 5 556614
42 88 559657
143 170 566204
192 115 566923
305 115 567098
143 5691 567276
42 143 567744
109 109 575876
42 144 575993
42 329 576499
323 133 579395
143 305 581889
241 56 582897
50 5691 583942
130 253 584504
130 5691 585207
49 45 585983
108 305 586592
211 143 587138
108 163 587409
332 305 602624
332 333 604301
334 333 604349
334 17 604560
349 163 605389
332 333 605448
348 333 605575
44 333 606231
349 144 606502
17 275 607223
366 333 607327
4 333 607403
356 65 607429
17 333 607452
376 324 607510
10 333 607890
352 253 608139
193 333 608216
383 333 608408
392 333 608552
352 27 608790
4 386 608984
4 396 609597
275 396 609710
349 87 609851
419 334 610103
356 412 610226
169 396 610242
419 170 610351
334 425 610507
169 333 610547
423 412 610686
4 425 610713
389 308 610884
169 115 611094
334 333 611122
430 381 611390
333 10 611423
146 333 611712
114 431 611712
55 431 612031
55 333 612291
88 143 612401
5 10 612624
352 381 612717
146 275 612952
157 270 612955
349 448 613063
453 333 613324
275 449 613720
466 431 613998
461 431 614235
115 446 614251
431 446 614353
157 431 614689
326 431 615040
326 425 615255
146 446 615451
458 449 615519
41 155 615840
449 473 616542
458 440 616766
170 440 616971
114 114 617080
483 333 617138
300 440 617627
455 155 618087
449 332 618155
458 144 618245
476 10 618523
333 473 618847
431 333 619807
455 333 619851
114 497 620035
503 333 620125
289 333 620556
509 10 620845
333 14127 621302
514 14127 621312
4 14127 621555
4 176 621778
517 14127 621974
513 7 622145
517 10 622225
455 88 622479
514 5 622496
522 118 623490
332 14127 623495
5 431 623738
521 176 624244
332 440 624291
529 7 624404
530 4 624499
289 109 624987
534 440 625319
511 440 625724
519 440 625854
527 440 626190
4 534 626203
543 176 627088
549 332 628719
188 332 632670
41 330 632763
4 534 633188
235 56 635217
235 305 637206
114 305 637248
332 305 638592
321 330 638721
578 332 641734
116 440 641741
584 109 643762
305 332 643969
584 305 643992
4 305 644533
458 305 644619
584 440 644682
389 154 645800
593 332 646102
213 305 646707
4 305 646736
359 88 647253
359 440 647719
334 305 648667
604 305 648678
67 305 650479
607 440 650777
129 449 651277
67 440 651502
609 23 651959
211 305 652549
612 305 652909
609 305 653259
458 305 653332
612 170 653338
612 375 653615
229 305 654063
455 172 654156
614 334 654165
359 305 654345
458 609 654409
612 609 654549
458 305 654819
612 305 655504
359 334 655563
609 305 655601
359 375 656296
271 622 656838
271 10064 657407
23 10064 657469
627 449 657699
271 4 657853
359 375 658048
627 10 658079
627 199 658783
275 308 660045
203 333 660089
359 305 660185
203 14127 660514
609 622 660656
192 359 660835
640 333 661808
641 305 662098
633 305 662385
116 10064 662494
236 305 662507
334 624 662641
271 334 662656
271 534 662899
271 633 663092
305 199 663400
211 633 663469
305 10 663537
647 305 664415
648 305 664899
630 114 665237
323 243 665458
519 305 665545
430 305 665581
648 305 665682
630 214 665697
449 305 666752
23 305 667013
305 42 667058
295 305 667168
213 101 667200
539 305 667274
644 305 667659
658 155 668193
41 295 668408
42 633 668484
456 305 668488
334 659 668588
334 654 668642
41 654 668827
325 659 669205
41 659 669250
449 539 669557
41 644 669811
42 661 669968
449 305 669976
609 305 670288
42 295 670374
332 101 670939
4 305 670965
236 278 671047
229 305 671053
609 101 671071
669 56 671208
2962 305 671260
17 333 671404
333 668 671636
670 101 671637
334 305 672126
325 333 672440
211 305 672665
332 333 672765
667 305 672765
609 622 672937
236 622 672957
334 333 673752
667 150 674440
42 305 674878
612 473 674980
449 333 675054
612 305 675227
679 305 675272
659 101 675285
332 677 675346
627 333 675364
203 473 675493
211 473 675693
334 17 675849
612 17 675885
203 101 675897
612 101 676169
334 333 676391
667 333 676401
612 333 676510
667 677 676815
667 325 677270
627 668 677385
449 333 677399
10 325 677632
627 101 677931
334 48 677950
612 48 677975
333 48 678077
667 48 678144
667 637 678472
695 17 678555
458 333 678646
150 101 679189
667 1010 680252
333 114 680433
612 381 681279
130 381 681424
548 333 681875
214 333 682090
130 1010 682249
305 654 682772
130 114 682982
316 114 683456
305 238 683726
130 305 684289
4 305 684465
300 305 684861
332 305 685529
696 305 685893
334 238 686350
130 305 687195
235 238 687337
4 672 687381
705 672 687864
333 102 688043
275 102 688325
706 305 688638
333 275 689253
334 275 689400
334 696 690351
667 275 690573
41 696 690745
236 333 692152
41 333 692782
667 333 692922
236 717 693628
316 717 693741
289 109 694491
252 275 697047
252 101 697602
133 333 698600
252 305 699474
213 333 700354
235 333 700682
236 236 700932
242 324 701705
743 420 702115
449 420 702239
420 749 704221
316 633 704275
172 769 707142
4 659 707270
41 659 708020
778 659 708313
289 27 708314
455 451 708869
778 333 709000
115 659 709174
778 769 709249
778 451 709537
114 41 709678
593 420 711072
289 661 711468
115 769 711848
41 220 715149
289 220 715684
130 220 715890
7 593 716733
192 5 720365
305 794 720627
305 783 720823
305 769 721220
333 252 723304
333 696 724205
305 5 725305
802 333 725419
333 5 725636
333 783 725823
24 5 726849
305 794 728395
806 305 728966
203 5 729384
291 785 730338
5 305 730581
458 808 731060
813 5 732496
813 38 732740
813 4343 732963
211 769 733662
742 808 735193
300 114 735381
334 140322 735556
295 140322 735585
236 808 736448
824 140322 739332
375 109 739740
627 333 742750
612 38 744569
449 232 748812
627 455 749865
334 644 750197
458 114 758719
612 455 760110
456 455 760231
349 818 760990
356 333 761521
349 451 761583
456 252 761971
612 333 762473
612 252 762891
612 101 763293
70 333 763387
4 101 763859
252 38 767961
334 869 768268
4 869 769445
295 850 769830
742 869 770391
667 779 772665
667 633 773065
880 451 773228
661 661 773320
289 829 773432
456 140322 774202
881 253 774311
289 87 774587
41 884 774775
627 87 775072
667 884 775220
456 334 775265
833 333 775305
667 305 776120
890 56 776816
295 50 776871
456 892 778742
295 667 778838
194 754 778992
333 892 779119
667 892 780169
257 324 780353
4 708 780747
742 667 780800
456 783 781038
257 87 781060
236 783 781525
257 446 781882
236 667 781942
44 88 782037
257 696 782687
41 735 784390
130 17 785450
334 17 785525
667 769 785918
41 769 786000
257 161 786077
41 17 786278
88 754 787055
455 243 790106
114 5 790144
146 5 794586
539 539 794913
289 708 795365
913 87 796107
913 884 796650
57 108 796766
913 334 797030
862 783 803614
4 170 804005
289 170 806754
41 876 807579
194 5 809006
818 667 810288
266 862 810298
880 624 815345
708 170 815959
5 170 822315
23 880 824419
638 779 825468
455 473 825884
455 266 826616
449 880 828619
455 253 828856
307 633 830872
667 927 831132
455 927 831268
913 253 832106
667 876 832537
913 769 832834
109 876 833199
307 929 833704
334 929 833830
913 446 833832
913 9 834083
278 446 834427
493 329 835328
236 170 835800
493 708 836554
307 333 838118
493 927 839716
334 932 839846
150 932 839869
929 929 840368
152 769 840420
152 156 840733
152 87 840999
667 28 843875
289 5 847450
17 150 847557
28 539 848434
252 161 848569
455 150 851240
755 161 854476
935 624 855284
935 170 856167
133 170 856553
935 449 859930
456 769 863077
667 880 864394
945 539 868084
946 446 868268
18 446 868512
236 150 868846
236 150 868984
945 449 869487
945 947 869974
950 947 872845
289 449 874072
289 932 875194
667 633 875574
41 633 875633
4 953 876816
945 953 876941
253 633 886963
41 5 891134
57 5 891823
667 862 900757
449 324 907056
449 958 907664
913 71 907664
116 958 908376
742 5 910538
455 324 911599
236 5 911719
455 959 916582
667 324 916598
934 932 916646
455 952 917350
236 959 919675
963 446 920311
236 449 921311
963 449 921497
236 449 922785
305 958 922801
449 305 922858
236 305 923332
359 833 928446
359 305 929310
130 324 931187
742 449 931540
449 963 938416
627 150 945299
908 5 946022
667 866 949205
150 833 949683
449 866 953301
449 108 953691
24 236 953732
945 978 955143
945 356 960000
4 356 960040
742 667 961819
742 356 962400
115 108 964938
455 104 964989
945 104 965017
877 356 966353
769 677 966683
2962 978 969511
41 324 969737
431 324 971167
818 980 973260
987 980 973571
41 659 974316
252 978 979641
913 324 980026
913 324 980423
913 929 983003
4 266 983629
813 534 984794
519 659 986512
935 82 991895
588 866 995609
67 866 996310
405 866 996489
211 324 996559
325 866 998124
449 593 1000262
449 214 1005489
449 455 1007875
236 659 1009025
236 305 1012188
449 305 1012483
866 449 1015288
455 449 1015359
215 876 1016130
242 1011 1017125
242 449 1017486
41 333 1018121
88 333 1020525
458 333 1020546
1016 333 1020841
211 1011 1023383
449 876 1025391
456 87 1027164
449 87 1027558
456 330 1027929
41 87 1029849
289 266 1035871
4 133 1037523
4 1034 1041420
236 1034 1041623
953 593 1042983
236 782 1043076
667 782 1046202
289 880 1048643
289 324 1048706
146 1039 1049531
449 124 1050317
300 124 1050556
913 124 1050629
913 449 1051024
130 999 1051653
913 333 1052068
266 124 1052248
289 808 1054168
41 5 1055173
289 356 1055719
1043 1043 1061536
543 913 1062556
115 913 1068611
115 32 1069677
188 593 1073690
927 1043 1079705
211 593 1080075
455 782 1082216
449 1052 1087440
449 213 1087923
449 1057 1088288
449 630 1090218
449 782 1090597
644 782 1091601
667 1052 1092152
1059 1043 1095799
1059 808 1096740
455 808 1097764
658 32 1101418
667 658 1103636
211 633 1103964
455 633 1104162
41 658 1104435
449 658 1104467
667 658 1104817
333 658 1105831
742 633 1109445
270 658 1109746
742 1043 1109919
742 124 1111627
963 124 1112297
325 658 1112683
333 884 1117527
10 5 1119135
455 884 1119248
303 1052 1120078
880 329 1120341
295 333 1120644
325 325 1121745
55 333 1122940
333 295 1123664
1059 4 1125337
1005 295 1125602
236 48 1125922
1005 4 1125948
275 295 1126092
252 1065 1126281
163 1065 1126281
275 1065 1126436
1005 1065 1126811
236 163 1127218
1005 1065 1128578
1005 295 1128778
1005 782 1129485
458 213 1129995
4 66 1131840
235 66 1132264
627 66 1132752
236 236 1133124
87 295 1134115
449 1065 1135661
449 1005 1136408
478 1065 1136935
449 66 1136990
453 104 1150000
115 104 1150073
115 633 1150610
289 884 1150732
115 1045 1151703
66 179 1156014
1076 1005 1165030
809 234 1166162
455 234 1168298
236 234 1169912
211 884 1171577
211 234 1172194
809 236 1173543
275 5 1174695
449 5 1174727
1081 124 1175067
1081 5 1175327
644 295 1177116
275 42 1184946
449 576 1188479
5 333 1191081
423 49 1191746
423 49 1191992
431 101 1194674
41 423 1195377
4 101 1195412
41 101 1195732
146 333 1196468
667 49 1196594
141 101 1196662
423 305 1198777
423 659 1199019
742 576 1199124
880 1043 1203444
1005 659 1204738
139 331 1210321
96 331 1210345
612 4 1210395
139 104 1210571
139 38 1210779
695 5 1211439
1107 90 1211880
1102 90 1211912
667 325 1213611
4 302 1214841
236 302 1215476
1039 1039 1216211
333 965 1216246
1113 965 1217431
455 108 1219398
1116 965 1222053
1116 266 1222293
1116 160 1222452
171 108 1222852
349 160 1223202
349 236 1224226
152 965 1226161
184 49 1227369
289 160 1228064
66 195 1235925
1103 266 1244286
211 794 1254293
455 1123 1257785
449 275 1261255
275 264 1261556
449 1008 1265372
1128 264 1266096
211 275 1267893
236 794 1268424
861 1008 1269907
667 1008 1271571
289 1131 1273990
66 333 1275570
333 1010 1277195
275 4 1277290
449 4 1277831
453 1010 1278269
211 1010 1278302
252 333 1280700
667 333 1280727
316 333 1281538
449 4 1282255
453 4 1282588
4 633 1285667
329 633 1286131
449 633 1287575
4 633 1287810
1147 1143 1288141
1059 1143 1288228
449 333 1288620
1147 10 1288934
252 1147 1288965
114 333 1289249
186 10 1289799
41 1151 1295012
333 1151 1297055
4 41 1297099
1005 965 1299681
333 1087 1300417
1005 965 1300435
667 1151 1300978
1005 87 1301590
667 1087 1301986
1158 4 1302195
1158 947 1302639
1158 4 1302913
1158 539 1303376
1158 87 1303786
1158 1046 1304381
578 333 1304570
4 1046 1304877
1158 264 1304993
4 4 1305862
963 982 1307383
1059 431 1308173
667 982 1309188
1046 1046 1310534
472 333 1311785
333 1046 1312321
333 5 1312940
289 4 1313847
453 1046 1314845
877 1046 1314897
4 1046 1315287
4 982 1317605
4 108 1318190
289 5 1318743
4 1046 1319391
880 154 1319411
880 333 1319605
289 1046 1319851
289 1046 1325082
1158 305 1328102
252 305 1328283
115 305 1328724
1158 305 1328836
1167 794 1329496
1167 1151 1330112
289 305 1331331
866 45 1336211
1169 333 1337052
1170 234 1337937
211 236 1338152
1170 927 1343722
455 211 1344193
285 1176 1345587
213 1176 1349180
1178 67 1350023
67 67 1350047
234 234 1354603
612 234 1355454
175 1176 1358364
270 45 1358659
630 1176 1359056
667 175 1359303
130 211 1359833
4 1185 1360839
455 1185 1360898
270 175 1361262
449 630 1361886
333 1176 1362261
742 927 1362993
742 504 1363311
1059 211 1365245
333 67 1365352
1078 504 1365778
1158 947 1365928
667 1151 1368985
833 1151 1369085
667 1151 1369259
1158 140 1369698
1189 140 1369990
1158 66 1373703
932 140 1373833
4 431 1375022
333 431 1375027
4 431 1375264
1158 1046 1375954
1068 431 1376526
252 431 1376539
87 932 1376734
333 932 1377659
1068 1046 1378505
455 1046 1380019
866 87 1380653
1158 87 1382290
1151 87 1383190
67 236 1388763
1195 109 1389231
4 1196 1389645
67 199 1390202
449 199 1390275
1195 199 1390666
1180 1193 1390898
1158 1196 1392065
455 236 1392629
236 1196 1393346
455 431 1393629
449 124 1393671
130 124 1394481
455 10 1394693
1068 236 1397980
1068 1131 1399662
289 199 1400287
289 1200 1401903
4 41 1404474
455 41 1404603
1158 41 1407291
1158 1200 1407579
1158 333 1411701
333 1215 1413572
1158 1215 1413609
1217 1215 1414365
1218 236 1415063
923 1196 1421297
866 633 1424429
455 1229 1431650
251 333 1434700
453 1234 1439973
1243 1219 1441300
453 1219 1443012
41 1059 1444206
458 41 1445530
23 1059 1445957
458 1059 1446006
275 179 1446879
455 455 1448923
67 455 1449099
1217 179 1449218
67 333 1451590
1138 333 1451675
1252 455 1453207
1158 41 1462367
935 866 1463556
504 504 1463682
431 633 1464005
935 1219 1465112
1078 333 1466473
455 866 1470486
236 455 1472679
72 195 1473360
72 1260 1473858
1269 455 1481429
449 179 1482226
449 49 1482583
252 176 1501682
289 1859 1505838
333 176 1507490
333 633 1507721
333 633 1508398
816 455 1512720
449 1219 1521363
1010 633 1522719
493 1260 1526002
1283 633 1527699
866 1260 1529232
150 1859 1534361
455 130 1537517
449 654 1538245
67 1288 1540213
275 1288 1540259
285 130 1542465
1290 1859 1542581
333 1284 1543276
1068 243 1543631
449 1288 1543869
285 130 1545163
455 1288 1551465
963 1215 1563051
1296 394 1565648
179 179 1567411
1158 104 1570216
188 1287 1578051
1304 473 1578364
478 1304 1581092
104 1046 1585905
104 104 1587171
935 1304 1588072
188 72 1590872
30 541 1591372
203 654 1594058
945 1304 1594224
455 1046 1597004
409 409 1597395
455 409 1597593
289 82 1602565
455 82 1603427
1318 1859 1603988
289 82 1604571
644 90 1604889
211 82 1605947
289 1313 1608905
41 76 1622321
285 220 1623329
449 76 1624629
275 76 1626974
667 1304 1628476
667 1304 1630949
214 90 1631810
289 862 1634473
289 203 1635393
449 203 1635960
455 1151 1635962
211 203 1636125
333 1151 1636627
333 829 1636942
211 1341 1638706
1068 90 1639975
333 65 1640685
1068 829 1641447
289 238 1641674
667 1333 1642240
4 203 1643248
41 1012 1643275
1114 1185 1643809
289 1012 1644065
1114 1151 1644278
945 1012 1645542
829 829 1645654
963 1046 1646686
742 72 1647017
1148 333 1648120
455 333 1648480
667 458 1649487
1114 1313 1650021
1151 1314 1651010
352 90 1651330
236 1349 1653601
1059 1349 1654789
104 1349 1654888
458 1350 1657004
813 1151 1659704
289 1151 1660452
289 1151 1661750
333 659 1666515
333 1349 1666843
333 548 1672916
1353 548 1677439
211 1304 1683429
211 1304 1684755
1360 1859 1686773
449 1356 1686816
394 1359 1688730
455 1357 1691227
449 1363 1691534
449 1359 1692154
667 1359 1692186
449 238 1697349
458 238 1700127
1158 1364 1705515
861 541 1706767
4 161 1707610
627 161 1708290
861 1304 1709124
458 333 1710102
458 65 1712206
3755 1333 1712259
458 333 1712758
945 161 1714665
458 67 1714780
305 333 1715061
627 458 1716192
352 458 1716208
458 1326 1717164
458 794 1720113
146 458 1721132
333 458 1721396
1377 1356 1722050
4 455 1722849
1384 794 1727768
667 1383 1728522
667 1380 1728811
333 1383 1729903
289 458 1730485
1402 593 1734514
235 87 1736025
667 87 1736357
235 593 1738414
5 1383 1740330
289 829 1743294
189 458 1751287
1405 1012 1751496
1158 1412 1754595
115 1412 1757837
1379 1412 1757844
1138 1151 1762570
235 1415 1764880
1415 1357 1767480
235 1417 1768084
866 1417 1768256
455 161 1768446
171 295 1768853
171 87 1769074
211 455 1769683
211 1188 1770689
270 1369 1773366
449 866 1773766
742 1369 1774072
1360 866 1774378
449 1410 1774390
1296 394 1775571
449 394 1775585
662 1369 1775989
449 28077 1777506
866 866 1778054
627 1369 1780577
959 87 1784892
458 866 1797301
66 1333 1798079
458 4 1799077
1435 170 1805467
667 333 1806003
1158 28077 1806213
727 333 1806323
1415 333 1806879
1158 318 1807907
1158 829 1808036
866 866 1808705
235 829 1808763
41 318 1809875
5 1436 1813642
130 829 1813754
333 1446 1819698
333 322 1820352
1151 333 1821761
662 333 1822097
1448 1446 1825534
1158 1446 1825558
431 866 1826242
455 1446 1827287
352 1369 1827464
1158 1449 1834995
104 829 1843200
1158 829 1844005
333 829 1844405
880 866 1847577
66 884 1851032
1158 55 1851425
1452 866 1853604
455 266 1858887
236 526 1864239
458 526 1864293
236 829 1864622
236 1401 1865124
236 526 1865363
236 526 1865664
662 458 1871571
662 236 1874948
275 1463 1876259
633 633 1883919
66 633 1884173
1467 1467 1884796
236 1467 1885710
630 952 1887024
1158 1446 1896541
333 1446 1896751
963 1446 1897025
963 1193 1899084
913 1446 1899964
913 1448 1901213
913 526 1901777
913 1453 1902651
913 829 1903245
155 155 1905713
1217 1448 1924426
37 866 1924795
37 866 1925616
37 1448 1926015
37 37 1926616
66 791 1930007
1360 1474 1934353
1496 458 1934757
913 952 1937033
913 1314 1940979
913 1219 1941453
913 1333 1943151
913 1859 1944552
913 220 1945694
285 37 1946433
449 1454 1949194
1378 37 1951796
1059 1491 1959399
333 1508 1962323
333 331 1962833
455 1234 1963410
1491 1446 1963579
1525 1474 1965374
289 424 1965459
4 659 1967509
37 424 1968969
630 424 1969541
37 424 1970524
37 1508 1971006
449 262 1971072
289 333 1971188
37 262 1971189
1415 262 1971190
1415 333 1971885
37 333 1972182
1540 37 1974730
214 424 1975323
1543 87 1976515
1547 1176 1976562
22 87 1976696
55 55 1977606
55 262 1977937
1543 431 1979190
1550 101 1979905
1543 1229 1979978
1543 324 1980555
1543 333 1980750
1550 5 1980773
1543 68 1981178
1550 333 1981227
1543 769 1981569
667 1446 1983312
146 1557 1983673
277 431 1987149
277 133 1988193
1158 659 1990297
289 1501 1992193
667 1501 1992261
289 1501 1997647
