18561 18393 -48938123
1301 23684 -46704167
315567 23684 -46291724
16103 23684 -45775883
40820 18393 -44677397
23684 23684 -38884447
24833 17828 -32048975
1909 17828 -32048217
106627 17828 -32044269
16814 17828 -32039698
31439 1471 -18541979
17725 17828 -17340237
2369 33096 -7494327
57149 33096 -7347404
39668 33096 -880346
4 5 0
4 27 683
10 27 722
4 10 911
41 43 935
5 63 966
50 27 985
4 20 1016
66 56 1052
5 50 1059
9 39 1220
77 39 1239
69 56 1346
4 50 1491
75 50 1508
4 68 1554
5 82 1576
24 68 1589
86 27 1603
66 35 1793
75 56 1877
35 45 1935
5 91 1957
103 50 2040
86 42 2043
41 56 2084
66 42 2215
35 56 2224
12 24 2237
91 82 2315
86 45 2368
9 76 2479
35 88 2535
66 68 2606
4 76 2657
46 10 2732
10 82 2845
103 20 2851
5 104 2948
9 109 3041
104 42 3047
66 104 3116
4 27 3131
35 91 3144
5 56 3151
116 27 3178
66 109 3280
35 15873 3544
10 56 3696
20 106 3718
24 56 3746
66 56 3795
41 118 3834
66 27 4010
41 4 4339
66 4 4452
94 4 4623
35 4 4722
35 27 4822
66 27 4905
130 27 4951
84 109 5170
41 109 5226
41 128 5432
136 56 5993
130 104 6229
132 43 6293
134 42 6444
41 56 6684
35 56 6697
141 56 6802
145 56 6858
132 94 6891
35 56 6949
132 56 6995
56 88 7099
88 56 7330
103 88 7378
45 88 7641
5 88 7684
5 27 8054
5 88 8385
152 50 8539
153 138 8841
143 138 8977
129 56 9074
134 27 9111
129 136 9491
129 7002 9797
134 136 9810
5 7002 9924
154 136 9992
28 42 10148
154 5 10311
154 4 10965
163 42 11405
46 27 11406
163 76 11729
165 165 11768
154 103 11905
129 56 11916
130 161 12030
165 161 12111
154 68 12356
28 154 12944
5 6005 13415
28 130 13750
169 6005 13794
57 24 13848
154 56 14018
169 56 14369
22 154 14392
154 156 14626
28 143 14919
57 156 14999
172 56 15616
28 170 15678
178 154 16590
129 154 16664
5 176 16946
176 130 17089
5 179 17191
5 154 17420
57 154 17495
5 143 17527
91 154 17545
73 5 20523
104 5 20528
186 76 20703
186 82 20843
186 170 21655
182 50 23285
115 154 23964
170 170 24230
188 82 24359
188 4 24736
188 35 26529
66 154 27108
188 56 27234
5 175 28117
192 170 29113
192 174 29727
66 175 30806
66 154 31102
194 170 31271
42 130 32248
116 56 32396
4 192 32470
115 175 32476
24 80 39122
5 199 39569
170 199 39654
192 199 41696
80 154 42095
26 91 43779
212 43 46527
23 154 47598
215 91 47793
212 115 48285
143 192 48351
23 76 48444
217 166 48485
23 5 48641
215 50 49014
212 68 49185
215 56 50108
192 192 50146
221 220 50502
134 220 50727
220 166 51149
50 66 51575
225 166 51707
47 166 51988
23 118 53123
24 224 53482
170 161 55672
154 161 55707
154 161 55810
161 161 56284
217 161 56497
234 161 57170
215 161 57545
235 56 57797
236 166 57936
236 154 58602
47 231 59394
20 231 59398
115 154 60035
143 238 60214
143 50 60942
23 234 60959
130 161 62434
143 161 62893
20 115 62987
215 115 63169
236 7 63944
20 7 64045
7 161 64345
241 7 64694
84 242 65940
4 242 65951
84 242 66218
211 242 66602
211 161 66943
66 242 67300
22 38 67483
66 38 67674
150 242 67695
35 109 67856
66 242 68176
35 109 68265
10 7 69273
235 242 69432
23 5786 69926
41 5786 70019
35 10 70448
41 242 71217
235 179 74001
88 138 75911
41 253 76398
109 253 76481
10 88 78801
253 253 79163
235 38 79223
10 253 79303
24 176 79889
169 130 79964
169 224 80146
228 76 80260
87 161 80290
253 253 80395
169 238 80530
150 87 80742
150 136 81833
4 10 84363
4 133 85978
88 133 86352
87 133 86623
10 133 86802
193 88 87334
42 234 88465
86 156 88469
155 133 88534
193 234 88572
193 115 88754
42 161 89073
42 38 92396
66 88 92882
66 4 93331
150 238 94550
44 161 95199
236 38 95608
108 231 96355
4 115 97593
22 264 102969
5 234 103063
115 58 106488
5 154 106796
115 154 108150
115 45 113163
41 36 114618
115 36 115074
66 5 115253
267 38 116186
267 115 116493
267 128 116812
115 45 117849
5 45 117925
42 263 125471
235 156 127331
211 38 128083
42 104 134793
151 104 135262
203 91417 136659
115 115 137714
273 115 138914
236 234 147607
136 179 147885
275 179 148586
22 4 156270
42 71 156419
263 242 157236
23 4 159558
130 109 160126
4 109 160130
20 4 160638
4 109 160807
20 109 161587
275 109 161807
211 109 161853
275 109 162149
66 128 163004
66 278 164742
66 278 166587
130 88 170886
236 88 170961
24 278 174542
234 234 176036
4 278 178194
154 56 179776
94 94 188761
4 5 192561
4 130 192842
130 5 193220
214 68 209787
214 214 210555
214 7002 210930
24 278 215922
67 109 216606
234 214 220096
115 278 220504
264 5 230877
203 214 232138
156 278 235702
42 5 240170
154 154 243205
43 35 243393
42 281 245751
282 35 247518
44 214 247780
282 234 247971
179 7 248105
130 114 248846
172 7 250206
169 7 250556
114 87 251467
5 7 251841
114 82322 253285
157 82322 253928
278 7 254011
278 87 254444
130 87 255048
169 27 258479
236 50 258674
5 87 259397
236 128 259428
109 82322 260341
84 87 261326
67 7 263033
7 56 263478
87 87 265582
87 87 265635
87 87 265803
241 87 266083
241 7 266640
130 87 266690
130 38 269974
115 38 270078
4 38 270093
87 87 273002
87 87 273049
87 87 273364
87 87 273537
87 87 273584
87 5 275051
35 35 281140
203 5 294323
57 45 298131
116 87 301787
11 234 306206
116 67 310445
44 5 310874
131 7 312658
109 67 315188
231 67 321709
130 172 327115
203 5 329183
235 171 332481
4 87 333652
259 7 336107
131 67 343139
42 109 346999
236 7 347453
87 163 349233
4 270059 358773
115 5 359697
253 7 360241
5 170 363733
4 5 364881
115 170 366786
289 170 370132
289 163 371493
211 87 389032
253 7 399577
292 114 400510
236 5 407519
10 7 409179
150 5 411861
57 150 413026
186 236 416792
130 236 417021
41 74307 420829
243 7 422080
296 281 431455
88 7 434252
41 114 434844
130 236 436340
88 7 440410
130 88 449925
130 88 450438
41 305 462557
42 305 462573
42 305 462846
41 305 462876
41 305 464278
42 305 464541
307 199 469706
47 305 477956
143 305 479629
236 305 480570
136 308 483769
306 87 484784
241 144 489642
47 234 494165
236 144 494755
41 305 495213
305 5786 495539
305 7002 495831
42 305 496393
35 308 496785
42 308 497699
4 305 499332
236 270 505866
114 114 507440
211 63 507820
130 305 507928
42 88 508751
323 236 521234
42 94 521360
324 9 521633
42 5 522230
115 199 526372
317 63 527038
156 88 529302
4 114 531100
17 114 531806
236 114 533932
236 5 534931
172 109 538504
41 109 541057
5 163 541503
130 41 543830
129 5 544734
306 41 547744
5 65 554277
5 5 556552
129 5 556614
42 88 559657
143 170 566204
192 115 566923
305 115 567098
143 5691 567276
42 143 567744
109 109 575876
42 144 575993
42 329 576499
323 133 579395
143 305 581889
241 56 582897
50 5691 583942
130 253 584504
130 5691 585207
49 45 585983
108 305 586592
211 143 587138
108 163 587409
332 305 602624
332 333 604301
334 333 604349
334 17 604560
349 163 605389
332 333 605448
348 333 605575
44 333 606231
349 144 606502
17 275 607223
366 333 607327
4 333 607403
356 65 607429
17 333 607452
376 324 607510
10 333 607890
352 253 608139
193 333 608216
383 333 608408
392 333 608552
352 27 608790
4 386 608984
4 396 609597
275 396 609710
349 87 609851
419 334 610103
356 412 610226
169 396 610242
419 170 610351
334 425 610507
169 333 610547
423 412 610686
4 425 610713
389 308 610884
169 115 611094
334 333 611122
430 381 611390
333 10 611423
146 333 611712
114 431 611712
55 431 612031
55 333 612291
88 143 612401
5 10 612624
352 381 612717
146 275 612952
157 270 612955
349 448 613063
453 333 613324
275 449 613720
466 431 613998
461 431 614235
115 446 614251
431 446 614353
157 431 614689
326 431 615040
326 425 615255
146 446 615451
458 449 615519
41 155 615840
449 473 616542
458 440 616766
170 440 616971
114 114 617080
483 333 617138
300 440 617627
455 155 618087
449 332 618155
458 144 618245
476 10 618523
333 473 618847
431 333 619807
455 333 619851
114 497 620035
503 333 620125
289 333 620556
509 10 620845
333 14127 621302
514 14127 621312
4 14127 621555
4 176 621778
517 14127 621974
513 7 622145
517 10 622225
455 88 622479
514 5 622496
522 118 623490
332 14127 623495
5 431 623738
521 176 624244
332 440 624291
529 7 624404
530 4 624499
289 109 624987
534 440 625319
511 440 625724
519 440 625854
527 440 626190
4 534 626203
543 176 627088
549 332 628719
188 332 632670
41 330 632763
4 534 633188
235 56 635217
235 305 637206
114 305 637248
332 305 638592
321 330 638721
578 332 641734
116 440 641741
584 109 643762
305 332 643969
584 305 643992
4 305 644533
458 305 644619
584 440 644682
389 154 645800
593 332 646102
213 305 646707
4 305 646736
359 88 647253
359 440 647719
334 305 648667
604 305 648678
67 305 650479
607 440 650777
129 449 651277
67 440 651502
609 23 651959
211 305 652549
612 305 652909
609 305 653259
458 305 653332
612 170 653338
612 375 653615
229 305 654063
455 172 654156
614 334 654165
359 305 654345
458 609 654409
612 609 654549
458 305 654819
612 305 655504
359 334 655563
609 305 655601
359 375 656296
271 622 656838
271 10064 657407
23 10064 657469
627 449 657699
271 4 657853
359 375 658048
627 10 658079
627 199 658783
275 308 660045
203 333 660089
359 305 660185
203 14127 660514
609 622 660656
192 359 660835
640 333 661808
641 305 662098
633 305 662385
116 10064 662494
236 305 662507
334 624 662641
271 334 662656
271 534 662899
271 633 663092
305 199 663400
211 633 663469
305 10 663537
647 305 664415
648 305 664899
630 114 665237
323 243 665458
519 305 665545
430 305 665581
648 305 665682
630 214 665697
449 305 666752
23 305 667013
305 42 667058
295 305 667168
213 101 667200
539 305 667274
644 305 667659
658 155 668193
41 295 668408
42 633 668484
456 305 668488
334 659 668588
334 654 668642
41 654 668827
325 659 669205
41 659 669250
449 539 669557
41 644 669811
42 661 669968
449 305 669976
609 305 670288
42 295 670374
332 101 670939
4 305 670965
236 278 671047
229 305 671053
609 101 671071
669 56 671208
2962 305 671260
17 333 671404
333 668 671636
670 101 671637
334 305 672126
325 333 672440
211 305 672665
332 333 672765
667 305 672765
609 622 672937
236 622 672957
334 333 673752
667 150 674440
42 305 674878
612 473 674980
449 333 675054
612 305 675227
679 305 675272
659 101 675285
332 677 675346
627 333 675364
203 473 675493
211 473 675693
334 17 675849
612 17 675885
203 101 675897
612 101 676169
334 333 676391
667 333 676401
612 333 676510
667 677 676815
667 325 677270
627 668 677385
449 333 677399
10 325 677632
627 101 677931
334 48 677950
612 48 677975
333 48 678077
667 48 678144
667 637 678472
695 17 678555
458 333 678646
150 101 679189
667 1010 680252
333 114 680433
612 381 681279
130 381 681424
548 333 681875
214 333 682090
130 1010 682249
305 654 682772
130 114 682982
316 114 683456
305 238 683726
130 305 684289
4 305 684465
300 305 684861
332 305 685529
696 305 685893
334 238 686350
130 305 687195
235 238 687337
4 672 687381
705 672 687864
333 102 688043
275 102 688325
706 305 688638
333 275 689253
334 275 689400
334 696 690351
667 275 690573
41 696 690745
236 333 692152
41 333 692782
667 333 692922
236 717 693628
316 717 693741
289 109 694491
252 275 697047
252 101 697602
133 333 698600
252 305 699474
213 333 700354
235 333 700682
236 236 700932
242 324 701705
743 420 702115
449 420 702239
420 749 704221
316 633 704275
172 769 707142
4 659 707270
41 659 708020
778 659 708313
289 27 708314
455 451 708869
778 333 709000
115 659 709174
778 769 709249
778 451 709537
114 41 709678
593 420 711072
289 661 711468
115 769 711848
41 220 715149
289 220 715684
130 220 715890
7 593 716733
192 5 720365
305 794 720627
305 783 720823
305 769 721220
333 252 723304
333 696 724205
305 5 725305
802 333 725419
333 5 725636
333 783 725823
24 5 726849
305 794 728395
806 305 728966
203 5 729384
291 785 730338
5 305 730581
458 808 731060
813 5 732496
813 38 732740
813 4343 732963
211 769 733662
742 808 735193
300 114 735381
334 140322 735556
295 140322 735585
236 808 736448
824 140322 739332
375 109 739740
627 333 742750
612 38 744569
449 232 748812
627 455 749865
334 644 750197
458 114 758719
612 455 760110
456 455 760231
349 818 760990
356 333 761521
349 451 761583
456 252 761971
612 333 762473
612 252 762891
612 101 763293
70 333 763387
4 101 763859
252 38 767961
334 869 768268
4 869 769445
295 850 769830
742 869 770391
667 779 772665
667 633 773065
880 451 773228
661 661 773320
289 829 773432
456 140322 774202
881 253 774311
289 87 774587
41 884 774775
627 87 775072
667 884 775220
456 334 775265
833 333 775305
667 305 776120
890 56 776816
295 50 776871
456 892 778742
295 667 778838
194 754 778992
333 892 779119
667 892 780169
257 324 780353
4 708 780747
742 667 780800
456 783 781038
257 87 781060
236 783 781525
257 446 781882
236 667 781942
44 88 782037
257 696 782687
41 735 784390
130 17 785450
334 17 785525
667 769 785918
41 769 786000
257 161 786077
41 17 786278
88 754 787055
455 243 790106
114 5 790144
146 5 794586
539 539 794913
289 708 795365
913 87 796107
913 884 796650
57 108 796766
913 334 797030
862 783 803614
4 170 804005
289 170 806754
41 876 807579
194 5 809006
818 667 810288
266 862 810298
880 624 815345
708 170 815959
5 170 822315
23 880 824419
638 779 825468
455 473 825884
455 266 826616
449 880 828619
455 253 828856
307 633 830872
667 927 831132
455 927 831268
913 253 832106
667 876 832537
913 769 832834
109 876 833199
307 929 833704
334 929 833830
913 446 833832
913 9 834083
278 446 834427
493 329 835328
236 170 835800
493 708 836554
307 333 838118
493 927 839716
334 932 839846
150 932 839869
929 929 840368
152 769 840420
152 156 840733
152 87 840999
667 28 843875
289 5 847450
17 150 847557
28 539 848434
252 161 848569
455 150 851240
755 161 854476
935 624 855284
935 170 856167
133 170 856553
935 449 859930
456 769 863077
667 880 864394
945 539 868084
946 446 868268
18 446 868512
236 150 868846
236 150 868984
945 449 869487
945 947 869974
950 947 872845
289 449 874072
289 932 875194
667 633 875574
41 633 875633
4 953 876816
945 953 876941
253 633 886963
41 5 891134
57 5 891823
667 862 900757
449 324 907056
449 958 907664
913 71 907664
116 958 908376
742 5 910538
455 324 911599
236 5 911719
455 959 916582
667 324 916598
934 932 916646
455 952 917350
236 959 919675
963 446 920311
236 449 921311
963 449 921497
236 449 922785
305 958 922801
449 305 922858
236 305 923332
359 833 928446
359 305 929310
130 324 931187
742 449 931540
449 963 938416
627 150 945299
908 5 946022
667 866 949205
150 833 949683
449 866 953301
449 108 953691
24 236 953732
945 978 955143
945 356 960000
4 356 960040
742 667 961819
742 356 962400
115 108 964938
455 104 964989
945 104 965017
877 356 966353
769 677 966683
2962 978 969511
41 324 969737
431 324 971167
818 980 973260
987 980 973571
41 659 974316
252 978 979641
913 324 980026
913 324 980423
913 929 983003
4 266 983629
813 534 984794
519 659 986512
935 82 991895
588 866 995609
67 866 996310
405 866 996489
211 324 996559
325 866 998124
449 593 1000262
449 214 1005489
449 455 1007875
236 659 1009025
236 305 1012188
449 305 1012483
866 449 1015288
455 449 1015359
215 876 1016130
242 1011 1017125
242 449 1017486
41 333 1018121
88 333 1020525
458 333 1020546
1016 333 1020841
211 1011 1023383
449 876 1025391
456 87 1027164
449 87 1027558
456 330 1027929
41 87 1029849
289 266 1035871
4 133 1037523
4 1034 1041420
236 1034 1041623
953 593 1042983
236 782 1043076
667 782 1046202
289 880 1048643
289 324 1048706
146 1039 1049531
449 124 1050317
300 124 1050556
913 124 1050629
913 449 1051024
130 999 1051653
913 333 1052068
266 124 1052248
289 808 1054168
41 5 1055173
289 356 1055719
1043 1043 1061536
543 913 1062556
115 913 1068611
115 32 1069677
188 593 1073690
927 1043 1079705
211 593 1080075
455 782 1082216
449 1052 1087440
449 213 1087923
449 1057 1088288
449 630 1090218
449 782 1090597
644 782 1091601
667 1052 1092152
1059 1043 1095799
1059 808 1096740
455 808 1097764
658 32 1101418
667 658 1103636
211 633 1103964
455 633 1104162
41 658 1104435
449 658 1104467
667 658 1104817
333 658 1105831
742 633 1109445
270 658 1109746
742 1043 1109919
742 124 1111627
963 124 1112297
325 658 1112683
333 884 1117527
10 5 1119135
455 884 1119248
303 1052 1120078
880 329 1120341
295 333 1120644
325 325 1121745
55 333 1122940
333 295 1123664
1059 4 1125337
1005 295 1125602
236 48 1125922
1005 4 1125948
275 295 1126092
252 1065 1126281
163 1065 1126281
275 1065 1126436
1005 1065 1126811
236 163 1127218
1005 1065 1128578
1005 295 1128778
1005 782 1129485
458 213 1129995
4 66 1131840
235 66 1132264
627 66 1132752
236 236 1133124
87 295 1134115
449 1065 1135661
449 1005 1136408
478 1065 1136935
449 66 1136990
453 104 1150000
115 104 1150073
115 633 1150610
289 884 1150732
115 1045 1151703
66 179 1156014
1076 1005 1165030
809 234 1166162
455 234 1168298
236 234 1169912
211 884 1171577
211 234 1172194
809 236 1173543
275 5 1174695
449 5 1174727
1081 124 1175067
1081 5 1175327
644 295 1177116
275 42 1184946
449 576 1188479
5 333 1191081
423 49 1191746
423 49 1191992
431 101 1194674
41 423 1195377
4 101 1195412
41 101 1195732
146 333 1196468
667 49 1196594
141 101 1196662
423 305 1198777
423 659 1199019
742 576 1199124
880 1043 1203444
1005 659 1204738
139 331 1210321
96 331 1210345
612 4 1210395
139 104 1210571
139 38 1210779
695 5 1211439
1107 90 1211880
1102 90 1211912
667 325 1213611
4 302 1214841
236 302 1215476
1039 1039 1216211
333 965 1216246
1113 965 1217431
455 108 1219398
1116 965 1222053
1116 266 1222293
1116 160 1222452
171 108 1222852
349 160 1223202
349 236 1224226
152 965 1226161
184 49 1227369
289 160 1228064
66 195 1235925
1103 266 1244286
211 794 1254293
455 1123 1257785
449 275 1261255
275 264 1261556
449 1008 1265372
1128 264 1266096
211 275 1267893
236 794 1268424
861 1008 1269907
667 1008 1271571
289 1131 1273990
66 333 1275570
333 1010 1277195
275 4 1277290
449 4 1277831
453 1010 1278269
211 1010 1278302
252 333 1280700
667 333 1280727
316 333 1281538
449 4 1282255
453 4 1282588
4 633 1285667
329 633 1286131
449 633 1287575
4 633 1287810
1147 1143 1288141
1059 1143 1288228
449 333 1288620
1147 10 1288934
252 1147 1288965
114 333 1289249
186 10 1289799
41 1151 1295012
333 1151 1297055
4 41 1297099
1005 965 1299681
333 1087 1300417
1005 965 1300435
667 1151 1300978
1005 87 1301590
667 1087 1301986
1158 4 1302195
1158 947 1302639
1158 4 1302913
1158 539 1303376
1158 87 1303786
1158 1046 1304381
578 333 1304570
4 1046 1304877
1158 264 1304993
4 4 1305862
963 982 1307383
1059 431 1308173
667 982 1309188
1046 1046 1310534
472 333 1311785
333 1046 1312321
333 5 1312940
289 4 1313847
453 1046 1314845
877 1046 1314897
4 1046 1315287
4 982 1317605
4 108 1318190
289 5 1318743
4 1046 1319391
880 154 1319411
880 333 1319605
289 1046 1319851
289 1046 1325082
1158 305 1328102
252 305 1328283
115 305 1328724
1158 305 1328836
1167 794 1329496
1167 1151 1330112
289 305 1331331
866 45 1336211
1169 333 1337052
1170 234 1337937
211 236 1338152
1170 927 1343722
455 211 1344193
285 1176 1345587
213 1176 1349180
1178 67 1350023
67 67 1350047
234 234 1354603
612 234 1355454
175 1176 1358364
270 45 1358659
630 1176 1359056
667 175 1359303
130 211 1359833
4 1185 1360839
455 1185 1360898
270 175 1361262
449 630 1361886
333 1176 1362261
742 927 1362993
742 504 1363311
1059 211 1365245
333 67 1365352
1078 504 1365778
1158 947 1365928
667 1151 1368985
833 1151 1369085
667 1151 1369259
1158 140 1369698
1189 140 1369990
1158 66 1373703
932 140 1373833
4 431 1375022
333 431 1375027
4 431 1375264
1158 1046 1375954
1068 431 1376526
252 431 1376539
87 932 1376734
333 932 1377659
1068 1046 1378505
455 1046 1380019
866 87 1380653
1158 87 1382290
1151 87 1383190
67 236 1388763
1195 109 1389231
4 1196 1389645
67 199 1390202
449 199 1390275
1195 199 1390666
1180 1193 1390898
1158 1196 1392065
455 236 1392629
236 1196 1393346
455 431 1393629
449 124 1393671
130 124 1394481
455 10 1394693
1068 236 1397980
1068 1131 1399662
289 199 1400287
289 1200 1401903
4 41 1404474
455 41 1404603
1158 41 1407291
1158 1200 1407579
1158 333 1411701
333 1215 1413572
1158 1215 1413609
1217 1215 1414365
1218 236 1415063
923 1196 1421297
866 633 1424429
455 1229 1431650
251 333 1434700
453 1234 1439973
1243 1219 1441300
453 1219 1443012
41 1059 1444206
458 41 1445530
23 1059 1445957
458 1059 1446006
275 179 1446879
455 455 1448923
67 455 1449099
1217 179 1449218
67 333 1451590
1138 333 1451675
1252 455 1453207
1158 41 1462367
935 866 1463556
504 504 1463682
431 633 1464005
935 1219 1465112
1078 333 1466473
455 866 1470486
236 455 1472679
72 195 1473360
72 1260 1473858
1269 455 1481429
449 179 1482226
449 49 1482583
252 176 1501682
289 1859 1505838
333 176 1507490
333 633 1507721
333 633 1508398
816 455 1512720
449 1219 1521363
1010 633 1522719
493 1260 1526002
1283 633 1527699
866 1260 1529232
150 1859 1534361
455 130 1537517
449 654 1538245
67 1288 1540213
275 1288 1540259
285 130 1542465
1290 1859 1542581
333 1284 1543276
1068 243 1543631
449 1288 1543869
285 130 1545163
455 1288 1551465
963 1215 1563051
1296 394 1565648
179 179 1567411
1158 104 1570216
188 1287 1578051
1304 473 1578364
478 1304 1581092
104 1046 1585905
104 104 1587171
935 1304 1588072
188 72 1590872
30 541 1591372
203 654 1594058
945 1304 1594224
455 1046 1597004
409 409 1597395
455 409 1597593
289 82 1602565
455 82 1603427
1318 1859 1603988
289 82 1604571
644 90 1604889
211 82 1605947
289 1313 1608905
41 76 1622321
285 220 1623329
449 76 1624629
275 76 1626974
667 1304 1628476
667 1304 1630949
214 90 1631810
289 862 1634473
289 203 1635393
449 203 1635960
455 1151 1635962
211 203 1636125
333 1151 1636627
333 829 1636942
211 1341 1638706
1068 90 1639975
333 65 1640685
1068 829 1641447
289 238 1641674
667 1333 1642240
4 203 1643248
41 1012 1643275
1114 1185 1643809
289 1012 1644065
1114 1151 1644278
945 1012 1645542
829 829 1645654
963 1046 1646686
742 72 1647017
1148 333 1648120
455 333 1648480
667 458 1649487
1114 1313 1650021
1151 1314 1651010
352 90 1651330
236 1349 1653601
1059 1349 1654789
104 1349 1654888
458 1350 1657004
813 1151 1659704
289 1151 1660452
289 1151 1661750
333 659 1666515
333 1349 1666843
333 548 1672916
1353 548 1677439
211 1304 1683429
211 1304 1684755
1360 1859 1686773
449 1356 1686816
394 1359 1688730
455 1357 1691227
449 1363 1691534
449 1359 1692154
667 1359 1692186
449 238 1697349
458 238 1700127
1158 1364 1705515
861 541 1706767
4 161 1707610
627 161 1708290
861 1304 1709124
458 333 1710102
458 65 1712206
3755 1333 1712259
458 333 1712758
945 161 1714665
458 67 1714780
305 333 1715061
627 458 1716192
352 458 1716208
458 1326 1717164
458 794 1720113
146 458 1721132
333 458 1721396
1377 1356 1722050
4 455 1722849
1384 794 1727768
667 1383 1728522
667 1380 1728811
333 1383 1729903
289 458 1730485
1402 593 1734514
235 87 1736025
667 87 1736357
235 593 1738414
5 1383 1740330
289 829 1743294
189 458 1751287
1405 1012 1751496
1158 1412 1754595
115 1412 1757837
1379 1412 1757844
1138 1151 1762570
235 1415 1764880
1415 1357 1767480
235 1417 1768084
866 1417 1768256
455 161 1768446
171 295 1768853
171 87 1769074
211 455 1769683
211 1188 1770689
270 1369 1773366
449 866 1773766
742 1369 1774072
1360 866 1774378
449 1410 1774390
1296 394 1775571
449 394 1775585
662 1369 1775989
449 28077 1777506
866 866 1778054
627 1369 1780577
959 87 1784892
458 866 1797301
66 1333 1798079
458 4 1799077
1435 170 1805467
667 333 1806003
1158 28077 1806213
727 333 1806323
1415 333 1806879
1158 318 1807907
1158 829 1808036
866 866 1808705
235 829 1808763
41 318 1809875
5 1436 1813642
130 829 1813754
333 1446 1819698
333 322 1820352
1151 333 1821761
662 333 1822097
1448 1446 1825534
1158 1446 1825558
431 866 1826242
455 1446 1827287
352 1369 1827464
1158 1449 1834995
104 829 1843200
1158 829 1844005
333 829 1844405
880 866 1847577
66 884 1851032
1158 55 1851425
1452 866 1853604
455 266 1858887
236 526 1864239
458 526 1864293
236 829 1864622
236 1401 1865124
236 526 1865363
236 526 1865664
662 458 1871571
662 236 1874948
275 1463 1876259
633 633 1883919
66 633 1884173
1467 1467 1884796
236 1467 1885710
630 952 1887024
1158 1446 1896541
333 1446 1896751
963 1446 1897025
963 1193 1899084
913 1446 1899964
913 1448 1901213
913 526 1901777
913 1453 1902651
913 829 1903245
155 155 1905713
1217 1448 1924426
37 866 1924795
37 866 1925616
37 1448 1926015
37 37 1926616
66 791 1930007
1360 1474 1934353
1496 458 1934757
913 952 1937033
913 1314 1940979
913 1219 1941453
913 1333 1943151
913 1859 1944552
913 220 1945694
285 37 1946433
449 1454 1949194
1378 37 1951796
1059 1491 1959399
333 1508 1962323
333 331 1962833
455 1234 1963410
1491 1446 1963579
1525 1474 1965374
289 424 1965459
4 659 1967509
37 424 1968969
630 424 1969541
37 424 1970524
37 1508 1971006
449 262 1971072
289 333 1971188
37 262 1971189
1415 262 1971190
1415 333 1971885
37 333 1972182
1540 37 1974730
214 424 1975323
1543 87 1976515
1547 1176 1976562
22 87 1976696
55 55 1977606
55 262 1977937
1543 431 1979190
1550 101 1979905
1543 1229 1979978
1543 324 1980555
1543 333 1980750
1550 5 1980773
1543 68 1981178
1550 333 1981227
1543 769 1981569
667 1446 1983312
146 1557 1983673
277 431 1987149
277 133 1988193
1158 659 1990297
289 1501 1992193
667 1501 1992261
289 1501 1997647
1415 3940 2001701
1318 431 2001762
877 175 2002443
1546 175 2003198
22 448 2007199
453 448 2012105
913 448 2012106
1579 448 2014026
1581 1446 2014510
1158 453 2015298
455 453 2015363
22 352 2017532
1158 352 2018209
935 331 2019658
203 175 2024046
923 1585 2027654
1360 1585 2032042
41 659 2032876
1581 1557 2033699
275 1585 2040787
1591 3940 2046370
1591 431 2046949
1593 526 2047302
1593 1491 2048549
1593 913 2049368
431 1594 2053547
431 3940 2063389
945 66 2064956
1158 526 2069792
1581 1608 2078524
235 1608 2078624
1610 449 2083642
1610 236 2084425
1610 449 2084809
935 1393 2086960
667 5 2089862
289 779 2090640
1290 1859 2093747
1610 1610 2094126
1610 1610 2094351
188 66 2094841
130 88 2096513
1550 88 2096521
1615 302 2096647
1550 672 2097375
1543 1393 2099528
360 175 2110098
453 1597 2115559
455 1553 2122643
101 101 2127129
285 37 2129557
1415 526 2138741
1415 1393 2139097
449 622 2139100
1627 1508 2140832
203 5 2141422
146 622 2142101
1217 101 2144053
667 1393 2144869
4 1393 2145053
333 1393 2147434
1496 526 2150325
1496 1594 2150573
667 1158 2153809
1059 1630 2158715
424 5 2159282
66 1630 2160039
4 1158 2161225
1610 1610 2161270
4 1610 2161332
1626 431 2165323
230 37 2166133
449 953 2171123
153 913 2171248
153 1639 2171446
1076 1639 2172029
1627 866 2174051
1158 1326 2175091
646 1439 2179490
646 760 2179715
1591 760 2187925
1591 866 2188243
1138 1640 2188384
1579 760 2190658
428 866 2190932
305 1393 2194027
305 87 2194242
1643 829 2199227
935 305 2200862
277 1158 2203217
277 1158 2203830
1643 953 2204971
1648 1646 2211009
211 424 2213077
449 424 2216276
1304 424 2216560
1648 1640 2218397
1649 1646 2220474
866 87 2224443
449 689 2224702
449 689 2224917
1654 667 2225391
449 1528 2225857
1619 1418 2226004
449 1418 2226115
1550 1188 2226766
1550 1418 2226843
449 1380 2232804
1294 1380 2233283
1654 1383 2233585
1654 866 2233885
667 1655 2236034
1090 1655 2236705
41 1656 2238113
1610 1656 2238286
431 1188 2240669
186 913 2242679
541 1655 2245448
4 1458 2245508
114 1350 2245585
1386 1350 2245667
1412 1484 2247552
1667 1639 2249947
1667 1646 2250223
1667 1199 2250768
104 104 2254473
449 41 2255902
1059 742 2261746
1672 1418 2264910
1672 1326 2265632
1550 742 2266659
235 1415 2269209
1668 742 2269934
431 1674 2270795
941 1674 2276297
1158 73 2279953
1667 73 2285605
1591 1188 2287856
455 41 2287948
1677 667 2288542
1677 866 2288795
211 1674 2289027
1294 1199 2291812
449 1680 2298467
449 214 2299101
449 1680 2302031
662 667 2304776
662 1680 2304997
1158 364 2322855
483 1158 2326203
861 5 2326536
945 76 2327154
333 76 2327389
211 364 2327899
1158 333 2328803
1667 76 2331581
1158 866 2334609
1667 866 2334674
1653 1415 2335239
1158 236 2335496
1653 866 2335680
1697 76 2338657
84 4 2340172
1059 1158 2348731
188 1695 2353396
1217 1698 2353795
1217 1682 2354146
1701 1158 2355200
1550 1158 2355875
935 1684 2356681
1579 262 2358669
305 1627 2363430
203 866 2366409
866 866 2373630
646 1706 2373676
913 1705 2376248
913 1684 2376760
913 1682 2377363
935 1709 2378651
289 364 2390429
315 1158 2391311
662 6005 2392322
1714 6005 2395310
423 1627 2397932
423 689 2398355
333 4 2398907
1550 4 2398960
794 794 2402685
333 449 2402943
4 449 2403003
1170 449 2403210
423 449 2404787
667 1706 2406949
1170 236 2407005
211 211 2408075
1090 1449 2409208
235 769 2416156
1170 769 2416233
270 866 2416790
235 41 2419755
861 1217 2423000
12 76 2423400
12 88 2424352
455 76 2425325
1667 76 2425393
1667 449 2426431
1724 769 2427398
41 76 2428856
963 431 2431270
41 364 2439948
37 431 2441094
1078 364 2441635
128 128 2442611
1667 364 2455735
449 760 2464396
211 760 2465310
935 760 2465353
1667 646 2465659
935 116 2465828
214 1217 2469580
646 760 2469665
449 116 2469884
504 116 2474273
644 214 2479630
935 214 2482393
644 431 2483814
1738 352 2485722
1738 333 2488213
627 449 2491363
275 116 2493408
1337 1739 2497819
1667 1739 2502041
333 1667 2502556
935 1667 2514017
41 1196 2516034
144 144 2519180
431 144 2520939
289 333 2544370
646 1484 2557838
935 72 2558918
1550 72 2561908
1689 539 2565132
667 448 2567938
1360 1418 2568464
667 539 2568855
1158 449 2573931
1158 539 2574016
289 1755 2583673
72 72 2587630
270 449 2588294
866 1196 2589948
84 1418 2591138
935 624 2592203
1684 1684 2592218
667 5 2593540
722 1755 2597254
935 5 2599912
1158 333 2613899
1158 1761 2617798
66 270 2619427
478 1219 2628512
1738 1458 2631936
1738 1219 2632271
1738 41 2632517
923 1458 2633605
866 1219 2635074
1763 1761 2642721
72 199 2644669
963 199 2647124
627 199 2651228
12 449 2652016
1183 1183 2659171
1591 88 2660741
935 448 2661193
292 41 2662021
292 548 2662377
1261 88 2662687
292 214 2663021
41 347 2663415
41 292 2663556
935 199 2663579
935 347 2664232
1627 333 2667801
1667 292 2668040
30 175 2669718
211 175 2670322
1614 290 2670502
211 290 2670602
1614 633 2670736
1614 28 2672559
1689 1764 2673076
1550 28 2673963
877 1219 2675293
1672 175 2681918
1672 1761 2682344
41 87 2689735
76 28 2699153
1158 292 2704822
137537 87 2707097
137537 1484 2708298
137537 175 2708502
1360 87 2722175
866 87 2723847
866 394 2727166
963 87 2738307
945 292 2745691
945 1764 2746038
1591 28 2749789
866 1349 2749970
866 333 2751597
211 175 2751677
1151 1151 2751779
866 519 2754173
1781 1349 2754803
277 101 2756755
277 394 2757173
277 161 2759434
431 618 2759575
136 277 2761963
199 199 2779097
1550 1627 2782464
880 1158 2783123
72 10 2785924
1785 72 2786683
1591 10 2789731
1771 72 2790477
41 72 2790724
329 72 2803147
23 333 2803199
329 1627 2803463
453 1284 2804956
211 947 2818645
270 1792 2821929
455 1792 2825645
424 161 2828406
945 72 2829133
1217 1792 2841043
935 333 2843088
1689 333 2848023
861 30 2849951
861 28 2850258
866 30 2850640
114 30 2854322
1059 333 2854787
945 28 2854795
333 866 2856961
646 866 2858139
458 866 2858537
449 866 2859469
646 458 2863225
1158 458 2863233
316 28 2864994
1672 175 2867510
175 175 2869260
261 449 2879304
866 5 2891377
211 448 2896645
23 1436 2899605
458 1176 2904152
1543 618 2907892
449 199 2911120
449 1809 2913417
458 1809 2914124
175 175 2927745
175 175 2927845
458 1037 2928924
449 1464 2929133
667 934 2929374
214 458 2931432
214 618 2931871
186 449 2932315
186 1748 2932526
211 28 2938372
1627 165 2939181
1627 28 2939505
5 5 2940259
235 165 2940572
289 119 2941777
449 630 2942020
458 1151 2942700
41 1151 2942728
449 5 2947037
449 667 2953749
449 1011 2954079
1059 28 2954540
1059 165 2954964
5 5 2956520
514 1309 2961804
1158 324 2977155
211 630 2981442
289 329 2985505
644 329 2985799
644 646 2986226
449 329 2986842
1827 332 2989900
1826 324 2990294
1543 618 2995934
1837 317 2998832
1838 618 2999313
23 1840 3002817
41 985 3005202
449 1840 3005266
646 646 3006365
66 142 3009591
142 1761 3009921
415 108 3009990
415 142 3010386
458 108 3011389
41 1819 3012285
4 1833 3012360
667 108 3013006
4 1819 3013423
667 985 3014298
1360 1453 3022796
877 1453 3023080
1849 866 3025565
415 1840 3025678
455 1627 3027635
114 1627 3027860
5 1859 3034181
646 1453 3045025
41 420 3048799
415 420 3048873
141 559 3091515
449 559 3095359
1012 1012 3097029
352 559 3099743
407 1644 3101127
866 1877 3101901
186 1877 3102243
1826 559 3102325
149 1877 3104039
1826 1366 3104804
1894 1366 3109238
1893 1877 3109340
935 1366 3109552
1889 1366 3110117
1894 150 3110758
935 677 3111797
1889 866 3112070
935 50 3112398
935 90 3117627
449 1748 3118391
235 1748 3121434
1629 519 3126130
1913 1644 3126363
1914 1913 3126951
235 1913 3127044
1910 559 3127648
1550 150 3134438
646 1755 3141292
646 1896 3141440
877 1366 3144774
211 1840 3151567
1924 1859 3159095
935 1919 3164701
935 1781 3166188
211 1781 3167904
935 1629 3169978
449 1629 3177863
449 1127 3178255
270 277 3178723
1943 1366 3183923
1943 1366 3184621
1627 1627 3186825
449 232 3187723
1859 1127 3188108
449 1793 3188183
1859 1793 3188365
41 1793 3188395
235 332 3193227
235 794 3195711
1859 794 3196006
866 1546 3199585
1546 1859 3202304
1910 1793 3210183
1197 23 3211963
935 1256 3212535
646 1859 3213580
1951 1445 3221421
324 324 3244814
866 1793 3245247
866 1793 3245459
667 270 3249782
866 270 3250150
667 1360 3251456
866 341 3254582
235 341 3254660
1958 341 3254745
1360 341 3255115
1958 277 3258119
1958 1868 3258378
1958 1959 3259102
235 292 3259268
1958 1954 3260033
1627 1959 3261809
1619 1959 3266236
1859 38 3269679
1859 1457 3270998
449 1793 3273995
1868 1868 3275622
1974 1793 3278548
1654 1457 3282366
1958 1986 3288797
667 1986 3289599
1990 1959 3292106
1990 1008 3292718
945 4 3292921
235 1978 3293214
1994 1793 3293294
1990 497 3295687
1990 1458 3295890
137537 1446 3298589
4 1453 3305733
4 4 3308214
235 235 3315380
2007 235 3316791
1958 235 3327693
23 71 3331047
633 633 3334026
861 2015 3339671
667 2015 3340139
866 14204 3341196
1059 2015 3342795
277 1959 3345060
627 2020 3346281
137537 794 3348527
137537 1087 3352310
137537 749 3353320
137537 14204 3353959
449 1085 3356538
667 2026 3357844
1059 14204 3358675
449 2026 3359632
1550 1978 3362254
449 2028 3363452
141 1978 3365834
2031 794 3366083
1627 794 3372518
2033 693 3373030
2033 88 3373235
2020 1978 3373585
2033 458 3373839
1689 794 3376849
1943 571 3377558
235 571 3377684
2036 571 3377998
1943 2020 3380206
1990 1826 3380459
115 1826 3380579
1689 333 3380718
1943 1826 3380997
667 571 3381372
667 333 3381659
115 333 3382448
1943 170 3385005
2041 693 3386157
2041 640 3387485
188 2026 3391845
132 648 3394646
1943 2028 3397177
1889 333 3412886
1924 1826 3416584
627 1360 3418459
1990 1081 3428290
270 1629 3431102
236 794 3434911
1958 1792 3437117
1775 2051 3437472
935 100 3441946
829 2051 3442020
289 1859 3443114
1243 270 3447901
2061 2061 3448320
149 270 3448861
2056 1859 3451361
1958 1859 3451884
1627 1859 3451906
449 1859 3451928
2066 333 3452325
149 794 3452776
1958 2061 3452985
1958 862 3453353
1627 618 3456044
430 618 3456080
1059 618 3458012
2072 1453 3460551
667 2051 3460760
236 618 3463150
2036 100 3464691
458 1978 3467934
41 333 3469495
1730 618 3471242
394 3889 3492356
211 1743 3499946
23 2087 3500015
667 3889 3502359
325 2009 3502431
627 1743 3505315
2065 3889 3507137
2090 3889 3507510
1826 235 3509505
175 175 3515096
1775 1775 3517667
1958 2087 3518262
1958 3889 3518709
1716 1978 3520353
935 449 3521582
270 618 3521615
862 1859 3521750
667 270 3525140
270 1792 3526423
449 1792 3526698
1775 1978 3527894
23 1792 3528150
168 4 3528937
2103 927 3530847
325 1008 3534664
866 2011 3535638
4 1933 3541076
629 866 3542042
235 2087 3542699
449 866 3543211
1859 866 3543239
449 270 3543547
1859 270 3545695
1724 1326 3546283
1724 1043 3546571
1724 1724 3546862
325 1959 3547434
2109 394 3551244
928 332 3552274
1643 2011 3564700
119 431 3567059
1643 2028 3568620
1643 119 3569449
1543 119 3582333
211 2127 3598625
1217 2087 3602482
1550 394 3602506
1543 2127 3603445
1543 2061 3604354
325 119 3607449
2103 884 3610012
2131 1913 3613922
2041 2130 3614703
2133 2087 3624434
236 150 3629076
2135 150 3629764
458 884 3636300
1629 150 3637884
1990 2109 3639005
1826 976 3641056
1078 1940 3641183
1826 1234 3641731
146 2141 3650309
1217 2141 3650799
1543 976 3652130
431 2138 3653887
1360 431 3653894
1859 551 3658045
2142 2141 3658214
2142 571 3658756
2139 2011 3658840
2138 2141 3659057
2142 332 3659124
2142 702 3659689
270 1940 3659744
2139 866 3661202
1543 332 3661612
453 278 3666132
1591 431 3667771
211 431 3672011
211 278 3672386
2146 2127 3675383
2146 1792 3675740
325 1859 3677646
449 1859 3677771
216 2138 3678142
449 2132 3680783
455 2009 3689710
455 334 3690182
1913 334 3691217
1667 334 3697144
1826 794 3698361
9 646 3699002
2156 866 3700924
2159 689 3703000
1966 1304 3705402
742 334 3708058
1657 235 3709015
1543 646 3709157
742 2127 3709400
2138 1563 3710728
1889 1563 3712140
2163 2141 3715460
1859 658 3719057
235 1008 3721256
449 2170 3724828
455 1304 3724965
1990 829 3725698
1990 2170 3726245
1826 1563 3727745
2173 1792 3729619
1059 829 3730213
2173 702 3730929
1501 2028 3732061
235 501 3737117
2179 702 3746664
184 829 3747706
2180 1563 3748609
1698 1563 3749932
273 2141 3753756
211 1085 3760008
2139 1350 3763632
2179 2028 3767135
449 501 3768489
2135 2141 3771600
449 1304 3771737
629 501 3773735
289 341 3778708
1148 1012 3786951
1958 449 3787770
1958 2130 3788795
1958 2174 3789321
211 28 3789845
1958 449 3789984
449 449 3790471
1943 2130 3791908
866 28 3796624
554 501 3798302
2192 2192 3801565
1138 347 3803237
449 347 3806290
641 2141 3806341
455 2192 3808438
2170 347 3808787
455 347 3810007
829 499 3817577
1197 2189 3822704
1217 499 3832116
1217 976 3832450
1078 1859 3836019
455 1859 3855693
329 584 3859937
285 1859 3865285
1689 130 3868277
499 829 3868684
1958 499 3871841
866 686 3872591
1543 2206 3880407
554 1010 3883642
455 2209 3890663
72 2209 3890818
2212 633 3893638
2212 1919 3894540
1990 2189 3903218
1990 686 3904677
305 976 3918698
305 58 3919231
329 329 3920052
243 347 3925834
629 1940 3930320
58 175 3930868
629 2209 3930878
24 1940 3931280
2191 571 3933777
2191 333 3933964
449 175 3936764
329 24 3939473
455 2210 3942359
449 2209 3952212
499 2192 3955442
1217 1968 3959971
1059 2222 3962982
667 1859 3971168
686 686 3971613
1059 1859 3973565
2224 1859 3973952
2224 2221 3984990
1193 1193 3989825
189 1012 3991702
235 333 3997866
2206 2206 3998076
2224 2230 3999307
41 1046 4010172
2233 1046 4016109
41 794 4035379
1543 794 4035616
211 2238 4037986
2206 2241 4042646
2224 2241 4043997
2244 333 4045074
114 1010 4049353
1859 1010 4049585
2224 1010 4049864
2224 1792 4050034
1990 2237 4050376
1990 10 4050894
1090 1792 4056633
2224 277 4057246
333 2247 4057404
2224 2247 4057585
2224 1151 4057863
449 333 4065118
1889 2247 4066429
2254 333 4074656
2224 1859 4076421
1752 1859 4079283
41 1990 4084243
2224 1046 4085019
2258 2247 4085152
2082 3889 4094539
537 1859 4100010
537 1792 4100326
325 1775 4107744
325 254 4109342
2266 1859 4114268
1826 1859 4118444
82 1792 4121913
2224 2206 4133832
2224 1328 4134219
2221 2221 4134524
235 1328 4136100
211 866 4137914
499 3889 4139757
1090 1792 4140106
1859 2206 4141318
2224 1792 4142527
235 1859 4142969
211 1318 4143402
866 1940 4144993
667 1940 4144993
277 1859 4146297
211 769 4146577
455 769 4147060
866 866 4147358
667 667 4147512
1826 769 4153646
1059 769 4154926
1990 1318 4156638
1859 2191 4158504
449 2269 4163063
305 2271 4182458
175 1859 4200290
415 270 4203384
172 270 4208046
499 1859 4213150
2224 2276 4217278
2224 2272 4217737
1655 976 4217787
352 769 4218543
1412 2271 4222193
46 235 4224578
2224 364 4237615
449 593 4246169
235 2296 4250505
449 2296 4252073
2240 189 4261841
2224 37 4263777
2296 2300 4264673
235 2240 4265903
2233 2296 4272384
1943 1805 4277724
2191 2292 4290203
211 2308 4291852
275 2300 4295154
1610 593 4308795
2299 2210 4311495
2299 1410 4311680
275 1012 4314212
1859 1012 4314386
1859 2308 4321169
1689 192 4322989
277 672 4322992
667 672 4323434
58 672 4323975
667 672 4324898
667 672 4324952
829 672 4327548
2313 1585 4328372
1689 1585 4328805
1990 2311 4331129
2315 593 4333114
1076 672 4333270
2315 2296 4333432
2315 769 4333910
1366 1859 4334387
1543 2296 4362162
2233 672 4365141
1543 672 4371288
2093 2296 4375184
1543 352 4376263
2272 2272 4382105
1543 2300 4382114
4 672 4385436
235 2329 4386796
2330 334 4388976
721 352 4396775
667 463 4397326
1543 2329 4399906
2253 473 4400621
2142 1052 4401878
667 2335 4402515
452 672 4406314
1217 672 4408665
646 2240 4414445
1059 2171 4417731
236 2171 4418093
1653 463 4418466
2340 1626 4424471
449 578 4426691
1653 235 4433359
2224 157 4434559
2224 1859 4436318
2347 2300 4443526
1543 686 4453819
356 235 4461469
1059 2345 4462687
1889 2354 4463094
1059 2300 4463684
1543 2313 4468141
629 2313 4469516
41 2192 4469568
1059 20 4474578
667 2313 4474645
2362 2336 4478118
2361 2192 4478370
1627 2313 4478688
2361 672 4479908
1158 41 4481546
1158 686 4481772
1627 2365 4484347
1543 880 4517644
1968 1968 4541830
214 214 4548476
667 1676 4551804
667 2380 4553852
593 593 4561382
1543 593 4563140
2254 449 4568333
2380 2380 4568953
2313 1793 4573396
866 41 4575377
2383 449 4578748
2383 82 4578965
2383 2230 4579638
2383 1010 4580188
2383 633 4581314
2138 2367 4587712
236 2386 4588728
499 449 4591730
499 2313 4592149
2038 1859 4600381
1859 739 4601799
1217 1859 4604321
1078 1859 4612041
2315 1859 4612181
519 519 4613384
519 739 4613594
1859 1836 4615259
211 1793 4623402
270 2331 4626531
2362 2336 4632457
211 2387 4633453
2395 2336 4635951
449 1859 4639453
1543 325 4640013
499 1859 4645713
235 325 4645860
667 2388 4653707
449 2388 4654166
449 2400 4654693
667 2387 4654722
667 1859 4655289
449 2387 4655439
1217 2388 4656165
2399 2313 4658099
186 884 4658371
2402 2231 4660530
1405 1859 4661605
877 1752 4666412
1318 1318 4680012
1059 2331 4682238
1059 1859 4682649
2224 1859 4686811
2138 2383 4692089
1859 2383 4692974
2315 266 4697579
1418 2196 4704758
2138 2196 4704830
211 1775 4707279
667 2196 4707652
1059 2388 4708556
275 139 4718298
449 2412 4718440
141 2413 4719170
449 2413 4719208
2093 1793 4719860
2093 2385 4720119
1859 10698 4729997
1924 782 4730091
270 1418 4733193
1078 739 4735598
236 927 4736450
41 927 4736525
667 2321 4739878
2362 2383 4741748
270 119 4741894
1627 2321 4743330
58 2383 4745640
721 2231 4747901
721 2127 4748219
721 302 4748997
20 1859 4749065
721 440 4749584
2217 1859 4755029
2327 302 4755433
5 289 4756285
1059 277 4759256
667 277 4759307
1059 289 4760327
1990 2028 4764865
2426 2331 4765876
415 119 4767323
739 739 4773636
1859 119 4774207
2315 2321 4781497
1889 2313 4800923
137537 2318 4801539
214 463 4804600
214 2010 4805851
1924 2331 4808293
1924 2331 4808753
415 2331 4808854
211 2438 4820529
449 2142 4820682
449 2331 4821722
2331 2331 4822272
449 170 4824824
149 2321 4827463
214 214 4830833
266 235 4830974
211 235 4831274
235 235 4832647
1090 769 4834659
1090 214 4835198
149 2331 4836344
235 2331 4837174
431 2331 4842274
667 5 4842843
667 2331 4843711
243 2191 4844184
2369 769 4844655
141 1924 4845824
877 214 4846827
1059 999 4849465
2315 415 4852322
721 1859 4854124
149 1924 4858345
2450 2331 4869334
1078 2331 4875852
483 2437 4881573
270 270 4881915
1543 1924 4882872
1836 431 4884311
1627 2331 4886792
1924 749 4887453
270 1418 4888440
1924 2454 4891062
1924 175 4891175
2321 2321 4894491
211 1924 4895119
1724 2381 4900047
1724 2189 4900469
2139 866 4901880
235 2331 4906649
211 2458 4910345
2461 2313 4911226
1627 2442 4916162
2462 2442 4916182
352 2331 4916192
2466 175 4917854
2466 175 4918320
2466 2454 4918579
2466 119 4919642
49 2454 4920530
2467 119 4920765
2466 2010 4921067
2369 119 4923401
41 119 4923636
880 2331 4931001
880 2331 4931573
41 2331 4931944
41 1859 4933968
449 2206 4935002
710 1924 4936815
710 2458 4937056
41 2390 4941050
2138 2390 4946547
2138 769 4946768
1543 2390 4955620
1078 2390 4955895
2477 1439 4956869
2138 1859 4958197
2480 1304 4972788
2138 2390 4974657
2138 633 4974928
2138 2390 4975103
2138 2390 4975590
270 2468 4975661
667 2390 4978379
667 2390 4978779
1078 1792 4987282
1078 2390 4987688
667 1792 4990539
4 1924 4998180
1716 2206 4998744
4 1809 4999658
2487 175 5003986
49 2019 5004314
1889 2390 5005275
2358 10 5009000
2138 769 5011544
270 769 5014142
2358 2358 5014917
270 2019 5014954
270 1754 5015585
270 155 5016445
2138 2390 5017501
270 2237 5018921
270 1792 5019934
2315 155 5020001
1059 155 5020414
1990 2390 5021175
2315 2390 5021196
519 449 5030883
235 2491 5033665
2492 2492 5052022
2026 1859 5052444
2026 2390 5053823
2026 2390 5054083
2233 2458 5057335
2491 1859 5068984
1059 2493 5071016
2442 2442 5071413
2442 2390 5072113
1990 2458 5073645
866 2442 5075310
963 769 5081581
866 1076 5081790
1418 1418 5094177
455 2390 5096029
1627 150 5097421
499 2390 5113864
1990 2390 5114018
146 2390 5119762
499 2390 5121396
1217 2496 5122726
1859 541 5123304
1217 2473 5123781
133 2490 5123949
1217 541 5124104
1138 2331 5124788
1689 2473 5130161
923 150 5146783
2233 423 5150902
2506 769 5159520
150 2473 5171626
667 1859 5173359
866 1859 5173529
1149 2473 5183003
325 2331 5183184
150 150 5186465
667 2331 5189047
861 794 5198063
2442 866 5199762
1148 2442 5207460
2315 2442 5209304
2315 2497 5210375
188 2390 5215329
769 794 5215858
2516 2390 5218586
2138 769 5220621
2138 2390 5220891
211 794 5229173
128 2442 5239891
1464 2442 5242371
270 2442 5242831
275 2442 5244160
449 2499 5245327
211 2522 5251719
861 2522 5256157
150 794 5256631
1859 1859 5259730
275 1859 5259907
325 1012 5270091
1781 2405 5270456
150 2405 5273710
2338 2405 5273862
1859 235 5275027
1059 2442 5276326
275 235 5276776
458 2442 5277423
1855 114 5279187
2138 2405 5280829
235 2528 5287605
2528 1781 5290820
5 41 5291670
41 41 5291833
415 2315 5293438
136 2331 5301094
2535 2331 5315110
2535 2526 5315715
2539 2138 5323032
329 2331 5325634
1889 2331 5328150
519 829 5331398
499 1761 5331962
2217 829 5333337
419 2526 5333962
1924 155 5359160
235 2547 5359984
2138 155 5364907
1217 633 5373690
2383 633 5388454
2224 2315 5393443
2383 769 5394908
1859 2315 5394928
2383 2499 5395442
325 2550 5406061
627 1859 5407785
141 1859 5407995
2026 541 5410600
2362 541 5410809
2557 829 5414641
2558 277 5418256
150 2473 5425878
1090 2473 5427637
449 420 5427741
449 1151 5429364
325 449 5429405
449 2362 5429783
1859 2473 5431937
4 41 5436349
4 449 5436579
20 175 5440755
861 175 5443560
861 2473 5443968
2564 62308 5445755
449 1217 5446509
2566 179 5449128
1859 149 5449156
769 149 5451630
1859 2567 5451775
1059 1217 5453058
861 866 5453192
431 2331 5455706
2527 2527 5460118
20 5 5460800
5 87 5464775
769 2331 5467829
1078 2564 5473107
270 2349 5479829
2558 133 5485182
2558 947 5485769
2558 1792 5489329
2558 1627 5490116
2558 192 5492232
2558 305 5492589
175 2331 5493022
2558 161 5493561
2558 769 5493838
928 928 5499929
2217 149 5501329
928 928 5502870
325 184 5504749
325 2331 5505783
1859 184 5508111
2577 1366 5508932
235 2331 5509010
449 2362 5511053
149 87 5514312
2421 87 5515928
1151 1151 5516631
41 1151 5518058
2558 161 5518226
2558 91417 5519245
2579 2170 5524754
66 136 5526549
235 928 5529450
1654 136 5529695
2442 2442 5530080
2369 235 5531351
1910 235 5534889
1902 2331 5538591
1059 2550 5542006
41 2331 5551582
2315 2550 5552645
913 2581 5554275
913 2406 5554513
913 2331 5555687
2315 2170 5555709
1543 2331 5557116
1543 2331 5557276
1078 119 5558677
1372 2490 5560209
270 866 5571314
2383 5786 5572225
214 214 5574195
2591 104 5580679
866 104 5582580
184 3889 5583603
448 2087 5588100
270 1439 5595317
270 2588 5599873
449 2594 5604946
866 1626 5606009
934 2594 5607008
1909 1909 5609175
1059 5786 5613287
1910 2594 5614401
1372 2531 5617481
186 2390 5622892
1059 2331 5629057
2599 2599 5630377
1059 2331 5631160
149 2331 5631391
149 2331 5631461
149 2331 5631532
149 2331 5631584
149 2331 5631669
305 2390 5646655
2138 4 5653671
275 449 5670382
325 669 5677444
2558 2390 5679319
2369 400237 5679353
2558 2390 5679846
2558 1626 5680415
325 2270 5684946
1405 1231 5685100
325 1859 5685361
30 2538 5693807
305 155 5695648
2369 5 5701254
866 1202 5709295
2331 2331 5716843
2369 2390 5717757
1990 2390 5718724
1990 2610 5718873
570 2390 5723296
2618 2390 5724997
2618 2390 5725217
415 2390 5725396
570 235 5730689
570 866 5733966
305 2458 5742794
305 2612 5746555
305 2315 5747094
1138 2623 5754295
275 2623 5756117
1078 2623 5756151
963 2612 5760056
2627 150 5766961
570 4 5775135
2558 570 5775814
150 570 5775826
866 570 5775932
2558 235 5776765
2558 2390 5779326
570 633 5780431
325 2390 5782439
570 2305 5787531
235 633 5789325
499 2390 5793581
667 235 5795061
2618 2390 5800434
1830 449 5801582
1910 2390 5813681
188 2390 5816916
570 2390 5821827
1689 2390 5823411
23 2390 5827677
270 1272 5834675
2026 633 5835500
2026 2633 5836337
2217 2390 5842905
1924 2390 5845240
136 2390 5845432
1464 2612 5848775
449 449 5849774
150 1012 5859421
243 2527 5861108
458 1012 5861606
1078 2609 5864450
2358 76 5866592
570 2349 5872911
1826 2640 5881504
325 1629 5883491
1217 5 5886743
235 669 5892034
2174 2174 5892613
1689 2140 5894568
2315 1202 5898263
2652 1859 5901479
570 2240 5902699
669 2458 5903981
669 2390 5904413
2233 1859 5919436
270 2458 5923736
2390 1859 5931060
1889 1859 5940410
1614 2390 5941923
325 2655 5943532
325 2458 5943768
235 2662 5945276
570 41 5953727
41 2320 5954344
1059 2663 5958089
1059 1151 5958790
1059 1012 5959619
1653 2458 5963107
570 2390 5971718
861 2670 5975404
150 2390 5975860
2442 783 5980942
570 2670 5981120
188 669 5982514
570 2442 5984759
325 86 6013950
2680 2390 6031792
325 1938 6034453
1078 1938 6034630
1078 2390 6036556
2681 1938 6037856
667 2390 6038312
211 2679 6038553
570 2591 6039823
667 2390 6039982
1910 1938 6040137
449 2594 6040541
275 2670 6041805
570 2670 6042112
2647 347 6046485
570 347 6047145
2685 101 6049816
913 2679 6049992
913 2390 6050341
415 749 6050673
2178 2608 6053371
329 2608 6053500
266 749 6055349
1151 749 6057086
449 794 6060833
235 2670 6066302
1078 2689 6078943
211 2693 6090441
325 2638 6096389
449 794 6099239
448 449 6104220
1464 1826 6106642
2217 2390 6106937
333 2367 6118803
2558 794 6124417
5 41 6129848
2315 1201 6135063
2315 41 6137770
2251 2251 6138261
149 2701 6139780
2315 1144 6151735
235 56 6160430
188 463 6162363
266 2689 6165490
1078 2670 6169521
2647 2670 6172018
541 2706 6173998
541 1144 6174599
270 2670 6175393
667 2670 6182940
1826 559 6189181
235 1938 6200401
270 2712 6203015
4 455 6211504
2383 2664 6211973
2383 2670 6212777
2383 2670 6212964
2383 2251 6214726
1138 2713 6215131
1138 2383 6215437
289 2713 6216292
1138 2664 6220215
1889 1938 6230186
449 2720 6234297
1059 2713 6234311
1859 2383 6234673
266 2413 6236677
570 2413 6237970
1059 2383 6237999
1217 2367 6240962
41 2367 6242427
2442 672 6248260
2558 1127 6254970
2233 2670 6268365
2725 2725 6278429
963 2726 6286110
1078 1838 6288113
41 2726 6288423
66 2689 6288783
1078 2383 6289069
333 2726 6289253
270 1792 6292895
270 1838 6293400
2369 2689 6295578
1826 2689 6295969
41 1792 6298101
1148 2413 6300915
275 2413 6300938
150 2362 6302103
289 2713 6303644
716 716 6304319
1626 716 6313112
1546 1546 6319608
2367 1446 6324766
235 2736 6329350
235 1471 6331386
1393 1471 6332377
1078 1449 6332466
235 2736 6334256
2742 2383 6334814
2742 2524 6335171
74398 2744 6335335
41 2744 6335510
2383 1393 6335609
2742 455 6336044
1201 1393 6336498
2745 2744 6337631
2647 2736 6337750
1859 2744 6337885
1217 2664 6338269
453 2689 6339727
1859 5691 6341016
2731 2362 6342250
1859 2689 6342567
2762 1471 6344839
89 2736 6345075
2758 2757 6345132
2770 2757 6345155
2767 2757 6345218
2767 2765 6345534
2762 1157 6345933
2142 2757 6346026
2778 2757 6346239
2762 2664 6346627
2805 2791 6348493
2804 2791 6348595
2807 2509 6348639
2809 2786 6349005
2807 2786 6349125
2805 2138 6349429
2813 2786 6350109
270 2786 6350485
214 5691 6350948
214 2765 6351145
214 2736 6351375
866 633 6351786
2826 2753 6351999
2826 2736 6352572
2826 2744 6352942
612 2831 6353621
2833 2816 6353951
2804 2855 6358435
898 2841 6358710
356 2854 6359293
333 2841 6359571
356 2841 6359644
2868 2841 6359654
667 2854 6359655
2833 415 6359713
667 2138 6360162
333 2757 6360218
2742 672 6360535
2192 2877 6361257
2833 2841 6361480
2899 2891 6362962
430 2896 6363029
667 2891 6363059
2877 2891 6363082
2898 2841 6363599
2902 2877 6363677
493 2841 6364111
1059 2757 6364801
2827 2841 6365076
2909 2689 6365338
2902 1418 6366347
2902 1471 6366876
356 2891 6367406
2919 2891 6367752
861 1418 6368101
2804 707 6368866
2387 2831 6370473
816 2922 6370570
1938 2932 6372995
1938 2387 6374191
2405 2932 6374204
2811 2932 6374220
2179 1418 6374357
2937 2932 6374499
2647 1418 6375534
356 1418 6375546
1418 1418 6375954
1938 1418 6376331
1938 2940 6377273
2902 2405 6378366
2902 356 6379039
2405 2954 6379730
2405 2765 6379912
1547 1418 6380163
567 2954 6380229
2405 2932 6380343
2902 2405 6380476
2405 2932 6380849
2962 2405 6381477
2963 2405 6381559
46 2954 6381670
292 1792 6381991
342 2964 6382575
2967 2964 6382881
2811 567 6383653
2385 1792 6383727
1938 2766 6383954
2979 1792 6384371
2811 2935 6384562
866 2935 6385995
2179 2509 6386745
2902 2675 6389727
46 2926 6389846
2902 2935 6390436
3034 3022 6392541
3036 3022 6392829
428 3032 6392979
3036 3032 6393021
511 651 6393128
3038 2675 6393284
74398 2932 6393433
46 2292 6393512
2138 3001 6393516
3048 3044 6394220
3036 3044 6394244
2405 3044 6394309
378 2405 6394494
2950 2855 6395371
3036 1859 6395952
866 3021 6396167
2937 3039 6396298
3036 2292 6396389
2405 3021 6396532
2405 3005 6396686
866 3005 6396702
2937 3021 6396792
2950 3044 6397297
2224 1546 6397521
1938 3068 6397838
2827 3001 6397987
430 651 6398207
3058 1698 6398268
2181 2390 6398793
1418 333 6398794
2987 333 6398881
2937 2638 6399328
2757 1698 6399596
2950 1629 6399848
2950 1380 6400217
2950 1706 6400509
2950 154 6400862
2924 1859 6402183
3039 154 6403010
3099 2937 6403531
2898 3095 6403599
3039 2405 6403761
2224 2950 6403889
3039 2983 6404014
3039 3102 6404539
2527 1157 6404968
3058 1004 6405002
3039 36200 6405332
3039 2757 6405695
2757 3102 6405723
2950 2385 6406297
3110 3026 6406497
570 2757 6408064
3113 2689 6408092
2689 2689 6408961
1826 1698 6410307
3117 2827 6410348
235 3095 6410472
3119 3102 6410932
188 3102 6411127
1689 2051 6411381
1241 119 6412023
3117 1629 6412982
2405 2670 6413925
710 749 6414369
2834 2964 6414953
710 2937 6415088
710 2757 6415363
570 3130 6416954
1859 2736 6417325
3135 2827 6417556
2834 646 6418349
2834 234 6419144
2834 45 6419824
570 4 6419867
2834 5 6420163
1148 1859 6420246
1148 3129 6420528
3117 3129 6420952
188 3129 6423772
570 2670 6424270
570 2565 6425232
41 2565 6425469
2834 3145 6427402
639 639 6427425
2362 3145 6427526
570 1859 6428279
2937 1859 6428729
41 1859 6428771
1078 1859 6428854
2804 2834 6432870
1938 2834 6433632
3161 2565 6434389
188 2926 6437231
3168 2565 6437296
3174 333 6438035
3177 149 6439104
270 3175 6439561
270 3175 6439636
3180 3170 6440094
3180 1085 6440918
2987 1085 6440918
2138 1182 6441036
2138 2834 6441269
2179 2935 6442125
2898 1859 6442190
1733 1733 6442561
3037 2935 6442684
2898 1085 6443038
2725 2875 6444486
3037 2875 6444845
2987 2140 6444924
188 2875 6446510
2681 2935 6448446
232 232 6449918
232 232 6450047
2742 2968 6450902
2681 232 6451335
836 232 6452498
639 1859 6454847
1938 2964 6454927
2138 2964 6455069
3205 2964 6455144
3205 2458 6455424
449 232 6456371
2811 232 6456446
2876 1859 6456456
2811 3204 6456770
235 1085 6456892
2876 1859 6457508
2811 1859 6457930
3026 2390 6458108
2937 3170 6458389
1546 1859 6458581
2950 136 6458870
1838 2964 6458983
449 3215 6459356
2950 3215 6459408
300 3215 6459673
2181 3170 6459760
2950 3215 6460564
2181 1019 6460841
3218 1859 6460976
2181 3215 6461939
270 1449 6462055
3220 3215 6462329
2675 2675 6462662
1938 2675 6463714
133 1859 6463960
3221 2192 6464887
570 136 6464985
3226 3215 6466100
2788 2788 6466185
2181 74398 6467412
46 3217 6467522
3228 1859 6467877
2898 928 6468406
389 2910 6468587
1372 428 6469066
1158 3215 6469178
1859 3215 6469219
667 428 6469222
667 428 6469829
1372 3093 6469880
235 2921 6470928
2898 1859 6471129
3243 3234 6471158
570 2192 6471475
2813 2891 6472043
119 3127 6473947
721 455 6474557
211 119 6474560
1158 3176 6475468
325 1859 6475544
721 3215 6475947
2117 2964 6476001
3253 2891 6476037
3251 3127 6476138
866 2670 6476283
3253 2670 6476297
1158 2937 6476327
325 3215 6476541
1736 2670 6476814
866 3039 6476979
1158 3039 6476985
325 136 6477937
1736 3234 6478307
3256 74398 6479060
1736 1698 6479351
325 3204 6479501
2827 3260 6479520
1736 455 6479552
866 3260 6479596
2181 2670 6479725
2972 3232 6481891
1158 3285 6481956
3253 3285 6482074
1724 3215 6482087
3267 2875 6482821
235 2405 6482855
3004 3257 6482911
3300 2875 6483046
233 232 6483509
3300 2788 6483597
430 2488 6483995
42692 3259 6484001
3253 2488 6484028
3301 2488 6484160
2876 3253 6484183
3290 2488 6484542
1859 3004 6485134
3220 2736 6485899
3329 463 6486628
1158 463 6486724
325 455 6486903
1158 2490 6487019
3332 463 6487089
3004 463 6487172
3301 463 6487265
2827 2935 6487369
506 2872 6487421
1158 2490 6487627
506 232 6487655
570 463 6487748
2950 2872 6487952
3334 752 6488266
175 232 6488408
3004 752 6488471
3253 3175 6488612
1859 2872 6488844
1859 2490 6489299
752 232 6489340
3253 2490 6489349
47003 463 6489375
235 2490 6489417
3004 2490 6489488
667 3275 6489794
3334 87 6489891
3334 2670 6490413
3305 463 6490636
449 3175 6490642
3253 3348 6490646
667 2670 6490915
3351 3348 6491062
449 3348 6491074
1577 1943 6491424
3004 235 6491453
3360 3348 6491466
667 3275 6491542
3004 455 6491976
3058 3269 6492341
3004 1859 6492657
3366 3175 6493622
449 983 6493992
3366 3315 6494248
1158 42692 6494346
449 42692 6494365
3220 42692 6494506
3370 3175 6494803
3366 42692 6495272
3026 3315 6495385
3366 1449 6495613
3058 1449 6495619
188 3348 6495644
431 3338 6497226
1736 3357 6497489
1736 3338 6497870
3246 2950 6498746
570 3338 6499138
3301 1449 6499797
3246 3246 6499870
935 2935 6500870
570 356 6500893
3390 3175 6501059
2442 305 6501181
188 2490 6501629
1859 2442 6502274
935 2935 6502314
3390 3215 6502355
431 3390 6502667
378 3215 6502745
3301 3390 6502788
3390 67 6502931
3246 41 6503711
3127 3390 6504043
3301 3390 6504198
235 3390 6505073
3220 3390 6505345
469 3101 6505638
41 3396 6506710
2026 1449 6507232
469 1418 6507862
3334 3401 6508266
3301 45 6509080
3301 431 6509333
2181 3299 6509729
2181 3354 6509939
570 2950 6511065
935 3354 6512706
935 3127 6513280
3422 3420 6513957
87 2583 6514390
188 3299 6514478
3267 3390 6515962
3267 2442 6516318
935 77594 6516396
2809 77594 6516803
3005 3390 6517524
3267 3390 6517563
3005 3421 6518234
3267 3421 6518294
3334 3424 6518449
3176 3176 6520334
3433 3246 6520972
3435 1698 6521319
3433 1698 6521969
667 448 6522085
2804 2834 6522403
2804 3436 6522660
3433 3436 6522786
1158 3390 6523024
270 3436 6523105
1418 2964 6524549
270 2964 6524588
2804 2964 6524825
41 3436 6525642
2804 2509 6526122
3451 3299 6526629
2898 2964 6527260
3450 2964 6527477
3179 423 6528651
2809 3102 6528962
3459 2964 6528971
2804 139 6529022
3471 23 6531587
3471 119 6532009
1418 3445 6532294
3221 3221 6532380
2561 3462 6533503
1736 3462 6533645
449 3357 6534353
449 139 6534666
449 3486 6534897
449 3437 6535181
3471 2622 6535188
2555 3437 6535348
449 3487 6535576
3471 3357 6536112
1158 3486 6536185
325 3486 6536396
3491 3485 6536553
3004 3445 6537088
325 3485 6537117
2827 3488 6538174
2405 2405 6540429
3505 2950 6541353
2950 3445 6541538
935 2877 6541941
449 3485 6542813
2834 4880 6543360
2827 3145 6543608
935 2720 6543809
2979 1792 6543819
23 2509 6543859
3267 3145 6543958
519 3145 6544322
3529 3390 6544356
136 3486 6544454
325 3540 6546651
116 3528 6546726
3553 3145 6546803
3553 3528 6546992
935 3523 6547146
3542 3540 6548330
3570 3542 6548575
935 3542 6549172
3583 3486 6549787
27258 3445 6550081
2181 3540 6550491
935 3291 6550534
325 3338 6550559
3529 3542 6550598
3583 3291 6550785
3026 2405 6551077
3589 3542 6551093
270 3542 6551178
928 928 6551270
3026 3542 6551962
2181 3542 6552575
2696 3291 6553723
935 3607 6553779
1418 3607 6553837
1418 3607 6555336
2876 3615 6555904
3624 3615 6556556
3618 333 6557445
58596 2501 6558017
3634 3626 6558192
3542 3612 6558634
3589 3612 6558714
2827 3612 6559119
3334 2696 6559356
235 2696 6560198
1418 2620 6560812
935 2620 6561211
1909 2620 6561275
866 3655 6561866
866 716 6562007
3256 2670 6562976
4 3655 6563169
77594 1063 6565586
2855 1380 6565683
3005 3680 6565710
3301 3686 6567015
866 779 6567241
3693 3686 6567411
2369 3686 6567538
3004 2937 6567945
1217 2664 6568466
861 2937 6568786
866 2664 6568847
3702 7410 6569122
46 1909 6570214
3179 3682 6570343
2181 3253 6570421
2992 448 6570700
4 1036 6570759
866 2935 6570862
3714 1036 6570991
3715 1380 6571177
3715 2732 6571516
2527 428 6571948
3004 3390 6572790
41 3390 6573027
77594 3720 6574013
3634 3390 6574442
667 2720 6574487
3037 3682 6574949
3713 2133 6575155
3390 3607 6575193
1909 1425 6576452
448 1425 6576528
1217 3715 6576563
77594 1425 6576570
449 1425 6576661
2181 3390 6576926
41 3275 6576926
2679 1425 6576996
77594 3390 6576999
235 3390 6577007
885 3275 6577062
449 3729 6577431
3727 3390 6577464
5 1425 6577608
667 2900 6578083
885 1425 6578184
1059 2900 6578917
2181 1010 6579328
2181 472 6579725
1736 3692 6580257
3736 3731 6580402
203 1215 6580469
3736 3737 6581072
3739 3737 6581292
2181 3175 6582740
3740 1425 6583066
2558 3390 6583158
3175 3175 6583246
2558 2935 6583496
469 3742 6583570
2798 3175 6583593
3741 3390 6583890
3175 3390 6584366
3220 3742 6584500
235 3715 6585061
119 1425 6585163
3739 2327 6585303
2558 2442 6585507
3739 2442 6585923
329 329 6586972
114 2910 6587313
570 3406 6590435
3694 2331 6590650
3694 174 6590953
188 1425 6590979
46 1557 6591128
171 56 6591410
46 3655 6592352
46 87 6593030
46 3737 6593645
885 3748 6594562
3535 3655 6595061
3334 235 6596307
2731 1314 6596882
77594 3741 6597354
3301 235 6597877
3301 2383 6598384
77594 3246 6598447
3537 3537 6599030
77594 3584 6599772
188 448 6599949
2804 3584 6600080
270 2583 6600117
3755 3537 6600740
130367 3390 6601519
77594 130367 6601702
2804 2670 6602666
2827 2133 6603462
2383 3731 6603857
3762 449 6604131
2798 235 6606300
2798 37 6607235
935 1326 6607434
2798 3215 6607735
2804 3215 6607935
130367 3584 6608860
2647 3215 6609152
2647 7475 6610023
1838 3390 6610530
2138 644 6610995
2262 3390 6611442
325 3584 6612492
3471 3768 6615647
52 3390 6615979
2262 3291 6616422
325 3215 6616870
2804 3215 6617218
2937 2413 6617904
1733 2413 6618431
449 2262 6619481
3026 2413 6619936
2647 449 6620305
3781 2991 6620724
667 2991 6621220
449 2991 6621774
2647 3784 6622200
3795 2413 6623931
3795 324 6624915
3798 1629 6624933
2804 175 6625144
449 175 6625168
3795 333 6625197
3795 3542 6625547
2804 339 6625767
2262 3790 6625871
3795 672 6625901
3795 3267 6626356
3802 292 6626541
2804 2390 6627045
275 449 6627072
57 2390 6627296
3806 1215 6627398
3739 130367 6627859
3806 2028 6628209
46 130367 6628238
3806 567 6628914
3795 866 6629462
3670 130367 6630134
1645 3584 6630700
41 3584 6631296
235 2991 6631376
235 3584 6631603
3037 860 6632842
2827 3813 6632891
1653 860 6633244
3798 175 6634489
4 2564 6634593
449 2978 6634595
2827 2978 6634610
3205 2978 6634900
3798 3542 6634970
588 2564 6635350
4 130367 6635527
130367 6005 6636015
3589 3822 6636592
2937 130367 6637056
3739 3215 6637962
1859 130367 6638466
870 866 6638496
2405 3259 6639802
2979 3584 6639934
449 3739 6639951
1215 1215 6640224
2979 3810 6640265
3205 3216 6640667
2979 1215 6641061
3837 1425 6641177
1627 3664 6641759
4 3664 6641796
3253 3205 6641838
3838 3205 6642080
935 3216 6642114
235 2362 6642143
866 2978 6643012
1158 2442 6643562
1158 3546 6644092
3602 6005 6644175
2181 2442 6644241
935 3215 6644371
3602 175 6644883
935 3785 6645045
3253 3739 6645126
114 1938 6645576
3798 618 6645738
3301 2442 6645925
3602 428 6645974
2933 1938 6646054
3798 646 6646612
2975 2937 6646754
935 3739 6646902
2975 127 6646991
130367 2937 6647087
3810 3810 6647212
2975 1938 6647574
3602 3847 6648013
1909 3215 6648061
2975 3847 6648130
325 3847 6648209
570 130367 6648495
3848 3338 6648523
667 2442 6649205
4 3843 6649912
4 3858 6651147
3670 3858 6651260
2490 2937 6651532
859 659 6651685
77594 2877 6651944
130367 2788 6652110
77594 2490 6652221
130367 3232 6652475
130367 2028 6653496
2898 3390 6653914
4 541 6654480
2827 2978 6654798
2707 3739 6654834
130367 2527 6654928
2694 3390 6655004
3004 2490 6655652
3686 1629 6655781
1151 3664 6656597
3004 866 6656838
1059 3664 6657805
935 2527 6657867
4 3872 6658087
130367 3872 6658174
3862 3835 6658696
3879 3390 6659035
3532 3324 6659067
130367 1200 6659225
935 130367 6659405
41 3872 6659952
570 2527 6660841
3879 541 6661230
570 2413 6662920
570 41 6663205
3301 176 6663639
3885 73267 6663815
3886 73267 6664007
3885 2490 6664159
3886 2442 6664391
77594 2827 6664574
3357 1425 6665447
2558 3739 6665623
3415 2331 6665798
2181 176 6665833
2558 130367 6665914
469 2696 6667082
235 176 6667382
3810 3872 6667430
4 176 6667547
3888 3232 6668379
2558 176 6668568
3888 87 6668588
77594 2231 6670805
3889 87 6671042
2181 3890 6671242
2181 2488 6673547
935 1859 6673658
4 570 6674198
2950 3378 6674993
3366 3892 6675070
935 2488 6675361
3366 3378 6675451
2774 3378 6675628
3259 3324 6677167
130367 2968 6677316
3415 570 6679377
37 570 6679496
2950 2367 6681415
130367 3902 6681588
3739 2367 6681896
3886 3889 6682891
2975 130367 6683261
2950 130367 6683588
3739 130367 6683958
77594 3378 6684318
3911 3357 6684861
1653 2937 6685512
2181 2527 6685864
77594 3912 6686295
3739 929 6690031
2937 2937 6690344
2181 1859 6690682
2804 1859 6691224
3739 3739 6691392
2181 3739 6693436
2138 130367 6695102
325 570 6695143
2834 3215 6696259
3739 3921 6696746
2804 3923 6698742
2652 176 6698949
3004 1356 6698990
3921 3921 6699004
1826 163 6700240
3651 3004 6700300
3357 130367 6700519
3931 87 6701115
3216 3900 6701169
163 163 6701919
2798 2910 6703530
3931 2910 6704080
3872 2910 6704316
2905 2910 6705354
3602 2910 6705448
2804 3436 6706102
3332 2910 6708301
2804 2968 6708716
3931 415 6709819
3931 420 6710146
1687 2488 6711900
3862 163 6711955
2834 3267 6712368
449 2488 6713158
3450 2488 6713630
449 3436 6714036
449 3553 6714477
3739 2329 6714897
1624 1363 6715361
3450 3215 6715502
3692 3692 6715577
1687 3953 6718739
1078 3953 6718828
2841 672 6719902
3301 1065 6720347
3529 1065 6720368
4 3959 6720589
1722 3553 6720669
3962 3959 6722645
430 672 6722996
449 1507 6723016
3785 672 6723278
2181 3952 6724004
3806 415 6724445
3602 1425 6725911
3889 3959 6726898
3843 463 6727552
3301 463 6727558
570 1425 6727643
3806 3215 6728481
2181 88 6728770
3889 88 6728931
3253 3259 6728993
2299 3680 6729404
2937 463 6729572
430 88 6729877
114 2910 6730113
325 672 6730117
2924 88 6730567
2299 2968 6730696
4 130367 6730723
935 3959 6731055
3253 2910 6731240
325 3436 6731379
2937 3889 6731451
935 2473 6732066
3301 114 6732232
2224 114 6732316
2299 2978 6732940
2827 2827 6733160
3532 3540 6733620
3532 3680 6734132
3216 463 6734867
2834 88 6735871
3973 88 6735959
3973 3982 6736182
5 3739 6736571
130367 88 6736901
2299 2299 6736915
130367 17 6737212
3985 3739 6737451
2834 3004 6737554
2405 3984 6738513
325 3983 6738545
236 3984 6738562
4 3989 6738704
2299 3989 6738981
236 3989 6739029
130367 2947 6739659
3983 3983 6740309
41 3931 6740373
130367 570 6741430
3004 644 6742195
3253 337 6742232
2647 463 6742465
3604 4000 6742842
325 1363 6743868
430 672 6744697
667 672 6745230
325 693 6745686
114 693 6746480
4 5 6746540
5 71 6746564
829 570 6746803
3889 337 6747076
3781 337 6747563
449 693 6748389
2689 693 6748995
1217 644 6749022
4010 4007 6749471
4010 644 6750254
4010 3989 6750704
235 3989 6750730
3889 693 6750998
163 693 6751217
3781 3989 6751430
4011 4007 6753910
325 693 6754619
1059 693 6754793
4016 570 6755067
1158 4 6755083
127 4014 6755805
4016 4000 6755824
3102 3102 6755843
935 3253 6756304
136 136 6756538
469 2877 6756579
127 3215 6756874
235 693 6757546
136 4000 6757657
4014 693 6757869
935 3999 6758564
2181 2935 6758606
114 4023 6760186
3175 3649 6760405
1116 463 6760552
3889 4005 6760567
114 4005 6760699
1116 570 6760744
3366 3267 6761080
1116 150 6761133
935 4023 6762645
3406 3406 6763103
4 3649 6763246
1859 3649 6765063
935 4022 6766247
4 3889 6766335
935 431 6767179
1689 431 6767337
77594 4022 6767462
149 3649 6767868
149 3649 6768061
1859 2383 6768794
77594 4022 6768997
12 3906 6769432
469 305 6770425
12 1859 6770679
130367 305 6770754
4044 693 6771513
469 24263 6771765
188 4022 6772227
2458 2458 6772335
2804 2458 6772350
41 2458 6772431
2181 24263 6772435
3415 463 6774410
3301 24263 6774946
12 130367 6775219
270 2458 6776481
270 77594 6777052
2647 431 6777595
4010 4060 6779679
4061 2458 6780729
4062 4060 6780775
2834 3267 6782000
4061 1151 6782220
2834 2935 6783889
667 672 6785685
667 672 6785857
667 672 6786083
667 672 6786244
935 3584 6787720
3205 3215 6788303
935 2437 6788347
3267 2138 6789566
3550 693 6791743
3253 3253 6792574
3785 2442 6793367
2834 3584 6793475
3550 4007 6794738
449 4082 6795018
449 3584 6797064
3004 3584 6797152
935 4082 6797543
2217 2876 6798875
4 1363 6801519
1859 1363 6801580
2834 2862 6801783
3253 4013 6802027
2834 2442 6802439
3253 2442 6802810
3529 2442 6802912
449 2442 6803261
449 2442 6804036
4096 4092 6804081
235 2591 6804698
130 4092 6804794
4096 3584 6805025
935 3906 6805403
2757 235 6805784
4 1363 6806626
130367 1859 6806699
4 1363 6808468
667 2670 6808717
4104 2670 6808731
430 2670 6808910
2405 2405 6808942
325 4100 6809036
3889 3889 6809153
3301 4100 6809177
130367 672 6809676
4068 1363 6809928
3542 2442 6809990
4105 4106 6810853
2877 2877 6811348
3220 3889 6811355
449 4097 6812380
325 2230 6812581
325 1012 6813044
130367 3267 6813103
3634 236 6813365
3940 3267 6813774
4068 1012 6814276
4116 2230 6814508
3553 1012 6814590
570 3004 6815031
3301 2230 6815604
3301 4097 6815772
570 2442 6816221
4119 1012 6816251
4010 3607 6816277
4119 3267 6816646
431 3267 6817526
3550 3253 6818599
3267 3253 6818935
2383 3215 6819219
235 3215 6819747
3550 4106 6820214
1999 3584 6820654
667 2230 6821122
4124 3584 6821162
570 2975 6821237
449 2230 6821281
3550 2230 6821314
1999 2383 6821570
449 2383 6822150
2383 2601 6822287
2383 4073 6822794
2383 3175 6823011
2383 3958 6823324
2299 463 6823422
935 2230 6824021
455 463 6824064
4116 3175 6824064
2975 3958 6825118
1158 2707 6825222
4105 3307 6825306
2647 3906 6825746
570 570 6826281
4010 3307 6826726
1158 4066 6827141
935 3307 6827545
4034 2383 6827548
1158 672 6827585
3550 1046 6828018
4138 672 6828416
935 672 6828489
3550 3872 6829417
935 3872 6829790
4143 3872 6830542
1689 672 6831828
1626 672 6832574
2732 2732 6833184
463 3205 6833195
325 2473 6833699
235 1012 6834695
3179 1859 6834966
469 3205 6835237
469 235 6836267
3301 3253 6836347
236 672 6836682
3301 1826 6837513
2827 2910 6841929
114 2910 6842098
3232 2383 6843204
935 2670 6843293
4151 3456 6843844
2442 3456 6846251
2707 420 6846553
4159 4157 6848491
1838 130367 6851002
2558 130367 6851628
2804 1864 6851951
2804 4157 6852650
2694 3253 6853485
2181 130367 6854241
2647 3175 6854726
2026 4145 6860020
1158 2458 6860094
4119 2458 6860229
4119 3175 6860517
1158 2876 6860596
1158 3215 6862641
469 150 6864489
693 3267 6866852
866 2383 6868305
3782 1012 6868651
597 597 6869886
2026 3456 6870616
3253 3267 6871951
163 163 6876972
325 150 6877123
2181 463 6877433
325 4063 6878424
2138 3889 6880598
4169 2383 6880879
3550 4170 6883645
3550 2978 6887758
4119 1363 6890070
866 4177 6890305
4119 1940 6890402
130367 4142 6890587
4142 1938 6891070
866 4152 6891361
449 4152 6891415
325 4142 6892690
235 3964 6894641
3550 4179 6896264
150 4063 6897268
4180 4170 6898278
463 463 6900625
935 2968 6903203
449 3584 6903874
2191 305 6904721
570 1938 6905059
449 2696 6905462
469 333 6906294
3651 4185 6906527
935 333 6907732
2834 2191 6908098
2906 3390 6908402
469 333 6908758
3889 2191 6909623
449 449 6910224
4022 4185 6910601
2906 130367 6910991
469 10 6911475
2181 3584 6911565
2385 2385 6911576
41 3584 6911698
4198 3584 6912311
2834 2191 6912322
292 1859 6912521
935 2696 6912669
235 2788 6913064
3058 2788 6913553
2788 2788 6914722
4010 1859 6914855
3529 2788 6915505
4010 4188 6915946
935 4179 6916356
182 17 6916505
87 686 6918110
4196 686 6918763
693 686 6919389
469 130367 6920495
667 1859 6921934
2804 633 6922681
114 633 6922762
667 633 6923734
4104 2910 6924476
667 1938 6924806
4104 686 6925544
149 633 6926545
693 3175 6927043
3179 3175 6927082
693 1052 6928035
4099 931 6928870
3113 2991 6929467
3415 463 6930788
2954 2019 6934910
2954 119 6935478
2488 2488 6936873
935 687 6937186
2954 3739 6937309
3889 87 6938549
2181 4216 6943243
4216 1123 6943561
2362 2362 6945140
3433 3739 6945678
935 4216 6946092
2804 1698 6946326
3680 463 6947398
2950 687 6948192
2950 2138 6949509
2804 2788 6949958
4157 2788 6950517
3433 2138 6951680
693 2138 6952121
3433 1859 6953476
3433 3584 6954891
1698 693 6955177
2975 693 6955354
2181 693 6955888
880 4002 6961452
866 3739 6962423
2950 1363 6963060
1442 570 6964367
2876 2964 6965996
2827 2458 6966498
305 4219 6967307
2833 1363 6967407
2833 2788 6967743
2834 3267 6967931
305 2719 6968001
1757 463 6968371
2834 1363 6968843
4152 2240 6969193
3550 2788 6969278
2834 2240 6969441
2906 2670 6970393
3026 4219 6970890
705 2978 6971455
705 4088 6972050
705 4066 6972291
4062 2954 6972827
4062 4233 6973703
4062 2390 6974104
4062 3575 6976378
2331 2331 6977299
3550 1363 6977787
1059 1363 6978416
2954 3692 6978718
41 3692 6978797
4003 463 6979122
3550 929 6979181
1059 3575 6979247
449 2954 6979960
4062 2954 6980051
4003 2321 6980680
4116 2788 6982885
4116 4241 6983621
333 2964 6985534
150 3575 6986152
2954 2321 6987231
4245 2877 6987793
3550 1790 6989630
4257 1790 6990064
598 2321 6990284
449 2488 6991196
2834 2488 6991271
114 1859 6992021
3550 1859 6992048
935 3739 6993881
1059 2321 6993907
2954 2711 6994044
325 4236 6996604
3962 618 6999044
2473 1449 7000621
2542 885 7002385
935 2473 7002610
3550 1546 7002733
935 2247 7003956
2876 18127 7004006
325 1449 7004044
3550 18127 7004111
3119 2321 7004271
3119 2954 7004512
667 333 7005714
3415 333 7006379
114 3731 7006968
4271 333 7007858
2834 1179 7008429
167 570 7008880
935 3731 7008995
1938 161 7010078
3110 3739 7013360
935 1326 7013748
2442 2321 7014055
4104 1326 7014410
149 333 7014680
2558 4263 7016532
2026 3905 7023529
2379 3731 7024303
4282 2910 7025705
3994 333 7025801
3999 3999 7026573
4062 333 7028095
2362 333 7029402
188 333 7031553
3781 448 7034740
866 3575 7036494
3781 4266 7037928
3497 4286 7038299
4062 4157 7038921
211 3390 7041369
3940 4282 7042537
2834 3448 7042887
449 3448 7043078
23 3575 7044512
3781 2473 7045165
4266 2594 7049933
4303 253 7052059
4303 3175 7053291
4062 1626 7054240
3026 448 7054589
3795 3448 7056322
1068 448 7057374
3532 3390 7057758
3532 4282 7058021
449 2968 7059148
929 647 7061494
275 647 7061577
325 647 7061712
3179 3900 7062952
275 4305 7063123
449 424 7063219
3179 3889 7063269
3179 3889 7063675
3179 3354 7063865
3550 424 7063923
449 424 7064924
211 4317 7065175
3251 4070 7066848
3550 3822 7067519
41 2439 7070116
935 4282 7070731
2680 4305 7070766
880 4317 7070833
152 4 7071723
449 4322 7072228
3550 4322 7072354
4326 3390 7073257
325 4119 7074943
2968 2968 7075417
1151 3390 7079953
3713 2473 7081570
3713 672 7082722
2950 4339 7082881
2682 4119 7082903
2181 4339 7082965
3550 4339 7083142
3550 4339 7083585
3713 3338 7083845
4271 4339 7084070
866 4343 7084150
2950 4339 7084688
235 4340 7084752
866 2877 7085466
935 3575 7085509
3980 4339 7085698
866 785 7086141
3872 4339 7086220
2978 4339 7086361
4348 3889 7088077
4271 1415 7091130
721 235 7091335
934 4339 7091397
4271 2978 7092015
1736 2954 7092818
1736 4343 7093644
1736 1859 7094340
3301 18127 7094522
3226 2978 7095810
2181 4355 7096471
3889 2841 7096877
3889 2715 7103761
3889 554 7104958
3781 554 7107703
4062 554 7108037
4366 554 7110119
420 1217 7110437
935 2670 7110848
2181 3739 7111864
2181 448 7111993
4062 2983 7114948
4062 1217 7116000
4062 2575 7116346
2647 2331 7121593
4376 3739 7122207
2725 2331 7122311
2725 87 7122568
87 87 7122840
2833 2331 7123214
935 3739 7123229
4068 87 7126234
4380 4339 7126781
4381 554 7127331
4381 2331 7127512
3529 554 7127650
4381 4339 7127710
3529 554 7127895
3497 3958 7128080
2767 3958 7128443
4382 551 7128628
325 4241 7131013
3739 4241 7131024
449 1217 7131067
4376 3739 7132251
449 3921 7134271
3497 3147 7135356
3962 4041 7137749
4396 4241 7138204
4396 752 7139671
4396 4129 7140252
46 2720 7140886
2720 2720 7140909
3727 2720 7140935
3497 4129 7141184
4401 958 7142121
3550 3921 7146729
4415 458 7147870
3532 752 7149005
1138 2670 7150868
2950 4420 7152011
4376 116 7152672
1826 4420 7152743
1736 4368 7154371
449 1859 7155292
3550 928 7156454
3259 4368 7156705
2488 4428 7156890
4430 4241 7157101
4266 4266 7157964
211 928 7158041
570 3889 7159487
1352 4068 7159863
4 4309 7160688
4 667 7160813
866 448 7162448
866 2788 7162709
935 1425 7163509
275 667 7164387
3005 4433 7165975
4440 4440 7166397
4271 1193 7168146
866 702 7169397
4443 1067 7169470
2862 4442 7169482
3713 4339 7169665
667 667 7170002
2138 4359 7170480
2841 4339 7171138
2138 3542 7171459
4309 1067 7171590
4266 2910 7172886
4309 3542 7172907
1059 4339 7173908
866 4446 7175051
2950 3542 7175296
3179 644 7175345
3179 420 7177369
2181 2664 7177894
2647 4339 7178012
2834 386 7178139
235 2664 7178355
4451 4266 7179617
325 2276 7182608
4271 551 7183267
3175 4455 7183877
3301 235 7184841
455 3175 7184848
2720 1938 7185491
2315 1217 7185766
3026 4455 7185777
4271 4455 7185792
2181 3175 7186358
1067 2181 7186984
4456 87 7188345
935 4456 7190414
1158 3727 7190417
1067 3727 7191523
3026 4456 7191886
1158 2834 7192020
1067 449 7193061
3026 4367 7193823
2299 4367 7194217
2299 3388 7194561
469 3813 7197498
2950 2707 7201619
2694 4367 7203086
2181 693 7203592
77594 1826 7203607
77594 4287 7204411
2181 1859 7206515
4466 2620 7206916
935 2620 7207527
77594 2620 7207559
4104 17 7214723
866 235 7215021
455 693 7215617
2181 2767 7216944
3940 77594 7217031
3921 2458 7217550
3159 161 7217717
3275 3931 7218325
4469 2834 7218391
4470 2458 7218562
449 1859 7221521
3471 1085 7221565
3497 4384 7221768
4473 87 7224621
1029 3159 7224848
2458 588 7225023
1029 588 7225140
2725 588 7225817
3727 588 7225890
449 3175 7227164
3497 4440 7229081
3550 2593 7229235
2702 2458 7230529
1464 4068 7231068
4415 588 7231165
3275 325 7231639
1910 325 7232179
3889 588 7232456
2405 87 7234095
2694 2670 7234360
1826 2670 7235564
3550 1754 7235578
325 3485 7237979
2950 2230 7238047
455 1754 7238385
1078 4482 7238912
458 2932 7239004
2694 1754 7239554
3213 588 7239594
325 4482 7240042
1078 4080 7240287
235 1859 7241455
4487 928 7242099
3301 1193 7242491
1078 1193 7242734
4489 2670 7243014
235 3906 7243180
3532 260 7243181
463 3906 7243844
2950 4488 7245956
2950 4488 7246142
458 1012 7247244
4493 4485 7247270
4494 3315 7247684
935 3175 7248897
2950 3905 7249506
935 2390 7249551
935 1684 7249732
4482 4482 7250042
94 4488 7250477
935 317 7250583
3550 260 7250786
1654 3905 7251956
935 3550 7255351
935 3889 7256015
935 1067 7256527
333 3550 7257386
4501 2670 7258501
2369 3550 7258507
2647 4407 7259611
4359 2670 7259948
4359 2593 7260233
4359 1754 7260892
935 4407 7261854
352 68337 7262114
3301 68337 7262208
4271 333 7262272
3301 4488 7265078
3301 4447 7265494
1826 4505 7265610
2834 2715 7265798
4196 4505 7266125
130 4505 7266818
2299 2954 7267916
3862 3550 7269075
4508 2954 7269187
449 463 7269541
2385 2385 7269631
4359 3147 7269730
2834 3905 7270180
2181 72 7270519
570 2954 7272224
2954 4455 7272246
2181 4455 7272265
266 4455 7272276
4359 4359 7272749
2181 2950 7273475
3736 2490 7274299
4407 4407 7274485
4182 4455 7276696
2954 2950 7277038
235 235 7277672
88 2490 7279986
4515 693 7280671
4182 4514 7281057
2954 4514 7281951
88 3516 7282047
935 235 7282154
2767 2975 7293112
2725 2975 7293491
4456 2975 7294008
87 1217 7296482
935 4455 7298861
866 463 7301383
3471 2490 7303491
2694 4476 7303628
866 3302 7308400
3781 1446 7309996
866 1748 7310149
211 3476 7310503
4231 3476 7310546
325 3168 7314405
1826 2331 7314527
3550 4477 7315582
211 2331 7316765
3940 2978 7316991
458 2978 7317021
430 2978 7317082
82 2331 7317500
82 2331 7317907
2694 2331 7318725
458 2331 7318888
4104 2331 7319071
4531 1978 7319119
3368 3906 7319561
458 3906 7319583
116 4477 7319587
1826 3906 7319762
458 2331 7320213
458 928 7320412
458 2331 7321078
3368 3476 7321958
4531 2331 7322633
458 4514 7322804
3781 633 7322840
644 3476 7322920
1012 2362 7323288
458 3301 7323899
449 4533 7324011
325 4104 7324113
211 3600 7324198
2026 1012 7324214
2762 4384 7324320
866 2715 7325557
2827 4514 7325582
4537 3600 7325695
2827 2490 7326343
3299 3299 7326527
2555 4540 7327654
235 2390 7328466
3889 3542 7328651
2670 2670 7330380
356 4287 7330713
458 4287 7330899
2978 1563 7331357
3251 4287 7331404
935 4447 7331701
1464 4540 7332176
114 356 7333028
3781 176 7333761
4547 4547 7335243
3862 866 7335430
3550 2978 7335764
3940 4540 7336261
3781 2583 7336854
2181 4538 7337475
3301 2664 7337554
2978 2664 7338175
2233 3906 7340277
3301 4514 7342749
3940 2490 7342795
2978 2490 7343604
4104 4552 7344657
705 4476 7344687
114 3542 7345356
1029 3778 7347016
88 88 7347758
2181 2490 7348427
4443 88 7348716
129 366 7349073
3600 3315 7349449
3401 3401 7349476
4557 20 7350067
935 2390 7350754
4558 3315 7351073
667 2390 7351106
2827 2390 7351259
4508 3647 7351304
24 4443 7351471
4442 4442 7354114
4271 163 7355987
2555 163 7356164
4271 4142 7356731
4080 3542 7356858
129 5 7365336
114 2491 7366121
5 2491 7368045
4568 2875 7369853
2762 2390 7370824
4558 2491 7371087
41 1471 7371176
4568 1471 7371248
2026 1471 7371542
4558 2491 7371591
935 2762 7374755
114 1859 7375247
935 1471 7376190
935 1471 7376484
2181 1859 7378941
2694 1471 7380276
2181 4570 7382031
3497 4477 7383445
3497 5 7385762
211 1471 7385998
211 3680 7386550
3179 4345 7387707
4152 3680 7389404
2026 3778 7389691
2647 4345 7390197
4578 2491 7395253
3497 4576 7395884
3497 4572 7396800
3781 2762 7397610
2647 3485 7399032
1736 2954 7399727
3550 1546 7400548
1910 2491 7401088
2191 4514 7402521
3251 2968 7402558
667 1809 7404076
4180 1809 7404990
3251 3795 7406711
3727 3795 7406922
1012 1012 7406983
1838 4514 7407263
3550 3215 7407401
116 3921 7408541
430 4546 7409376
4180 4546 7410723
2725 4572 7411005
3550 2975 7411983
4180 2975 7412047
2910 4546 7413001
211 2975 7413058
4062 1733 7413484
4062 2442 7413629
4062 2458 7414263
4180 4558 7415116
4062 2928 7415250
935 1733 7415521
866 2983 7415568
4470 4589 7416936
430 4589 7417880
1859 2762 7418768
2670 2670 7420350
3889 4591 7420633
41 4589 7421609
1029 1680 7421925
1029 4568 7422195
3334 240 7422815
3550 4568 7422987
3303 1680 7424347
3303 4591 7424640
935 1680 7424824
1736 1629 7425001
1736 2490 7425454
114 2490 7425461
4105 4558 7426040
211 4558 7426051
1689 702 7427682
4558 270 7427800
3532 2968 7428128
1913 4558 7428947
1736 3215 7429034
1913 3175 7429083
3889 1629 7429871
1158 3421 7431286
1158 1733 7431448
2647 3421 7431836
4596 3584 7432638
4596 4182 7432960
4596 4433 7433234
4596 4558 7433549
4599 3584 7433635
1158 3584 7433670
4034 1563 7433681
4596 4590 7433785
1736 1629 7435007
4601 71 7435324
4601 3952 7435667
4601 58 7435900
4601 170 7436088
4601 138 7436289
1158 4591 7436622
3550 1648 7436718
4566 4538 7436899
74398 2975 7437849
3421 3421 7437872
2558 3906 7438100
114 4594 7439240
2924 4604 7439571
3550 4604 7439779
2558 2816 7441568
3058 4488 7441888
449 4558 7442890
2181 449 7443343
3781 4440 7448491
2950 687 7449122
2950 687 7449358
4596 2670 7450094
4596 4558 7450340
4596 4609 7450547
1689 687 7451278
2950 4022 7451471
935 4609 7451577
2181 3175 7461381
3781 3778 7461709
935 3692 7464518
3692 3692 7464614
3005 3692 7465648
2320 3175 7468076
157 2490 7468454
157 1809 7468984
3497 2983 7471277
3497 3692 7471521
419 20 7473546
2670 2670 7478488
3251 4604 7478616
3194 3872 7479664
667 4343 7480175
4343 4343 7480514
3005 4343 7481101
2805 1504 7481278
3778 4343 7481928
3778 171 7482192
3778 4182 7482715
3778 4558 7482949
325 171 7483792
4236 3727 7485243
1938 4500 7485368
325 3778 7485816
3382 3778 7485930
3550 3778 7486451
1231 3324 7487380
4618 3324 7487742
3005 2331 7488255
3267 31694 7488552
4618 3788 7489082
449 4619 7490438
449 4407 7490964
4180 3324 7492187
3550 3788 7492386
4440 4440 7492810
2385 1504 7492850
3550 3215 7495009
2877 3145 7496081
934 2363 7496915
3550 3727 7497325
866 3727 7498289
3550 3267 7501024
2774 3267 7502219
935 4619 7502376
235 2877 7502438
935 4407 7502908
935 3778 7503920
3550 2405 7505169
935 4624 7506365
3550 4624 7510506
74398 2968 7515062
3550 175 7515163
1078 175 7516833
2978 175 7517027
2194 27 7517279
2194 431 7517873
2194 431 7518291
74398 2367 7519537
74398 2331 7520475
2694 2367 7520548
74398 1859 7520672
455 4558 7520793
455 2331 7521111
74398 87 7521274
2647 2405 7521349
74398 548 7521710
235 4558 7521899
74398 356 7522375
114 3267 7524131
2491 4558 7528661
934 2313 7528706
449 2331 7530838
2565 2565 7530845
449 4348 7531646
4596 4558 7538068
1067 4558 7538281
188 3984 7539584
188 175 7540204
4462 4462 7541012
114 3097 7544953
87 37 7546140
114 4643 7547815
3194 170 7551320
2937 4649 7553808
4466 4348 7555195
4651 4558 7556775
2026 260 7559284
2694 4 7561458
419 2774 7564260
2181 2670 7564551
3390 3390 7567561
325 2670 7568013
629 119 7568898
629 3889 7569178
2647 1646 7569324
325 4655 7570455
3532 4558 7572641
3550 2670 7574894
4596 1646 7575104
4596 4529 7576244
1826 2877 7577403
3778 2954 7583895
4180 4538 7584226
2978 4538 7584256
3778 4649 7584300
4348 4348 7584341
2978 4558 7584475
3778 2877 7584729
667 4538 7587216
2978 3973 7587425
633 3973 7587530
2138 3973 7587551
1078 4538 7587712
114 4658 7588667
188 4538 7589148
2405 2405 7591229
4596 2725 7591739
4596 3315 7592151
3532 2954 7593064
430 3973 7593141
4596 4547 7593574
4668 4538 7594178
4596 2954 7594230
4670 2774 7594353
4596 4485 7595823
2877 2877 7596731
4596 2910 7596863
2181 1933 7597266
4596 1933 7597400
3798 101 7598395
935 4 7598431
3550 2935 7599379
935 4547 7599820
2138 4659 7600013
3973 2390 7600875
3550 2689 7601064
935 3806 7601153
4661 2689 7601153
4596 2877 7602487
866 2877 7602707
866 87 7605026
4596 87 7605116
2385 4485 7606571
2138 3973 7608856
935 2458 7609906
2545 2458 7610137
935 2545 7611064
4194 3973 7613812
4679 3215 7614260
332 1626 7614634
1826 1626 7615285
1012 1626 7615540
4596 1144 7620072
935 4011 7620387
4596 3889 7624909
3906 3906 7628985
3778 3806 7631209
935 3778 7632430
360 3137 7633750
4011 3137 7633771
4462 4002 7634248
3117 356 7635663
114 3778 7636568
114 333 7636825
3739 3680 7642108
3739 2670 7642345
4061 3739 7642553
211 5 7645861
935 2670 7646149
935 3739 7646957
866 4568 7649817
4104 2336 7650827
866 3952 7650854
3760 2336 7650926
2181 3952 7651222
325 3215 7651737
4236 693 7653955
3179 3267 7654104
3602 333 7654146
325 2670 7654285
935 2670 7654654
325 4649 7654878
3532 3267 7657195
2458 2458 7657562
4180 3267 7657629
3532 4180 7659147
4129 4129 7659889
4596 3253 7660029
866 4692 7661036
4693 4692 7661053
861 3267 7662541
3073 4692 7662701
861 4180 7662769
1464 333 7663530
2877 2978 7664846
3532 4180 7665117
449 2978 7665145
2138 2978 7665440
3497 2877 7665838
2877 4694 7666089
3550 4694 7666465
3550 4692 7666820
2877 4694 7667552
2877 305 7667681
3602 305 7668729
3179 1933 7668814
2026 305 7669128
4698 4692 7669343
3550 94 7670202
4624 3680 7670711
455 94 7671252
3179 2313 7671895
455 4692 7672199
3301 4692 7672977
2954 305 7673057
3179 2877 7675001
3179 1781 7675827
4707 4692 7676191
1418 4692 7676938
4428 3267 7677427
4596 4 7677595
1418 4692 7677608
449 4428 7677739
4 4428 7677933
4596 4002 7679434
1078 2968 7679500
114 4707 7679944
2954 4707 7679977
4698 4707 7679990
3253 3253 7680198
211 4707 7680259
4698 31694 7680602
4698 4399 7680921
4596 612 7680922
2299 2877 7682242
3267 2877 7682282
866 2877 7682291
3005 2877 7682412
2950 4621 7682424
2877 2968 7682941
2877 4704 7683112
3952 612 7683217
325 1701 7683481
4715 305 7683642
2877 3147 7683878
3778 3727 7684073
866 3267 7684527
3179 2968 7684834
2181 3727 7685718
4596 1507 7686380
119 4428 7687156
935 2490 7687533
4704 4704 7688798
935 2968 7688960
449 3889 7689428
721 4359 7689622
721 266 7690001
1143 3267 7691692
866 1859 7691811
864 266 7692155
721 2491 7692463
935 2991 7693355
866 612 7694458
721 4621 7694786
2682 2968 7696416
4731 1449 7696766
3301 2390 7698487
235 448 7699256
4740 2991 7699804
449 448 7700001
114 4266 7700751
2138 2390 7701085
74398 4742 7704065
935 2991 7706373
880 4742 7706558
880 2390 7707139
2767 4621 7707472
4596 2767 7707899
880 1706 7707997
935 3906 7711570
4596 114 7711847
935 4746 7713304
935 17 7715696
3226 4742 7716108
1543 2390 7716905
935 3115 7717121
194 4672 7717672
2694 3105 7722178
87 1626 7722603
3390 3390 7726475
721 676 7729827
3497 3778 7732843
2313 3778 7733605
4180 3778 7734114
3952 2390 7734410
4704 4704 7736692
3179 2390 7737202
325 3921 7737639
935 2670 7737870
2313 686 7737980
4755 4755 7740016
2362 2419 7740988
3485 253 7742141
4180 1896 7742925
448 448 7744733
935 449 7745231
4596 2593 7747455
2937 2593 7747893
4180 1678 7748987
4180 2978 7749456
3485 2954 7750756
3485 1933 7751221
3485 2670 7751298
4765 2593 7753214
3940 2458 7753225
3532 2458 7754951
4770 2458 7755281
3550 2910 7755297
2954 2910 7757110
2877 2877 7757992
292 3115 7758582
3798 2593 7758640
721 2991 7758879
3798 3921 7759023
3889 2978 7759341
2978 3921 7759410
449 2978 7759435
1078 4216 7759801
449 661 7759892
4774 2331 7759912
41 2670 7760615
2026 3115 7761077
1743 2670 7761870
4180 2458 7762005
721 4484 7762071
2978 2978 7762533
4774 4216 7762740
1078 2240 7764867
2950 3692 7765624
2181 1438 7765986
4180 3778 7766906
4180 4488 7767116
2181 2910 7767574
4777 3727 7767963
4180 2670 7768262
4783 3935 7769003
114 4692 7769029
2181 4692 7769545
1143 4692 7770292
4705 4692 7771552
4782 4745 7773957
114 661 7774098
2827 3115 7774522
721 1157 7774634
4782 2762 7774871
721 2696 7775041
4782 1507 7775752
4782 305 7776082
3251 3940 7776105
3940 3982 7776633
4782 4180 7777034
2805 4002 7777409
3940 4692 7778314
866 2689 7778498
866 4692 7778847
2950 3940 7779301
4782 4568 7779383
866 3781 7779590
114 3781 7779723
1059 1438 7779792
275 130 7780070
114 2762 7781022
4782 1012 7781433
455 5 7782857
4271 5 7782952
4782 4105 7783072
935 3935 7783332
4782 3889 7783981
1826 2708 7785648
289 2708 7786757
935 3940 7792725
3602 5 7793448
935 4568 7794252
935 2968 7796902
4794 1859 7797981
2950 2968 7798014
4462 5 7798430
2442 232 7799707
3778 2968 7800772
935 2968 7801590
4034 232 7803100
2138 4568 7804587
935 4360 7807352
721 2412 7814770
721 2968 7816364
721 3999 7816849
935 333 7820881
935 4782 7821927
2181 4782 7822074
4180 2413 7826388
866 2910 7826455
4180 3778 7827690
449 3778 7828826
4777 2413 7830371
1067 3680 7830569
4777 3302 7830914
4180 2877 7831469
1067 2670 7831564
2950 2877 7837503
4782 633 7839581
1464 633 7841609
3550 2910 7842151
4538 90 7842861
2910 2910 7844426
4013 2910 7844544
4470 4808 7844912
1826 2910 7847226
4815 2910 7849019
3727 2877 7854618
935 3778 7855978
2181 2877 7856251
4 4820 7858522
2554 10 7858658
3301 2877 7858804
3301 4360 7859052
4 2554 7859131
3301 2240 7859514
3301 1706 7860306
3275 2554 7860325
333 2509 7860379
114 333 7860513
935 4820 7860786
3550 4339 7863208
3267 2910 7863236
866 4199 7864107
3550 3664 7864138
352 4339 7864726
352 3664 7865394
3301 253 7866659
4 3275 7866827
4 686 7867335
2950 3692 7867474
4825 686 7867711
4241 4241 7868074
4826 1733 7868714
4776 4756 7869229
4180 686 7869236
935 3664 7869438
114 3275 7869993
4782 3267 7872525
2827 4825 7872727
455 253 7873640
114 4271 7873988
935 4271 7875295
1059 1012 7875696
3004 48 7875939
721 1012 7876735
721 686 7876894
4830 4756 7878865
235 4831 7879434
4538 4538 7879459
496 4538 7879788
4182 4835 7879864
235 4835 7880192
880 458 7881215
4745 4745 7881221
235 4835 7881435
2138 4835 7881469
4830 4835 7881516
235 4841 7883315
235 4831 7884351
935 1471 7885615
2138 900 7886253
2224 4216 7886396
4477 4477 7887922
2224 3539 7888154
2026 900 7888642
2026 3539 7888937
1992 4841 7890100
4 333 7890493
721 3539 7891658
1992 3175 7891712
235 11668 7892379
1992 866 7892531
235 4847 7892715
935 3778 7892933
4774 721 7893223
1992 4538 7893439
2138 420 7893624
721 333 7893808
2767 721 7894103
3760 3940 7897172
3332 108 7897544
116 333 7897757
866 4864 7907852
2725 3037 7907958
2834 3037 7909949
4825 4477 7910304
3952 333 7910586
935 4825 7911548
866 4862 7911710
935 3215 7912193
1543 2968 7912405
866 4862 7912419
449 3037 7913947
3529 3215 7914729
4873 420 7916602
667 4862 7917344
101 2910 7917556
866 4879 7919234
2181 2877 7919522
935 4820 7919789
4180 4879 7920935
3037 4875 7921341
3550 4888 7921489
4887 2877 7921653
4885 4731 7921655
866 4875 7921705
35 4864 7922041
1550 3778 7922273
935 3778 7923204
3037 3778 7923622
4885 3778 7924393
458 4731 7924589
4 4890 7925112
3550 4890 7925172
4493 4890 7925311
4 101 7925314
458 1481 7925531
4 4820 7925635
235 4862 7925745
4885 4 7925945
136 4888 7926462
2725 101 7926940
136 2968 7927352
667 4877 7928298
4897 4180 7928405
449 4895 7929048
3778 4888 7929096
4874 4180 7929749
325 4895 7930036
188 2877 7930238
4896 2968 7930356
188 448 7931263
4896 4392 7931506
188 3923 7931696
188 1896 7932360
4885 4902 7932768
4896 4903 7933355
4885 4538 7934193
1826 4903 7934303
4825 4903 7934879
4896 4890 7935530
4777 4902 7935661
721 4853 7935665
4896 2827 7936153
4875 3175 7936397
3550 928 7936413
4896 2877 7936702
2769 4820 7937073
1826 12846 7937683
721 4339 7937923
705 4841 7937935
4303 2877 7938961
4121 333 7939191
667 4890 7939240
4121 333 7939473
4825 333 7939876
4303 2331 7940395
4877 4392 7940797
1992 4906 7941346
4918 4820 7941727
1992 4852 7942123
1992 2950 7942699
4896 333 7943416
1992 3125 7944593
667 4923 7944619
4013 4903 7944753
211 211 7944823
235 2877 7944887
4926 4002 7944967
1992 4865 7945899
235 4928 7946159
3550 114 7946484
2805 114 7946583
3073 4918 7946719
1182 1182 7947144
1182 4927 7947640
292 4932 7949271
4877 4923 7949322
1653 17 7949435
3005 211 7950158
3005 12846 7950460
667 640 7951091
211 640 7951268
4596 3246 7951934
4904 292 7953215
1670 2827 7953616
2488 4804 7953749
2950 1182 7954073
4596 163 7954341
667 3216 7954579
4944 4804 7955786
132 3275 7957352
4862 4871 7958215
235 4871 7958500
1067 640 7959131
2178 4835 7960875
870 4951 7961906
4782 2206 7962847
4956 4953 7963192
3889 4864 7963368
2950 4864 7963447
4782 4864 7963474
4865 4864 7965246
1287 1287 7965369
1889 4890 7965520
935 292 7965914
3766 4864 7966636
2338 4864 7966767
935 4392 7966909
4954 3889 7969131
935 4538 7971710
3389 4864 7972408
2950 4266 7975259
1067 4864 7975438
935 4932 7977624
4864 4923 7978117
1067 1992 7979229
1992 4864 7980142
1992 3889 7981844
2026 4864 7981971
721 4864 7982259
87 4058 7983969
87 2138 7984073
4969 4864 7984162
2950 4058 7984469
1992 2138 7985082
1992 4902 7985992
1992 3748 7986728
2753 4558 7986773
1992 4558 7987323
1067 4558 7988042
4897 4266 7989156
3935 4266 7990387
4943 4853 7992385
935 2702 7992660
199 199 7994105
4896 4975 7995294
880 4975 7997486
449 4928 7998777
2725 1645 7999106
