582 364 2708191
168 472 2810975
168 912 2864997
2 790 2898571
2 322 7926
42 402 2638190
870 337 1576782
663 362 30809
663 410 31082
565 550 21793
987 433 2462572
663 343 2728731
581 135 2788889
581 942 23263
978 988 2711658
978 421 2711658
978 795 2711658
978 547 2711658
978 851 2722272
978 469 2711658
978 188 2711658
978 614 2711658
978 301 2711658
978 954 2711658
978 817 2711658
978 167 2722272
978 141 2711658
978 552 2711658
978 424 2711658
978 35 2711658
978 207 2711658
569 749 2798354
174 534 829524
844 684 1948817
31 165 2808691
429 401 2806706
569 862 2459390
418 969 24275
294 885 1504623
294 256 2722844
294 648 1504623
294 416 1504623
294 313 2722844
921 1001 24710
159 356 310430
700 184 25424
159 912 2795505
947 774 2798664
703 771 2647610
749 569 2812841
713 291 25656
34 135 25811
291 713 2026941
955 540 2807339
67 344 2813513
67 165 2725546
544 8 26272
544 143 26484
443 742 2816872
443 703 2792472
343 159 27094
772 609 2711563
942 135 2997704
772 454 2470461
135 34 1930957
569 482 2798354
569 951 2443791
569 415 2723331
772 951 1856385
674 112 723499
695 187 2554197
936 581 2639297
569 293 1328583
569 599 2701829
569 605 2701829
112 267 2803099
112 674 1946215
933 171 1410521
933 590 1335846
933 577 36669
933 686 27689
933 966 1430267
541 199 2552473
862 569 1593514
772 75 2801390
695 692 28150
159 214 2810200
568 495 2716634
568 947 2539543
568 198 2716634
568 488 2716634
568 379 2716634
428 915 2728509
629 24 2804344
58 909 2640960
344 373 2802966
987 872 2459937
772 120 2637142
643 685 2816697
410 663 29181
277 715 2701734
362 111 29586
292 502 29670
292 718 29670
292 201 29670
435 500 2817316
207 795 2709959
207 469 2723967
433 32 1595627
256 885 1926227
256 294 2725829
256 313 2550057
680 790 1843549
629 159 2127027
561 631 2189984
765 133 1348970
942 581 30000
48 956 2451280
638 53 30072
572 862 30076
572 32 1576607
253 191 30153
105 220 30274
609 772 2198671
440 537 2447200
657 541 2546168
429 454 2808173
274 851 30470
278 940 30512
940 278 30668
833 185 2728972
192 532 30899
48 565 1852537
62 646 2798241
912 168 2846277
912 472 2195042
32 433 1589719
90 223 1261498
454 134 2710950
454 401 2727482
454 429 2727482
454 291 2727482
34 997 2810842
704 48 2102953
280 890 31461
249 716 114016
685 643 2545918
530 629 2637442
530 891 2739335
207 953 2712571
685 541 31721
685 724 2452943
685 1001 2452943
988 267 31773
742 443 2811785
720 135 2029539
743 859 2220152
275 849 2707810
275 175 2707810
643 381 897372
135 942 2983032
107 201 1857600
14 828 32901
718 61 2744298
14 381 32993
308 418 2619536
713 566 2637228
692 233 2635648
765 859 2724276
765 743 2204822
830 769 2130916
568 660 33375
335 532 2642464
575 439 33417
575 77 2062360
575 260 33417
575 168 1216403
569 470 2459390
569 538 2459390
569 991 2459390
569 333 2459390
569 710 2459390
569 249 2459390
569 693 2801495
569 295 2459390
569 6 2459390
569 409 2459390
569 976 2202992
569 0 2459390
569 228 2459390
1001 685 2529929
854 542 2538523
569 502 2459390
586 294 2385921
629 65 124869
692 769 33938
765 762 1872827
65 629 126683
256 416 2448178
188 421 822100
188 141 2809236
188 569 34358
185 106 34383
165 31 2873279
5 107 805976
267 988 134108
912 159 2812547
185 231 34713
321 565 2531808
291 268 2026941
291 401 1853203
291 429 2618342
171 933 1413093
540 364 2801334
540 789 121603
540 796 121603
540 231 2723084
540 511 35388
540 994 2801334
540 245 2723084
540 338 2801334
540 433 121603
540 361 121603
540 95 121603
540 56 121603
540 836 121603
540 987 2635700
540 68 121603
858 700 35420
577 933 35641
72 135 1248302
72 581 1248302
1004 977 2643168
927 854 2815294
927 823 2815294
927 722 2815294
927 535 2815294
927 646 2815294
927 551 2815294
927 542 2815294
927 369 2815294
927 770 2815294
927 113 2815294
927 513 2815294
927 485 2815294
927 250 2815294
927 444 2815294
136 629 735490
309 1 2808789
311 540 131120
362 369 36573
692 159 36632
692 334 2448157
362 547 737061
362 854 2012712
541 173 2190223
207 493 2713139
859 948 299171
530 493 37104
629 530 2733681
977 1004 2643632
67 963 2813513
67 207 2813513
859 743 2639366
290 765 37243
334 65 1496792
334 671 37277
334 687 1939377
245 540 37321
61 393 37399
987 789 2459937
61 991 2829843
61 712 40427
343 663 1949880
855 34 2802326
855 697 2802326
67 656 385203
629 891 2804280
493 530 38131
103 950 2715454
103 514 2106430
103 303 2733760
692 624 1581011
499 844 2458171
718 904 2537508
332 318 1332640
742 687 38452
684 48 2545941
684 565 2726099
684 918 2115337
684 318 2831638
684 679 2115337
684 704 2031738
684 321 2115337
684 844 1517694
101 597 38609
185 915 38708
62 159 2813053
718 980 1261166
469 207 2812461
787 214 38862
185 762 808328
1004 189 1414666
193 923 2550684
185 236 39156
90 851 1941754
90 978 732361
166 602 2538619
166 586 2538619
712 61 39597
771 137 2702076
189 1004 2464235
65 334 1501424
134 592 2554952
134 291 2554952
134 454 2554952
189 652 2464235
189 904 2464235
189 470 2464235
189 716 2464235
189 249 2464235
189 595 2464235
189 6 2464235
189 410 2464235
189 365 2464235
189 236 2789436
189 718 2464235
189 201 2464235
189 114 2464235
84 343 50933
290 56 39967
718 732 2537926
769 692 738070
738 783 2818875
280 629 2739723
137 771 2642849
137 443 2642749
540 311 2723084
540 925 2723084
540 955 2726043
523 374 40802
868 765 40853
220 159 40989
220 334 2203309
159 935 41145
383 311 41271
392 517 1943423
517 392 1944013
803 517 41637
948 927 652803
948 890 41678
948 120 652803
948 191 652803
948 629 652803
631 629 2550942
936 942 55137
517 803 1253423
624 692 643787
948 65 652803
948 592 652803
948 416 652803
948 859 652803
948 126 652803
948 165 652803
663 84 42195
4 159 42200
868 168 2725858
535 854 2819201
535 369 2819201
535 722 2819201
535 250 2819201
535 444 2819201
966 933 2545600
859 565 42481
790 2 2930662
987 432 2459937
987 197 2459937
987 364 2459937
987 849 2459937
987 540 2459937
987 840 2459937
987 231 2459937
987 311 2459937
987 511 2459937
987 809 2459937
987 482 2459937
987 873 2459937
987 994 2459937
987 251 2459937
987 245 2459937
987 28 2459937
987 338 2459937
987 582 2459937
987 361 2459937
987 531 2459937
987 95 2462433
987 588 2459937
987 56 2459937
987 955 2459937
987 764 2459937
987 641 2459937
987 68 2459937
136 857 1250411
167 159 42896
535 124 42939
249 693 43089
249 32 43089
249 433 43089
702 644 1950500
290 159 1245189
758 844 2619716
511 849 43455
231 738 385411
644 702 1950684
966 347 2545600
966 935 2545600
220 65 2642034
220 749 2641015
220 75 2641015
337 505 2445636
135 720 2363999
135 82 2453015
135 870 2453015
135 581 2727170
135 4 2453015
135 371 2453015
135 628 2701903
135 72 1253288
596 450 2803955
700 858 43878
231 2 1841924
854 535 2193967
433 159 44439
955 773 2807339
955 311 2807339
955 427 2807339
955 925 2807339
955 987 2448577
638 622 44532
771 4 1427470
48 684 2752284
316 915 2808822
41 723 2721543
360 526 842754
360 24 124891
360 280 662052
360 629 2642303
360 631 44946
360 160 44946
360 530 44946
360 493 49319
360 561 114794
360 658 44946
731 680 2735169
493 360 44992
416 648 2129759
698 540 2707583
698 840 2707583
698 231 2707583
698 873 2707583
698 245 2707583
698 764 2707583
335 29 52194
335 208 52194
335 537 2550384
335 810 52194
335 464 2236670
335 737 52194
335 553 52194
335 118 2194351
335 5 52194
335 468 52194
335 985 52194
335 664 2448971
335 688 52194
335 236 52194
335 670 2554549
335 1004 1607539
335 980 52194
335 201 1618814
335 175 52194
335 643 52194
335 381 2801683
335 808 52194
335 228 52194
926 748 2038161
926 308 1865368
695 362 2554155
915 185 45753
592 927 2728130
53 776 45803
900 272 2380040
915 428 2639652
31 658 45965
77 260 2813796
356 765 2219766
174 510 894886
788 740 2470602
951 502 644797
700 2 2549817
90 233 46563
915 647 2707379
977 541 2454891
444 535 2813194
90 660 900211
771 65 2555752
723 41 1926111
915 718 840294
250 332 905160
306 660 1935778
65 771 2555454
159 433 47423
534 388 2734970
534 84 47709
332 250 2462617
809 159 2446715
948 75 48013
674 517 48201
940 159 2194791
462 923 906039
462 223 1596762
462 189 48277
462 687 906039
462 586 48277
462 449 906039
462 692 906039
462 535 121188
462 591 906039
462 334 906039
915 200 2637250
915 857 2637250
191 415 2814106
191 948 2106969
200 915 1590121
35 851 48599
75 948 48625
940 633 48627
280 851 2796997
280 915 2796997
280 530 2796997
280 920 2796997
418 308 1690793
233 450 48940
233 692 2730886
511 338 48963
418 996 2642017
948 803 652803
948 267 652803
948 112 652803
948 674 652803
948 392 652803
948 459 652803
24 530 818879
388 534 2422058
388 84 49332
306 523 243303
530 24 818270
175 275 2801767
950 103 834059
535 462 49555
260 77 2821437
207 847 1937263
369 535 1432058
891 631 2742520
926 157 2706224
951 976 50118
951 569 2533954
660 306 1932986
707 880 2210743
592 134 2728395
90 428 122197
294 586 1971333
107 464 50654
885 416 1865135
90 200 289784
159 940 2464997
64 534 828914
416 762 2726352
159 731 2815434
410 595 2214773
891 629 2804354
2 231 1860984
443 662 2802883
881 506 1522861
942 936 62063
599 693 110982
416 134 52791
885 294 1865135
738 576 2453599
738 516 2453599
738 541 2453599
738 650 2453599
738 327 2453599
738 747 2453599
738 881 2453599
738 14 2453599
738 508 2453599
738 945 2453599
738 923 2453599
738 532 2453599
738 682 2453599
738 131 2453599
738 654 2818875
738 270 2453599
738 837 2453599
738 719 2453599
738 1001 2453599
738 745 2453599
738 979 2453599
738 850 2706885
738 924 2453599
738 173 2453599
738 13 2453599
738 437 2453599
738 761 2453599
738 653 2453599
738 506 2637796
738 996 2453599
738 199 2453599
738 644 2453599
738 921 2453599
738 657 2453599
738 702 2453599
207 167 897031
552 188 53377
32 432 392304
32 19 392304
32 249 392304
32 170 392304
32 843 392304
32 977 2560333
32 365 392304
32 236 392304
32 0 392304
32 380 392304
32 418 392304
32 381 392304
32 777 392304
703 135 2558295
147 890 53597
428 90 127573
746 692 2645283
4 771 1411940
428 31 2618009
174 125 894886
174 102 894886
541 576 2552830
541 506 2566313
541 644 216710
532 13 644069
106 185 126188
200 90 55535
912 356 2198757
912 602 203096
61 193 57132
602 912 57304
106 1001 2458735
106 702 1243694
1001 650 1635948
168 260 2757142
915 687 2821048
915 591 2821048
168 126 226839
602 743 2640563
61 517 1537564
506 881 58969
506 541 2643819
704 321 2724184
126 168 210227
126 356 2819147
398 450 59550
776 687 2554278
776 591 60004
500 782 2973186
915 731 741186
232 912 2562176
232 168 2720936
61 718 2801688
693 599 122398
356 472 2808889
356 159 293299
648 765 2726155
168 232 2759387
532 335 2642142
561 360 65710
724 246 2187651
724 685 2405447
472 356 2843882
506 1001 2106309
356 743 2732816
537 440 813576
180 727 2635467
1001 506 2437048
260 168 2716881
712 450 2760679
303 343 2036306
628 135 2701823
628 871 805050
628 720 2701823
165 401 2873302
165 67 2788528
200 142 722371
401 415 2811739
401 429 2811630
401 291 2811630
401 454 2811630
659 159 110701
659 306 2539064
659 374 110852
321 704 2723919
402 343 111965
5 553 2635642
5 670 2444943
696 595 1238933
469 528 112262
402 299 112371
142 200 222453
415 150 2813410
415 833 2813410
415 569 2814289
415 191 2813410
415 401 2814289
290 566 2635035
150 415 1922275
629 631 2731981
334 75 2712566
952 142 113174
550 546 2790663
236 185 113537
362 383 2702552
424 421 2737123
424 795 2737123
424 207 2737123
907 883 114042
629 190 2132465
142 952 114234
909 58 2637778
951 769 115011
450 233 115019
743 356 2814642
135 703 1923422
450 398 115336
1004 724 115692
833 415 2729178
25 458 1944416
306 374 1349060
38 334 207157
193 65 1414849
193 120 214331
193 609 116936
193 546 214331
291 134 2618738
291 1003 804137
291 117 2026941
291 98 293284
291 609 638402
291 454 1853203
362 141 117106
904 718 2548035
607 231 2453392
500 166 117197
381 532 2916937
629 160 2731981
701 220 117276
35 978 117283
546 565 117355
546 844 726880
629 526 2731981
629 894 2636033
629 685 2731981
629 846 2636033
629 280 2795067
629 360 2804344
629 630 2731981
629 493 2636033
629 202 2636033
629 561 2636033
629 658 2804344
133 765 2538602
75 334 2452859
423 246 2807072
423 101 2807072
423 175 2807072
924 199 2788605
469 978 639096
612 740 2729315
581 951 118310
482 987 118356
188 978 134790
482 569 2796218
142 302 118807
978 629 2703141
142 990 118833
142 971 118890
65 193 1412978
65 191 2111442
765 648 2637278
547 978 2536539
630 167 2563400
607 978 119128
671 334 119330
48 718 119345
48 669 119345
142 428 2462278
142 915 1425990
956 48 119548
956 216 119548
956 319 2124575
956 558 2561597
630 530 2639101
48 29 291220
167 630 2554940
644 199 1921025
180 958 2490994
629 978 2711196
885 256 1865135
885 648 1874532
505 337 2538838
978 607 120510
648 885 1525714
377 607 825150
469 630 2814504
160 24 121338
173 657 121344
90 746 121894
462 833 2464485
540 849 121603
343 303 2801821
592 268 2623964
592 454 2728395
630 469 2835054
420 164 805814
236 90 139572
846 561 2817858
175 849 2804447
561 846 2818065
24 160 898080
951 865 1844992
116 272 122499
530 630 2448319
746 90 122613
530 160 2712632
311 53 125600
846 838 123049
454 772 2711041
454 120 2711041
184 407 123286
955 231 124034
135 65 2101847
65 135 2033095
866 718 2595065
704 684 2460789
849 275 2801110
849 175 2803846
48 704 2787640
159 923 2733912
278 220 125138
135 540 291409
214 428 393957
214 142 393957
214 915 393957
220 278 125608
316 159 2460660
338 329 129953
125 337 232301
207 165 2794418
369 444 126250
963 67 2808983
697 540 2812010
142 159 126380
428 142 1597690
692 746 2444326
159 316 2461872
48 458 2532502
607 377 2188863
607 483 1928995
607 591 2188863
703 443 127028
101 724 218070
672 844 2718725
24 360 2814085
923 197 2559817
326 146 127651
228 569 2702518
558 956 2117069
558 318 811009
558 684 811009
558 844 811009
444 369 128972
159 612 129138
160 685 129344
624 329 806549
281 189 2742661
76 185 129972
150 147 2800854
509 299 2638929
53 233 130433
90 433 1942710
1001 738 130597
798 278 130698
416 126 2539910
795 424 1947975
795 207 1947975
670 107 1738752
440 226 2053420
950 343 2104249
531 987 2811475
90 236 297578
838 662 132341
187 466 900205
923 193 2557531
891 353 2446715
966 168 1441193
850 576 2468023
850 516 2468023
850 541 2547973
850 327 2468023
850 881 2468023
850 14 2468023
850 682 2468023
850 270 132520
850 719 2468023
850 1001 2468023
850 979 2468023
850 924 132520
850 783 2812939
850 173 2468023
850 13 2640654
850 761 2468023
850 506 2468023
850 996 2468023
850 199 2468023
850 644 2468023
850 921 2468023
850 657 2468023
850 702 2468023
850 738 2812615
977 418 2803392
662 838 132664
953 207 2711791
397 975 1422991
397 671 1423007
75 229 133142
75 607 2206332
278 798 133245
189 281 2789040
40 187 2183850
111 362 133393
275 114 2456220
353 891 2796876
143 159 1249019
712 159 2129542
890 546 134274
662 572 134299
662 430 134299
662 900 134299
662 450 1492550
662 947 134299
662 466 2745457
662 568 134299
662 198 134299
662 187 134299
662 26 134299
662 488 134299
662 40 1492550
662 379 134299
662 596 2745457
662 272 2745457
662 60 134299
662 712 134299
662 802 1492550
662 695 134299
327 849 134322
327 275 2031349
327 737 134322
327 897 134322
327 702 135048
161 193 134544
187 662 134617
685 160 134636
418 977 1842494
303 950 1586211
702 327 134798
692 534 134868
692 660 1521481
114 275 649964
704 270 1248023
890 280 135637
951 692 135749
443 137 2640865
984 885 1243593
24 631 136023
116 769 136341
280 526 2705542
280 647 2706091
280 547 2705542
280 188 2705542
280 24 2705542
280 32 2705542
280 360 2705542
280 631 2705542
280 561 2705542
422 731 2793470
168 966 1438752
692 749 2715224
670 175 137516
334 629 137609
334 530 137609
450 947 2811062
450 596 2195370
530 334 639977
984 416 138053
491 506 2564143
663 950 2793410
416 633 1855391
765 214 2824054
984 586 2562200
984 762 808652
923 772 1264583
923 120 1264583
764 364 2635649
168 77 2757142
724 101 140029
214 765 2139622
159 278 293388
654 783 2127192
654 738 2799620
159 40 2561094
159 712 888569
517 61 1500787
175 737 2717096
607 75 2099784
52 313 141780
724 293 2798698
77 168 2541853
249 189 1504759
629 214 2127027
159 531 143119
657 850 144014
595 372 2645850
577 458 2445745
458 704 831868
77 575 1977552
362 870 145510
458 956 1265158
458 319 145511
458 558 1337189
362 216 2714942
362 167 145573
704 458 832135
731 915 2052742
356 157 2048409
356 462 310418
362 421 147096
534 102 147106
362 517 148149
362 605 206164
362 718 148570
891 543 159057
170 697 159458
840 231 1245711
840 245 1245727
783 850 168974
199 541 2508431
712 40 2760679
306 659 2183290
857 122 195024
531 159 195899
531 482 2196802
559 346 196651
581 72 1259599
142 274 198158
191 120 2642206
67 707 198566
75 772 2807381
855 581 1433630
558 207 2123910
723 565 725308
356 912 2814218
450 572 2195403
450 900 2791020
450 568 2195370
450 662 2791020
450 272 2799353
450 802 742859
450 695 199680
141 718 199865
233 53 199900
873 329 200085
31 990 1832997
528 469 200436
343 223 2801821
978 159 200722
185 166 200734
275 737 652653
605 693 2811909
193 159 201356
334 159 2791238
334 776 2641913
789 540 201745
120 65 2209216
742 214 2822603
742 159 2822603
502 951 657649
214 590 202437
65 120 2802579
873 231 2817291
775 718 202994
775 591 202994
158 716 2800505
158 249 2797942
333 470 2817732
333 862 2817732
333 538 2817732
333 710 2817732
333 502 2817732
333 249 2817732
333 6 2817732
333 409 2817732
333 0 2817732
333 569 2817732
333 599 2817732
333 605 2817732
333 228 2817732
333 693 203090
458 48 1337189
458 684 663748
731 870 1871212
684 458 2115774
462 356 389765
134 151 203753
700 187 1864404
159 742 398071
500 332 2801980
25 48 1944416
25 216 1944416
25 319 1944416
118 532 2194134
118 732 1522536
377 423 1952528
377 101 2813637
377 866 2798796
605 362 205413
566 120 310063
644 541 1430493
870 697 205497
127 732 205502
239 609 1331893
423 377 1951646
251 506 205790
954 978 732577
775 692 1596054
472 168 2795898
700 638 1490082
542 646 2709367
542 62 2807196
840 540 398361
840 318 207418
840 338 207418
393 980 207507
214 223 823170
660 692 2200186
716 718 207718
951 738 207754
581 248 386481
248 581 725014
516 532 2734731
991 61 2863115
193 550 2550744
609 96 208466
532 437 1883108
563 8 208815
141 851 2098333
159 143 1250638
738 951 2040672
214 912 209853
703 159 1345285
851 141 2117591
103 832 1350754
523 306 290149
126 166 2205953
991 654 2868838
14 924 2552039
14 173 2552039
14 506 2805902
14 199 2552039
980 393 210621
139 534 210738
139 206 210738
139 487 231939
139 477 231939
139 154 210738
139 125 231939
139 102 210738
139 939 210738
139 524 210738
139 174 231939
139 510 210738
139 324 210738
950 303 2637930
290 214 2792704
322 534 1498313
159 56 210885
978 483 210944
435 782 2810849
136 428 2570761
0 118 212684
159 188 213574
159 978 2011068
159 502 212755
159 569 212755
886 250 2719812
718 716 2537926
83 784 2199379
126 416 2539535
112 466 214138
267 112 2638630
428 274 214905
638 322 215097
303 832 215190
951 706 215904
502 159 215986
294 868 216655
343 950 2045739
543 891 216864
732 118 216998
335 867 1251631
933 935 217261
343 388 2183227
697 311 2784552
697 925 2784552
697 855 2784606
167 988 1413591
214 743 2192729
554 185 218343
743 214 218381
935 933 218593
587 245 218614
428 647 2796700
428 200 1597690
428 971 1597690
428 857 2804265
428 952 1597690
428 136 2804265
743 912 1326662
388 832 218879
2 58 219116
851 167 1415876
126 586 2217262
718 915 818912
122 924 2642310
175 670 836447
851 978 2463286
607 502 2537886
607 223 388025
607 343 388025
607 718 1848764
743 704 2105878
718 591 2659885
334 718 1930161
782 500 2195325
185 554 220253
716 149 2727259
66 45 2635680
187 254 220417
106 740 1586504
499 684 2825028
245 587 220702
644 924 311723
149 716 2727348
749 540 2719309
553 107 2451583
833 462 2729159
617 720 2729319
748 926 2192727
278 159 290732
924 644 2788607
923 159 903879
720 617 2790974
569 159 223338
862 189 1255714
586 166 2977870
586 126 2052284
638 38 224865
935 90 225234
90 388 225442
313 30 2816189
313 765 2816189
586 984 2385921
586 762 2053124
499 956 2013116
90 935 225919
586 602 2033209
586 267 2979404
15 731 2640871
15 680 2640871
38 638 1501447
159 142 386353
586 885 1939508
915 530 312536
912 77 2819731
416 948 2212532
416 147 2461800
861 896 2639840
960 34 228346
506 576 1442002
506 173 2640830
506 996 2101897
506 199 2997292
506 657 2546433
207 630 228842
540 749 2701734
322 638 229173
372 415 2806013
423 716 2716223
313 885 721796
245 231 1519390
168 885 2821623
139 323 1589166
936 30 2639240
532 790 2587953
532 700 2426946
541 16 2201151
200 971 2711358
200 952 2711358
200 136 2729253
200 344 2636113
200 543 2636113
743 602 2747390
586 157 733020
61 591 2801688
534 206 235690
534 174 235690
534 591 235690
17 857 2994156
17 165 235715
923 687 2732011
923 591 2732011
552 141 235775
502 976 235842
17 915 238996
199 924 2641223
199 644 239835
915 17 2637250
61 692 2801688
657 506 1235383
790 532 2486058
30 936 2823894
188 159 281552
749 415 283735
415 372 2806508
935 214 286276
29 48 284999
377 687 298386
214 935 286014
119 700 1512857
119 812 286041
135 30 853137
630 207 382673
605 569 804203
75 850 2713725
75 127 2455922
75 191 2713725
75 220 2713725
657 996 295954
657 199 286831
334 462 2546446
191 65 2793930
191 749 2554130
191 190 287413
267 392 2463711
499 592 287548
509 638 287911
509 634 287911
509 96 287911
509 832 287911
630 891 2725474
422 569 1339621
630 274 309179
309 97 309827
891 630 2727693
165 17 288409
900 450 2380815
450 40 1942407
324 700 711414
428 302 2471841
936 577 391767
731 739 1871396
638 509 289681
60 568 289698
60 187 289698
859 515 289759
428 316 289770
948 52 652178
948 500 652803
948 168 289785
684 499 1502173
470 569 2464726
720 587 2791175
630 685 2131438
90 107 295118
772 633 290099
700 112 290162
607 91 2206877
107 393 290270
112 40 290377
32 862 1845924
948 499 652803
692 550 290486
952 200 1421118
685 630 1323849
59 687 290994
739 731 291227
577 936 389152
857 17 291443
561 493 379738
693 122 912400
236 537 2720810
749 660 291678
362 324 392998
935 159 291856
362 12 291948
273 951 2808555
716 423 292428
112 846 292938
638 700 1241873
849 737 2797749
847 142 2451594
915 136 2639652
356 30 2393600
977 153 2803224
509 402 292690
847 207 1944101
936 456 2465592
517 362 292934
565 48 1426889
144 8 2796949
660 749 293571
319 48 2012649
319 216 2012649
40 450 2800888
90 844 293921
951 203 294001
758 48 294089
334 607 2712566
517 159 892533
731 15 2041020
306 742 2728673
538 502 666871
493 24 2814760
596 329 295671
592 948 2188604
334 749 1508424
334 692 1939377
830 329 295744
24 493 295807
763 14 295898
457 61 643907
457 19 643907
457 246 643907
457 716 1601071
457 522 643907
457 687 643907
457 696 643907
457 423 643907
457 243 643907
457 101 643907
457 866 643907
457 777 643907
772 923 1514511
101 457 644228
749 334 296663
550 692 296788
281 491 1952379
749 61 1243754
749 742 1244503
749 629 2021160
454 592 2710950
862 32 1504538
423 457 653361
592 291 298115
32 502 644260
32 189 644260
592 713 2728395
248 462 298452
362 695 2550987
423 56 391731
849 987 298650
120 772 2807791
120 75 1587668
59 243 299169
469 421 2626713
469 795 2626713
469 547 2626713
469 188 2626713
469 954 2626713
469 817 2626713
469 167 2639627
469 424 2626713
469 35 2626713
469 241 2626713
274 630 308686
628 2 333466
859 592 299619
187 40 650591
313 294 2717200
313 256 2717200
313 416 2717200
952 838 1865970
951 388 2808909
207 552 300025
236 506 719084
189 32 300143
362 909 888557
712 380 2016466
268 117 1852868
268 98 1852868
268 633 2100116
268 454 1852868
268 713 1852868
126 648 300652
159 891 300845
14 783 300857
576 506 300999
159 450 2561094
427 955 1927884
173 14 2709880
173 924 2709880
173 506 2709880
173 199 2709880
952 344 301266
120 927 2543254
120 191 2643471
120 752 2209216
40 802 1261947
704 743 2107092
671 462 301523
951 273 2640100
1001 702 301606
185 617 301611
40 198 2183850
923 214 1420531
923 53 1420603
362 168 301800
173 541 2284219
90 644 301873
193 290 1947492
428 990 2211794
428 92 302151
428 953 906408
663 638 302370
75 120 1591646
59 423 303004
243 457 303258
299 634 812370
891 414 2818202
241 469 303319
299 96 303353
537 208 644069
537 236 2704122
854 927 2127687
654 991 733959
523 309 303795
948 232 303867
1003 401 303953
112 517 375031
863 993 2706951
347 933 1237630
347 966 2709664
764 516 313931
499 687 1417225
113 542 2460090
16 541 2729497
854 416 304815
844 672 2720468
90 1001 305430
772 927 2470568
772 752 305833
153 977 2803033
214 687 305961
96 299 900595
96 634 900595
229 469 1606002
90 124 1256688
493 207 2716702
933 347 899865
301 978 306869
723 758 307331
951 338 1861258
301 795 307475
61 700 307475
607 997 307480
607 671 307480
607 742 307480
607 692 2115229
607 397 384945
607 769 384945
607 317 307480
290 193 1407682
290 53 740014
573 126 2032156
607 775 394898
388 951 1938840
542 113 2527954
284 406 308397
284 731 2455912
743 166 908705
743 550 1856184
743 157 308611
743 684 308611
249 569 911736
249 862 911667
343 322 2043643
381 327 2734174
956 743 309257
505 822 309481
532 506 309525
743 472 2814642
743 956 309953
214 4 310107
193 56 824866
847 31 2807933
847 569 310266
847 424 2807933
159 915 2558551
159 591 318903
392 112 310491
940 214 310510
607 334 310540
977 644 2619569
334 38 310644
377 605 2731354
866 457 654969
644 977 2694719
809 8 311786
168 948 311807
308 748 2805313
851 915 2813156
851 280 748153
851 530 2119390
851 920 2813156
915 923 2821048
915 356 836842
915 159 2821048
416 885 2129373
416 256 2461800
416 313 2129759
416 854 312406
915 851 2717608
915 280 2640163
915 920 312536
4 214 312626
516 764 379959
605 700 373353
24 647 2459911
862 469 382493
410 189 2465038
231 245 313589
168 362 314262
977 497 2642849
506 532 314824
249 670 314836
506 14 2817293
506 783 2628394
319 684 315302
788 164 315505
670 249 315749
136 915 2978894
136 165 315861
783 506 1938714
783 14 316411
682 783 1605493
61 522 2023398
214 159 2556355
783 738 1955561
783 682 335321
32 791 2560245
788 50 1596462
159 687 2722761
685 569 319027
166 126 643340
714 193 2462592
159 607 320056
159 692 320056
159 334 320056
197 923 2462600
166 762 1599679
264 329 2211531
168 356 2822078
326 938 1424440
2 700 2815507
2 628 2814841
790 628 330959
628 790 333466
923 2 332595
758 956 2618523
758 723 1927023
758 918 2723026
758 41 332764
790 516 2969629
790 812 2060029
165 948 2458603
232 948 364320
700 605 373729
634 788 370216
707 98 2800356
707 951 2800356
707 680 2800356
707 609 2800356
696 457 646480
290 629 2723899
290 614 2724280
31 569 1318463
160 629 2721279
31 915 372368
590 214 2103101
324 534 2787075
324 591 2137580
634 299 1237600
147 416 2186191
319 558 2124017
381 107 2709839
135 462 374118
248 586 738822
789 470 2792930
267 629 1502059
267 891 2470165
267 948 374917
891 267 2814688
470 605 2710011
207 142 2806958
90 160 386043
499 321 2458171
605 228 891246
14 657 376005
977 236 727127
646 854 727891
207 421 897031
207 547 897031
207 851 897031
207 188 897031
207 954 897031
207 817 897031
207 424 1592866
207 35 897031
207 241 897031
657 14 376745
142 857 376856
491 281 2532674
472 912 2372930
13 532 643823
159 713 2725532
934 595 2530309
977 32 2638121
977 791 2620611
629 392 378007
415 612 2037360
343 229 378194
939 90 378256
680 707 2640685
680 284 2640685
680 422 2638521
680 720 2641998
680 15 2717773
415 127 378655
470 502 1328759
472 52 379242
377 246 2194938
377 724 379109
794 854 379245
24 629 2040517
470 189 1234726
470 249 2640043
470 6 1234726
229 483 816597
854 337 1588576
561 267 383608
207 558 1600056
516 790 2724512
663 395 380211
410 38 380478
548 164 1604772
980 687 381143
980 107 727607
267 561 384848
338 951 381236
160 851 384485
595 452 381375
718 377 2537508
595 754 2721789
851 160 381462
720 4 381712
879 740 2725349
879 223 2725349
879 322 2725349
879 548 2725349
879 368 2725349
879 164 2725349
356 209 2462895
702 924 1861913
631 526 630999
500 159 2799197
229 343 383094
802 40 383217
420 96 2808769
924 702 2788605
397 607 383680
714 617 1847305
769 607 383737
953 569 383779
506 921 2813786
700 532 2438582
548 879 1500346
596 695 384560
377 718 2541327
607 687 2188863
216 499 384951
216 321 2560639
703 951 1437455
214 629 2192729
506 924 2640830
469 862 385902
927 948 2533967
927 147 2189323
927 515 2538701
927 629 2189323
157 586 730715
522 61 2725153
90 531 386539
90 987 386539
720 680 2550769
715 926 386777
90 749 2458965
157 356 386894
160 90 386904
164 638 1522739
646 927 386956
646 551 1579292
646 542 2710162
646 823 386956
646 369 2030851
646 62 2537761
646 722 386956
646 113 386956
646 535 386956
646 513 1579292
646 485 1579292
646 250 386956
646 444 386956
374 306 1847098
164 788 387097
763 657 387305
126 573 1947164
1001 924 1489416
688 404 387698
649 548 387703
647 428 2797185
647 990 387961
647 200 387961
647 915 2453296
647 136 387961
647 31 387961
738 329 388176
75 107 1866002
517 112 815395
356 586 2019675
35 951 388839
416 356 2730273
90 920 389042
166 573 1244270
159 500 2798905
189 884 389903
90 506 1941068
393 107 389943
127 718 2537363
631 561 2189935
491 5 2455301
631 493 391445
175 442 390998
56 423 391049
823 542 391163
823 535 391163
64 322 2023380
921 506 899746
53 613 391795
506 90 1423936
167 851 1598236
428 851 393083
915 142 2707379
718 724 2537926
34 855 2810853
11 662 1598139
171 590 2449874
11 619 1597798
377 53 656407
977 1001 2804837
977 969 2642849
321 618 909652
718 127 2537428
724 718 394663
775 607 394325
851 428 394540
977 569 1423631
855 540 2787409
855 311 394977
540 873 2723084
540 698 2723084
580 569 396062
193 540 396237
307 159 897343
679 499 396286
65 687 2815590
541 977 1950394
159 739 396732
159 544 396732
322 879 2823099
166 743 1586804
103 206 397381
103 423 397381
103 164 1850807
334 923 2120273
915 157 1518617
372 934 589853
15 370 2458645
15 422 2640871
159 307 398000
918 499 841157
749 746 1243324
956 499 2120577
854 120 2707026
745 996 741940
318 595 398625
318 71 398625
174 524 398657
915 8 398922
915 739 399007
166 185 399065
458 25 2826115
458 499 640775
969 189 2135293
506 738 2640677
506 236 399996
2 977 400637
2 969 400677
832 324 405263
1 309 2808400
783 654 1955561
1 343 407232
790 680 1961922
2 629 411707
586 356 1508498
586 573 2977870
236 977 734088
2 119 432796
542 528 468698
168 575 2810975
119 2 479165
788 634 2313662
372 595 2642741
248 762 738825
236 670 552856
450 762 567968
260 912 2821437
248 157 2204508
692 135 2717026
692 581 2714899
372 572 2041389
168 557 2231609
168 52 2756868
168 133 2231609
168 607 2231609
168 790 2736362
168 868 2741874
790 168 2736864
790 912 624407
377 457 2642909
281 569 1336512
731 422 2795653
120 854 2708271
618 499 628663
618 321 628663
77 556 2394016
106 229 741589
246 457 646939
796 143 629882
469 988 630321
469 851 630321
469 614 630321
469 301 630321
469 141 630321
469 552 630321
469 512 1336575
316 200 2721119
977 921 1261504
662 443 2745339
193 910 631149
936 135 2644527
406 696 631998
53 193 1495476
416 168 2474819
723 48 632106
936 765 1356286
185 458 632377
696 406 632380
159 776 2464997
723 499 632537
789 329 639115
862 977 633189
424 990 2737123
368 879 2726565
978 957 2639662
670 236 634267
246 724 2638277
921 977 642510
915 762 752754
267 944 2710331
268 291 1852868
977 862 634952
679 73 635108
742 784 2531372
528 542 635975
159 844 636032
78 538 636087
810 231 636097
716 189 636156
587 720 2713835
135 936 2651468
605 470 2016346
605 862 2536417
605 333 822121
605 710 636743
605 502 2536417
605 249 636743
605 0 636743
605 293 2811909
707 193 2201784
707 1003 2800356
707 39 637195
707 713 2210425
765 936 1340808
416 294 637419
844 499 637442
319 499 2721676
493 978 1498329
568 784 638605
78 862 638827
546 65 638847
122 61 639030
774 947 2801190
530 915 655180
558 499 1956419
987 749 639747
530 462 639977
910 193 639982
160 526 639995
530 280 655180
629 2 640360
470 789 2814807
189 969 2120213
540 830 641885
718 687 818912
546 772 642042
546 120 642042
718 122 2537926
978 493 2546401
569 851 642543
569 189 1326005
569 32 649725
569 915 642543
569 685 1328583
569 280 642543
569 491 1328583
569 530 642543
531 641 2196802
582 764 2708191
272 900 2892426
1001 106 900727
789 605 2639608
344 142 643307
951 703 718491
630 301 650729
891 530 2729008
40 712 2800849
415 435 2108107
658 838 643762
229 769 722576
749 987 643919
122 718 1521150
61 122 643959
56 329 643984
421 630 2547508
723 704 1865054
90 692 2458965
532 516 2641799
532 881 1775288
532 2 2815343
532 761 1775288
142 344 644712
53 377 650028
871 628 735209
772 61 646249
772 166 646249
772 823 646249
772 586 646249
772 573 646249
14 644 801013
410 541 1928795
410 650 1928795
410 837 1928795
410 153 1928795
410 16 1928795
410 1001 1928795
410 482 1928795
410 969 1928795
410 924 1928795
410 994 1928795
410 251 1928795
410 433 1928795
410 175 1928795
410 777 1928795
410 122 1928795
944 267 2710710
32 569 654646
565 159 821643
301 630 647050
672 318 647111
159 851 2011068
192 381 2197261
422 540 648213
540 422 651957
193 714 2462101
605 789 2205478
157 248 2016124
61 674 648165
61 356 648165
535 646 648338
769 229 648343
388 612 1947103
107 118 726338
107 5 1594214
107 440 1850735
107 670 1241176
696 377 648587
429 291 2706867
73 499 649626
38 159 821285
569 631 1328583
41 565 2531877
41 499 650231
695 40 650467
630 421 2547673
48 499 650560
630 188 760200
612 832 650981
764 582 2715573
470 409 831016
758 499 651137
193 53 2202501
118 716 2208144
857 292 651818
948 517 2210861
948 313 652803
90 189 652195
187 802 652224
633 416 1407508
629 948 652604
644 14 784746
301 188 652778
107 980 1241176
772 739 653294
528 380 653336
53 923 816165
193 127 653495
362 808 653544
423 710 2016970
423 779 1527529
423 866 2726042
423 184 1328105
870 658 656751
418 331 1509556
663 223 2035585
159 8 2729767
65 948 1325609
179 887 655076
847 547 655094
530 851 655180
530 920 655180
530 267 655313
849 338 655857
381 506 2708679
75 879 719517
624 245 811581
720 731 656365
658 870 656425
788 638 1354051
292 857 656609
765 591 656817
740 106 656871
159 38 890522
765 30 2472409
321 499 1581431
318 684 2031838
538 569 657740
526 360 2028922
62 551 2635532
62 854 2635532
62 369 2635532
62 513 2635532
62 485 2635532
638 788 1364857
915 316 836563
547 847 660082
11 633 660173
542 157 1597019
214 742 2817644
327 381 2735502
847 165 2560634
77 912 2304274
532 192 664334
1001 977 2803477
693 228 1237622
2 956 2814841
30 765 2541214
30 135 696055
30 356 2823111
30 313 961951
165 207 2790639
742 659 721344
506 644 2997292
644 506 2970491
812 790 1970402
485 62 898210
587 326 912123
429 925 1929623
956 2 715582
782 435 2811661
159 629 1348432
933 723 720177
502 538 2941377
879 75 717205
885 214 717734
329 334 717792
245 624 717839
716 118 2050987
630 790 760068
704 723 2014233
713 98 1323155
253 290 2459210
362 993 719255
723 933 719273
267 586 2452273
353 185 1253790
695 159 719615
75 923 719681
885 313 1865135
98 713 2552795
253 566 2459189
680 584 721430
272 214 2125669
272 40 2727519
659 742 727318
157 915 1508464
401 165 2811739
731 281 721002
923 75 721166
580 791 721177
185 353 721540
749 191 2557739
749 220 2557739
582 105 734999
157 542 2025976
631 569 723578
716 16 722196
577 686 2796772
650 644 1344586
200 17 722371
200 647 722371
200 428 2124243
200 990 722371
200 857 722371
200 302 722371
200 31 722371
200 165 722371
200 953 722371
200 316 722371
98 268 2457039
98 592 2456976
98 291 2552795
214 923 2720801
16 716 722810
62 800 723187
98 707 2552983
472 416 723388
422 680 724515
775 157 2637739
644 650 1341295
926 147 2703632
470 862 723903
470 538 723903
470 333 2640043
470 710 723903
470 693 723903
470 0 723903
470 599 723903
470 228 723903
98 134 2456976
98 278 2456976
98 117 2457039
98 107 2552983
98 454 2552795
105 582 915656
926 715 2470581
846 547 724995
335 790 725245
72 159 2722490
742 229 1336353
926 577 900792
377 630 2448672
377 731 725721
377 530 725721
662 267 805380
267 662 1244491
854 646 813418
854 551 813418
854 823 813418
854 369 813418
854 62 813418
854 722 2711678
854 113 813418
854 513 813418
854 485 813418
854 250 813418
854 444 813418
630 377 2463239
343 587 726059
868 586 1090746
868 573 1090746
107 687 726338
718 866 2537926
546 48 726880
133 416 727042
159 565 815378
718 708 901406
175 5 2714139
159 720 727306
159 660 727650
53 569 727659
502 862 728045
502 569 2689186
859 472 823352
493 630 2544798
951 609 1423110
890 923 728778
693 32 1440680
693 433 728872
409 506 1853188
712 466 729879
950 663 2715435
500 890 805032
609 707 2544289
817 167 2102927
609 923 1867010
660 159 731196
440 380 2547617
580 976 731495
466 712 731610
742 769 925398
316 428 2721119
812 700 1618757
954 207 732260
90 569 732502
62 542 2806986
609 197 732573
609 890 2469949
609 235 732573
609 633 2198671
573 868 813510
880 923 1434007
844 157 1420851
107 98 2640218
978 512 2021501
132 879 734046
180 829 1432929
174 139 894886
174 832 743111
609 239 2544403
609 951 2544289
267 869 734592
120 291 734610
879 132 1331937
609 833 734884
609 927 2198671
609 214 734884
609 546 734884
609 159 734884
416 573 2726339
609 90 2469949
609 291 735043
609 454 2198671
136 200 2978894
32 693 2552610
75 91 735632
180 217 1432929
92 953 740463
586 868 736564
585 870 736603
808 569 736914
791 862 736930
850 833 2207150
850 134 2711408
850 185 2207150
850 752 737370
14 365 831486
159 669 737540
890 500 737715
664 380 737681
752 191 737749
248 135 1247932
248 550 1421668
90 702 741099
322 223 1947822
702 90 738609
31 24 738741
248 450 1247532
248 502 738822
248 492 738822
248 595 738822
248 915 758716
995 334 739000
236 208 2645719
832 174 739498
90 32 739516
702 670 739910
65 784 1413317
854 61 806798
90 802 740714
731 284 2041020
106 1 741589
106 139 741589
106 780 741589
106 309 741589
731 720 751131
573 586 1939501
334 995 742193
260 575 916636
587 343 742347
670 702 742415
462 280 1862329
629 462 743151
680 731 2470954
558 321 824951
24 31 743315
817 421 743322
817 424 743322
817 207 743322
313 984 744314
497 491 2812813
236 189 2809520
188 630 745248
188 431 747309
398 712 1613297
915 165 749595
56 749 750173
56 692 750173
61 854 751768
790 630 752165
186 267 821668
223 322 1422146
586 541 1426965
586 58 1426965
586 479 1426965
586 196 1426965
586 264 1426965
586 160 1426965
586 214 753669
586 159 753669
818 438 2988354
586 111 754734
586 854 2385453
531 56 757718
105 418 2987170
712 398 1804814
293 569 800793
362 381 801740
294 817 2726950
190 471 802907
26 40 2183283
955 873 804070
160 630 2640071
572 662 804153
267 186 821569
854 586 2208139
190 353 2445582
190 274 2636541
842 702 1578476
190 891 2636459
592 98 2728395
190 373 2637258
379 568 1424749
190 656 2636398
500 923 1235083
499 48 2458171
499 558 2013116
499 607 1417225
702 842 1339520
322 64 1937820
159 72 2730974
915 248 836842
541 923 806004
366 972 806116
672 48 2528582
592 199 806334
580 143 1589600
306 229 1944514
624 364 1503823
638 634 806676
572 372 2104532
832 788 806807
854 517 1519563
495 159 807242
602 416 2639345
517 854 894654
629 136 807530
838 630 808021
90 742 821050
416 260 810638
40 147 808096
686 577 2726224
421 978 808435
75 53 808600
193 629 808659
267 256 821569
267 648 821569
267 517 827231
267 478 824202
256 267 823523
256 648 2640026
256 517 809002
256 112 809002
256 186 809002
256 478 809002
765 313 2461871
267 530 809786
132 842 2706924
656 301 810035
260 416 810087
143 796 2120432
143 872 1321902
918 758 2112476
630 838 2635673
648 267 822509
842 132 2710653
347 577 810892
838 658 811960
838 392 812167
737 537 2805090
517 267 828319
392 838 811828
443 550 812253
443 193 812253
443 53 812253
920 851 2459195
920 915 2112632
920 280 812608
920 530 2112632
267 658 1843172
749 56 812901
920 274 813389
586 383 1414398
977 996 815992
612 64 813685
920 656 814019
135 692 2718266
714 890 830320
164 548 2728758
56 193 833028
478 267 823213
517 256 815395
517 648 815395
517 186 815395
517 478 815395
274 167 815426
415 630 2470798
118 107 815691
696 360 815913
862 638 816238
260 790 816311
220 415 817060
406 12 817137
830 193 817250
843 320 817733
546 443 818175
369 556 818333
369 263 818333
321 216 2723831
719 410 1855856
718 502 2659885
718 916 901406
24 547 821316
547 24 819527
147 214 2016116
106 634 820464
951 214 2711871
631 112 821251
193 830 821692
418 105 1863769
660 784 822394
500 435 2974046
416 912 2645741
5 175 822907
719 783 1953981
719 13 888752
719 738 1926701
996 418 824367
862 167 903352
558 48 824951
558 216 2029025
558 319 2124107
558 458 2123587
891 24 2731960
15 406 2458645
101 149 825246
966 171 825457
223 663 1583950
90 865 825752
429 98 2706867
308 926 2451118
795 421 1947975
790 260 826112
581 692 826169
718 404 826318
167 978 826483
407 843 826617
184 393 1503377
184 607 1503268
406 15 2118337
607 927 1581128
267 142 892927
630 415 2477625
134 515 827856
718 246 827946
663 706 1499945
246 718 829062
450 159 910037
141 188 2881575
75 945 829918
75 223 829918
75 189 829918
75 617 829918
75 6 829918
75 462 829918
75 670 829918
75 535 829918
505 174 830018
164 174 830177
2 75 919300
75 550 830693
14 1001 2716029
14 702 2814438
868 416 2726836
868 356 2724983
868 762 897750
24 891 2731854
365 14 831261
164 420 1963878
710 599 2793971
356 416 2731152
356 868 2801093
356 762 1507328
410 719 1323039
362 922 833476
502 718 2471660
356 859 834287
732 0 834442
684 517 834498
684 542 834498
684 157 834498
684 586 834498
684 356 1410412
684 535 834498
684 743 834498
356 574 1583263
843 407 899821
915 75 835253
356 256 2813014
915 912 2557291
915 542 836842
915 168 836842
915 472 836842
915 765 836842
915 684 836842
614 978 2640102
648 762 839750
915 980 840294
915 629 923043
818 58 2988354
924 14 2788605
530 718 844720
439 168 2712844
575 232 849933
790 700 2743733
135 75 853639
872 987 854546
199 506 2641223
644 996 1581594
697 170 910102
167 862 887983
142 267 1425580
142 92 888440
142 953 1338319
362 528 888588
142 207 2809249
428 569 1925108
629 915 889877
334 546 889939
1001 850 890329
13 719 890376
13 738 890376
75 2 1235911
415 504 890769
630 267 891465
65 220 2641717
542 535 891059
157 718 915064
267 630 891321
631 281 891831
569 428 1328583
38 832 892117
415 987 894109
32 572 1575049
879 174 892337
742 90 892339
256 356 2130210
633 612 892831
194 306 893215
987 415 893550
923 541 893554
971 200 2801943
704 41 1415657
369 770 894192
175 1004 2798205
48 25 2187752
935 776 894619
469 264 2204043
517 166 894654
517 565 894654
517 542 894654
517 157 894654
517 602 894654
517 586 1341519
517 356 894654
517 765 894654
702 382 895004
159 517 897557
493 301 2447428
749 264 900328
301 493 2448608
207 957 897031
193 890 896678
207 301 897031
957 207 897170
199 996 2446299
381 643 897776
854 923 897861
765 517 898047
586 648 898097
53 61 898362
101 246 902952
101 423 898398
122 693 898457
586 718 2979182
166 517 898672
921 657 898843
586 416 2977870
585 909 899337
718 586 2815669
718 157 899395
718 530 899409
921 783 2028016
264 749 900039
927 607 1416148
586 517 1414350
1001 644 901061
96 638 900595
96 509 900595
96 832 903402
232 126 1444970
1001 828 900727
660 90 900731
159 306 1522426
843 907 901153
193 776 1594450
586 334 1426638
832 96 901930
190 920 2636432
686 872 902565
472 743 2843882
548 174 903095
663 649 903255
862 428 903565
232 575 903860
644 752 904158
428 862 904350
388 322 921111
322 388 922704
830 692 2707964
612 633 905340
713 592 905624
362 602 905644
833 159 905706
881 541 905817
550 248 1423533
462 450 906039
462 248 906039
462 851 1862329
462 517 906039
462 542 906039
462 157 906039
462 783 906039
462 742 906039
462 670 906039
462 718 906039
833 617 2729134
833 720 2729147
214 272 1862182
236 1004 907413
752 644 907782
569 281 1328583
569 580 1328583
569 188 1328583
569 977 1426891
569 78 2459390
569 422 1328583
569 31 1328583
569 360 1328583
569 953 1328583
61 388 1539315
61 343 1416819
280 65 908366
687 65 1842491
193 700 908495
65 280 908639
446 764 908679
193 617 2620087
664 107 909127
516 437 910011
546 607 2208633
360 569 910618
112 631 910729
126 232 1506451
200 267 912058
700 790 912191
693 569 1189093
239 951 2643737
509 780 1339004
458 844 913510
969 761 1440616
761 969 1440983
159 136 2455956
828 1001 914557
586 687 1786520
951 915 914739
851 591 914789
670 29 1940679
497 977 2542687
497 773 915121
147 577 2708950
383 586 1410529
631 24 916207
788 299 917853
788 96 917853
788 106 1940112
499 565 2458171
670 5 2022517
248 718 920487
509 303 920861
450 718 923744
682 738 1966228
168 439 2757357
77 294 980009
77 439 980344
912 260 2819731
450 712 2617717
292 135 2912484
292 581 2034473
170 264 985187
264 692 987245
440 737 2725957
135 248 1253452
712 214 1004427
742 900 1011339
812 2 1317835
790 956 1044466
141 614 1068729
324 638 2870804
694 845 2088158
742 450 1244402
742 306 2716450
912 915 2197089
912 742 1176517
433 338 1879243
541 307 1179158
862 90 1181360
270 704 1182299
541 783 2011619
165 915 1229963
700 703 1231407
700 324 1231653
870 141 1234332
165 838 2615072
151 290 1239273
499 918 2458171
499 318 2458171
499 679 2458171
499 704 2458171
306 749 1236460
724 159 2533778
951 377 1237217
951 772 2540937
862 333 1237387
334 185 2793291
737 440 1352814
624 231 1238296
571 684 1240462
571 394 1240462
571 277 1240772
571 160 1240098
571 285 1240775
571 62 1239178
571 885 1238426
571 542 1238398
571 900 1240776
334 612 2617639
542 517 1238500
737 107 1238547
16 777 1238548
571 935 1239233
722 927 1238674
65 449 1239076
718 248 1259838
749 306 1239048
571 870 1239592
571 731 1239253
151 566 1239273
718 450 1239384
692 248 2448292
571 450 1240466
571 742 1240038
571 161 1240466
151 253 1239579
571 663 1239726
500 790 1412289
571 910 1240113
534 38 1240469
118 29 1407763
75 749 1511753
75 190 2206332
272 687 1257461
482 56 1241087
107 652 1430181
107 320 1241176
107 29 1241176
107 537 1254998
107 553 1241176
107 335 2641159
107 381 1254998
454 609 2710950
205 997 1242147
280 718 1242298
609 1003 1875130
569 990 1413113
38 534 1242886
612 103 1243003
337 854 1589339
870 12 1243083
103 612 1243093
534 324 1354456
849 506 1243143
191 927 1243440
106 828 2458735
343 612 1243720
749 834 1243754
749 450 1246068
749 40 1243754
749 530 1243754
749 865 1243754
773 338 1936166
850 772 1243859
850 120 1243859
850 196 2207150
850 75 2714207
850 609 1243859
850 107 1243859
850 683 1243859
850 987 2207150
742 749 1244059
684 956 1244086
337 125 1355778
702 106 1244363
830 185 2808609
272 116 1244460
590 48 1244511
956 704 2038969
90 862 1244639
891 280 1433100
862 538 1244942
862 495 1244983
516 837 2236720
450 742 1245552
450 749 1245821
495 862 2718344
332 500 2801564
569 808 1246535
746 749 1246661
153 483 1246663
954 167 1255411
272 712 2014459
248 364 1247532
248 6 1247532
248 506 1247532
248 692 2790980
248 591 1583269
704 956 2037827
334 742 1248049
565 517 1248134
319 956 2124017
319 458 1248907
718 334 1248950
185 850 2463463
951 541 2713553
951 506 2713553
953 142 1249006
743 168 1326662
113 535 1249258
580 48 1249840
317 692 1249932
207 136 1252023
802 272 1250669
771 697 1250751
465 812 1251242
207 428 2724103
428 173 1846631
638 832 1251463
280 189 1581938
334 90 1251582
90 551 1256616
428 207 1949843
915 371 1252870
153 229 1253076
135 449 1253135
483 153 1253170
229 153 1253409
483 607 1253444
838 165 1253786
267 700 1253786
700 410 1253921
700 277 1489493
702 516 1254147
700 516 1584754
771 703 2639220
449 135 1254477
61 233 1254511
168 743 1254644
107 810 1254998
107 737 1254998
107 192 1254998
107 985 1254998
107 664 1254998
107 643 1254998
607 229 1930348
343 61 1255066
120 198 2209216
120 454 2209216
614 858 1496489
32 184 1255778
120 609 1255825
410 700 2638961
120 850 1256032
75 633 1927265
951 200 1256251
951 971 1256251
772 850 1256452
923 500 1256484
927 191 1587845
541 808 1256713
272 65 1257461
790 500 1412067
90 280 1942055
752 416 1257658
631 280 2189690
541 738 1344059
189 280 1258704
214 160 1258822
771 742 1940136
332 435 2644088
332 782 2644088
159 703 1347235
823 854 1260088
185 830 2816934
506 849 1260525
718 464 1261166
718 754 2537508
718 201 1261166
61 534 1416819
267 135 1342547
280 421 1261753
280 142 2706091
280 990 2637584
280 656 2637584
280 422 1261753
280 35 2637584
280 241 1261753
700 267 1350326
250 662 1261893
40 572 2637451
40 900 1261947
40 662 1261947
40 272 1602487
267 24 1262077
633 193 2117429
866 708 2595065
136 159 2804982
200 159 1263305
629 267 1588865
337 646 1265141
159 200 1265355
923 880 1434278
779 423 1423382
135 267 1402907
630 493 2702603
630 920 1937453
920 630 1363453
761 881 2490513
280 528 1339628
868 912 1272049
924 382 1273792
956 458 1274588
682 650 1277131
682 654 1966228
52 472 2746182
912 743 1281186
872 143 1288263
2 812 1299291
924 506 2788605
697 771 1315887
135 292 2968191
687 272 1318368
731 540 1319263
509 893 2638929
350 231 1322706
410 14 1323039
410 56 1323039
249 969 1324162
31 838 2099024
528 383 1324916
528 589 1324916
416 752 1325671
643 468 1325804
214 951 2720176
196 850 1326598
383 528 2458168
638 388 2501757
534 61 1327065
530 449 1327174
16 595 1327520
516 761 1327675
184 246 1327723
184 710 1327723
184 423 1327723
184 101 1327723
184 175 1327723
184 779 1406387
422 15 2459851
951 707 2533954
951 239 2103656
48 580 1328348
281 731 1328479
32 754 1329404
951 546 1329594
280 658 2706091
718 607 1848666
718 107 1848666
718 569 1848666
718 629 1329720
718 720 1329720
1004 595 1959003
787 159 1494256
696 678 2619939
469 274 1330221
718 595 2537508
851 630 2286190
159 951 1333756
540 697 2641007
720 628 1333369
629 356 1330876
812 550 1331241
951 159 2099939
633 75 1331300
891 32 2742345
207 92 2712882
630 851 2285928
599 569 2041762
530 685 2029317
920 159 2548477
528 923 1333119
581 830 1957045
32 891 2612785
664 335 2448588
742 771 1334815
188 167 1334866
147 257 1334918
742 483 1335390
500 126 1340693
500 586 1335451
738 433 2808916
742 692 1335597
851 159 1335725
40 159 2030959
318 332 2127684
761 719 1335996
742 334 1336080
409 569 1336526
483 742 1337255
233 769 2709558
881 761 1337912
91 166 1338115
161 586 1338331
585 362 1338343
528 280 1338669
48 216 2187752
48 319 2187752
166 91 1338777
927 821 1338809
657 921 1339065
362 971 1435577
181 920 2042763
586 500 1340192
830 581 1944463
971 267 1585155
433 541 1340532
433 738 2810246
362 184 1414527
857 165 1341597
157 775 2642164
810 473 1342189
267 971 1342400
605 670 1342504
48 558 2187752
159 865 1342995
356 168 2814472
303 368 1343504
956 758 1343730
499 44 2637483
454 268 2541442
454 278 1416301
454 98 2710950
454 713 2710950
232 260 1357851
95 873 1344998
338 540 1345015
971 838 1592512
464 980 1434300
502 851 1345773
435 332 2464288
718 749 2471203
602 765 2725880
862 78 1346425
718 280 1346461
980 464 1430868
851 502 1347134
356 629 1347526
356 602 2188736
356 313 2195695
534 343 1347862
602 517 1347863
765 602 2731175
356 684 1357903
416 159 2560954
268 592 1852942
323 1 1351398
323 139 1572737
323 42 1351398
323 125 1351542
548 638 1352539
678 696 2808346
885 586 1870432
356 52 2393600
580 582 1501896
338 433 1959785
260 232 1357061
166 168 2718379
168 166 2406917
164 649 1360830
2 168 2743931
24 658 1361302
323 402 1365993
323 509 1365993
356 517 1370021
472 575 2932959
472 517 1372099
168 765 2231609
697 82 1403021
414 891 2823231
141 870 1405536
646 968 1406949
231 350 1407362
310 477 1407778
246 5 2185868
246 175 2185868
143 580 1408116
246 423 2795178
246 101 2795178
506 491 2644622
214 147 1849117
239 214 2616864
572 569 1592901
159 416 2561963
720 855 1409744
75 499 1410515
416 629 1410573
444 383 1410943
956 25 1411040
790 229 1411242
196 429 2706345
196 873 1411577
196 147 2706032
790 267 1414861
101 779 1411815
416 602 2640845
92 207 2543064
633 251 1413572
535 542 2819201
267 790 1413846
470 572 1414017
72 214 2722490
362 4 1414541
171 347 1414782
251 633 1414797
159 230 1422559
443 86 2802883
41 704 1415158
383 444 1415217
369 513 1419455
92 847 1947267
927 592 2635674
927 752 1587845
48 672 1415885
844 758 1417904
650 783 1417343
997 34 2802310
771 568 1416360
472 256 1939864
472 602 1939864
472 313 1939864
256 472 1939500
891 775 1416602
120 190 1587668
912 439 1417051
191 75 2554871
650 738 1417343
462 231 1517797
907 426 1419458
305 912 1511833
230 159 1420787
52 356 2746182
388 853 1421535
388 337 1421535
388 591 1421535
322 853 1422239
322 343 2043306
322 310 1422239
322 663 1422239
13 743 1423092
506 951 2643819
924 1001 2788605
590 171 1424306
590 933 1424306
590 347 1424306
749 534 1424556
743 13 1605092
798 607 1425852
61 716 1513564
61 843 1513564
607 798 1426165
703 772 1427251
772 703 1427408
687 586 1426542
83 65 1426563
83 901 1426563
83 993 1426563
83 863 1426563
720 833 2790918
65 83 1582523
101 377 2805322
305 416 2022193
743 765 1928623
34 581 1428358
147 686 2118748
406 680 2715253
599 409 1429128
416 305 2730461
324 159 2137580
326 687 1429638
214 40 1850163
383 388 1429880
540 855 2641007
40 502 1498004
630 629 2468383
988 167 2720622
157 517 1431558
388 383 1506031
502 78 2119656
925 429 1923904
223 879 1432903
891 685 1433100
891 846 1433100
891 160 1433100
891 493 1433100
891 561 1433100
891 658 1433100
743 516 1938700
147 454 2703993
164 879 1433915
885 984 1865135
159 324 2115456
142 24 1516535
891 190 2446602
118 335 2194134
648 416 1525158
969 977 1958164
416 586 2726339
863 720 1436448
439 912 1436458
491 553 1436715
347 147 2723998
638 96 2109266
853 164 1437654
532 29 1438020
532 553 1438020
532 118 1438020
532 5 1882788
532 688 1438020
532 670 1438020
532 491 1438020
532 820 1438020
532 808 1438020
553 491 1438072
159 787 1438426
553 5 2649352
780 509 1438681
168 347 1438752
491 532 1446141
24 142 2032782
17 267 1444139
17 790 1444139
17 2 2227143
17 700 1444139
2 17 2330883
52 126 2195227
506 404 1452959
506 192 1452959
506 78 1452959
506 409 2545976
506 688 1452959
506 599 1596829
506 702 1452959
337 388 1453721
52 66 2773794
52 45 2773810
454 147 2727905
700 956 1488742
700 443 1490847
106 788 2798377
844 565 1493105
844 679 1493105
1001 14 2637076
483 798 1493856
233 607 1494001
233 835 1494001
159 61 2538869
802 662 1494384
277 700 1494519
607 233 1494556
402 42 2618333
541 951 2566219
659 307 1495022
700 812 1593786
53 633 1495476
915 61 1496268
122 428 2642652
435 415 2107542
369 646 1496982
835 233 1497121
420 950 1497499
950 420 1497952
428 61 1497982
779 184 1498120
502 40 1498642
862 791 1498926
40 890 1499228
798 483 1499554
135 922 1499980
700 293 1500017
105 774 1500201
157 502 1506135
449 278 1500866
127 843 1501075
38 460 1501447
765 383 1513563
90 199 1943555
61 159 2643762
61 428 1501859
61 915 1501859
278 449 1501988
633 923 2728399
77 232 1502051
200 838 1502682
771 863 2707239
718 843 1503245
248 49 1504145
502 157 1504322
220 483 1583625
249 6 1505310
161 863 1505553
542 923 1531235
542 591 1505579
161 692 1506085
157 740 1506450
356 166 2400306
337 870 1507840
334 772 2804712
660 783 1849754
334 542 1509188
272 2 1866151
147 40 1848401
602 648 1510370
120 569 1510551
120 53 1510551
65 75 1510821
602 356 1510892
313 472 1510921
256 602 1511024
256 743 1511024
602 472 1511032
912 305 1512019
290 278 1511373
798 581 1512209
90 912 2636530
698 311 1512537
595 404 1521910
248 90 1613372
595 453 1512873
239 706 1513788
231 873 1513838
239 923 1514014
75 65 2814593
772 687 1514511
772 398 1514511
772 940 1514511
971 543 1514746
290 305 1515701
383 765 2711494
879 510 1517405
638 69 1517715
2 272 1867752
586 168 1939508
692 317 1519051
14 719 2791985
14 921 2791985
956 41 1519259
90 940 1865833
428 32 2472589
34 873 1520285
90 248 1595165
90 220 2710288
692 775 2448292
416 927 2473962
200 550 1579085
748 308 1595618
837 738 1522178
356 126 2813410
881 783 1522861
881 921 1522861
923 890 1523036
404 595 1871690
923 542 1523336
923 633 2728830
220 607 1604513
483 220 1525114
159 724 2186511
126 52 1530734
595 991 1532062
780 303 1532568
388 61 1534122
66 52 2803037
912 90 2198684
168 586 1549688
168 416 2474239
168 369 2304062
383 589 2458168
31 428 2617585
159 866 2732085
692 329 1779335
692 835 1779335
280 687 1581412
280 449 1582327
506 29 1919195
506 6 2014794
506 670 2014794
506 381 2014794
499 517 1928831
499 542 1928831
499 157 1928831
499 356 1928831
499 535 1928831
765 168 2213374
823 485 2098841
147 277 2532912
147 171 2118748
147 285 2118748
147 590 2118748
248 607 1583269
248 835 1583269
248 329 1583270
866 159 2717729
771 700 1583728
662 86 2188823
535 499 1585027
369 168 2800568
264 581 2211531
428 17 2124063
506 364 1602529
977 409 1586100
469 229 1586270
25 499 1586369
25 386 1944538
25 321 1586369
718 293 2537926
356 499 1587002
927 120 2538701
927 90 2538701
32 428 2464192
90 927 1588026
935 568 1588354
337 223 1588936
546 200 1588980
229 607 1589153
409 977 1589190
863 161 1589786
863 784 2706951
582 624 1590117
249 409 1590517
547 631 1590863
147 272 1598444
32 700 1591092
353 190 1591363
207 67 2710037
572 40 1591503
607 65 1592120
631 547 1592559
333 816 1592581
575 472 1592696
513 485 2816523
566 278 1593612
542 159 1593718
548 322 1593730
776 193 1602071
776 617 1602071
700 881 1594180
356 515 2725871
847 838 1595089
322 548 1595128
308 91 1595411
847 482 2219182
482 847 1596058
343 368 1596063
951 857 1596088
634 324 1596763
311 196 1596853
863 306 2706951
863 769 2706951
863 83 2706951
863 626 2706951
416 166 2726339
86 152 1597480
362 659 1597515
107 75 1597805
994 764 2191159
383 867 1598124
167 817 1598236
112 392 1944685
542 499 1599025
720 581 2110906
764 994 2209760
175 423 2020488
464 335 1862398
457 718 2453105
853 159 1601581
863 364 1602013
52 168 2746182
429 196 2706716
718 457 2457181
607 220 1603439
347 171 2725394
303 780 1603600
630 142 2457732
808 688 2741146
193 95 2456512
193 987 1604649
381 335 2638528
152 443 2545424
743 120 1848126
749 233 2459409
832 38 1606985
86 443 1607118
830 245 1607137
650 849 2452686
650 467 2452686
650 1001 1607808
650 423 2452686
650 175 2452686
650 144 2452686
1004 335 1608055
241 421 1608581
764 245 2708311
971 344 1609202
898 385 1610385
253 151 2459231
245 830 1614421
245 764 2913001
866 377 2796340
52 166 1616632
52 30 1616632
52 868 2843370
2 416 2660648
17 428 2994156
532 1001 1839396
1001 532 1837058
168 30 2395037
166 52 2453187
166 30 2453187
166 356 2453187
166 868 2453187
126 885 2454698
166 515 1683301
924 122 1695617
670 553 2017115
670 643 1854395
988 207 1751562
532 650 1775288
692 830 2715134
692 910 1779335
692 607 1779335
692 591 2717842
692 220 1779335
135 197 2107829
716 365 2050987
716 457 1792887
716 377 1792887
870 82 2815378
293 32 1837305
96 420 2709114
443 159 1839223
377 716 1839296
553 670 2118407
658 267 1839963
260 356 1840580
951 435 1840924
951 500 1840924
951 78 1841288
305 53 1841354
749 90 1841444
791 977 1843771
53 120 1842429
580 862 2109659
771 873 1842645
502 915 1843259
421 257 1843373
239 502 1843565
853 388 1843604
765 104 2724276
479 122 1844636
951 341 1844992
838 952 1845243
743 104 1845339
443 152 2788852
631 846 1845772
90 915 1845800
686 171 1845846
754 718 1846828
692 731 1846850
885 126 1846861
120 743 1846906
910 329 1847713
910 607 1847713
910 692 1847713
910 835 1847713
910 591 1847713
104 765 2710293
152 86 2536267
5 246 2032210
502 550 1848203
951 58 1848261
607 546 2453991
214 255 1849117
650 745 1849165
107 718 1849314
416 2 1849428
840 994 1849573
214 712 1850163
643 670 1850544
53 542 1850350
53 535 1850350
95 193 2455587
103 780 1850807
103 106 1850807
107 236 1850802
830 873 1850878
918 684 1851541
873 830 1851820
356 305 1853781
837 924 2206222
837 122 2206222
305 356 1852720
122 866 1852187
356 77 2725871
356 260 1867659
388 324 1855673
595 71 2471497
356 607 1852818
175 1001 2017426
175 446 2020488
423 849 1853818
423 1001 1853818
423 446 2031749
522 145 1854605
522 436 1854681
771 229 1855226
587 318 1855358
53 978 1855679
719 14 1855856
550 502 1856258
771 306 2732832
670 335 1861638
483 927 1858304
483 229 1858304
795 978 2711343
866 423 2716986
2 787 1862655
335 898 1858947
335 385 1858947
433 987 1859021
66 2 1859153
951 552 2113341
771 660 2795917
638 706 1860015
706 638 1860197
581 720 1860606
147 157 1860938
692 736 1861757
462 915 1862329
462 530 1862329
462 920 1862329
127 189 1862442
1004 911 1862595
849 1001 1863335
849 446 1863335
849 423 1863335
90 541 1863340
90 850 1863340
522 457 1863899
458 577 1863979
761 738 2025059
187 700 1864239
435 633 1864500
264 469 2206163
927 483 1865313
326 65 1865337
356 500 1931613
696 450 1865515
522 114 1933745
915 462 1866423
921 381 1866525
586 782 1866665
114 522 1936198
313 2 1868261
609 476 1867010
609 880 1867010
450 696 1867022
719 837 1926701
923 550 1937334
2 313 1868026
923 910 1868183
395 514 1868801
863 325 1869554
650 532 1870810
731 8 1871397
500 356 1872585
845 765 1875151
845 912 1875119
602 166 1874577
602 586 2032940
845 30 1875146
845 602 1875367
845 168 1875397
845 356 1875128
845 111 1875087
845 166 1875252
845 762 1875268
337 780 1876937
111 586 1888761
506 743 1928857
165 200 1922823
165 647 1922848
165 302 1922869
165 136 1922926
165 990 2784052
165 344 2873595
165 142 2196353
165 543 1923033
165 428 2788648
165 971 1923089
165 952 1923108
165 953 1923139
165 92 1923333
165 316 1923426
925 269 1923969
572 450 1924098
176 995 1925843
176 855 1925845
176 769 1925853
176 135 1925858
176 245 1925860
176 836 1925870
176 588 1925872
176 329 1925877
176 641 1925880
176 482 1925882
176 692 1925885
176 68 1925890
176 581 1925895
176 764 1925896
256 515 1926227
257 421 1927166
654 682 1927444
65 326 1927788
334 324 2013146
743 506 1938035
499 586 1928831
499 743 1928831
499 591 1928831
65 450 2033095
65 851 2033095
65 502 2033095
65 915 2033095
65 742 2033095
65 776 2033095
65 920 2033095
924 410 1929687
180 215 1930000
566 280 1930770
334 383 1930839
135 176 1930869
65 530 2033095
761 783 1941524
493 731 2117924
158 176 1932295
187 112 1932696
546 197 1932934
546 923 1932934
190 193 1933087
782 416 1933392
56 482 1933491
56 641 1933491
670 506 1933575
951 731 2020773
267 803 1933880
53 190 1934160
951 142 1933976
698 925 1934290
280 566 1934297
731 951 1934409
607 112 1934728
803 267 1934747
634 323 1934910
193 190 1935049
274 817 1935341
112 607 1935459
692 90 1935551
901 993 1935734
901 863 1935734
901 223 1935734
840 925 1935853
773 700 1936166
891 700 1936743
630 915 1956507
324 334 1938104
272 700 1938198
676 125 1938483
516 743 1938538
676 46 1938539
783 29 1938714
783 6 1938714
783 670 1938714
783 381 1938714
926 590 2206492
586 912 1939508
245 329 1939956
788 91 1940108
633 53 1940173
901 502 1940392
754 843 1940411
783 516 1940570
670 381 1944215
862 580 1940989
783 761 1941016
334 502 1941056
552 951 1941069
272 159 1941083
516 783 1941245
280 502 1941318
381 29 1941376
381 783 1941376
381 6 1941376
381 670 1941754
759 126 2454063
90 167 1941754
590 926 1941873
759 166 1942156
851 90 1942901
502 687 2691117
251 482 1943693
306 137 1943735
595 1004 1964099
502 280 1944368
199 702 1944381
921 541 1944773
25 672 1944538
392 316 2024067
702 199 1945019
415 629 1949563
137 306 1945788
532 381 2765349
779 257 1946421
712 272 2016122
40 696 1946454
2 389 1946578
326 930 2657374
308 347 1947962
900 214 1948007
433 90 1948028
347 308 1948085
795 988 1948384
565 499 1948577
763 134 2106359
582 580 1948852
334 591 1949044
629 415 1949091
629 185 1949479
696 40 1949673
229 306 1949732
175 144 2017426
343 853 1949880
343 310 1949880
104 859 1952674
788 337 1950934
428 838 2789792
144 175 1951745
214 940 2795140
214 544 2192729
214 987 2192729
214 720 2192729
214 530 2192729
214 684 2192729
214 371 2192729
214 835 2192729
214 776 2192729
214 920 2192729
214 852 2192729
214 865 2192729
214 738 2192729
214 844 2192729
214 220 2192729
214 334 2192729
2 586 2053025
828 106 1954662
563 779 1955242
754 595 2015451
915 630 1955556
724 1001 2208998
388 299 1956210
630 24 2639101
779 563 1956371
159 398 1956435
783 687 1956483
630 428 1956507
24 630 1956880
840 764 2104158
969 509 1958070
629 749 1959777
790 66 1961871
790 45 1961886
580 32 1972509
77 2 2127717
66 790 1979798
2 77 1984860
670 532 1998754
324 388 2137580
12 406 2011113
165 683 2011115
184 724 2011653
749 692 2012073
239 857 2012675
228 693 2191351
956 790 2013741
680 406 2637067
424 847 2014330
764 840 2111713
687 783 2014708
135 214 2014860
278 120 2015139
214 72 2015466
428 658 2015695
695 511 2015913
866 101 2455849
891 214 2016963
506 189 2033496
175 650 2017874
499 91 2018465
823 257 2019006
333 743 2019297
685 629 2019804
607 517 2020331
607 157 2020331
607 738 2537886
589 383 2020587
737 849 2021804
737 175 2732078
565 723 2358102
14 724 2022222
738 607 2022955
149 239 2023445
189 506 2039822
157 147 2024107
873 624 2025924
629 189 2120693
147 607 2026507
147 308 2118748
147 933 2118748
147 347 2118748
291 278 2026941
607 147 2027069
595 450 2721789
595 272 2721789
90 798 2028044
552 858 2029024
552 851 2029093
789 987 2029747
193 633 2461187
272 595 2039113
638 324 2538952
318 565 2031838
318 918 2031838
318 679 2031838
586 2 2052284
918 48 2032104
743 62 2032443
456 936 2032523
187 695 2032528
197 702 2032846
671 687 2033442
687 742 2033830
485 823 2034442
175 246 2133084
197 135 2035196
633 920 2036902
798 90 2037448
585 695 2038386
956 684 2038969
310 103 2638384
189 629 2039940
231 624 2040403
164 103 2040591
731 584 2041020
731 406 2041020
207 988 2041600
159 809 2042922
565 679 2358102
565 41 2358102
846 631 2191444
920 181 2043559
749 718 2211024
749 502 2211024
749 231 2122598
749 607 2046758
788 832 2047518
61 926 2048311
2 126 2814841
731 157 2052718
1001 175 2081945
659 660 2093376
595 195 2097400
883 907 2099265
67 190 2100076
789 32 2100883
541 850 2545387
135 159 2101779
926 61 2102192
798 159 2810252
566 713 2104340
977 208 2533736
160 530 2824425
236 383 2187819
761 702 2189886
399 343 2104853
356 984 2104963
159 135 2105113
193 557 2105254
190 629 2445287
927 609 2533967
590 159 2106816
535 823 2106773
65 253 2107126
631 891 2792079
987 850 2107957
951 595 2107984
552 978 2108003
239 13 2108073
754 184 2108296
416 193 2109062
193 416 2111259
502 749 2109405
546 540 2109887
660 659 2110067
823 722 2110104
857 428 2110885
809 364 2111195
15 584 2458645
15 284 2458645
280 585 2112031
977 410 2445138
585 280 2112538
907 393 2792109
193 40 2454390
428 239 2113281
658 547 2113487
589 290 2709773
245 994 2113892
239 149 2464503
159 798 2809214
416 454 2114705
134 763 2114916
157 731 2114946
684 216 2115337
684 25 2115337
731 493 2116077
246 377 2187072
900 742 2116957
584 731 2117662
231 749 2118341
383 909 2458168
383 922 2458168
383 362 2701981
167 547 2619401
147 931 2118748
147 926 2118748
147 972 2118748
147 230 2118748
147 27 2118748
454 416 2118831
526 267 2186159
290 687 2119003
383 236 2119221
126 759 2813163
321 458 2531808
337 788 2119602
122 857 2119743
458 73 2120328
362 502 2120468
482 990 2120827
267 526 2186615
658 280 2122412
546 189 2122487
951 267 2207221
267 951 2186404
320 337 2442662
335 440 2726491
73 458 2123737
749 127 2124251
428 267 2451510
602 133 2124785
648 30 2125240
609 166 2126543
229 790 2126475
898 532 2126913
423 650 2451853
86 662 2128004
736 245 2128016
443 692 2668869
200 951 2129001
548 42 2129113
409 599 2459343
830 901 2130916
830 229 2130916
830 443 2130916
830 86 2130916
830 863 2130916
830 771 2130916
830 659 2130916
830 306 2130916
830 83 2130916
830 152 2130916
830 835 2130916
830 400 2130916
30 648 2135881
32 127 2141194
337 320 2209055
912 232 2148699
923 609 2555228
532 898 2158000
702 837 2178705
702 850 2180540
663 303 2728731
671 115 2183136
40 488 2183850
789 422 2447943
789 731 2203071
702 761 2231959
147 927 2186191
267 838 2721754
526 561 2186527
374 953 2187027
158 997 2187564
26 379 2187738
127 32 2187977
927 65 2194205
927 772 2533967
42 548 2189399
14 410 2791985
65 927 2189920
159 428 2190180
135 120 2190902
424 136 2190917
424 142 2190967
424 92 2548350
424 165 2191052
424 953 2211314
159 209 2191523
166 500 2192283
427 329 2541240
631 838 2192968
966 232 2193106
292 769 2193147
921 14 2702998
921 796 2702998
31 951 2464546
306 720 2193952
859 765 2196366
810 107 2796089
421 141 2194484
552 817 2194585
782 332 2194730
416 214 2202060
78 506 2195445
98 429 2552924
951 306 2195982
731 789 2196102
281 838 2540821
483 326 2196510
491 31 2196898
951 809 2197154
920 687 2197180
214 416 2200541
415 587 2198832
696 572 2199315
120 923 2199568
771 82 2200449
771 533 2200449
771 870 2200449
771 83 2200449
951 724 2201557
951 711 2201557
454 193 2201374
454 614 2200645
454 633 2200645
454 198 2200645
454 173 2200645
454 488 2200645
454 53 2200645
454 594 2200645
722 369 2200787
31 491 2201105
193 454 2201177
502 700 2540172
771 901 2449213
607 843 2202130
82 771 2202710
53 311 2202863
731 159 2203474
416 833 2203494
953 424 2203784
372 609 2204194
502 572 2204867
168 984 2230939
572 802 2205527
30 185 2205916
90 38 2545476
543 428 2812483
843 607 2207044
502 249 2207962
718 159 2208201
435 448 2208637
334 220 2208836
854 124 2208841
984 790 2218565
765 120 2209190
718 189 2537508
765 356 2209298
718 16 2537926
718 883 2537926
718 969 2537926
718 32 2537926
718 977 2538128
718 423 2537926
718 410 2537926
718 777 2537926
718 114 2537926
777 718 2209800
16 718 2539882
880 707 2209963
707 214 2210425
707 633 2808120
133 586 2284919
546 743 2212239
629 239 2212936
52 201 2213718
410 718 2213930
969 718 2647048
13 837 2214673
552 167 2214991
13 516 2636638
542 854 2540766
790 984 2219023
586 133 2218936
702 14 2219016
980 61 2219202
743 546 2220332
516 13 2734731
66 782 2290138
38 90 2294301
168 305 2300001
912 557 2543164
236 2 2532213
885 889 2374534
885 762 2385660
912 214 2637581
724 201 2405054
388 638 2507297
700 4 2439466
422 789 2440404
547 988 2443611
587 415 2444732
749 901 2444737
749 581 2444737
749 136 2444737
695 568 2444940
427 890 2445395
444 823 2446407
142 630 2446615
248 687 2447075
873 550 2447198
185 30 2447559
692 687 2448086
159 32 2448991
332 633 2449339
624 994 2460755
843 127 2450422
143 134 2450811
528 754 2450829
5 491 2451415
993 742 2451500
423 91 2451936
761 804 2452065
858 552 2452718
742 993 2453679
40 193 2455020
582 994 2454416
994 624 2454441
40 239 2454816
114 159 2454935
595 951 2455810
239 40 2455845
75 997 2455922
75 609 2455922
334 638 2471765
281 127 2540836
684 558 2456974
95 987 2457686
165 858 2458519
522 716 2458559
647 24 2567003
214 515 2458934
90 526 2459591
392 267 2464105
90 360 2459591
457 377 2636301
16 613 2460059
843 724 2460325
700 502 2539189
776 502 2460578
220 769 2460763
147 715 2461223
230 147 2804990
416 267 2463450
149 700 2464378
472 535 2806792
700 149 2463993
641 482 2464126
641 251 2464126
410 977 2464283
638 159 2464314
858 165 2464606
356 648 2464695
2 236 2466153
422 696 2467154
159 638 2467974
850 197 2468023
850 650 2468023
850 945 2468023
850 131 2468023
850 654 2468023
850 837 2468023
850 745 2468023
731 214 2468119
978 142 2468255
214 731 2469363
360 547 2470074
609 75 2470140
186 722 2470322
142 978 2470389
142 469 2470451
267 936 2471035
643 881 2471434
718 167 2476258
347 686 2477207
139 1001 2707122
139 828 2478772
61 383 2479005
810 380 2480232
52 77 2484035
638 534 2501757
1001 139 2647988
628 82 2525973
232 240 2528439
672 956 2528582
672 216 2528582
672 25 2528582
672 319 2528582
672 558 2528582
672 458 2528582
1001 724 2529929
444 722 2531390
321 956 2531808
321 48 2531808
321 25 2531808
321 318 2531808
321 679 2531808
321 558 2531808
321 684 2531808
321 844 2531808
137 769 2537408
428 122 2639550
581 159 2532426
780 603 2532740
936 267 2532796
58 769 2534632
605 506 2535085
208 236 2535094
127 246 2535327
127 149 2535327
127 716 2535327
127 724 2535327
127 377 2535327
127 423 2535327
127 101 2535327
127 293 2535327
127 866 2535327
127 281 2535398
866 127 2535380
246 127 2535469
101 127 2536014
383 61 2536308
817 294 2724765
605 976 2536491
406 422 2637656
547 421 2536539
547 795 2536539
547 851 2536539
547 469 2536539
547 188 2536539
547 824 2536539
547 614 2536539
547 301 2536539
547 709 2536539
547 954 2536539
547 817 2536539
547 167 2639809
547 141 2536539
547 552 2536539
547 424 2536539
547 35 2536539
547 207 2536539
547 512 2536539
547 241 2536539
817 647 2713103
422 406 2536657
647 631 2537088
647 817 2537150
167 718 2640121
798 951 2537225
231 338 2537459
362 280 2718467
607 189 2537886
718 365 2537926
90 561 2538046
67 561 2538236
305 859 2538311
576 850 2538444
133 602 2538602
859 305 2538700
316 838 2539783
493 685 2552298
838 281 2543327
685 493 2552420
377 127 2541301
506 605 2541981
250 443 2542483
951 31 2556449
541 996 2545479
317 304 2545786
303 663 2546370
718 684 2547394
319 423 2550703
684 718 2547826
316 990 2721119
423 319 2551476
159 274 2550393
159 920 2550393
631 647 2549571
90 613 2549745
482 531 2549758
304 317 2549770
377 90 2551688
90 647 2552694
517 564 2554358
743 30 2615882
90 216 2554562
90 631 2555255
126 2 2798150
847 316 2555792
915 65 2556785
581 936 2558631
159 62 2726160
443 250 2561350
703 86 2562329
679 565 2807566
30 743 2563861
790 881 2565726
30 868 2565759
868 30 2568183
881 790 2568536
168 313 2573663
42 460 2577972
42 706 2797623
199 1001 2604175
628 870 2616983
695 450 2612675
170 951 2616372
167 954 2616420
924 682 2788602
924 173 2788602
870 628 2616924
951 170 2618351
141 280 2880870
568 662 2625315
823 499 2627921
91 120 2629930
629 428 2722279
566 290 2631146
122 915 2643434
122 136 2631477
31 716 2808225
942 167 2634733
187 450 2639622
912 313 2635678
526 530 2636067
547 647 2636137
362 450 2636174
867 528 2636299
456 371 2639479
392 674 2636408
362 978 2636464
311 925 2637043
160 87 2721279
160 846 2721279
160 360 2721279
160 631 2721279
160 202 2721279
160 561 2721279
915 971 2637250
915 952 2637250
147 196 2704118
540 641 2637564
65 923 2638862
280 469 2637584
280 408 2637584
280 954 2637584
280 817 2637584
280 167 2637584
280 160 2637584
280 424 2637584
415 40 2708649
844 321 2637694
135 812 2637726
143 32 2637839
956 565 2637959
896 861 2638015
576 541 2638048
450 462 2638179
191 752 2803112
184 883 2731502
40 568 2638279
290 151 2638334
301 428 2638443
40 596 2638465
416 859 2638662
420 548 2638664
193 857 2638755
311 269 2638880
166 416 2723992
421 870 2639415
450 362 2639576
978 362 2639585
577 58 2639644
915 122 2644214
428 301 2640630
335 107 2640034
915 92 2707379
915 658 2640163
956 465 2640722
870 421 2640852
58 577 2640988
497 281 2643872
332 700 2641096
52 2 2641149
199 14 2641223
199 173 2641223
789 364 2642633
220 90 2794823
281 497 2643135
120 91 2643535
239 506 2643737
228 605 2643859
546 495 2644084
546 458 2644084
332 448 2644088
1004 643 2644497
706 42 2799826
670 688 2645837
650 872 2646155
650 686 2724465
650 184 2722724
688 808 2741907
595 568 2703299
2 465 2647366
32 143 2649392
168 762 2741808
924 516 2729759
502 923 2691117
502 591 2691117
506 719 2691178
790 52 2733653
674 267 2710807
324 343 2700616
344 165 2802793
921 881 2702998
921 724 2702998
921 249 2702998
921 1004 2702998
921 643 2702998
921 605 2702998
343 324 2703212
542 462 2703463
249 921 2704855
630 160 2704936
280 92 2706091
290 589 2706146
605 921 2706175
568 272 2715622
196 120 2706345
107 713 2706437
267 674 2795060
581 337 2737095
293 605 2707532
280 362 2707541
830 749 2707964
40 415 2715507
617 550 2708272
313 557 2709377
272 910 2731397
104 294 2710293
104 648 2710293
104 30 2710293
104 416 2710293
104 356 2710293
104 313 2712420
306 703 2710510
558 565 2718334
719 506 2711762
91 416 2711803
193 157 2713189
416 290 2726103
313 104 2712201
313 912 2712320
660 528 2712728
157 193 2712928
157 577 2713203
879 534 2713347
1004 921 2713546
75 833 2713725
90 650 2717211
530 65 2714062
940 193 2714319
91 514 2714793
686 650 2720987
568 450 2715622
568 595 2715622
535 472 2817345
423 149 2716223
485 542 2717545
556 472 2716970
724 377 2717859
749 830 2717911
166 912 2718379
950 323 2718406
542 485 2719567
572 731 2720060
983 29 2720435
428 629 2720477
850 65 2726965
535 556 2720557
548 853 2720780
316 647 2721119
316 142 2721119
316 971 2721119
316 857 2721119
316 302 2721119
316 952 2721119
316 136 2721119
316 31 2721119
316 344 2721119
316 165 2721119
316 543 2721119
617 193 2721198
306 784 2721370
912 166 2721617
912 416 2721736
782 448 2721916
90 40 2722253
90 712 2722253
184 650 2722849
910 923 2722678
910 609 2722678
556 535 2722862
950 514 2723116
901 790 2725779
790 901 2725833
704 499 2724436
272 754 2724740
90 791 2725323
879 420 2725349
905 281 2725622
356 528 2813950
440 335 2725906
513 535 2726328
65 850 2726904
334 245 2726958
624 873 2727317
791 90 2727342
663 879 2727737
516 924 2728114
416 52 2728454
738 231 2728568
910 272 2808605
923 592 2735244
609 333 2728670
592 923 2728942
833 75 2728999
833 91 2729217
617 833 2729294
736 769 2729393
185 833 2729807
764 329 2730474
214 189 2730659
868 256 2731402
629 528 2731981
923 692 2732011
428 189 2732028
428 214 2732028
52 790 2732819
323 950 2733520
337 581 2735810
52 912 2746182
168 2 2752483
712 75 2760679
712 607 2760679
712 591 2760679
52 232 2761383
12 680 2785907
401 683 2787621
420 879 2788236
402 164 2788538
92 658 2788966
189 214 2789489
466 662 2790224
493 658 2793605
135 405 2817201
850 91 2807297
160 948 2795214
405 135 2795586
724 843 2795659
695 572 2795891
633 540 2796058
459 564 2796123
241 141 2796133
866 754 2796340
323 562 2796473
4 304 2812638
323 102 2796784
323 524 2796946
323 299 2797119
158 865 2800412
158 58 2797202
614 141 2797393
102 534 2797399
102 477 2797399
102 154 2797399
102 125 2797399
102 939 2797399
102 524 2797399
102 510 2797399
102 324 2797399
696 8 2797418
658 493 2797962
377 754 2798882
91 415 2804133
381 192 2799178
91 850 2799341
450 754 2799550
528 362 2799787
947 450 2799839
716 31 2799861
249 158 2799973
369 62 2800284
716 158 2800413
334 879 2800469
369 232 2800589
942 712 2821757
157 686 2800809
528 356 2800903
61 900 2801688
61 443 2803895
61 662 2801688
61 306 2801688
61 272 2801688
24 136 2802267
65 772 2802579
537 107 2802937
772 334 2803287
158 292 2803419
443 61 2803455
614 185 2803466
160 687 2824425
752 253 2804762
752 978 2805486
159 590 2809469
120 334 2806302
428 543 2807629
142 647 2806700
647 142 2806749
940 53 2807427
633 707 2807997
577 157 2808044
712 942 2808247
633 641 2809022
641 633 2809142
283 159 2809146
433 994 2810037
761 516 2810439
533 742 2810564
531 90 2812618
879 334 2813238
837 700 2813775
802 522 2814288
802 546 2814288
75 687 2814593
2 516 2814841
2 532 2816116
2 335 2814841
306 272 2815399
772 223 2815934
120 157 2815961
772 684 2816143
120 388 2816152
120 292 2816262
772 450 2816299
120 226 2816377
772 248 2816413
185 415 2816429
772 535 2816462
772 5 2816517
772 381 2816582
772 851 2816645
120 739 2816668
772 742 2816688
30 912 2816731
772 920 2816734
772 6 2816784
772 754 2816865
120 834 2816929
120 915 2817110
120 502 2817148
120 201 2817308
120 530 2817333
120 783 2817406
120 718 2817455
120 233 2817485
120 141 2817555
120 433 2817599
120 356 2817718
381 5 2817722
915 120 2819200
120 542 2819039
280 141 2819363
772 517 2820793
264 454 2821031
30 762 2823120
754 272 2824168
765 159 2824054
754 866 2824378
160 591 2824425
718 356 2827171
837 516 2844481
644 1001 2877022
356 718 2923559
868 2 2936731
868 700 2936731
868 52 2937149
502 228 2941377
586 310 2977405
991 569 2996016
