582 364 163049
168 472 963308
168 912 961328
2 790 676624
2 322 7926
42 402 19403
870 337 19560
663 362 30809
663 410 31082
565 550 21793
987 433 387279
663 343 915494
581 135 826169
581 942 23263
978 988 906434
978 421 906434
978 795 906434
978 547 906434
978 851 909518
978 469 906434
978 188 906434
978 614 906434
978 301 906434
978 954 906434
978 817 906434
978 167 909518
978 141 906434
978 552 906434
978 424 906434
978 35 906434
978 207 906434
569 749 824931
174 534 829524
844 684 732852
31 165 901199
429 401 906040
569 862 915077
418 969 24275
294 885 50782
294 256 24522
294 648 24522
294 416 644004
294 313 24522
921 1001 24710
159 356 310430
700 184 25424
159 912 41565
947 774 905357
703 771 25597
749 569 809989
713 291 25656
34 135 25811
291 713 116971
955 540 909383
67 344 388958
67 165 297103
544 8 26272
544 143 26484
443 742 992061
443 703 132542
343 159 27094
772 609 733231
942 135 370160
772 454 733231
135 34 383115
569 482 823954
569 951 823954
569 415 823954
772 951 374241
674 112 723499
695 187 27362
936 581 982567
569 293 908150
569 599 915077
569 605 915077
112 267 378647
112 674 110548
933 171 902694
933 590 27689
933 577 36669
933 686 27689
933 966 625489
541 199 203080
862 569 911848
772 75 736143
695 692 28150
159 214 727400
568 495 28260
568 947 40446
568 198 382366
568 488 382366
568 379 28260
428 915 916537
629 24 905198
58 909 722427
344 373 643243
987 872 823248
772 120 733231
643 685 901410
410 663 29181
277 715 29445
362 111 29586
292 502 29670
292 718 29670
292 201 29670
435 500 748679
207 795 902305
207 469 897031
433 32 29824
256 885 137996
256 294 137996
256 313 42292
680 790 372865
629 159 730538
561 631 380282
765 133 29998
942 581 30000
48 956 30009
638 53 30072
572 862 30076
572 32 30076
253 191 30153
105 220 30274
609 772 731327
440 537 821003
657 541 286831
429 454 825838
274 851 30470
278 940 30512
940 278 30668
833 185 906059
192 532 30899
48 565 30932
62 646 897857
912 168 936318
912 472 379657
32 433 30981
90 223 379788
454 134 721092
454 401 723455
454 429 723455
454 291 720521
34 997 634102
704 48 126653
280 890 31461
249 716 114016
685 643 897965
530 629 915875
530 891 672780
207 953 734746
685 541 31721
685 724 643744
685 1001 643744
988 267 31773
742 443 973623
720 135 201149
743 859 829196
275 849 652653
275 175 652653
643 381 897372
135 942 374061
107 201 648550
14 828 32901
718 61 907637
14 381 32993
308 418 33058
713 566 33082
692 233 122207
765 859 33315
765 743 33526
830 769 918083
568 660 33375
335 532 833434
575 439 33417
575 77 33417
575 260 33417
575 168 33417
569 470 915077
569 538 915077
569 991 915077
569 333 915077
569 710 915077
569 249 915077
569 693 915639
569 295 915077
569 6 915077
569 409 915077
569 976 915077
569 0 915077
569 228 915077
1001 685 640780
854 542 813418
569 502 915077
586 294 413112
629 65 124869
692 769 33938
765 762 34082
65 629 126683
256 416 820895
188 421 822100
188 141 822100
188 569 34358
185 106 34383
165 31 721800
5 107 805976
267 988 134108
912 159 202416
185 231 34713
321 565 35023
291 268 804137
291 401 638402
291 429 638402
171 933 131815
540 364 121603
540 789 121603
540 796 121603
540 231 121603
540 511 35388
540 994 121603
540 245 121603
540 338 121603
540 433 121603
540 361 121603
540 95 121603
540 56 121603
540 836 121603
540 987 916707
540 68 121603
858 700 35420
577 933 35641
72 135 210774
72 581 386632
1004 977 380331
927 854 738393
927 823 738393
927 722 738393
927 535 738393
927 646 738393
927 551 738393
927 542 738393
927 369 738393
927 770 738393
927 113 738393
927 513 738393
927 485 738393
927 250 738393
927 444 738393
136 629 735490
309 1 808015
311 540 131120
362 369 36573
692 159 36632
692 334 36632
362 547 737061
362 854 36768
541 173 889152
207 493 300383
859 948 299171
530 493 37104
629 530 916761
977 1004 904549
67 963 395909
67 207 395909
859 743 822234
290 765 37243
334 65 742305
334 671 37277
334 687 742305
245 540 37321
61 393 37399
987 789 387279
61 991 642171
61 712 40427
343 663 286765
855 34 728520
855 697 900687
67 656 385203
629 891 913426
493 530 38131
103 950 928416
103 514 845248
103 303 842684
692 624 38285
499 844 809080
718 904 38624
332 318 38315
742 687 38452
684 48 898937
684 565 212288
684 918 38549
684 318 212288
684 679 581797
684 704 834843
684 321 212288
684 844 212288
101 597 38609
185 915 38708
62 159 395637
718 980 818912
469 207 630321
787 214 38862
185 762 808328
1004 189 810995
193 923 897819
185 236 39156
90 851 39437
90 978 732361
166 602 397337
166 586 643340
712 61 39597
771 137 41067
189 1004 808579
65 334 742726
134 592 645672
134 291 645672
134 454 645672
189 652 39873
189 904 39873
189 470 39873
189 716 641452
189 249 39873
189 595 39873
189 6 39873
189 410 312051
189 365 39873
189 236 801958
189 718 39873
189 201 39873
189 114 39873
84 343 50933
290 56 39967
718 732 40037
769 692 738070
738 783 397158
280 629 746610
137 771 40463
137 443 740350
540 311 395375
540 925 395227
540 955 395375
523 374 40802
868 765 40853
220 159 40989
220 334 716730
159 935 41145
383 311 41271
392 517 308262
517 392 309869
803 517 41637
948 927 652803
948 890 41678
948 120 652803
948 191 652803
948 629 652803
631 629 390117
936 942 55137
517 803 41854
624 692 643787
948 65 652803
948 592 652803
948 416 652803
948 859 652803
948 126 652803
948 165 652803
663 84 42195
4 159 42200
868 168 382423
535 854 42360
535 369 42360
535 722 42360
535 250 42360
535 444 49369
966 933 825457
859 565 42481
790 2 845677
987 432 387279
987 197 387279
987 364 387279
987 849 387279
987 540 800375
987 840 387279
987 231 387279
987 311 387279
987 511 387279
987 809 387279
987 482 387279
987 873 387279
987 994 387279
987 251 644819
987 245 387279
987 28 387279
987 338 387279
987 582 387279
987 361 387279
987 531 899470
987 95 387279
987 588 823187
987 56 387279
987 955 387279
987 764 387279
987 641 387279
987 68 387279
136 857 735407
167 159 42896
535 124 42939
249 693 43089
249 32 43089
249 433 43089
702 644 806360
290 159 902365
758 844 914606
511 849 43455
231 738 385411
644 702 797635
966 347 814805
966 935 814805
220 65 816454
220 749 716730
220 75 803334
337 505 43601
135 720 203948
135 82 853734
135 870 853734
135 581 853734
135 4 286274
135 371 286325
135 628 853734
135 72 219447
596 450 286723
700 858 43878
231 2 44188
854 535 813418
433 159 44439
955 773 909650
955 311 804070
955 427 909650
955 925 804070
955 987 909650
638 622 44532
771 4 110642
48 684 838870
316 915 897701
41 723 44781
360 526 842754
360 24 124891
360 280 662052
360 629 892359
360 631 44946
360 160 44946
360 530 44946
360 493 49319
360 561 114794
360 658 44946
731 680 44987
493 360 44992
416 648 45081
698 540 817911
698 840 817911
698 231 817911
698 873 817911
698 245 817911
698 764 817911
335 29 52194
335 208 52194
335 537 52194
335 810 52194
335 464 725959
335 737 52194
335 553 52194
335 118 52194
335 5 52194
335 468 52194
335 985 52194
335 664 52194
335 688 52194
335 236 52194
335 670 53193
335 1004 52194
335 980 52194
335 201 52194
335 175 52194
335 643 52194
335 381 52194
335 808 52194
335 228 52194
926 748 286601
926 308 286601
695 362 370979
915 185 45753
592 927 895135
53 776 45803
900 272 923705
915 428 840732
31 658 45965
77 260 980009
356 765 832012
174 510 894886
788 740 907278
951 502 644797
700 2 46514
90 233 46563
915 647 631980
977 541 747078
444 535 47417
90 660 900211
771 65 48667
723 41 390185
915 718 840294
250 332 905160
306 660 201645
65 771 47415
159 433 47423
534 388 47709
534 84 47709
332 250 48483
809 159 47922
948 75 48013
674 517 48201
940 159 643373
462 923 906039
462 223 906039
462 189 48277
462 687 906039
462 586 48277
462 449 906039
462 692 906039
462 535 121188
462 591 906039
462 334 906039
915 200 315488
915 857 749595
191 415 727169
191 948 654515
200 915 722371
35 851 48599
75 948 48625
940 633 48627
280 851 746902
280 915 138727
280 530 138727
280 920 138727
418 308 48857
233 450 48940
233 692 48940
511 338 48963
418 996 828315
948 803 652803
948 267 652803
948 112 652803
948 674 652803
948 392 652803
948 459 652803
24 530 818879
388 534 49332
388 84 49332
306 523 243303
530 24 818270
175 275 901685
950 103 834059
535 462 49555
260 77 911622
207 847 659354
369 535 49963
891 631 49993
926 157 49998
951 976 50118
951 569 50118
660 306 50280
707 880 894346
592 134 827719
90 428 122197
294 586 50607
107 464 50654
885 416 51239
90 200 289784
159 940 639701
64 534 828914
416 762 820744
159 731 127713
410 595 51698
891 629 989524
2 231 51801
443 662 51870
881 506 62266
942 936 62063
599 693 110982
416 134 52791
885 294 53064
738 576 53092
738 516 53092
738 541 53092
738 650 53092
738 327 53092
738 747 53092
738 881 53092
738 14 53092
738 508 53092
738 945 53092
738 923 53092
738 532 53092
738 682 53092
738 131 53092
738 654 388544
738 270 53092
738 837 209398
738 719 396861
738 1001 53092
738 745 53092
738 979 53092
738 850 140129
738 924 53092
738 173 53092
738 13 53092
738 437 53092
738 761 53092
738 653 53092
738 506 400861
738 996 388176
738 199 53092
738 644 53092
738 921 53092
738 657 53092
738 702 53092
207 167 897031
552 188 53377
32 432 392304
32 19 392304
32 249 392304
32 170 392304
32 843 392304
32 977 392304
32 365 392304
32 236 392304
32 0 392304
32 380 392304
32 418 392304
32 381 392304
32 777 392304
703 135 53560
147 890 53597
428 90 127573
746 692 394935
4 771 111140
428 31 906408
174 125 894886
174 102 894886
541 576 202754
541 506 222074
541 644 216710
532 13 644069
106 185 126188
200 90 55535
912 356 985730
912 602 203096
61 193 57132
602 912 57304
106 1001 891724
106 702 629770
1001 650 57523
168 260 961328
915 687 371905
915 591 371905
168 126 226839
602 743 719095
61 517 824725
506 881 58969
506 541 315662
704 321 817481
126 168 210227
126 356 651493
398 450 59550
776 687 922803
776 591 60004
500 782 986044
915 731 741186
232 912 61539
232 168 728404
61 718 325943
693 599 122398
356 472 659249
356 159 293299
648 765 390399
168 232 957175
532 335 65652
561 360 65710
724 246 903651
724 685 66387
472 356 902654
506 1001 410951
356 743 834287
537 440 813576
180 727 118589
1001 506 604079
260 168 993254
712 450 942765
303 343 817008
628 135 293705
628 871 805050
628 720 103119
165 401 721893
165 67 364230
200 142 722371
401 415 893401
401 429 909469
401 291 893401
401 454 893401
659 159 110701
659 306 110726
659 374 110852
321 704 815870
402 343 111965
5 553 294543
5 670 895581
696 595 117421
469 528 112262
402 299 112371
142 200 222453
415 150 810233
415 833 810233
415 569 810233
415 191 810233
415 401 810154
290 566 112789
150 415 394981
629 631 905198
334 75 804049
952 142 113174
550 546 906156
236 185 113537
362 383 206020
424 421 737405
424 795 737405
424 207 737405
907 883 114042
629 190 809009
142 952 114234
909 58 717658
951 769 115011
450 233 115019
743 356 647056
135 703 203403
450 398 115336
1004 724 115692
833 415 905928
25 458 743235
306 374 116641
38 334 207157
193 65 116936
193 120 214331
193 609 116936
193 546 214331
291 134 638402
291 1003 804137
291 117 293284
291 98 293284
291 609 638402
291 454 804137
362 141 117106
904 718 117175
607 231 827874
500 166 117197
381 532 117245
629 160 905198
701 220 117276
35 978 117283
546 565 117355
546 844 726880
629 526 905198
629 894 905198
629 685 905198
629 846 905198
629 280 905198
629 360 905198
629 630 905198
629 493 905198
629 202 905198
629 561 905198
629 658 905198
133 765 117514
75 334 831241
423 246 918721
423 101 918721
423 175 902974
924 199 805865
469 978 639096
612 740 118105
581 951 118310
482 987 118356
188 978 134790
482 569 210026
142 302 118807
978 629 120595
142 990 118833
142 971 118890
65 193 118953
65 191 390160
765 648 733532
547 978 824967
630 167 122024
607 978 119128
671 334 119330
48 718 119345
48 669 119345
142 428 197890
142 915 388883
956 48 119548
956 216 119548
956 319 119548
956 558 119548
630 530 631415
48 29 291220
167 630 119980
644 199 986650
180 958 811188
629 978 121088
885 256 120204
885 648 825360
505 337 309659
978 607 120510
648 885 825697
377 607 825150
469 630 897655
160 24 121338
173 657 121344
90 746 121894
462 833 737838
540 849 121603
343 303 812931
592 268 377431
592 454 813124
630 469 897764
420 164 805814
236 90 139572
846 561 725145
175 849 901685
561 846 931084
24 160 898080
951 865 122493
116 272 122499
530 630 669478
746 90 122613
530 160 122928
311 53 125600
846 838 123049
454 772 723455
454 120 723455
184 407 123286
955 231 124034
135 65 131182
65 135 124175
866 718 843158
704 684 820493
849 275 896219
849 175 897654
48 704 125919
159 923 902569
278 220 125138
135 540 291409
214 428 393957
214 142 393957
214 915 393957
220 278 125608
316 159 198582
338 329 129953
125 337 232301
207 165 734882
369 444 126250
963 67 916986
697 540 910136
142 159 126380
428 142 301936
692 746 126495
159 316 126560
48 458 649998
607 377 825913
607 483 824664
607 591 825913
703 443 127028
101 724 218070
672 844 127073
24 360 127162
923 197 752485
326 146 127651
228 569 128905
558 956 824951
558 318 811009
558 684 811009
558 844 811009
444 369 128972
159 612 129138
160 685 129344
624 329 806549
281 189 308060
76 185 129972
150 147 130221
509 299 287911
53 233 130433
90 433 389223
1001 738 130597
798 278 130698
416 126 130874
795 424 896151
795 207 896151
670 107 131014
440 226 290096
950 343 131564
531 987 906774
90 236 297578
838 662 132341
187 466 900205
923 193 918060
891 353 134176
966 168 646694
850 576 132520
850 516 132520
850 541 132520
850 327 132520
850 881 132520
850 14 132520
850 682 132520
850 270 132520
850 719 132520
850 1001 132520
850 979 132520
850 924 132520
850 783 132520
850 173 132520
850 13 132520
850 761 132520
850 506 132520
850 996 132520
850 199 132520
850 644 132520
850 921 132520
850 657 132520
850 702 132520
850 738 385680
977 418 902884
662 838 132664
953 207 383868
397 975 636009
397 671 638440
75 229 133142
75 607 808600
278 798 133245
189 281 312607
40 187 133324
111 362 133393
275 114 644540
353 891 298320
143 159 134250
712 159 942765
890 546 134274
662 572 134299
662 430 134299
662 900 134299
662 450 134299
662 947 134299
662 466 726134
662 568 134299
662 198 134299
662 187 134299
662 26 134299
662 488 134299
662 40 134299
662 379 134299
662 596 134299
662 272 134299
662 60 134299
662 712 134299
662 802 134299
662 695 134299
327 849 134322
327 275 134322
327 737 134322
327 897 134322
327 702 135048
161 193 134544
187 662 134617
685 160 134636
418 977 828589
303 950 134796
702 327 134798
692 534 134868
692 660 224303
114 275 649964
704 270 135315
890 280 135637
951 692 135749
443 137 745385
984 885 135919
24 631 136023
116 769 136341
280 526 136373
280 647 136373
280 547 136373
280 188 136373
280 24 643420
280 32 136373
280 360 386024
280 631 296676
280 561 136373
422 731 810643
168 966 954290
692 749 579455
670 175 137516
334 629 137609
334 530 137609
450 947 199680
450 596 199680
530 334 639977
984 416 138053
491 506 138124
663 950 727038
416 633 311675
765 214 138726
984 586 808622
984 762 808652
923 772 300701
923 120 139253
764 364 139433
168 77 961328
724 101 140029
214 765 891137
159 278 293388
654 783 205621
654 738 376243
159 40 888569
159 712 888569
517 61 821882
175 737 379975
607 75 141631
52 313 141780
724 293 142006
77 168 663112
249 189 143136
629 214 316880
159 531 143119
657 850 144014
595 372 677182
577 458 144596
458 704 831868
77 575 145440
362 870 145510
458 956 145511
458 319 145511
458 558 145511
362 216 299580
362 167 145573
704 458 832135
731 915 734334
356 157 310418
356 462 310418
362 421 147096
534 102 147106
362 517 148149
362 605 206164
362 718 148570
891 543 159057
170 697 159458
840 231 164261
840 245 164262
783 850 168974
199 541 169459
712 40 942765
306 659 799323
857 122 195024
531 159 195899
531 482 906831
559 346 196651
581 72 390166
142 274 198158
191 120 198429
67 707 198566
75 772 735794
855 581 198722
558 207 824951
723 565 725308
356 912 305801
450 572 199680
450 900 199680
450 568 199680
450 662 199680
450 272 199680
450 802 742859
450 695 199680
141 718 199865
233 53 199900
873 329 200085
31 990 743820
528 469 200436
343 223 200496
978 159 200722
185 166 200734
275 737 652653
605 693 830889
193 159 201356
334 159 724392
334 776 645167
789 540 201745
120 65 202074
742 214 812348
742 159 202250
502 951 657649
214 590 202437
65 120 202657
873 231 202935
775 718 202994
775 591 202994
158 716 202998
158 249 202998
333 470 202999
333 862 202999
333 538 202999
333 710 202999
333 502 648257
333 249 202999
333 6 202999
333 409 202999
333 0 202999
333 569 202999
333 599 202999
333 605 202999
333 228 202999
333 693 203090
458 48 663748
458 684 663748
731 870 204611
684 458 212288
462 356 389765
134 151 203753
700 187 203726
159 742 398071
500 332 911277
25 48 204107
25 216 204107
25 319 204107
118 532 204400
118 732 204964
377 423 815226
377 101 205084
377 866 205084
605 362 205413
566 120 310063
644 541 217241
870 697 205497
127 732 205502
239 609 205551
423 377 810209
251 506 205790
954 978 732577
775 692 206785
472 168 822223
700 638 290501
542 646 631537
542 62 807746
840 540 398361
840 318 207418
840 338 207418
393 980 207507
214 223 823170
660 692 207613
716 718 207718
951 738 207754
581 248 386481
248 581 725014
516 532 210535
991 61 405521
193 550 897819
609 96 208466
532 437 316091
563 8 208815
141 851 208872
159 143 209026
738 951 209030
214 912 209853
703 159 209324
851 141 209416
103 832 842684
523 306 290149
126 166 659321
991 654 718770
14 924 210549
14 173 210549
14 506 829904
14 199 210549
980 393 210621
139 534 210738
139 206 210738
139 487 231939
139 477 231939
139 154 210738
139 125 231939
139 102 210738
139 939 210738
139 524 210738
139 174 231939
139 510 210738
139 324 210738
950 303 645545
290 214 902365
322 534 210763
159 56 210885
978 483 210944
435 782 211077
136 428 735407
0 118 212684
159 188 213574
159 978 647146
159 502 212755
159 569 212755
886 250 225140
718 716 720518
83 784 213856
126 416 647996
112 466 214138
267 112 821569
428 274 214905
638 322 215097
303 832 215190
951 706 215904
502 159 215986
294 868 216655
343 950 216811
543 891 216864
732 118 216998
335 867 217013
933 935 217261
343 388 383939
697 311 910136
697 925 910136
697 855 810171
167 988 218099
214 743 218190
554 185 218343
743 214 218381
935 933 218593
587 245 218614
428 647 301936
428 200 301936
428 971 301936
428 857 301936
428 952 301936
428 136 644971
743 912 647056
388 832 218879
2 58 219116
851 167 219118
126 586 405045
718 915 818912
122 924 219438
175 670 836447
851 978 817812
607 502 388025
607 223 388025
607 343 388025
607 718 388025
743 704 308611
718 591 818912
334 718 820578
782 500 900918
185 554 220253
716 149 220282
66 45 221206
187 254 220417
106 740 731772
499 684 825199
245 587 220702
644 924 311723
149 716 220828
749 540 221231
553 107 735899
833 462 906122
617 720 741227
748 926 221856
278 159 290732
924 644 309478
923 159 903879
720 617 386734
569 159 223338
862 189 732823
586 166 903557
586 126 684771
638 38 224865
935 90 225234
90 388 225442
313 30 897686
313 765 727885
586 984 814635
586 762 901899
499 956 805156
90 935 225919
586 602 903557
586 267 814657
15 731 812556
15 680 900286
38 638 892117
159 142 386353
586 885 753669
915 530 312536
912 77 935256
416 948 227577
416 147 312140
861 896 897871
960 34 228346
506 576 229325
506 173 228256
506 996 918059
506 199 918059
506 657 671245
207 630 228842
540 749 228941
322 638 229173
372 415 645109
423 716 653799
313 885 721796
245 231 230171
168 885 231919
139 323 231939
936 30 723002
532 790 644069
532 700 667587
541 16 234140
200 971 722371
200 952 722371
200 136 722371
200 344 722371
200 543 722371
743 602 721534
586 157 733020
61 591 235473
534 206 235690
534 174 235690
534 591 235690
17 857 320460
17 165 235715
923 687 235765
923 591 235765
552 141 235775
502 976 235842
17 915 238996
199 924 661602
199 644 239835
915 17 240785
61 692 287682
657 506 651911
790 532 243751
30 936 781533
188 159 281552
749 415 283735
415 372 646498
935 214 286276
29 48 284999
377 687 298386
214 935 286014
119 700 286041
119 812 286041
135 30 853137
630 207 382673
605 569 804203
75 850 735632
75 127 735632
75 191 306134
75 220 735632
657 996 295954
657 199 286831
334 462 287089
191 65 638482
191 749 287413
191 190 287413
267 392 374867
499 592 287548
509 638 287911
509 634 287911
509 96 287911
509 832 287911
630 891 678394
422 569 288232
630 274 309179
309 97 309827
891 630 669496
165 17 288409
900 450 288751
450 40 288868
324 700 711414
428 302 288949
936 577 391767
731 739 289565
638 509 289681
60 568 289698
60 187 289698
859 515 289759
428 316 289770
948 52 652178
948 500 652803
948 168 289785
684 499 896219
470 569 805244
720 587 290265
630 685 897644
90 107 295118
772 633 290099
700 112 290162
607 91 816838
107 393 290270
112 40 290377
32 862 376178
948 499 652803
692 550 290486
952 200 812995
685 630 898070
59 687 290994
739 731 291227
577 936 389152
857 17 291443
561 493 379738
693 122 912400
236 537 739070
749 660 291678
362 324 392998
935 159 291856
362 12 291948
273 951 634540
716 423 292428
112 846 292938
638 700 292450
849 737 895459
847 142 292528
915 136 924272
356 30 834383
977 153 831099
509 402 292690
847 207 654888
936 456 292792
517 362 292934
565 48 293355
144 8 293374
660 749 293571
319 48 293612
319 216 293612
40 450 738581
90 844 293921
951 203 294001
758 48 294089
334 607 804049
517 159 892533
731 15 295213
306 742 295220
538 502 666871
493 24 296167
596 329 295671
592 948 643832
334 749 742305
334 692 742305
830 329 295744
24 493 295807
763 14 295898
457 61 643907
457 19 643907
457 246 643907
457 716 643907
457 522 643907
457 687 643907
457 696 643907
457 423 643907
457 243 643907
457 101 643907
457 866 643907
457 777 643907
772 923 296276
101 457 644228
749 334 296663
550 692 296788
281 491 640079
749 61 296993
749 742 296993
749 629 296993
454 592 721092
862 32 297284
423 457 653361
592 291 298115
32 502 644260
32 189 644260
592 713 643698
248 462 298452
362 695 373553
423 56 391731
849 987 298650
120 772 655195
120 75 304532
59 243 299169
469 421 630321
469 795 630321
469 547 630321
469 188 630321
469 954 805569
469 817 630321
469 167 630321
469 424 630321
469 35 630321
469 241 299523
274 630 308686
628 2 333466
859 592 299619
187 40 650591
313 294 299931
313 256 819548
313 416 299931
952 838 383834
951 388 299944
207 552 300025
236 506 719084
189 32 300143
362 909 888557
712 380 674046
268 117 634886
268 98 634886
268 633 634886
268 454 634886
268 713 634886
126 648 300652
159 891 300845
14 783 300857
576 506 300999
159 450 908600
427 955 652989
173 14 301265
173 924 301265
173 506 301265
173 199 301265
952 344 301266
120 927 301365
120 191 301365
120 752 734610
40 802 301389
704 743 820374
671 462 301523
951 273 643175
1001 702 301606
185 617 301611
40 198 301698
923 214 724843
923 53 396765
362 168 301800
173 541 301814
90 644 301873
193 290 302030
428 990 302151
428 92 302151
428 953 906408
663 638 302370
75 120 302482
59 423 303004
243 457 303258
299 634 812370
891 414 303315
241 469 303319
299 96 303353
537 208 644069
537 236 725020
854 927 303588
654 991 733959
523 309 303795
948 232 303867
1003 401 303953
112 517 375031
863 993 304040
347 933 899442
347 966 304168
764 516 313931
499 687 805078
113 542 304547
16 541 304706
854 416 304815
844 672 894509
90 1001 305430
772 927 305833
772 752 305833
153 977 824660
214 687 305961
96 299 900595
96 634 900595
229 469 732152
90 124 306355
493 207 306510
933 347 899865
301 978 306869
723 758 307331
951 338 815432
301 795 307475
61 700 307475
607 997 307480
607 671 307480
607 742 307480
607 692 307480
607 397 384945
607 769 384945
607 317 307480
290 193 740014
290 53 740014
573 126 307932
607 775 394898
388 951 660558
542 113 308183
284 406 308397
284 731 909462
743 166 908705
743 550 741433
743 157 308611
743 684 308611
249 569 911736
249 862 911667
343 322 309133
381 327 833393
956 743 309257
505 822 309481
532 506 309525
743 472 832818
743 956 309953
214 4 310107
193 56 824866
847 31 310266
847 569 310266
847 424 310266
159 915 914053
159 591 318903
392 112 310491
940 214 310510
607 334 310540
977 644 903288
334 38 310644
377 605 825567
866 457 654969
644 977 656160
809 8 311786
168 948 311807
308 748 822435
851 915 311879
851 280 748153
851 530 311879
851 920 311879
915 923 371905
915 356 836842
915 159 371905
416 885 398379
416 256 312140
416 313 312140
416 854 312406
915 851 312536
915 280 312536
915 920 312536
4 214 312626
516 764 379959
605 700 373353
24 647 312988
862 469 382493
410 189 313588
231 245 313589
168 362 314262
977 497 904549
506 532 314824
249 670 314836
506 14 315108
506 783 399634
319 684 315302
788 164 315505
670 249 315749
136 915 652456
136 165 315861
783 506 316409
783 14 316411
682 783 317681
61 522 316608
214 159 908338
783 738 406058
783 682 335321
32 791 317039
788 50 318336
159 687 320056
685 569 319027
166 126 643340
714 193 903552
159 607 320056
159 692 320056
159 334 320056
197 923 743711
166 762 322981
264 329 391517
168 356 956532
326 938 327520
2 700 676624
2 628 327680
790 628 330959
628 790 333466
923 2 332595
758 956 724349
758 723 332764
758 918 724349
758 41 332764
790 516 953721
790 812 928181
165 948 721820
232 948 364320
700 605 373729
634 788 370216
707 98 637195
707 951 637195
707 680 738845
707 609 734604
696 457 646480
290 629 371815
290 614 371960
31 569 372273
160 629 803618
31 915 372368
590 214 372518
324 534 373265
324 591 586012
634 299 373204
147 416 373674
319 558 373750
381 107 373941
135 462 374118
248 586 738822
789 470 897288
267 629 374867
267 891 653158
267 948 374917
891 267 653209
470 605 830126
207 142 895379
90 160 386043
499 321 805156
605 228 891246
14 657 376005
977 236 727127
646 854 727891
207 421 897031
207 547 897031
207 851 897031
207 188 897031
207 954 897031
207 817 897031
207 424 897031
207 35 897031
207 241 897031
657 14 376745
142 857 376856
491 281 380964
472 912 381452
13 532 643823
159 713 723228
934 595 377802
977 32 377827
977 791 377827
629 392 378007
415 612 891659
343 229 378194
939 90 378256
680 707 378610
680 284 378610
680 422 378610
680 720 378610
680 15 378610
415 127 378655
470 502 723903
472 52 379242
377 246 898710
377 724 379109
794 854 379245
24 629 394251
470 189 379327
470 249 831016
470 6 723903
229 483 816597
854 337 379711
561 267 383608
207 558 642828
516 790 914715
663 395 380211
410 38 380478
548 164 811775
980 687 381143
980 107 727607
267 561 384848
338 951 381236
160 851 384485
595 452 381375
718 377 381377
595 754 381392
851 160 381462
720 4 381712
879 740 381941
879 223 381941
879 322 901546
879 548 381941
879 368 381941
879 164 381941
356 209 830226
702 924 402854
631 526 630999
500 159 913387
229 343 383094
802 40 383217
420 96 904128
924 702 383420
397 607 383680
714 617 830320
769 607 383737
953 569 383779
506 921 383976
700 532 384033
548 879 384526
596 695 384560
377 718 384831
607 687 825913
216 499 384951
216 321 384951
703 951 731644
214 629 385709
506 924 390920
469 862 385902
927 948 386174
927 147 386174
927 515 386174
927 629 386174
157 586 730715
522 61 386398
90 531 386539
90 987 386539
720 680 386734
715 926 386777
90 749 644055
157 356 386894
160 90 386904
164 638 386931
646 927 386956
646 551 386956
646 542 386956
646 823 386956
646 369 386956
646 62 386956
646 722 386956
646 113 386956
646 535 386956
646 513 386956
646 485 386956
646 250 386956
646 444 386956
374 306 391927
164 788 387097
763 657 387305
126 573 387502
1001 924 387570
688 404 387698
649 548 387703
647 428 387961
647 990 387961
647 200 387961
647 915 387961
647 136 387961
647 31 387961
738 329 388176
75 107 735632
517 112 815395
356 586 829954
35 951 388839
416 356 833840
90 920 389042
166 573 389067
159 500 636380
189 884 389903
90 506 397112
393 107 389943
127 718 390092
631 561 889071
491 5 390994
631 493 391445
175 442 390998
56 423 391049
823 542 391163
823 535 391163
64 322 391183
921 506 899746
53 613 391795
506 90 399047
167 851 392993
428 851 393083
915 142 749395
718 724 719810
34 855 633605
11 662 393643
171 590 394153
11 619 393817
377 53 656407
977 1001 907535
977 969 904549
321 618 909652
718 127 394144
724 718 394663
775 607 394325
851 428 394540
977 569 394637
855 540 394977
855 311 394977
540 873 395227
540 698 395227
580 569 396062
193 540 396237
307 159 897343
679 499 396286
65 687 396608
541 977 747643
159 739 396732
159 544 396732
322 879 895826
166 743 397337
103 206 397381
103 423 397381
103 164 397381
334 923 716721
915 157 836842
372 934 589853
15 370 397962
15 422 812556
159 307 398000
918 499 841157
749 746 398298
956 499 398299
854 120 901749
745 996 741940
318 595 398625
318 71 398625
174 524 398657
915 8 398922
915 739 399007
166 185 399065
458 25 913510
458 499 640775
969 189 399289
506 738 399634
506 236 399996
2 977 400637
2 969 400677
832 324 405263
1 309 405902
783 654 406058
1 343 407232
790 680 410282
2 629 411707
586 356 901891
586 573 899921
236 977 734088
2 119 432796
542 528 468698
168 575 477985
119 2 479165
788 634 917855
372 595 680370
248 762 738825
236 670 552856
450 762 567968
260 912 986583
248 157 811594
692 135 581068
692 581 581068
372 572 586095
168 557 948101
168 52 948101
168 133 948101
168 607 948101
168 790 604424
168 868 963273
790 168 624407
790 912 624407
377 457 650351
281 569 628237
731 422 829326
120 854 907381
618 499 628663
618 321 628663
77 556 978894
106 229 741589
246 457 646939
796 143 629882
469 988 630321
469 851 630321
469 614 630321
469 301 630321
469 141 630321
469 552 630321
469 512 630321
316 200 630580
977 921 638354
662 443 899958
193 910 631149
936 135 982567
406 696 631998
53 193 632041
416 168 822735
723 48 632106
936 765 825614
185 458 632377
696 406 632380
159 776 632478
723 499 632537
789 329 639115
862 977 633189
424 990 802432
368 879 633628
978 957 906434
670 236 634267
246 724 905322
921 977 642510
915 762 752754
267 944 634817
268 291 634886
977 862 634952
679 73 635108
742 784 635744
528 542 635975
159 844 636032
78 538 636087
810 231 636097
716 189 636156
587 720 916137
135 936 636458
605 470 636743
605 862 636743
605 333 822121
605 710 636743
605 502 636743
605 249 636743
605 0 636743
605 293 804203
707 193 637195
707 1003 637195
707 39 637195
707 713 637195
765 936 823561
416 294 637419
844 499 637442
319 499 638411
493 978 828127
568 784 638605
78 862 638827
546 65 638847
122 61 639030
774 947 906985
530 915 655180
558 499 824951
987 749 639747
530 462 639977
910 193 639982
160 526 639995
530 280 655180
629 2 640360
470 789 915494
189 969 641654
540 830 641885
718 687 818912
546 772 642042
546 120 642042
718 122 642103
978 493 815646
569 851 642543
569 189 908150
569 32 649725
569 915 642543
569 685 908150
569 280 642543
569 491 908150
569 530 642543
531 641 906831
582 764 654605
272 900 643016
1001 106 900727
789 605 643285
344 142 643307
951 703 718491
630 301 650729
891 530 824846
40 712 815658
415 435 891834
658 838 643762
229 769 722576
749 987 643919
122 718 643937
61 122 643959
56 329 643984
421 630 644008
723 704 898982
90 692 644055
532 516 644069
532 881 644069
532 2 644069
532 761 644069
142 344 644712
53 377 650028
871 628 735209
772 61 646249
772 166 646249
772 823 646249
772 586 646249
772 573 646249
14 644 801013
410 541 646744
410 650 646744
410 837 646744
410 153 646744
410 16 646744
410 1001 646744
410 482 646744
410 969 646744
410 924 646744
410 994 646744
410 251 646744
410 433 646744
410 175 646744
410 777 646744
410 122 646744
944 267 646813
32 569 654646
565 159 821643
301 630 647050
672 318 647111
159 851 647146
192 381 648001
422 540 648213
540 422 651957
193 714 907827
605 789 647978
157 248 727701
61 674 648165
61 356 648165
535 646 648338
769 229 648343
388 612 648474
107 118 726338
107 5 726338
107 440 726338
107 670 726338
696 377 648587
429 291 825838
73 499 649626
38 159 821285
569 631 908150
41 565 650231
41 499 650231
695 40 650467
630 421 650505
48 499 650560
630 188 760200
612 832 650981
764 582 654338
470 409 831016
758 499 651137
193 53 651163
118 716 651583
857 292 651818
948 517 652803
948 313 652803
90 189 652195
187 802 652224
633 416 652429
629 948 652604
644 14 784746
301 188 652778
107 980 726361
772 739 653294
528 380 653336
53 923 816165
193 127 653495
362 808 653544
423 710 656306
423 779 653799
423 866 653799
423 184 653799
870 658 656751
418 331 940283
663 223 726800
159 8 724977
65 948 654879
179 887 655076
847 547 655094
530 851 655180
530 920 655180
530 267 655313
849 338 655857
381 506 655887
75 879 719517
624 245 811581
720 731 656365
658 870 656425
788 638 656573
292 857 656609
765 591 656817
740 106 656871
159 38 890522
765 30 812429
321 499 657349
318 684 657367
538 569 657740
526 360 658574
62 551 897857
62 854 897857
62 369 897857
62 513 897857
62 485 897857
638 788 659968
915 316 836563
547 847 660082
11 633 660173
542 157 839415
214 742 815310
327 381 909594
847 165 661810
77 912 662540
532 192 664334
1001 977 905993
693 228 735804
2 956 676624
30 765 694687
30 135 696055
30 356 786665
30 313 961951
165 207 731304
742 659 721344
506 644 918059
644 506 905804
812 790 929272
485 62 898210
587 326 912123
429 925 715195
956 2 715582
782 435 716329
159 629 716466
933 723 720177
502 538 716513
879 75 717205
885 214 717734
329 334 717792
245 624 717839
716 118 717938
630 790 760068
704 723 899326
713 98 905592
253 290 719113
362 993 719255
723 933 719273
267 586 809699
353 185 722555
695 159 719615
75 923 719681
885 313 719741
98 713 725462
253 566 731884
680 584 721430
272 214 771899
272 40 722178
659 742 727318
157 915 720679
401 165 893401
731 281 721002
923 75 721166
580 791 721177
185 353 721540
749 191 721746
749 220 721746
582 105 734999
157 542 721891
631 569 723578
716 16 722196
577 686 857754
650 644 724641
200 17 722371
200 647 722371
200 428 722371
200 990 722371
200 857 722371
200 302 722371
200 31 722371
200 165 722371
200 953 722371
200 316 722371
98 268 725860
98 592 725860
98 291 725860
214 923 909164
16 716 722810
62 800 723187
98 707 730112
472 416 723388
422 680 724515
775 157 723488
644 650 723608
926 147 723889
470 862 723903
470 538 723903
470 333 828440
470 710 723903
470 693 723903
470 0 723903
470 599 723903
470 228 723903
98 134 725860
98 278 726428
98 117 725860
98 107 733367
98 454 725860
105 582 915656
926 715 900792
846 547 724995
335 790 725245
72 159 725399
742 229 725936
926 577 900792
377 630 738867
377 731 725721
377 530 725721
662 267 805380
267 662 858114
854 646 813418
854 551 813418
854 823 813418
854 369 813418
854 62 813418
854 722 813418
854 113 813418
854 513 813418
854 485 813418
854 250 813418
854 444 813418
630 377 726037
343 587 726059
868 586 920131
868 573 920131
107 687 726338
718 866 726451
546 48 726880
133 416 727042
159 565 815378
718 708 901406
175 5 897211
159 720 727306
159 660 727650
53 569 727659
502 862 728045
502 569 833877
859 472 823352
493 630 728331
951 609 728584
890 923 728778
693 32 728872
693 433 728872
409 506 729202
712 466 729879
950 663 730019
500 890 805032
609 707 732573
817 167 731072
609 923 731089
660 159 731196
440 380 731468
580 976 731495
466 712 731610
742 769 925398
316 428 806402
812 700 732063
954 207 732260
90 569 732502
62 542 914133
609 197 732573
609 890 732573
609 235 732573
609 633 735117
573 868 813510
880 923 732729
844 157 732852
107 98 733657
978 512 906434
132 879 734046
180 829 734330
174 139 894886
174 832 743111
609 239 735043
609 951 735043
267 869 734592
120 291 734610
879 132 734815
609 833 734884
609 927 734884
609 214 734884
609 546 734884
609 159 734884
416 573 734923
609 90 735043
609 291 735043
609 454 735043
136 200 835810
32 693 735492
75 91 735632
180 217 736205
92 953 740463
586 868 736564
585 870 736603
808 569 736914
791 862 736930
850 833 737100
850 134 737100
850 185 737100
850 752 737370
14 365 831486
159 669 737540
890 500 737715
664 380 737681
752 191 737749
248 135 737806
248 550 846056
90 702 741099
322 223 738292
702 90 738609
31 24 738741
248 450 738822
248 502 738822
248 492 738822
248 595 738822
248 915 758716
995 334 739000
236 208 739070
832 174 739498
90 32 739516
702 670 739910
65 784 740346
854 61 806798
90 802 740714
731 284 741378
106 1 741589
106 139 741589
106 780 741589
106 309 741589
731 720 751131
573 586 741880
334 995 742193
260 575 916636
587 343 742347
670 702 742415
462 280 742781
629 462 743151
680 731 743200
558 321 824951
24 31 743315
817 421 743322
817 424 743322
817 207 743322
313 984 744314
497 491 744671
236 189 836900
188 630 745248
188 431 747309
398 712 900073
915 165 749595
56 749 750173
56 692 750173
61 854 751768
790 630 752165
186 267 821668
223 322 753012
586 541 914643
586 58 914643
586 479 914643
586 196 914643
586 264 914643
586 160 914643
586 214 753669
586 159 753669
818 438 913186
586 111 754734
586 854 814560
531 56 757718
105 418 971459
712 398 837703
293 569 800793
362 381 801740
294 817 801805
190 471 802907
26 40 804001
955 873 804070
160 630 804122
572 662 804153
267 186 821569
854 586 804305
190 353 804316
190 274 804409
842 702 903794
190 891 810196
592 98 813176
190 373 804810
379 568 804971
190 656 804983
500 923 892582
499 48 805156
499 558 805156
499 607 805156
702 842 904680
322 64 805567
159 72 805644
915 248 836842
541 923 806004
366 972 806116
672 48 806254
592 199 806334
580 143 808130
306 229 806506
624 364 806549
638 634 806676
572 372 806747
832 788 806807
854 517 900649
495 159 807242
602 416 807264
517 854 894654
629 136 807530
838 630 808021
90 742 821050
416 260 810638
40 147 808096
686 577 830876
421 978 808435
75 53 808600
193 629 808659
267 256 821569
267 648 821569
267 517 827231
267 478 824202
256 267 823523
256 648 905060
256 517 809002
256 112 809002
256 186 809002
256 478 809002
765 313 811646
267 530 809786
132 842 910355
656 301 810035
260 416 810087
143 796 810131
143 872 810131
918 758 810153
630 838 810254
648 267 822509
842 132 981576
347 577 810892
838 658 811960
838 392 812167
737 537 811347
517 267 828319
392 838 811828
443 550 812253
443 193 812253
443 53 812253
920 851 812608
920 915 812608
920 280 812608
920 530 812608
267 658 812625
749 56 812901
920 274 813389
586 383 914863
977 996 815992
612 64 813685
920 656 814019
135 692 814026
714 890 830320
164 548 814516
56 193 833028
478 267 823213
517 256 815395
517 648 815395
517 186 815395
517 478 815395
274 167 815426
415 630 909396
118 107 815691
696 360 815913
862 638 816238
260 790 816311
220 415 817060
406 12 817137
830 193 817250
843 320 817733
546 443 818175
369 556 818333
369 263 818333
321 216 818378
719 410 818855
718 502 818912
718 916 901406
24 547 821316
547 24 819527
147 214 819759
106 634 820464
951 214 820662
631 112 821251
193 830 821692
418 105 923172
660 784 822394
500 435 986044
416 912 822735
5 175 822907
719 783 888752
719 13 888752
719 738 888752
996 418 824367
862 167 903352
558 48 824951
558 216 824951
558 319 824951
558 458 824951
891 24 825150
15 406 825155
101 149 825246
966 171 825457
223 663 825526
90 865 825752
429 98 825838
308 926 825859
795 421 896151
790 260 826112
581 692 826169
718 404 826318
167 978 826483
407 843 826617
184 393 826851
184 607 826940
406 15 827037
607 927 827231
267 142 892927
630 415 905177
134 515 827856
718 246 827946
663 706 828588
246 718 829062
450 159 910037
141 188 829730
75 945 829918
75 223 829918
75 189 829918
75 617 829918
75 6 829918
75 462 829918
75 670 829918
75 535 829918
505 174 830018
164 174 830177
2 75 919300
75 550 830693
14 1001 830945
14 702 830945
868 416 831001
868 356 897741
868 762 897750
24 891 831148
365 14 831261
164 420 831954
710 599 831996
356 416 833099
356 868 832012
356 762 832016
410 719 833237
362 922 833476
502 718 833875
356 859 834287
732 0 834442
684 517 834498
684 542 834498
684 157 834498
684 586 834498
684 356 897873
684 535 834498
684 743 834498
356 574 834676
843 407 899821
915 75 835253
356 256 836870
915 912 836842
915 542 836842
915 168 836842
915 472 836842
915 765 836842
915 684 836842
614 978 838982
648 762 839750
915 980 840294
915 629 923043
818 58 913186
924 14 844124
530 718 844720
439 168 846101
575 232 849933
790 700 850174
135 75 853639
872 987 854546
199 506 864906
644 996 867258
697 170 910102
167 862 887983
142 267 892095
142 92 888440
142 953 888440
362 528 888588
142 207 888737
428 569 895928
629 915 889877
334 546 889939
1001 850 890329
13 719 890376
13 738 890376
75 2 890645
415 504 890769
630 267 891465
65 220 891045
542 535 891059
157 718 915064
267 630 891321
631 281 891831
569 428 908150
38 832 892117
415 987 894109
32 572 892310
879 174 892337
742 90 892339
256 356 892722
633 612 892831
194 306 893215
987 415 893550
923 541 893554
971 200 893563
704 41 893883
369 770 894192
175 1004 901685
48 25 894564
935 776 894619
469 264 894619
517 166 894654
517 565 894654
517 542 894654
517 157 894654
517 602 894654
517 586 904740
517 356 894654
517 765 894654
702 382 895004
159 517 897557
493 301 896338
749 264 900328
301 493 895995
207 957 897031
193 890 896678
207 301 897031
957 207 897170
199 996 897479
381 643 897776
854 923 897861
765 517 898047
586 648 898097
53 61 898362
101 246 902952
101 423 898398
122 693 898457
586 718 903155
166 517 898672
921 657 898843
586 416 901891
585 909 899337
718 586 899356
718 157 899395
718 530 899409
921 783 899746
264 749 900039
927 607 900160
586 517 900242
1001 644 901061
96 638 900595
96 509 900595
96 832 903402
232 126 900720
1001 828 900727
660 90 900731
159 306 900755
843 907 901153
193 776 901682
586 334 901891
832 96 901930
190 920 902401
686 872 902565
472 743 902567
548 174 903095
663 649 903255
862 428 903565
232 575 903860
644 752 904158
428 862 904350
388 322 921111
322 388 922704
830 692 905262
612 633 905340
713 592 905624
362 602 905644
833 159 905706
881 541 905817
550 248 906019
462 450 906039
462 248 906039
462 851 906039
462 517 906039
462 542 906039
462 157 906039
462 783 906039
462 742 906039
462 670 906039
462 718 906039
833 617 906306
833 720 906333
214 272 907159
236 1004 907413
752 644 907782
569 281 908150
569 580 908150
569 188 908150
569 977 908150
569 78 908150
569 422 908150
569 31 908150
569 360 908150
569 953 908150
61 388 908289
61 343 908289
280 65 908366
687 65 908456
193 700 908495
65 280 908639
446 764 908679
193 617 908898
664 107 909127
516 437 910011
546 607 910599
360 569 910618
112 631 910729
126 232 911383
200 267 912058
700 790 912191
693 569 912260
239 951 912652
509 780 913483
458 844 913510
969 761 913592
761 969 914570
159 136 914053
828 1001 914557
586 687 914643
951 915 914739
851 591 914789
670 29 914807
497 977 914913
497 773 915121
147 577 915629
383 586 915825
631 24 916207
788 299 917853
788 96 917853
788 106 917853
499 565 917991
670 5 918470
248 718 920487
509 303 920861
450 718 923744
682 738 925619
168 439 955238
77 294 980009
77 439 980344
912 260 981724
450 712 984129
292 135 984919
292 581 984919
170 264 985187
264 692 987245
440 737 987879
