352 3903
468 1222
383 0
937 99
99 937
2028 2466
948 746
4008 3980
35 268
52 2822
5508 2942
1701 1714
1714 186
1348 1375
1 166
418 404
4197 6
202 41
429 87
41 36
16 6
44 39
35 
85 7
34 090
530 62
788 784
053 628
243 849
266 239
62 307
252 62
637 546
937 923
937 452
452 937
570 562
65 775
348 62
245 
6 664
352 585
348 353
905 86
258 334
96 270
2647 296
296 2647
468 396
35 3266
2 238
2688 304
345 302
057 923
522 4086
3545 429
35 3328
3527 4204
423 42
3699 2404
62 30
4559 2552
3897 3000
4788 4996
499 905
546 4945
4562 4996
4554 524
4852 2045
473 396
3422 5339
3722 5883
52 3707
52 5525
35 589
4365 5508
5965 5983
5777 3828
528 96
5605 4385
5539 537
5983 592
4365 04
2388 5783
96 345
2067 947
75 7
60 75
4 152
299 60
197 2835
410 20
542 480
547 542
6 88
202 206
18 1
909 908
18 905
152 29
168 159
1222 468
540 1162
468 516
775 112
186 1499
272 2848
7 88
257 297
83 418
984 230
1386 1507
3086 3136
3006 193
3 1897
1910 13
86 3174
3174 86
1860 15
5032 5029
66 85
2642 3630
610 1810
1819 96
412 1953
64 15
1981 64
1386 353
2642 3828
3534 353
401 373
184 1733
1119 65
4197 1731
2890 263
2717 2752
32 13
2397 4811
2028 2642
5440 4860
196 4291
4649 451
195 1201
546 1565
1565 546
171 1555
1744 1612
148 905
1 1991
6 1860
453 96
1899 256
6 1810
192 1771
1771 192
264 1624
77 2429
195 2878
729 219
571 1018
521 086
664 2625
669 1412
74 1802
684 2642
291 195
677 2642
096 195
2642 724
1810 020
2565 4058
242 4197
642 17
87 429
1222 905
4402 4400
2942 2600
1508 2028
7 2028
2028 1508
897 171
2064 1864
2252 25
4266 195
4197 1548
180 2028
280 60
36 41
224 5
4860 545
2142 2067
1585 2125
61 
545 5157
2625 5529
36 1
39 44
37 7
47 79
7 56
094 729
20 94
729 62
202 292
293 204
094 39
 296
64 36
39 094
345 346
090 34
62 320
265 4
350 77
2 467
29 476
52 228
200 533
342 882
342 37
86 476
630 207
630 266
56 647
35 34
35 299
674 647
738 654
209 22
206 233
632 49
833 534
876 862
275 334
64 547
784 29
499 780
29 784
334 275
70 779
00 537
86 295
35 836
779 
270 36
36 270
35 328
770 77
687 962
56 775
780 273
78 040
053 268
70 309
08 54
309 55
452 053
053 452
237 094
24 23
929 577
986 729
304 929
62 346
548 546
325 780
64 334
377 939
299 094
62 794
605 353
396 555
555 396
57 290
62 377
923 937
377 62
35 65
363 80
35 58
379 62
905 84
562 570
309 666
0 383
666 309
675 566
37 675
566 675
566 587
568 905
923 62
465 723
347 664
62 666
377 379
666 62
32 350
350 32
309 62
386 725
346 409
882 204
937 37
366 267
809 83
546 596
353 664
377 209
77 3
40 48
48 40
522 7
35 894
49 267
548 765
788 304
693 677
765 548
094 389
389 094
35 37
953 984
396 345
094 207
28 204
677 2
543 80
77 2035
396 705
57 2053
309 74
2 677
905 2036
62 286
356 32
896 99
352 546
37 850
3 258
880 77
207 094
334 258
675 289
473 225
24 2246
295 225
258 3
905 2297
2260 2045
899 2306
566 2028
343 64
2034 75
675 2407
2407 675
273 2244
2244 273
353 468
608 352
2266 278
222 23
396 446
446 396
273 2270
232 80
2504 2266
2045 2090
27 344
2246 24
2296 2485
2485 2296
922 2558
35 47
35 450
2558 35
273 2636
273 670
234 273
670 273
2205 2266
2279 273
2638 80
2028 2438
2328 2438
2635 2637
35 452
735 276
274 592
2724 298
2724 905
905 384
 447
456 280
80 2937
2593 270
882 438
735 276
27 458
2296 2937
286 2028
2934 2252
32 357
2962 35
2945 2859
3598 403
2940 746
80 00
2939 764
2725 2868
303 953
2795 656
86 
 86
3005 585
80 3090
35 3067
85 242
2878 242
252 899
225 550
386 546
3598 3099
3099 303
369 2635
08 394
394 053
3598 2780
2780 2835
2905 953
447 383
396 47
294 953
42 2909
395 3267
2388 2442
2642 97
2642 3239
295 290
2823 2875
2 478
2028 648
546 2693
290 80
302 345
290 953
476 204
2924 80
3298 396
478 2
3250 25
396 856
347 2642
629 885
2028 2877
347 3337
27 252
252 27
3337 347
2897 3497
27 48
705 27
387 280
3573 3577
546 3590
3593 2266
265 2642
3466 338
3466 08
364 363
08 3006
2897 3272
32 365
2642 355
365 32
2755 2472
3653 3654
3654 3653
202 3730
3730 202
3734 289
488 386
3735 2625
2878 3223
923 057
3653 3746
379 3735
439 489
953 3852
3223 3864
3453 629
3864 3223
280 6
365 364
953 3865
35 483
35 484
2642 4048
522 288
2244 48
3466 976
373 345
4086 522
80 396
3429 3366
484 3988
3366 3429
427 35
345 427
2600 2987
2987 2600
4253 3545
3600 3656
4265 472
80 4245
3828 423
4266 670
396 327
3699 4328
325 345
345 325
3820 202
396 664
396 423
396 4048
325 268
4363 2958
4405 4339
4385 2427
442 379
379 96
3935 4475
4420 396
3699 3897
379 4334
379 396
428 36
267 4425
4425 267
4423 3892
98 462
4274 80
408 555
252 302
4363 4530
4530 4363
472 4402
4428 546
4267 2565
4553 4625
497 4629
3699 2063
385 2835
4553 4554
4628 3404
4228 80
3649 4458
80 4228
396 4380
329 474
329 3960
329 434
329 497
89 334
507 508
905 445
344 497
2404 3699
429 2848
3897 508
204 50
2848 2446
2848 3649
50 204
2430 2625
2848 339
2848 2635
635 729
729 635
4926 4907
546 4925
37 508
30 62
4898 4890
4779 2647
472 3000
325 62
4993 4999
4995 5004
905 4788
4996 4788
4787 4365
303 5029
5030 4884
4635 50
4942 4970
345 390
2322 300
23 4833
639 407
586 595
386 350
5245 5025
346 5227
4559 496
525 5245
937 52
5228 4694
4694 5228
2647 2378
472 3598
225 585
565 280
238 2388
5339 228
280 550
550 280
344 27
5228 429
456 386
525 5398
344 775
735 4559
473 386
223 939
35 592
4925 5352
525 487
953 5269
2045 5455
905 5403
3345 4562
3988 3040
35 5352
268 35
3988 4852
4735 536
492 202
5 39
35 394
5559 3640
536 5558
89 5348
3040 5583
45 5759
5759 45
2388 5795
2397 4499
5482 560
352 5539
5623 3707
429 5595
5227 5660
562 2934
563 5665
5685 562
225 455
5777 3988
4385 3444
5472 5609
3707 5578
5724 562
5655 352
4553 3988
3722 557
485 429
3722 537
3878 2388
4635 4828
3707 569
578 3828
3640 3828
3804 5625
4532 588
592 33
4594 2045
2942 96
4724 572
35 5892
5655 5809
4205 5935
4532 5886
5942 5943
5942 5935
2067 80
4320 3345
492 559
492 2822
429 48
5 4304
4304 5
529 345
5822 3707
3828 5777
5983 5965
5227 3598
4709 5825
555 5799
5655 5799
546 5987
3598 2388
399 2388
352 5799
5827 4532
5753 5227
345 4925
4925 345
5539 352
5623 5525
639 4532
379 5835
2942 5508
4709 4867
5482 5508
04 5844
5844 04
345 5565
5565 345
5525 5806
5800 572
953 543
334 345
5846 5578
04 4365
345 639
345 96
5540 3722
3828 33
33 3828
35 5777
35 96
892 04
4205 2252
583 5849
4205 2045
583 429
93 1318
75 60
1201 09
214 60
2835 197
445 180
80 0
401 87
266 475
9 62
7 20
528 5
570 574
206 202
491 1
72 778
72 2
75 725
82 714
7 892
944 94
295 920
82 957
502 27
21 202
781 827
82 857
908 1024
468 925
714 908
576 462
1099 882
927 82
08 21
82 927
08 1
768 576
257 28
257 6
1257 667
3828 52
1 82
111 1185
882 465
124 641
49 1
515 35
780 18
921 1252
1252 921
5829 3988
775 1425
09 905
1462 1217
116 57
149 468
921 592
7 465
465 7
1494 117
369 292
157 546
186 1620
1629 905
5956 351
1 17
1018 371
1566 1544
196 1574
1607 1568
117 1
5833 5606
1744 1755
1774 52
1585 1566
1566 1585
1565 171
1562 1615
09 18
1758 178
1512 1744
1562 170
176 1556
1744 1512
7 53
53 7
1 23
60 112
48 35
07 7
2 62
230 198
27 229
21 77
197 1217
7 120
0 89
353 350
4172 1555
21 490
171 346
53 166
39 167
39 223
879 866
714 33
59 547
171 35
974 75
1078 1081
1286 1217
353 15
1067 67
270 62
30 0
1566 1595
54 523
23 1218
7 7
835 540
1 51
180 1165
1037 169
5 1
1620 229
7 64
14 116
186 1878
1376 522
655 669
775 1573
51 6
101 1018
1 1010
1585 1589
263 193
1375 1348
317 1743
1411 80
1317 1386
1543 1217
32 30
41 136
3136 3086
446 3935
8 1643
1334 1554
1487 151
882 1
2192 25
1844 1876
186 27
1352 1201
1947 1744
160 1317
2430 2427
1771 000
171 1701
149 3
591 13
1386 1585
18 166
160 164
05 1771
166 202
2427 2770
13 1910
2030 2198
18 6
1543 1334
64 304
1555 1591
1555 116
2949 193
177 19
190 304
98 067
1217 2427
12 1
04 194
1810 304
1 1566
236 206
303 96
1948 24
169 1661
191 1810
1585 1386
049 310
1890 96
260 245
2472 144
1396 136
144 2472
2386 1846
1810 610
080 97
1810 1819
19 14
1566 1
1334 1667
1667 1334
859 1615
57 81
1899 513
208 2252
1953 3006
89 897
01 3056
791 658
635 3086
861 897
78 880
1743 2013
948 593
1810 3146
983 35
159 1697
763 943
958 15
1953 933
160 184
1018 263
2233 491
1566 1639
388 987
110 2942
3556 3552
65 3476
65 191
1512 1810
1018 3000
3804 3366
3875 687
396 2262
3574 3549
4122 3880
3854 380
4164 3971
1764 113
3630 4036
415 117
133 13
763 1334
3018 361
393 13
30 1585
2934 4172
304 3666
179 1650
3810 1810
318 2642
3113 242
3815 491
1819 3465
2984 212
2028 2821
4524 2642
3813 1318
4460 4308
1741 35
3105 4363
309 1316
4490 3611
1317 1499
4599 484
445 4459
4114 4197
4740 600
364 3598
4635 4755
1576 1383
319 388
4622 424
242 3887
4787 3598
2623 2622
2622 2621
4874 345
4787 118
4774 65
417 3986
878 4055
4301 4933
4301 4934
139 155
4172 1018
1674 1766
317 404
1689 1771
333 2
453 113
176 1771
35 1515
4559 4004
176 156
156 176
710 4197
2657 267
3713 30
2363 193
3880 378
353 4559
4559 353
4511 5144
5144 4511
3374 3366
1779 1744
3236 2642
2702 2752
555 4511
1529 1386
16 193
1 5418
4694 439
3988 318
193 2966
491 4611
1790 1771
229 227
1771 304
304 1771
15 1386
1568 1607
3966 5408
1317 160
3236 3233
4811 2397
3593 1948
5408 5414
7 1396
5440 545
5440 135
5440 357
1648 547
101 178
5316 5363
5363 5316
3040 183
357 151
1383 175
2297 1922
3040 51
51 3040
5608 561
988 566
196 14
2142 215
5654 481
377 35
1677 1
5925 1
5 1562
196 219
1245 2129
1948 2165
5650 4205
1955 195
453 588
988 294
15 1566
7 1899
561 4515
4515 561
5606 8
569 4860
3153 3956
1850 553
5925 2067
451 4649
4521 35
1512 117
334 4291
4205 5900
1890 2125
1018 2124
216 2072
1201 222
4205 5952
5959 5949
594 5958
4291 
2204 1899
51 593
1565 57
405 5958
5958 405
2045 207
4499 4197
4197 4499
169 416
515 388
1912 262
1757 1899
491 4499
1860 04
04 1860
1018 828
1478 2427
169 1565
1499 2067
719 451
451 719
451 404
905 2045
425 7
2485 2511
2118 2520
2516 2505
1615 186
1612 1744
206 2214
1921 2485
104 2297
1991 1
55 2455
1 1675
1615 2241
2580 1948
35 5886
5449 288
2124 2125
57 228
425 15
96 453
2744 2745
2154 211
1899 182
2745 2749
2746 2749
1201 1529
195 2808
1585 1752
2214 14
1612 1810
2859 2848
1810 2409
1656 1719
1656 4
4 1656
4 1984
1899 15
1899 1990
1685 1840
2978 2582
2000 1685
276 006
195 270
2847 195
195 2847
2770 492
1810 2725
2896 092
1018 598
2262 1810
1911 1860
1018 145
1810 1585
16 145
08 195
276 25
226 56
256 1810
1778 1860
1810 2187
161 2942
072 195
19 14
1810 049
006 276
2028 2110
2028 1746
5 26
77 240
546 1018
2194 1528
647 2642
476 2625
298 1620
2878 195
219 729
2028 1990
2642 448
448 2642
2050 2642
2642 02
658 2028
2897 2642
55 2642
1714 1
662 2642
462 575
589 1217
2642 568
585 2642
2028 658
1528 1948
571 626
2642 050
62 2125
1948 74
89 669
577 5
2028 649
611 2625
285 1
2642 107
687 2642
2625 1859
656 802
687 828
2642 1565
847 884
2642 998
2642 57
195 291
641 89
294 408
611 2642
2004 5
117 41
96 1656
2642 1967
4114 4115
4114 20
2625 828
195 096
2194 186
1217 4152
2652 2028
20 2266
66 2642
66 445
251 905
1674 75
426 289
856 2642
415 1217
1565 572
404 418
1948 59
45 2125
421 4197
2167 4269
4297 2125
4058 2565
1819 2784
6 4524
452 1018
4266 4267
4172 4409
107 288
4521 470
445 415
445 4407
17 642
2600 4209
904 2012
427 2942
1815 2125
4598 4611
401 4540
205 57
401 4529
2942 4604
4666 467
4645 2942
491 4284
4400 4402
4682 47
444 2642
1714 6
6 1714
1222 166
2087 2096
117 2097
288 719
416 4291
18 15
1478 186
480 469
2028 7
27 4197
4611 222
117 147
200 2067
2067 200
4569 4197
4890 4611
4890 489
2118 189
498 527
1584 1478
1584 211
425 6
4922 572
171 152
5056 48
61 649
824 5105
425 4115
772 510
4172 4197
4987 1764
415 220
1 212
48 099
200 2016
4884 5025
5227 5251
2144 1185
5151 880
4197 194
48 5297
13 9
48 905
820 48
2146 2145
4857 1
53 45
45 54
54 45
988 547
4694 000
000 4694
988 4499
988 4125
81 107
80 5
210 105
113 3
113 135
135 113
7 141
1 111
175 115
2067 2142
1 39
4 61
5065 5157
655 4611
13 157
545 5065
274 2187
2187 274
75 6
115 2
33 7
2144 1846
992 908
1 36
4 4
4 4
4 86
8 7
5 70
4 39
37 44
44 37
97 68
36 37
37 36
23 7
 9
08 04
2 77
77 2
46 36
32 34
34 32
4 40
7 3
3 7
60 47
48 4
62 4
32 62
62 32
46 78
73 3
2 4
59 32
48 82
82 48
44 8
04 90
7 85
56 7
98 32
729 094
290 053
729 290
290 729
23 32
546 286
7 20
53 202
053 52
52 053
204 286
053 608
608 053
26 24
43 25
25 43
204 80
62 35
242 4
269 22
66 206
53 7
206 66
269 7
4 275
38 37
288 202
62 729
49 27
204 293
280 29
29 280
23 28
67 5
 32
053 522
304 93
 225
7 249
62 32
29 29
36 64
64 37
923 053
345 32
62 053
053 62
62 323
298 299
299 298
320 62
202 356
324 202
288 307
372 4
4 372
383 248
634 97
4 265
40 402
384 
409 353
33 325
325 33
202 377
225 45
4 20
80 445
448 436
439 203
374 35
438 464
453 5
472 350
383 40
479 477
477 479
322 32
454 0
383 348
454 408
378 25
64 256
256 64
280 484
60 28
28 60
63 64
322 379
372 525
525 372
60 230
476 86
66 532
920 882
273 465
384 476
539 399
539 44
49 520
99 85
465 273
224 98
202 488
98 394
85 99
394 560
560 394
383 203
424 533
203 399
522 52
 25
480 59
268 270
332 32
98 586
58 3
882 342
408 7
7 408
64 58
58 64
49 452
598 563
452 49
283 58
3 59
50 98
98 50
586 592
66 7
33 624
270 268
62 330
330 62
39 76
76 39
627 346
256 630
630 256
207 630
59 276
52 630
2 632
632 2
647 674
 04
608 664
292 32
59 663
266 630
635 659
337 35
26 436
62 929
29 4
882 35
238 302
647 630
647 56
35 882
 677
677 
658 427
48 630
48 634
62 49
304 70
634 70
70 634
585 523
634 705
627 679
680 26
26 680
462 675
675 462
654 68
68 654
676 523
495 39
654 325
243 680
654 650
978 332
378 676
332 62
29 7
745 633
680 44
44 680
62 332
677 685
36 202
405 74
233 206
570 76
634 3
766 42
765 3
46 634
44 647
234 206
268 550
270 742
7 335
628 053
49 632
499 496
570 86
537 88
725 767
64 399
399 64
86 570
687 82
724 537
69 83
634 802
770 862
862 876
862 732
865 687
523 535
784 545
775 3
775 537
866 687
273 227
862 770
742 902
843 209
2 779
689 837
522 3
26 687
522 4
396 227
820 209
82 776
776 82
284 854
25 7
849 243
846 687
943 966
923 353
853 847
779 70
973 98
374 93
98 982
847 853
38 436
273 546
70 833
00 928
572 549
687 855
06 908
020 022
859 4
09 896
3 687
920 05
925 028
026 726
925 469
469 925
729 3
005 04
3 729
04 005
847 304
997 838
304 847
687 74
908 026
 779
836 35
494 353
846 053
053 846
02 383
972 908
06 092
43 774
820 770
44 073
776 837
520 962
837 776
842 830
908 06
830 842
844 775
592 228
489 86
209 26
27 092
962 937
76 673
092 726
32 537
522 36
236 202
950 982
30 978
775 56
2 78
273 780
79 062
8 537
68 204
87 88
673 58
770 023
207 832
30 70
49 238
22 200
239 64
222 3
62 202
270 207
268 053
00 234
234 00
209 7
209 64
64 209
235 775
894 252
252 894
290 37
37 290
78 62
537 
62 266
266 62
208 62
338 937
206 240
62 208
592 094
239 266
937 338
239 253
253 239
094 237
270 269
98 262
62 353
257 278
62 262
262 62
28 243
066 925
64 343
493 353
094 30
729 986
270 30
929 304
307 963
37 384
35 548
35 544
334 548
568 386
35 557
377 378
377 328
375 59
52 383
566 598
478 604
34 
094 299
529 469
469 529
555 225
780 325
780 379
794 62
266 562
555 606
566 64
66 37
62 242
379 780
 350
350 
566 529
529 566
570 577
384 385
386 57
487 555
628 252
252 628
905 578
62 252
053 628
386 548
562 580
37 52
388 377
386 369
566 6
62 379
636 665
58 35
882 592
543 582
935 562
562 935
636 657
468 332
370 379
390 377
332 468
566 583
37 584
676 386
379 370
383 39
35 353
635 384
37 677
053 579
579 334
334 579
565 59
635 38
487 585
585 487
383 57
676 585
094 80
596 7
328 35
675 37
882 385
566 683
3 579
207 39
664 394
588 566
566 588
267 397
397 267
724 35
664 347
468 725
728 735
62 348
090 349
736 908
565 736
053 546
349 090
345 380
380 345
562 736
736 562
487 693
379 377
386 245
937 550
402 468
4 304
550 937
350 92
346 62
252 37
546 744
404 62
744 546
383 767
37 028
65 760
 882
562 775
468 35
35 468
407 775
35 786
786 35
567 545
797 35
775 40
409 346
386 550
550 386
094 42
37 937
634 368
 245
267 366
799 540
585 773
802 585
566 322
624 806
35 796
095 35
753 8
744 322
35 82
566 596
809 777
937 402
402 937
596 546
596 386
502 905
782 753
555 764
905 332
332 905
377 4
386 8
4 45
765 28
824 75
77 820
36 82
744 825
825 744
386 565
803 37
828 85
390 36
366 822
838 334
565 04
386 92
386 680
77 806
095 334
664 353
209 377
384 37
635 37
37 635
905 888
752 833
905 889
755 35
89 523
90 744
882 693
900 899
900 35
52 487
892 873
86 49
903 523
562 905
906 584
539 9
3 909
860 888
546 523
97 80
922 744
35 884
546 872
267 49
35 926
892 585
453 93
754 92
92 245
92 773
35 928
744 729
876 922
935 744
744 935
85 334
334 85
942 37
304 788
629 92
945 744
693 555
929 892
860 946
946 860
207 468
937 275
952 80
468 3
3 468
56 3
3 56
860 757
487 855
35 664
35 957
034 62
62 034
964 744
856 77
77 856
964 80
959 775
959 35
32 352
28 892
352 32
92 979
905 677
222 546
982 7
35 983
80 952
922 937
35 978
729 35
20 888
990 3
998 994
426 35
200 499
860 999
546 964
062 427
690 25
062 40
7 858
840 995
353 348
785 37
785 65
80 848
366 426
65 2027
744 70
203 905
349 354
49 78
653 27
349 355
4 204
354 349
860 523
775 344
355 349
357 523
2057 92
74 309
86 905
77 2037
93 499
206 80
2062 28
4 540
2038 70
523 357
37 43
32 356
387 346
35 434
829 620
882 860
833 752
2080 28
433 432
346 387
744 846
37 849
37 463
99 896
2070 35
204 2085
89 744
2093 2028
2028 205
2067 203
203 2067
77 874
998 92
92 998
893 28
546 352
473 37
348 546
546 348
850 37
207 379
85 227
203 400
744 334
334 744
3 42
35 229
400 224
224 400
592 225
74 2030
77 846
87 77
348 37
973 28
2028 803
248 220
224 57
905 823
873 88
639 537
899 255
85 260
2028 274
225 342
35 277
873 860
860 873
275 278
6 937
2067 262
267 905
36 95
255 334
383 725
846 93
053 2028
289 675
258 7
729 529
24 299
729 265
967 287
30 535
338 209
334 65
383 96
2028 2250
96 383
2044 202
2220 2028
4 436
37 368
729 242
242 729
529 223
229 555
273 3
2229 28
304 278
2229 396
546 2205
2072 905
2205 546
802 860
2229 802
24 937
27 2237
967 953
35 2247
35 2248
2207 3
905 562
550 2297
876 2297
24 948
35 2296
39 4
4 39
36 298
802 677
585 2306
239 7
62 540
620 2256
232 899
620 585
585 620
890 99
529 2260
890 2229
2293 2022
92 937
937 92
225 890
2297 550
527 937
348 5
2305 2224
2067 2292
234 
546 225
89 238
2045 2087
2028 2348
2348 2028
370 37
937 299
439 438
994 353
2020 2255
2224 555
2224 2305
2352 28
2045 2260
775 203
953 224
2306 899
23 850
546 342
2368 228
396 788
237 28
939 309
2090 899
2045 92
238 905
788 25
294 359
224 80
2380 802
2208 2293
238 832
2393 35
905 890
396 2265
920 2028
2395 80
2028 2346
273 499
2265 396
529 298
937 533
280 436
2244 846
98 20
757 2266
478 2054
35 445
35 44
439 35
80 298
899 2243
383 63
304 62
2390 2293
2293 2390
757 2296
352 608
2438 225
2067 2449
23 222
2067 2453
2460 635
224 2328
2463 2404
2028 557
557 2028
2296 2433
262 202
675 905
529 396
2404 7
2466 905
693 20
80 2440
2296 2469
2028 244
495 322
322 495
940 937
80 946
2296 298
35 2453
2488 2296
225 225
700 245
250 209
278 2449
555 2045
2266 2504
2045 555
962 2028
3598 2494
2494 3598
334 446
36 444
250 23
2449 2505
2505 2449
899 258
2034 287
2403 545
35 447
2028 528
802 227
506 334
227 802
2399 2524
2258 23
2529 576
563 675
832 2030
35 2304
2304 35
7 2533
779 2399
44 95
2028 2272
540 57
2272 2028
227 225
225 227
237 250
922 2355
2028 28
65 2475
729 5
47 35
225 2274
2566 257
2028 762
383 448
62 449
70 557
2034 2536
2028 2576
546 2585
878 677
677 878
2537 225
225 2537
253 2538
2272 2277
2597 2592
273 2090
35 264
35 446
905 383
905 802
2244 546
35 2558
922 905
2568 2628
2252 967
363 2639
35 2538
2378 2590
2660 2636
850 80
80 850
24 044
044 24
273 2279
23 37
37 23
276 234
294 2600
80 2638
2438 2328
304 235
35 440
2485 905
2399 2642
2642 2399
44 35
802 2280
2280 802
35 2658
35 2587
2600 96
2600 2723
273 2728
529 2723
905 2284
2742 832
2755 2740
2725 366
953 592
366 453
592 953
453 366
7 873
384 905
592 274
2244 997
2524 584
746 73
2729 2296
2296 2729
2045 2524
08 2296
2299 528
746 36
36 746
35 356
905 2283
246 225
225 246
2593 2397
279 35
2306 2784
2778 276
225 368
997 2244
546 45
546 2733
447 35
2763 2800
752 2806
235 2600
2763 2472
282 2865
2865 282
224 2777
2642 2872
2028 2866
2848 2769
2795 2635
276 2028
2028 2679
2679 2028
456 546
899 765
2869 2808
2600 2000
2805 2600
2726 80
80 2726
675 73
2803 905
35 2839
2843 2725
65 2859
2867 953
249 953
2296 2803
348 458
242 2878
242 27
2897 2946
270 2593
348 882
80 20
2028 2405
235 80
2070 6
2974 396
235 2936
27 334
35 2976
65 35
76 320
320 76
2859 2885
2944 2725
899 2795
357 32
2962 2658
764 2939
675 733
276 286
235 2940
57 2859
294 2296
65 2388
2028 840
2296 294
2688 2067
96 2988
275 2879
802 2822
2328 72
00 80
2872 2642
2939 2888
2887 2725
57 224
2733 2835
2835 2733
2635 2874
2 3026
540 303
303 540
270 96
35 3028
2402 2485
289 546
35 3008
7 2943
458 406
2943 7
30 953
899 2894
2642 3048
585 3005
2725 3055
27 300
300 27
345 406
2642 3006
2733 3003
493 334
7 2943
2943 2028
65 2233
2233 65
899 3073
953 3033
953 2828
953 3084
953 2963
2963 35
35 2963
2647 3002
08 92
3045 3078
334 2252
2725 2688
2388 290
856 305
3598 3092
37 2688
35 2872
3087 3044
308 36
2888 492
550 225
352 3029
2642 338
937 899
08 2963
6 08
832 6
252 466
466 252
342 2070
2775 33
3598 764
340 2897
08 256
08 502
502 08
7 36
2942 802
35 348
2485 354
2635 369
35 356
2892 2900
2900 2892
277 265
2063 2897
390 3044
2780 3598
859 693
3099 245
08 393
3037 2635
094 400
399 35
729 270
2642 2934
2028 3002
25 2642
396 470
273 2642
2803 27
27 2803
304 2688
47 396
383 447
2875 2823
2485 2852
2852 2485
276 334
334 276
2836 054
2880 2728
3239 3233
3233 96
2328 2835
2835 2328
2647 2875
3250 39
2875 2647
39 2835
2929 2028
396 449
96 2
6 550
323 3045
80 326
3239 372
2887 905
353 360
360 353
2725 2658
3225 08
2887 29
288 29
2838 2028
2873 2808
2867 2378
2378 2867
308 3286
3287 3259
39 260
35 36
2642 98
473 334
3295 3296
3239 225
35 474
249 3270
3270 249
270 3298
2442 2388
3239 327
327 3239
290 295
2642 3306
3270 3239
2635 295
295 2635
953 295
295 953
225 332
2325 3233
298 2848
342 2388
565 3326
3598 802
334 2920
2647 3323
335 2903
2874 290
290 2874
2952 953
528 529
528 3273
290 249
204 476
2725 3326
08 3374
35 478
478 35
396 3298
566 546
546 395
2848 2928
2484 329
35 3407
2693 3277
2028 2925
2925 2028
2028 052
32 362
362 32
362 35
36 3388
2928 2296
35 2784
3435 35
2262 2725
72 2398
08 2600
3448 35
2642 3
70 882
2028 33
3 3453
376 86
2642 3435
3 2835
2600 620
620 2600
2028 3392
3497 2897
2427 3029
3029 2427
746 2333
48 27
386 479
3458 2642
2600 2897
329 3476
35 3480
705 35
35 705
33 334
35 482
482 35
396 336
339 3
3549 2296
3086 3506
3506 3086
363 2322
3548 2642
2388 2322
2064 355
3366 2775
406 458
2028 3572
2944 2625
280 387
3578 45
3099 289
383 4
347 66
2625 2028
2296 357
359 3590
2600 3302
499 66
268 786
66 2296
2625 2755
625 345
3590 546
225 3568
3476 08
2775 832
2404 308
3507 35
3548 3534
3508 35
3208 3500
363 364
953 350
3272 2897
786 268
2642 265
345 3455
3455 345
3445 286
3489 900
350 345
3366 2067
3533 2642
286 3445
2803 899
3506 3509
2835 2498
2755 3345
35 3635
35 823
823 35
2328 357
362 332
08 338
3624 99
35 546
2635 357
2642 3668
225 3655
3655 225
80 2594
3653 3475
2642 354
2625 3592
92 352
2079 2642
923 20
338 899
3462 3367
3462 3399
905 280
280 905
3697 08
2266 3653
3449 2388
2388 3449
352 92
35 3405
953 3652
664 2835
3652 953
2306 2042
2642 3722
35 3489
2755 2262
3549 80
376 2004
80 3549
47 2388
3665 225
3666 373
2977 80
3699 3
3366 33
3366 3524
2437 3366
3366 2437
565 99
3669 366
3739 3753
3765 953
339 329
3666 3758
73 258
3767 3735
99 565
3739 35
2296 3640
360 3389
3590 2328
347 
3735 366
2067 3502
555 3808
967 3653
2306 3366
486 540
2625 3735
353 546
08 967
2840 3797
2642 3848
3223 2404
3545 3856
3848 2642
380 2642
296 687
953 3863
334 3653
3653 334
3828 334
3735 385
308 306
3735 3867
486 35
3867 3735
3735 379
272 378
 369
62 386
3724 3800
35 3002
473 037
332 353
329 3086
329 265
3854 3903
329 3955
329 324
329 3958
329 335
3852 953
3847 2878
3928 565
490 280
2642 3972
289 005
3989 3846
280 49
2378 3999
352 370
336 332
370 352
363 3397
635 352
732 400
6 280
357 3730
40 3490
280 447
447 280
350 364
378 3500
364 350
3865 953
3865 3260
3976 4033
89 729
4033 3976
3598 4036
4033 80
3045 40
40 3045
3972 3735
3873 3738
788 3656
46 395
4048 2642
3439 54
35 4066
3820 3844
764 296
3407 35
3803 4084
4084 3803
35 4063
35 399
35 4064
4076 3827
4097 364
7 2840
486 523
4099 953
523 486
3820 3669
3669 3820
4090 2070
3223 3669
3669 3223
3539 3880
3539 405
3539 353
998 3223
2230 235
307 396
396 307
3980 2625
2784 80
35 4032
35 4080
345 373
2625 689
3800 3629
3892 439
20 225
396 375
3735 64
3988 448
4022 3828
452 3988
288 35
2303 459
459 2303
3669 3583
445 3989
2777 3928
3583 3669
3923 463
2284 3353
4076 3776
338 230
64 360
360 64
407 3880
352 3522
463 48
3470 329
472 270
270 472
380 2296
422 472
3735 43
4200 3988
35 
3988 4200
497 2642
3735 42
474 3935
3646 2642
4 3476
80 267
287 3735
639 3926
35 4206
3735 48
498 3828
3735 4227
4227 3735
424 57
3506 35
27 4
35 420
80 4242
3976 4255
4255 3976
4236 264
3976 276
3642 4267
3545 4253
396 4268
379 3656
08 4246
35 3536
4265 407
407 4265
4278 2296
4246 230
36 2784
2784 36
3487 3878
4236 427
423 3828
2378 3537
4295 3237
352 285
4266 2642
3538 329
436 407
307 3542
3542 307
2897 3504
4302 629
4328 3699
4305 3649
202 3820
497 4307
4355 3699
4290 3699
308 3884
386 486
3904 3695
664 396
436 396
508 4365
280 464
3020 3429
423 396
4406 443
443 4406
4048 396
3820 4377
407 44
4385 4300
36 546
4366 3429
2958 4363
38 2296
4398 353
2777 4367
4339 4405
379 442
423 35
2262 4334
3764 3892
96 396
396 96
438 523
4300 3820
35 423
472 446
4276 3837
3837 4276
2404 48
2942 4398
3935 4476
3935 4477
3837 4370
396 4420
3897 3699
449 497
4487 35
4334 379
4402 4233
448 497
429 3682
3926 2728
3873 429
396 4422
386 404
4244 379
379 4244
497 4328
36 428
4258 3837
497 3696
4424 3629
2404 2755
27 442
4459 472
453 449
85 3345
496 545
32 37
4478 225
225 4459
3642 497
44 4523
37 32
225 4478
4038 3892
4525 4504
4525 3986
3892 4423
462 98
4490 08
304 459
4527 4363
4528 4038
4038 4528
3593 4426
80 4274
4209 08
2600 3897
3897 427
497 4233
224 08
4427 2839
4570 4530
4487 4084
3008 3578
4578 4363
497 42
4409 905
555 408
2296 4363
2565 4584
4 477
477 4
465 386
429 4588
4590 2
386 465
4400 4554
4593 45
2942 4334
4402 4594
4334 2942
629 4596
4596 629
4459 498
4254 236
4554 4597
4597 4554
905 339
472 287
497 4603
4554 3598
428 4539
4426 3593
2642 3903
4599 3649
2942 464
4402 467
546 4353
546 4428
497 2325
65 233
4 500
3023 4604
469 849
2565 905
823 500
362 4402
35 429
35 4334
472 443
4436 35
3976 2626
472 4098
4098 472
4625 4553
4553 2942
2942 4553
4553 472
353 4605
97 4599
4643 3578
3578 446
464 396
4646 4645
44 4285
4579 2600
446 08
2942 4626
4626 2942
2063 3699
4400 4638
3545 25
3429 25
2835 385
3578 2777
2777 3578
4627 2942
08 9
4666 4667
449 3837
3837 449
4674 4254
4678 4680
453 4678
468 4678
4668 4683
334 202
202 334
4254 2303
4554 4254
4400 4389
4389 4400
2388 48
375 396
3897 436
436 3897
4688 4707
468 4707
4680 4707
4673 4707
4654 4707
689 2942
2942 689
429 4274
4274 429
433 473
4235 423
423 4235
472 462
233 2080
4678 4733
4688 4733
4668 4733
4686 4733
4440 334
4363 460
4732 3649
3649 4459
386 502
453 4748
386 028
028 386
4443 2642
4649 3903
3897 4632
4632 323
4432 497
49 444
4746 4756
444 49
998 4409
775 503
3903 403
4285 4764
 2266
 202
4209 4694
443 497
832 4762
4764 3935
3649 3585
329 4554
329 3962
329 4266
329 508
329 4728
329 475
329 359
329 3926
329 49
329 4784
329 3946
329 3060
329 476
329 4723
329 4504
329 2246
329 23
329 4724
4570 4756
4776 4635
4284 398
435 4789
4789 4308
4788 4254
4409 555
35 4772
4584 334
4380 396
2906 2565
430 4466
472 4770
4770 472
2378 4753
4807 3746
4295 4320
4779 365
436 4635
4694 484
45 35
4795 555
3750 497
4694 4830
489 2625
286 2625
546 477
4694 3427
3427 4694
3837 687
497 344
4632 4694
35 4820
2642 4554
4554 2642
4787 4842
2600 497
4554 4693
497 2600
508 509
508 499
499 508
445 905
4832 4847
4284 46
429 2642
4844 35
225 484
4857 203
489 497
308 4042
3837 23
4608 2565
507 4
2565 4608
4857 656
2958 2625
3892 640
269 35
35 4859
4434 472
458 429
429 458
4875 2322
3649 339
4650 3353
428 497
497 428
36 625
3425 45
35 486
486 35
435 2303
4648 3880
4893 477
4867 4893
4893 4867
4890 2934
4893 3405
4927 4930
499 394
905 499
905 477
4907 4926
4925 546
508 480
2048 2625
4893 2977
4559 4334
4899 4900
4940 4004
4898 998
635 372
2775 2635
372 635
546 295
295 546
2252 656
4732 4898
98 480
480 98
094 348
348 094
497 496
4857 3366
2635 4927
53 54
4650 4935
490 4875
4965 4559
4965 4966
472 275
2045 900
4890 4898
472 4978
334 374
4980 4982
429 345
4884 4983
354 894
4648 308
429 2404
429 2977
2977 429
3000 3897
4875 497
2565 900
2977 905
463 46
4004 472
4608 829
488 4499
43 53
4995 493
4993 4474
2252 4855
80 500
500 80
497 3897
4320 4898
4788 905
4898 2388
80 435
4635 4088
7 2404
3429 472
4088 4635
46 503
62 373
5009 3750
4945 546
4708 429
472 4993
472 364
472 433
5027 5029
4996 4562
4937 368
4709 2942
504 2485
2045 80
4635 4365
3 3897
550 4838
5029 303
4635 3725
5068 5070
5066 5070
2303 4857
 48
2296 4562
4562 2296
407 639
3040 4838
832 5028
35 4463
3772 4554
5028 832
4886 503
497 503
5087 44
35 5073
35 509
396 5053
503 4788
4788 503
4635 5046
429 3020
3020 429
2789 4477
5098 508
5098 3820
4886 3452
4898 497
469 35
4875 3389
4890 4554
4554 4890
3427 4867
3897 3820
3820 3897
4970 4942
4942 5097
55 497
2 354
36 4365
3649 5025
390 345
35 537
905 523
35 540
546 57
57 546
3427 4833
4942 546
4833 540
35 4562
300 2322
565 3880
525 435
2647 4906
46 578
4559 2045
4907 4788
4907 497
4907 429
586 592
5025 2233
2233 5025
2322 3283
3283 2322
4908 4285
2635 894
586 4840
4592 4238
6 687
2 59
4 73
73 4
429 4898
4898 429
4884 3897
4890 4649
4649 4890
2472 3897
597 593
5235 3746
5227 524
4320 4890
5028 5249
5250 5249
905 520
4890 4360
905 3630
4525 4650
280 4838
3229 4890
3656 3545
4694 498
2635 5258
2303 5257
499 4898
5245 525
5248 35
233 2042
4833 5228
4694 052
35 362
2635 5224
905 3699
3699 905
99 3000
4875 3804
472 5269
546 850
2233 497
497 2233
52 937
4893 4583
4583 4893
4833 503
053 78
78 053
275 
3649 54
54 3649
4890 4320
2388 4833
527 4002
429 4893
73 2835
4893 429
4922 492
497 290
625 5227
386 522
4267 3988
2835 5272
2642 280
280 2642
5280 3897
2045 4852
280 468
3837 4360
4360 3837
374 535
228 5339
4694 423
3897 5294
5294 3897
5348 89
5353 892
4649 2625
3040 5372
5383 5280
953 3394
2835 5355
5355 2835
4360 892
5384 2378
5398 2642
5397 525
546 3988
525 3988
2835 5227
5227 2835
5398 525
5390 5359
3572 42
5359 5390
3572 00
528 5393
4559 5065
3746 3000
3988 456
546 545
2835 36
396 777
3988 5426
939 223
4649 5227
5227 4649
223 5427
386 473
399 3527
3988 5433
526 363
3040 
5432 4553
5352 4925
56 386
37 363
5403 5437
73 3804
4925 5443
487 525
4925 5358
4833 3528
3528 4833
3897 5449
374 5397
334 545
5269 953
386 528
264 5453
264 23
99 3988
592 42
42 592
5359 5360
5360 5359
45 469
469 45
449 2625
525 35
396 530
37 529
473 53
473 524
4440 3345
3452 5466
529 532
536 5249
243 775
5472 2642
64 473
473 64
4649 4365
4365 4649
5480 4649
5479 5484
3427 3988
3988 3427
3345 4382
4382 3345
508 5
4569 238
238 508
477 73
386 524
524 386
3828 449
5339 3422
35 534
37 42
35 535
42 37
497 5497
46 345
5460 5383
5383 5460
5367 532
4945 429
5506 52
565 5506
2934 3278
4559 3878
352 5506
5440 5506
5508 5506
425 46
535 905
535 396
625 267
558 5472
5525 4780
3707 2642
46 455
455 46
953 5530
5506 528
5506 5482
5506 538
5536 3722
3 537
46 73
46 5472
35 540
3452 4899
565 5363
892 5353
5363 5368
5559 554
5559 2045
5559 3707
5559 4860
36 832
2625 4209
3427 690
5440 3878
3452 4833
5065 537
3897 2397
2397 3897
5472 5550
3649 3707
35 5579
3878 33
33 3878
3040 5580
5648 568
2388 436
5554 536
5475 5587
458 5777
5777 458
3878 4385
5795 2388
3878 352
3828 5596
4385 3878
3878 5506
4385 5507
497 560
2388 522
564 497
5227 5689
97 35
3828 2388
555 25
08 36
97 545
4925 565
497 3804
537 5539
497 670
26 497
885 472
3040 5632
555 5508
545 5508
3988 832
3988 36
5539 5785
5559 352
4304 403
563 2625
429 540
540 429
554 4867
563 5668
3707 497
3609 5674
5529 5674
2336 25
4365 3878
3804 5667
497 2336
3640 562
5635 2625
455 396
497 5689
396 455
3988 5777
429 3878
2625 32
32 2625
5529 5403
300 562
3707 5655
3707 5784
5460 3988
3345 2388
485 562
3988 3722
48 3649
2045 562
562 574
575 562
562 575
3903 562
497 358
48 546
5504 560
562 472
5508 572
2822 537
953 5779
352 5655
3988 550
735 5528
4385 5440
4385 29
4385 546
08 5529
2942 3988
3649 5529
3722 36
429 485
294 502
5227 5796
5796 2867
455 345
57 5227
345 455
5508 455
3988 5457
3828 578
555 
2063 345
345 892
555 5482
2942 3040
5767 562
569 80
899 358
399 363
20 5608
3722 5884
5 5884
3707 5884
5883 3864
5883 3878
5883 3722
4532 3649
3649 4532
892 5805
36 5457
3722 5559
472 5852
3804 5363
96 2392
2392 96
555 492
2252 2392
5900 5458
455 5902
345 893
2942 052
36 4532
5852 5909
543 572
3878 596
35 5885
3722 988
3640 3722
2045 4594
5602 3722
5523 3878
3878 5523
80 5928
5578 3707
3722 3470
492 5643
4320 3828
352 5807
5655 5808
5886 4532
5458 5900
5942 5900
2942 33
345 583
583 345
4205 5950
5449 2067
4205 5227
5526 492
3345 4320
2388 5449
5227 56
735 584
559 592
592 559
5227 5966
5 425
4759 3828
2063 5945
5227 5945
80 559
3820 559
3722 3572
2045 3992
80 5965
597 2045
48 429
5655 5506
5822 545
5508 4365
2067 5969
35 5948
4385 545
5777 35
396 2306
3598 3893
4553 572
4649 5523
569 345
497 2067
345 569
4532 2067
2067 4532
3598 5227
5825 4709
5569 36
892 
3804 35
24 5647
3988 35
3598 80
96 528
5827 2063
5988 429
5525 5606
3603 429
429 3603
4532 5827
5227 5753
33 80
5529 5827
5827 5529
36 4649
35 5832
5524 96
96 5524
46 5803
5803 46
5688 538
273 4296
4 052
4499 80
5528 3722
429 2625
08 459
345 572
5840 3722
496 5227
5508 735
5508 52
5525 5643
44 4649
4365 2063
2063 4365
35 6004
496 345
4925 5800
5800 4925
4867 4709
4649 4925
5827 497
5848 5565
5704 580
580 5704
4304 572
334 5845
345 334
3722 5846
639 345
585 5852
3640 5578
5854 5227
5854 35
5227 5854
5227 832
352 5440
3878 5525
429 4594
580 345
565 3345
58 352
5605 352
3988 5605
80 2369
80 5858
352 479
3427 497
96 35
5457 543
3722 5859
5859 3722
5859 352
04 892
3804 905
3707 2948
2045 4205
04 96
3707 08
352 08
429 583
2045 3452
3878 5802
5802 3878
3285 35
4649 5869
2045 5870
374 3598
3598 374
5 5866
5866 5
5 2045
2045 5
7 110
60 209
215 136
7 207
300 280
104 60
186 166
166 186
186 09
572 2625
152 4
560 30
60 208
3707 860
5596 1731
1 64
80 241
250 60
166 7
1939 1
64 7
6 1774
60 276
5636 3988
9 60
9 298
14 7
104 427
202 5
14 5
50 47
47 50
198 0
0 198
257 2
298 412
412 298
257 09
1 219
1 47
97 
20 1
1 20
5 14
460 75
1820 175
144 401
104 56
87 401
0 80
1 04
405 408
480 542
20 7
7 68
219 202
257 406
1690 1829
1829 1690
295 11
04 4
295 222
905 1714
502 526
526 502
644 159
574 570
295 256
564 570
570 564
9 61
295 592
295 50
60 202
76 110
7 19
464 694
666 7
68 570
570 68
51 7
7 51
7 725
1 491
697 144
79 74
565 159
768 20
12 72
82 775
82 59
82 769
82 886
28 742
295 861
295 860
82 654
770 295
82 820
82 687
725 75
824 82
87 82
621 775
295 725
152 1555
1555 152
82 898
898 82
906 907
94 944
82 416
956 82
82 959
82 960
801 284
202 825
202 21
197 518
755 885
7 88
885 755
82 827
82 1010
904 476
908 82
827 82
960 82
82 1027
257 4
1005 101
1009 82
1048 1009
105 41
75 770
209 64
755 866
908 867
7 107
107 7
1086 1078
1088 1078
295 1091
1008 1100
425 1
972 760
1107 1129
484 687
64 09
917 40
198 7
5529 515
46 972
172 292
117 5
2822 571
570 67
67 570
92 1100
62 29
29 62
95 1240
1240 95
522 1207
1247 1251
80 125
570 126
1257 92
801 111
1064 85
75 846
1967 1810
168 1275
10 540
1011 7
708 96
1585 5569
502 12
80 176
7 964
1 49
882 105
1094 280
468 102
664 152
169 1
117 1829
171 419
105 664
168 80
80 168
1810 1
1185 827
628 177
468 522
921 80
882 904
904 882
3722 5578
5661 5623
1408 168
69 369
205 197
5529 3988
270 118
168 1412
921 468
468 921
522 176
168 592
1461 641
540 272
360 1735
592 117
592 921
140 468
1585 04
196 129
56 291
09 186
1487 18
641 570
380 81
04 117
35 1938
7 905
186 1464
196 15
5578 3722
104 1551
1551 104
1 1541
1520 1541
518 3897
154 1574
1574 154
1615 159
1544 1566
1 117
293 205
154 1529
1609 5
1465 1898
1562 1217
3327 59
1487 1566
117 1566
351 361
546 186
57 1585
292 369
3988 3598
592 1
1 592
7 125
1566 41
41 1566
540 117
5913 13
1810 3327
1566 1690
196 147
104 1629
905 1487
5 186
1566 1725
1725 1566
1465 775
1555 1562
14 176
1185 1556
1556 1185
1 120
52 1914
178 1758
1566 57
1761 6
117 1615
1666 1777
1782 1771
4 3
2 21
170 1562
1777 1666
8 1
61 20
2067 291
21 10
7 4
04 1704
174 1585
69 99
145 1383
120 7
35 48
06 7
363 202
7 175
27 337
60 1
17 7
339 257
257 28
6 219
27 331
1 34
36 34
27 24
27 278
27 234
27 228
221 202
7 260
0 134
1257 4
7 155
257 1
257 177
7 296
350 353
257 339
85 7
27 246
1 144
144 1
27 400
401 30
1543 1539
410 198
441 47
579 7
46 483
6 198
4 45
202 447
393 387
499 198
104 296
104 64
104 46
490 21
257 310
257 361
257 360
257 26
57 3
3 57
33 523
257 273
523 33
103 209
186 69
56 166
76 1196
159 585
443 558
19 558
775 1478
7 484
383 64
215 2187
270 7
544 446
1555 80
30 6
446 544
257 1
05 104
51 171
144 9
4 4
31 56
390 561
59 35
7 639
378 159
613 298
639 7
278 60
13 647
78 732
150 1556
734 73
13 1555
484 1
77 49
733 778
7 64
536 801
1 33
83 171
7 878
878 7
866 879
1 396
874 475
4833 4611
547 64
864 875
83 606
73 86
775 70
906 405
911 908
911 548
911 832
770 915
714 791
885 853
780 6
73 832
547 59
29 98
832 920
87 705
75 974
53 479
468 73
257 322
25 202
976 35
88 884
9 689
884 88
106 937
634 09
1317 1487
1404 1386
1081 1078
1078 1083
484 141
777 14
1006 83
94 64
899 73
1548 1539
60 88
74 535
535 74
64 94
15 353
257 373
6 780
922 1122
80 83
5 446
202 301
1139 1143
301 202
60 61
60 73
775 160
1169 570
97 1164
523 54
1733 262
 978
1548 1383
193 7
228 57
1217 997
7 593
9 51
51 9
1037 160
2173 2219
280 284
1519 1375
1165 180
60 79
801 127
1383 35
1293 1277
10 111
10 99
61 1094
7 40
169 1037
177 168
1198 882
1037 157
537 163
63 882
88 647
88 90
99 116
7 935
1568 1348
2296 2030
229 1620
130 15
5 116
7 417
1860 1201
330 39
2097 2125
304 1819
7 5
101 1384
1217 1420
468 107
1317 5
468 149
7 23
145 775
1366 1
103 68
1593 1566
468 48
1543 1566
51 1317
417 14
468 1436
1396 1319
1018 101
09 135
1444 36
09 1375
1396 149
150 1317
664 1334
573 1461
139 88
546 167
937 171
280 1217
1473 19
104 1464
149 117
664 101
5 757
1396 5
5 1396
91 1310
1310 91
1480 1508
1469 1386
7 23
117 146
113 1529
718 41
1573 775
1410 106
80 1411
43 117
937 68
905 1201
3311 2296
1556 465
125 7
5950 205
30 1677
5950 595
5950 5951
3898 2903
7 57
131 1
7 537
1810 92
92 1810
1618 166
287 2964
1318 827
3136 3018
3018 3136
775 1686
1707 168
1700 170
3136 2642
161 160
15 257
1667 1636
537 1386
1939 30
42 4
1612 1383
2993 2642
1386 1317
1556 1736
1437 1792
1556 36
1317 309
1771 1731
1864 53
1895 546
1896 546
1714 1839
35 183
1839 1714
160 437
88 1888
1201 25
1317 882
1317 1785
1517 1386
1348 35
1566 1605
1605 1566
184 1185
1492 415
1396 212
1107 1885
1885 1107
138 2040
1896 23
425 1566
35 3219
198 35
1 1053
1885 1744
1896 191
1744 1947
1769 1846
2903 3898
1953 1896
2642 3136
1860 1941
178 1386
178 101
1701 72
1986 13
1499 1677
006 13
1860 1977
000 1771
1977 1860
775 1635
007 1615
1771 2009
1317 1159
149 167
1528 25
13 591
104 049
340 1690
040 1331
1900 1894
1316 16
1894 1900
1803 1899
08 059
1 206
202 166
1771 05
1502 1810
149 446
147 2040
329 3828
3828 329
169 1778
2090 2080
1383 90
41 0
363 090
1850 1860
1860 1850
064 113
1383 131
1383 121
1383 1846
1383 1690
1383 1585
117 149
1400 1386
1386 1400
1907 35
1317 7
190 1744
2148 2171
15 054
2159 2135
1217 1539
1539 1217
141 191
016 030
1546 1810
176 14
3063 193
2167 1201
1846 166
188 1846
141 1345
1375 15
15 1375
304 190
234 491
16 1693
1690 1899
13 635
2028 1204
1487 304
1947 905
1529 905
2142 224
224 2142
1948 1690
905 1899
194 045
174 14
1396 70
04 1850
2601 2585
1905 173
2070 194
1860 57
13 1998
1998 13
81 1584
174 198
212 2097
067 159
159 067
067 69
69 067
2730 193
152 35
1204 2125
2192 1217
5 1363
2176 13
2568 2569
491 234
16 166
1566 546
546 1566
1846 1317
141 117
102 1366
143 24
2013 2192
117 141
1 4
4 1
149 35
85 66
204 2176
318 1850
145 1566
117 389
1946 08
937 030
171 198
242 2758
911 1326
70 411
405 198
173 394
1201 1316
93 198
1565 14
14 1565
1566 1575
988 049
1386 161
1615 1
49 14
550 905
407 198
404 1555
2657 2670
2670 2657
485 1334
6 1317
2028 271
271 2028
1217 2470
150 1731
14 198
1 3
17 194
485 030
2070 23
2420 2484
030 304
1396 1316
355 1899
1860 2028
 135
1810 1838
169 7
1838 1810
566 570
570 566
546 159
636 173
937 311
311 937
1585 1499
1334 1675
2678 2672
29 270
2657 2672
35 118
143 208
14 19
2677 2676
304 1670
1217 2817
55 198
75 754
1620 722
169 1664
1670 169
169 1670
1018 2198
1810 751
2540 2549
1916 768
79 1
067 119
1610 905
80 08
262 292
870 1396
5 310
7 319
538 1733
96 794
225 2040
778 815
854 1953
225 2018
1899 491
1893 859
2884 2028
176 485
492 35
2728 2725
2875 2635
233 2903
1916 1675
1675 1916
08 884
1815 905
30 1670
13 2176
49 045
1810 1565
2296 905
1565 1810
96 609
1899 1185
1810 944
1953 905
1810 2083
049 78
1317 880
546 1899
262 2028
388 948
41 3598
937 1810
2028 3032
224 2125
763 96
3105 856
309 013
880 1317
64 3105
175 1386
899 35
1981 1675
118 3047
2028 1899
216 137
1754 1810
378 308
1326 911
1810 759
64 310
1764 1810
412 2635
30 319
64 171
08 980
1743 30
64 731
1363 245
333 160
3223 3246
835 1565
3146 1810
1615 181
3146 658
139 1098
1800 171
211 321
55 15
08 39
1018 334
3013 30
225 2635
225 301
64 377
2763 1018
35 169
3194 1018
96 93
39 64
2028 3113
1018 3355
733 397
981 993
2961 30
36 49
3316 339
339 3316
2897 2973
3309 30
1352 1693
08 169
3195 64
2028 2359
2359 2028
2028 131
3363 306
2214 2028
1953 854
1953 867
1953 914
1899 14
08 3413
3390 08
135 053
592 1018
3137 64
64 3335
76 180
15 388
180 76
170 1701
381 382
382 381
3703 2625
381 384
2110 1832
3496 96
339 64
386 2642
3210 2363
897 368
1018 3550
2661 373
897 3559
1933 3861
3863 3776
345 3465
3598 1018
327 262
1386 4
3533 35
340 3
897 3465
4 1386
3381 1018
1018 321
3292 2028
1815 135
3300 3377
3570 3552
3566 3552
3565 3552
372 1948
08 3465
2173 202
2692 1018
262 366
3571 455
1 13
3974 212
112 132
64 3696
3003 2642
191 65
3571 369
26 35
39 3107
64 3366
319 3701
3701 319
262 3585
3976 3828
493 3667
840 1859
3214 321
65 3107
3894 2642
2176 204
3744 1967
1859 17
442 441
3107 65
369 3735
3000 1018
3924 2642
3515 35
3547 3699
687 3875
3776 3018
3596 65
3856 840
180 835
33 3018
344 65
1018 3385
361 135
1566 1576
7 2397
35 002
262 1788
1788 262
1933 2903
835 180
4030 3168
2296 3715
169 156
4011 3611
104 88
3598 3735
4059 3735
3113 262
900 308
3935 194
905 64
1568 1718
1718 1568
4134 373
380 3854
1018 4118
4149 373
41 3986
4154 3781
075 3103
64 3608
351 3047
388 3598
4165 64
388 01
3998 2642
1316 1396
3335 319
285 2520
65 1764
388 3319
2642 3219
3219 2642
361 3018
3578 3580
364 373
13 839
839 13
4214 3916
3976 380
2642 3821
2642 4269
3168 3976
351 3513
3161 212
3405 13
468 3916
1810 498
1394 2642
364 3649
1539 181
404 3816
4044 398
300 2642
4301 13
1334 2763
353 905
2028 2688
3445 1154
3445 4
3459 3519
2516 2539
3916 473
39 64
150 1714
363 64
403 373
775 1717
1566 1607
4281 3820
3666 304
1650 179
4320 3820
172 3820
3837 3699
3699 3837
393 4453
4453 393
350 172
4455 417
445 4400
3841 546
1334 1674
4107 43
3656 3630
397 4197
3916 1899
0 1947
4381 35
491 3815
192 1
4398 94
2281 227
393 3129
2296 4119
3319 1832
4478 0
433 378
00 3719
3719 00
4467 485
4531 4522
485 4107
388 183
174 1548
4370 451
1018 39
4300 35
2127 222
3445 4479
4353 4304
397 4577
181 775
3746 4505
4587 15
65 4546
4574 4579
1499 1317
4604 454
1736 1565
398 4604
21 3976
4497 440
13 4515
404 4370
067 4515
417 4394
380 4189
4107 45
3898 4098
4605 600
1810 4634
4493 440
3353 4463
4463 3353
1289 1615
4494 440
4467 4301
2028 2333
313 35
4729 4569
4729 1334
4038 475
3465 4649
3976 356
3578 4489
356 3976
4478 3837
90 2125
3719 4291
4635 476
476 4635
664 183
2603 2602
431 4667
404 4107
2484 2710
2710 2484
4694 396
4635 4197
463 600
4755 4635
1689 600
600 4553
4791 4694
3897 1555
775 1179
3465 316
537 101
342 25
4830 4694
65 334
93 188
4136 4694
471 435
171 1744
1018 3837
3750 35
7 3278
3804 4119
4291 3719
345 4874
4291 3714
491 135
431 118
1018 5
2942 1731
4055 878
1656 1731
1656 151
341 262
1756 1585
4878 35
4559 3814
1731 4197
195 491
449 1403
183 1731
181 1539
4899 546
4618 4460
1591 540
36 1745
4172 33
2892 2318
21 449
875 559
45 1555
3746 2404
456 4559
2636 2028
767 417
207 4172
1179 775
4551 4841
1268 94
3746 25
1576 1555
459 547
4918 3725
4114 491
063 905
1317 176
176 1317
28 2658
1714 535
905 4635
546 4833
1771 178
57 291
1939 905
4559 4937
113 3451
5056 96
3719 197
64 4499
4197 710
156 36
5038 4119
1396 192
4800 491
1899 1810
1591 1566
1566 1591
387 3630
357 4938
1366 45
4559 4893
378 3880
4559 539
1714 1585
3880 172
1366 151
32 2437
1555 1744
1744 1555
378 417
2173 507
4875 4611
2378 1832
3649 110
5103 57
3545 4197
4197 3545
1334 2642
3897 4943
105 4694
2642 3427
4833 3545
400 305
2318 16
5036 351
4833 398
1755 1744
1334 1618
1618 1334
5255 5286
349 4172
3630 280
3897 155
308 280
433 4694
575 96
575 3988
137 216
1953 3880
3880 1953
1771 1
1771 1317
4315 4
45 1744
57 1201
5296 5255
2028 1832
4694 3107
3910 3988
531 580
2943 2125
4291 4694
2712 2735
4780 4308
318 3988
58 3988
1714 180
80 553
5443 183
2676 27
319 3649
3897 3988
4611 64
3966 5366
5366 3966
15 4833
3099 5297
3988 5255
1095 1386
1095 1788
3988 1938
1317 1776
113 1340
2903 2902
545 3707
132 17
3377 2770
1576 1771
1771 1576
4482 4521
5408 3966
3897 3013
347 3040
4348 4238
3040 347
345 1731
2822 1693
4291 43
3878 4559
3649 4189
4189 3649
3278 3897
1677 1744
5440 3640
531 1352
3278 341
5415 5416
316 472
316 4291
5415 540
133 1731
183 3040
4499 3988
3897 4418
16 4291
543 5408
93 1744
37 64
37 545
1744 93
267 278
135 551
57 101
5581 5443
1899 2187
4787 4315
5594 640
551 135
3988 4172
5155 5353
4172 4499
1562 41
4118 1810
215 2142
229 4291
2045 919
566 5612
828 040
4649 4499
5636 349
349 5636
612 642
642 612
563 388
4197 5596
400 1528
5614 722
65 3013
3013 65
4649 3040
2106 211
2118 1844
561 5565
435 3837
3903 4172
35 377
897 2625
5649 294
1 1677
3988 3451
1967 1948
5677 5578
565 5612
2429 1764
2210 1217
561 5699
120 1
152 5065
700 612
56 2056
2056 56
14 1967
57 4172
5647 581
4291 196
1018 2942
563 548
4197 5655
563 135
2045 2229
2118 498
1 2142
4365 412
5259 512
120 1565
332 5691
762 763
1967 905
1 192
1896 195
556 5515
760 764
3655 1018
3878 35
559 5565
1967 578
14 1860
5 54
57 5413
3707 405
5525 707
5806 5623
707 5525
623 836
2124 2174
558 135
045 3345
3988 1947
5619 35
8 5606
1810 116
116 1810
135 4559
5661 5606
2217 1675
640 5629
2204 2125
4595 453
5508 1
2028 6
498 545
1 1967
827 4611
152 5525
8 37
5482 545
3828 389
4649 5845
4553 4197
19 2286
1098 1690
1098 1846
897 482
4916 417
452 288
215 5422
1860 1
438 204
81 415
2194 545
202 5
2214 196
2214 195
590 35
5899 5439
904 4291
4649 5457
1677 1566
492 912
171 2146
5591 4291
4291 5591
2072 216
2054 209
5028 1810
5 1201
4 2198
116 1487
5955 594
5955 4205
594 5955
5958 594
592 97
97 592
 4291
5449 5902
3 222
590 4515
91 90
388 5845
4649 104
430 94
94 430
3451 3828
5449 1810
5449 5967
6 04
3804 2388
1517 1899
1846 286
1499 186
04 42
292 228
262 1912
1899 1757
2266 2292
063 453
453 591
905 152
2388 4291
451 2067
2067 451
1018 215
15 57
2446 5
202 04
1714 2125
1555 171
1555 1565
1018 337
1 65
2122 2118
1810 227
1972 1922
154 2176
729 196
7 425
6 1844
211 2198
3719 045
045 599
1972 1964
04 206
2214 2198
1585 1810
2 228
206 1810
2514 2505
588 453
337 57
1954 1810
2124 196
2297 2080
554 3781
1810 4304
26 5
2544 2540
2297 104
905 148
297 1922
2576 2028
2176 297
166 116
1810 154
1675 1
196 16
2601 2602
166 1840
2620 171
2585 2621
2415 1810
1810 2415
2040 1620
5791 5612
2054 2194
1615 2192
5886 35
152 664
2657 1849
217 2266
2028 2242
2242 2028
2574 2695
2700 2702
96 94
5917 388
1859 1529
045 591
1859 2647
182 1899
5510 196
1714 1201
198 1860
2485 2641
202 645
7 640
22 175
1675 2262
2654 2728
2600 276
258 171
1 1990
1566 2625
371 1810
1281 1565
2848 2859
2874 278
1810 1612
287 2028
17 1675
2409 1810
2485 1922
296 2728
2176 2861
1815 14
2851 195
2028 01
1990 1899
265 2847
2176 2658
1840 1685
1997 1921
2725 2812
2812 2725
04 2961
2582 2978
380 361
1810 5983
1778 1245
2725 196
2944 1810
1972 1771
2642 195
195 2642
1810 2876
265 2890
1615 5
094 195
2987 1810
265 047
182 2725
598 045
174 856
2476 2642
1802 2291
2291 1802
16 195
2867 265
6 1624
545 152
278 26
2642 22
2028 161
1922 1281
16 15
28 22
22 28
244 29
251 55
050 2642
1899 57
29 26
1967 169
047 2647
195 169
2642 2725
2725 219
2028 219
185 2028
265 10
905 196
2028 2901
2901 2028
09 219
219 09
208 491
11 2125
22 415
2028 2710
2710 2028
2642 41
1528 196
1967 2017
05 5
018 047
24 1018
2658 75
16 26
2266 26
2028 27
1281 1922
2178 2125
171 217
217 171
5 2899
2472 2642
41 1
195 292
292 195
2880 2028
182 2110
247 456
006 1018
1810 2625
2296 1612
11 2028
2897 14
1 200
200 1
1829 1810
1990 2028
1764 454
2028 2897
2472 2755
1771 2028
2642 2249
2249 2642
2642 2050
2642 2897
2897 2296
256 1899
2262 258
2647 94
1629 1810
2642 55
2897 528
528 2897
2897 66
545 655
288 208
2064 59
454 1764
540 69
1565 1620
208 5
2944 2028
2028 2944
152 115
5 117
66 481
1018 2625
59 2064
1 08
2040 1478
062 611
611 062
585 66
667 648
74 1976
1018 01
778 2642
160 545
688 2642
1612 2642
018 2852
2642 54
1810 2252
776 086
776 86
820 511
2647 869
84 147
869 2647
1 104
828 687
147 84
172 2642
911 912
912 911
2642 172
1565 2642
2125 2495
890 5
2642 168
2822 2580
892 2642
1674 2642
2642 2552
626 80
199 62
62 199
89 641
851 781
4027 4026
2642 854
55 184
2642 650
611 4011
611 169
512 915
1751 481
481 1751
49 669
1245 4095
4095 1245
500 2188
4115 4114
20 4114
4114 715
715 4114
828 2625
189 195
2188 4150
2625 451
51 296
199 2060
199 129
2194 1154
199 186
4181 416
14 2625
000 540
14 4075
2188 500
2661 1154
905 251
206 426
1018 2125
72 642
1018 288
289 426
1690 2064
4267 642
4167 92
1217 415
180 1281
872 5
5 872
428 4281
2125 1018
600 2625
1810 465
1018 4247
5 4017
4222 1185
689 72
725 2642
241 5
1487 116
018 527
70 2642
2642 42
42 2642
1512 169
1185 452
725 22
1690 2069
020 288
4266 472
1018 926
481 4284
1201 4297
465 600
2642 428
4405 280
2642 815
269 4179
4172 916
916 4172
1810 2050
57 1899
4409 4172
2642 46
2404 4172
4172 578
229 1018
4119 4281
649 904
2642 4518
4569 976
2012 2125
4546 404
546 2472
1615 25
2012 904
4589 4402
4172 2565
1018 1899
2194 1201
1 1656
5 1
1 5
2942 4601
4521 2565
468 4515
19 4172
117 1289
611 2942
4605 2942
611 4490
4107 4540
288 1899
2642 642
611 905
4676 4707
51 2942
649 44
4115 425
4694 182
1615 116
1615 425
425 1615
2600 4802
479 408
4779 4107
2096 2087
5 4461
41 5
486 4284
6 1810
1810 6
4172 89
89 4172
4606 5
18 14
18 1485
18 52
18 882
18 5
18 780
1 905
1478 1566
4608 59
42 4249
469 897
545 4615
4694 905
1829 1018
1810 642
018 4172
018 278
4284 4599
90 465
258 1018
4554 905
1656 1
415 4460
168 4875
1810 200
200 1810
278 2252
82 905
4499 4890
4890 4499
1714 169
4611 4890
4499 4694
1921 1876
4890 4291
546 4172
4172 1565
489 4788
4788 489
1478 1584
401 498
211 1584
781 4291
4004 4197
4197 875
4004 4875
210 1860
2091 210
897 4694
206 147
4172 2012
2012 4172
4172 828
4172 725
4884 4172
502 260
810 4291
5029 194
616 1
186 105
105 186
4592 465
1810 2266
611 465
171 61
1565 169
4197 719
4172 4884
5069 5070
5071 5068
5071 5069
5068 5071
649 61
4551 099
746 465
465 746
4788 649
750 2565
220 1656
649 1565
4884 4592
2296 1815
212 1
099 48
725 4172
97 1245
1245 97
4197 60
5251 5227
5227 510
1810 1512
4850 4291
880 5151
510 51
2067 1998
1998 2067
1512 1804
1804 1512
2145 2146
6 5
200 180
180 200
897 465
4 17
5156 5
462 280
4758 25
45 39
1 31
988 59
1 0
48 4921
47 1
556 988
45 53
59 1528
2642 4611
45 988
562 988
649 905
4 66
66 4
57 4
68 1
988 5228
7 89
186 169
169 186
169 1714
14 1487
2095 1585
97 15
4291 568
2097 29
6 54
54 6
541 5411
481 429
988 171
429 481
7 100
60 56
1 76
76 1
2642 294
2146 2142
6 114
206 2625
 13
13 
9 7
5525 152
1 13
154 15
158 113
2142 1
1615 2141
649 01
572 5065
572 175
115 545
115 4860
175 4860
39 1
828 4611
5065 4860
5065 115
2040 274
988 481
707 5157
5472 4611
157 13
545 115
545 4860
116 1615
75 1
6 75
4515 554
5529 554
60 148
148 60
7 33
7 184
722 175
722 2625
65 35
159 60
60 159
56 1
1 56
60 178
4694 714
9 60
60 9
104 189
189 104
 5
4 26
26 4
7 28
32 6
3 34
4 3
5 29
 54
54 
 7
4 75
68 64
23 20
78 60
60 78
23 69
69 23
60 4
79 35
69 62
87 4
4 70
94 64
70 95
70 96
64 80
7 8
0 
39 4
96 06
 0
60 08
39 45
7 09
09 7
4 68
09 39
23 9
4 39
6 32
39 4
47 7
7 47
22 7
04 08
54 29
77 23
27 32
7 33
36 46
64 4
 
4 37
37 4
7 37
 38
38 32
00 
64 00
39 32
32 39
42 32
32 42
4 48
78 49
2 0
4 47
32 52
0 55
55 0
4 57
57 4
32 49
0 57
0 4
4 32
60 60
4 49
49 4
4 63
63 4
4 62
43 8
43 80
80 43
4 46
78 46
22 78
46 4
 65
65 
2 66
52 66
66 52
67 4
3 66
66 3
4 2
6 77
77 6
44 78
75 79
73 43
66 80
2 56
32 8
79 47
8 32
8 44
80 7
87 35
90 04
04 7
60 93
93 60
94 60
76 45
