428 538
374 538
231 452
2 538
187 538
196 705
792 538
676 538
732 538
374 878
732 878
428 878
187 878
706 538
871 308
179 538
179 878
692 656
252 656
252 656
252 656
672 656
252 656
252 656
252 656
687 387
374 387
428 387
672 387
732 387
2 387
395 386
2 390
428 390
193 389
643 387
95 389
184 387
871 308
333 386
220 394
870 308
870 878
870 391
774 308
231 308
545 538
788 538
243 308
512 387
871 308
388 538
338 387
323 308
636 387
636 388
636 388
39 387
777 308
353 308
492 389
871 390
492 705
445 705
190 308
190 389
494 237
494 387
677 538
432 241
432 102
332 389
887 389
352 389
887 240
389 394
196 387
791 393
791 236
791 452
791 148
193 393
193 102
193 389
79 389
79 389
127 389
731 387
127 387
731 390
731 308
871 484
731 389
731 484
257 389
98 389
295 308
871 389
251 387
631 389
359 387
153 393
871 389
737 388
244 393
677 245
244 388
184 244
290 308
447 389
