428 538
374 538
231 452
2 538
187 538
196 705
792 538
676 538
732 538
374 878
732 878
428 878
187 878
706 538
871 308
179 538
179 878
692 656
252 656
252 656
252 656
672 656
252 656
252 656
252 656
687 387
374 387
428 387
672 387
732 387
2 387
395 386
2 390
428 390
193 389
643 387
95 389
184 387
871 308
333 386
220 394
870 308
870 878
870 391
774 308
231 308
545 538
788 538
243 308
512 387
871 308
388 538
338 387
323 308
636 387
636 388
636 388
39 387
