428 538
374 538
231 452
2 538
187 538
196 705
792 538
676 538
732 538
374 878
732 878
428 878
187 878
706 538
871 308
179 538
179 878
692 656
252 656
252 656
252 656
672 656
252 656
252 656
252 656
687 387
374 387
428 387
672 387
732 387
2 387
395 386
2 390
428 390
193 389
643 387
95 389
184 387
871 308
333 386
220 394
870 308
870 878
870 391
774 308
231 308
545 538
788 538
243 308
512 387
871 308
388 538
338 387
323 308
636 387
636 388
636 388
39 387
777 308
353 308
492 389
871 390
492 705
445 705
190 308
190 389
494 237
494 387
677 538
432 241
432 102
332 389
887 389
352 389
887 240
389 394
196 387
791 393
791 236
791 452
791 148
193 393
193 102
193 389
79 389
79 389
127 389
731 387
127 387
731 390
731 308
871 484
731 389
731 484
257 389
98 389
295 308
871 389
251 387
631 389
359 387
153 393
871 389
737 388
244 393
677 245
244 388
184 244
290 308
447 389
193 393
236 390
236 484
236 392
728 240
512 389
431 387
592 308
592 241
431 394
431 388
152 386
152 388
243 106
637 395
124 389
194 389
871 389
871 484
372 387
372 452
705 308
418 240
636 387
418 240
592 388
592 99
395 386
95 389
443 386
791 239
592 875
432 874
418 484
432 873
127 389
152 386
152 388
193 389
520 484
520 484
190 389
152 452
443 656
443 656
443 388
152 388
432 237
432 237
98 389
98 389
386 386
631 389
631 389
204 308
872 99
233 484
55 389
443 386
395 388
395 386
395 656
395 395
395 395
443 389
519 538
5 395
95 389
95 389
95 389
95 389
492 392
352 395
492 393
618 308
371 387
121 389
121 389
71 705
709 874
443 389
443 389
443 656
95 389
95 389
95 389
95 389
95 389
31 389
237 452
102 869
237 308
102 869
395 389
395 656
395 389
235 386
235 388
235 395
81 386
540 388
540 237
764 388
102 386
540 870
81 386
352 389
6 452
6 242
102 869
392 388
102 386
395 867
81 867
443 386
190 389
395 386
395 388
443 389
636 390
888 394
333 386
242 308
242 308
98 389
220 394
395 386
102 386
395 386
443 386
102 386
709 392
64 394
100 869
102 869
443 869
420 871
102 869
149 392
100 869
420 394
149 392
190 308
420 867
65 740
102 869
369 452
420 868
13 242
149 740
750 387
220 394
149 392
750 100
34 394
55 393
524 394
55 389
65 484
156 705
64 391
374 105
640 452
512 389
640 148
709 868
127 237
517 387
127 867
