428 538
374 538
231 452
2 538
187 538
196 705
792 538
676 538
732 538
374 878
732 878
428 878
187 878
706 538
871 308
179 538
179 878
692 656
252 656
252 656
252 656
672 656
252 656
252 656
252 656
687 387
374 387
428 387
672 387
732 387
2 387
395 386
2 390
428 390
193 389
643 387
95 389
184 387
871 308
333 386
220 394
870 308
870 878
870 391
774 308
231 308
545 538
788 538
243 308
512 387
871 308
388 538
338 387
323 308
636 387
636 388
636 388
39 387
777 308
353 308
492 389
871 390
492 705
445 705
190 308
190 389
494 237
494 387
677 538
432 241
432 102
332 389
887 389
352 389
887 240
389 394
196 387
791 393
791 236
791 452
791 148
193 393
193 102
193 389
79 389
79 389
127 389
731 387
127 387
731 390
731 308
871 484
731 389
731 484
257 389
98 389
295 308
871 389
251 387
631 389
359 387
153 393
871 389
737 388
244 393
677 245
244 388
184 244
290 308
447 389
193 393
236 390
236 484
236 392
728 240
512 389
431 387
592 308
592 241
431 394
431 388
152 386
152 388
243 106
637 395
124 389
194 389
871 389
871 484
372 387
372 452
705 308
418 240
636 387
418 240
592 388
592 99
395 386
95 389
443 386
791 239
592 875
432 874
418 484
432 873
127 389
152 386
152 388
193 389
520 484
520 484
190 389
152 452
443 656
443 656
443 388
152 388
432 237
432 237
98 389
98 389
386 386
631 389
631 389
204 308
872 99
233 484
55 389
443 386
395 388
395 386
395 656
395 395
395 395
443 389
519 538
5 395
95 389
95 389
95 389
95 389
492 392
352 395
492 393
618 308
371 387
121 389
121 389
71 705
709 874
443 389
443 389
443 656
95 389
95 389
95 389
95 389
95 389
31 389
237 452
102 869
237 308
102 869
395 389
395 656
395 389
235 386
235 388
235 395
81 386
540 388
540 237
764 388
102 386
540 870
81 386
352 389
6 452
6 242
102 869
392 388
102 386
395 867
81 867
443 386
190 389
395 386
395 388
443 389
636 390
888 394
333 386
242 308
242 308
98 389
220 394
395 386
102 386
395 386
443 386
102 386
709 392
64 394
100 869
102 869
443 869
420 871
102 869
149 392
100 869
420 394
149 392
190 308
420 867
65 740
102 869
369 452
420 868
13 242
149 740
750 387
220 394
149 392
750 100
34 394
55 393
524 394
55 389
65 484
156 705
64 391
374 105
640 452
512 389
640 148
709 868
127 237
517 387
127 867
871 484
149 240
83 740
444 874
444 736
444 394
444 705
444 740
444 868
709 874
709 868
395 386
389 736
389 868
51 387
709 868
226 237
226 387
194 389
422 240
226 388
51 387
153 868
55 389
495 389
231 148
231 308
332 104
332 393
332 484
332 734
709 868
728 240
728 242
492 392
395 734
395 386
149 392
193 393
728 242
728 240
422 585
704 538
204 867
51 538
728 101
100 735
149 867
871 392
447 242
422 871
422 388
418 484
98 389
418 874
609 240
636 734
395 585
395 867
389 735
728 242
728 240
709 874
333 386
713 387
124 389
442 237
871 484
494 104
51 740
870 734
447 242
226 390
5 388
5 388
289 100
447 243
389 868
389 868
728 242
31 389
554 734
432 101
894 387
432 874
432 874
445 245
288 245
592 736
422 412
98 392
709 874
709 868
98 392
102 386
224 389
447 242
224 387
692 656
395 386
395 734
122 538
193 740
193 389
39 387
31 868
636 388
748 387
548 389
62 734
51 387
39 387
442 389
728 242
254 656
254 656
728 101
95 743
442 237
442 740
851 389
747 874
709 868
887 389
692 656
887 392
886 386
637 389
447 308
887 389
98 389
637 245
98 392
226 734
178 743
224 389
677 538
224 387
389 868
636 237
193 105
5 394
506 244
637 412
5 386
5 386
442 237
5 594
348 391
153 740
120 484
120 241
538 393
887 392
899 593
637 873
5 395
39 387
886 447
244 388
132 308
392 869
519 734
132 741
354 734
245 395
358 100
132 388
120 874
120 105
232 389
120 741
132 741
232 389
548 389
232 389
232 389
374 736
65 388
749 100
522 388
250 393
250 734
371 389
371 741
250 484
98 389
856 394
250 389
672 734
422 594
672 388
124 389
672 656
232 389
832 100
832 387
5 394
5 394
832 393
832 734
637 443
56 389
883 870
39 387
122 538
179 878
358 874
156 394
358 105
540 870
590 308
34 740
747 484
448 392
238 308
747 241
448 450
238 393
747 874
31 868
871 484
74 388
251 386
251 394
709 874
592 874
744 390
709 868
592 590
592 105
592 484
524 395
857 705
857 105
524 394
237 148
237 594
744 390
636 237
187 443
636 388
237 308
231 452
187 387
445 389
708 293
237 394
871 390
871 484
