262 74
90 281
160 249
120 78
306 230
273 276
273 233
273 233
160 249
160 249
160 63
184 267
184 267
249 160
90 99
151 280
310 184
176 225
83 228
69 223
28 285
38 231
279 7
26 225
160 103
160 249
160 60
160 317
160 63
160 103
160 249
160 159
160 60
160 317
160 63
160 249
160 249
160 249
18 28
230 74
230 150
230 169
230 274
230 88
230 183
230 33
230 82
230 281
230 23
230 264
230 143
230 32
230 90
230 15
97 230
184 295
33 230
90 150
7 144
279 118
279 118
279 118
279 118
279 118
279 118
279 118
279 118
279 118
279 118
253 271
279 118
299 118
299 228
299 83
299 252
299 301
299 108
299 101
299 279
299 304
279 117
132 284
230 97
230 59
230 306
299 108
249 160
262 74
90 77
90 167
90 74
90 258
90 230
90 93
90 150
90 274
90 97
90 99
90 88
90 48
90 186
90 75
90 183
90 98
90 33
90 39
90 82
90 262
90 281
90 23
90 199
90 264
90 43
90 143
90 306
90 300
90 220
90 15
83 52
83 158
230 33
283 79
88 258
79 283
283 79
79 283
306 230
306 97
306 59
306 90
80 291
269 230
269 93
269 274
269 75
269 33
269 300
26 127
26 174
26 280
26 81
26 4
26 152
26 225
26 208
26 9
26 18
26 121
26 64
26 30
26 191
26 53
26 307
26 298
26 12
26 285
26 180
26 69
26 223
26 256
88 82
21 145
28 4
108 252
26 127
26 174
26 280
26 81
26 4
26 152
26 225
26 208
26 9
26 18
26 121
26 64
26 30
26 191
26 53
26 307
26 298
26 12
26 285
26 180
26 69
26 223
26 256
112 161
132 240
132 6
132 184
132 238
132 71
132 261
132 112
132 38
132 203
132 311
132 16
132 110
132 2
132 257
132 133
132 134
132 78
132 266
132 27
132 3
132 50
132 284
132 295
132 85
132 218
132 314
132 17
132 161
132 145
132 267
132 79
132 120
132 310
132 283
26 307
158 162
158 83
158 25
158 202
158 101
158 45
158 315
184 240
184 161
184 79
184 267
78 238
161 112
161 184
7 279
112 161
225 26
242 173
161 78
280 151
280 151
0 106
78 161
26 225
26 225
161 78
306 230
18 208
18 307
94 252
83 228
277 135
90 274
118 279
118 279
223 225
94 252
116 173
116 253
50 267
186 90
0 106
90 98
79 267
0 259
26 225
295 310
230 74
230 258
230 150
230 169
230 274
230 183
230 33
230 82
230 281
230 23
230 264
230 143
230 32
230 90
230 15
132 284
57 130
306 274
306 274
13 279
13 279
82 232
269 230
269 93
269 274
269 75
269 33
269 300
253 242
69 223
132 134
305 299
82 232
78 132
307 28
97 230
151 280
90 186
90 199
199 90
116 173
116 253
3 240
3 6
3 184
3 71
3 112
3 38
3 16
3 257
3 134
3 78
3 27
3 50
3 284
3 295
3 85
3 314
3 161
3 145
3 267
3 79
3 120
3 310
3 283
3 132
299 305
178 304
71 283
21 145
283 71
304 178
71 283
21 145
40 80
307 180
18 208
300 74
242 253
132 3
2 284
2 132
180 152
242 250
132 2
83 299
83 299
7 279
310 3
252 86
262 74
93 274
93 33
284 3
267 184
199 186
160 249
160 63
90 199
90 48
75 232
200 52
200 52
150 230
151 280
184 240
184 161
184 79
151 280
75 274
58 193
58 270
58 83
58 301
58 45
58 200
58 254
184 267
58 52
21 145
21 145
9 225
21 145
278 116
278 253
278 13
79 184
234 117
2 284
2 132
28 285
116 278
116 278
40 80
93 230
93 82
251 12
228 279
144 7
72 276
21 145
21 145
132 133
38 50
38 295
38 161
38 267
12 251
279 228
178 304
178 304
184 79
26 92
79 184
178 304
253 242
304 178
279 228
279 7
180 307
228 47
11 175
79 50
47 228
11 175
208 28
208 28
184 161
50 79
180 152
79 50
132 2
132 284
194 80
194 291
194 291
194 291
194 291
131 113
161 240
161 184
161 295
161 145
161 267
161 310
0 259
161 145
116 173
116 253
161 78
161 240
78 161
116 228
33 274
0 259
21 145
159 317
21 145
267 50
267 79
7 279
310 161
161 184
161 145
161 267
161 310
161 78
161 78
79 267
90 77
90 167
90 74
90 258
90 230
90 93
90 150
90 274
90 97
90 99
90 88
90 48
90 186
90 75
90 183
90 98
90 33
90 39
90 82
90 262
90 281
90 23
90 199
90 264
90 43
90 143
90 306
90 300
90 220
90 15
79 267
278 122
90 77
90 167
90 74
90 258
90 230
90 93
90 150
90 274
90 97
90 99
90 88
90 48
90 186
90 75
90 183
90 98
90 33
90 39
90 82
90 262
90 281
90 23
90 199
90 264
90 43
90 143
90 306
90 300
90 220
90 15
199 186
306 230
306 97
306 59
306 90
306 230
306 97
306 59
306 90
306 230
306 97
306 59
306 90
306 230
306 97
306 59
306 90
200 52
310 184
310 161
310 145
310 267
160 249
103 160
151 280
151 280
28 285
28 251
316 122
52 104
53 280
52 104
228 116
180 152
89 276
89 276
18 208
80 194
310 145
310 145
236 7
236 162
236 173
236 228
236 263
236 122
236 94
236 116
236 309
236 253
236 13
236 315
253 236
116 228
116 236
116 173
116 253
158 299
278 122
258 90
249 160
316 309
90 258
299 158
160 249
38 284
38 161
240 161
269 230
269 93
269 274
269 75
269 33
269 300
90 199
295 38
295 50
295 161
295 267
78 283
295 184
26 4
199 90
316 116
309 236
90 77
90 167
90 74
90 258
90 230
90 93
90 150
90 274
90 97
90 99
90 88
90 48
90 186
90 75
90 183
90 98
90 33
90 39
90 82
90 262
90 281
90 23
90 199
90 264
90 43
90 143
90 306
90 300
90 220
90 15
280 174
280 53
306 230
306 97
306 59
306 90
306 230
306 97
306 59
306 90
194 80
180 152
132 284
305 299
51 190
51 80
116 253
132 284
50 79
278 200
13 236
79 50
299 108
299 305
299 305
108 299
274 33
202 128
50 267
199 186
161 38
161 284
161 184
161 145
161 267
161 310
284 161
284 38
16 284
7 263
284 132
284 132
279 7
284 16
16 284
310 161
7 279
7 279
7 279
7 144
161 310
284 16
194 291
94 236
160 249
160 249
160 249
79 283
223 28
132 2
132 2
200 52
200 254
132 2
132 284
38 310
2 132
310 38
283 79
79 283
132 2
132 284
24 252
202 158
291 51
291 40
291 194
103 159
278 173
278 242
180 152
12 28
252 154
279 278
252 189
252 189
283 50
249 160
50 283
161 120
278 279
132 2
132 2
131 113
3 132
161 78
161 50
263 7
52 104
52 104
78 161
90 77
90 167
90 74
90 258
90 230
90 93
90 150
90 274
90 97
90 99
90 88
90 48
90 186
90 75
90 183
90 98
90 33
90 39
90 82
90 262
90 281
90 23
90 199
90 264
90 43
90 143
90 306
90 300
90 220
90 15
78 50
78 161
132 145
132 2
132 284
269 230
269 93
269 274
269 75
269 33
269 300
299 170
251 28
116 253
116 253
234 279
161 78
161 50
180 292
120 161
160 249
249 160
158 162
158 83
158 25
158 202
158 101
158 45
158 315
249 160
21 145
279 242
202 128
202 209
279 234
242 279
310 161
242 279
160 249
160 103
160 249
160 159
160 60
160 317
160 63
230 97
230 75
230 59
230 306
230 269
230 97
230 306
279 242
132 134
132 284
194 291
194 80
86 24
194 247
194 291
194 40
194 80
93 230
160 249
160 249
266 145
209 299
86 24
161 284
161 132
132 161
78 161
283 50
78 161
161 78
144 7
284 132
284 132
284 132
284 2
284 132
78 161
161 78
86 252
53 307
86 252
86 252
86 252
86 24
78 161
278 236
0 259
80 40
306 230
306 97
306 59
306 90
160 249
160 249
160 249
173 236
173 236
202 128
202 128
150 232
307 53
173 242
21 145
21 145
21 145
40 80
228 299
150 232
200 58
200 270
200 83
200 45
200 250
200 254
200 254
318 249
104 7
150 232
299 228
299 209
279 122
279 104
7 144
199 220
194 80
262 300
252 86
236 7
236 162
236 173
236 228
236 263
236 122
236 94
236 116
236 309
236 253
236 13
236 315
104 279
7 104
143 232
280 174
280 53
253 236
158 299
178 304
202 128
202 209
90 98
94 236
38 79
108 241
108 209
108 315
108 104
173 236
176 223
21 145
176 223
269 230
269 93
269 274
269 75
269 33
269 300
28 9
28 18
28 151
28 307
28 285
94 278
160 249
304 178
304 178
278 236
300 262
103 60
262 300
310 161
79 38
208 28
208 28
208 28
28 12
116 236
116 228
116 270
116 35
116 13
116 57
300 262
208 28
262 300
13 236
258 82
79 38
116 270
267 50
225 176
225 176
279 7
52 254
161 310
252 86
86 252
86 252
161 267
161 79
79 161
38 79
21 145
21 145
279 242
53 280
291 255
279 228
242 173
288 111
291 255
228 241
238 79
79 38
241 228
306 230
306 97
306 59
306 90
242 173
40 291
79 238
69 223
116 173
116 253
40 291
103 249
103 159
103 60
103 63
40 291
40 291
40 291
160 249
238 79
280 53
26 4
28 9
28 18
28 151
28 307
28 12
26 225
279 13
279 211
180 18
160 249
12 28
21 145
159 249
159 160
160 249
52 158
21 145
21 145
151 280
53 280
151 280
180 18
151 54
0 76
160 159
160 103
160 249
160 159
160 60
160 317
160 63
194 80
21 145
51 80
21 145
194 80
269 230
269 93
269 274
269 75
269 33
269 300
158 52
52 254
208 28
0 227
51 80
30 54
53 174
53 280
80 51
266 145
291 80
199 143
79 38
79 267
230 90
79 283
90 230
38 79
306 230
306 97
306 75
306 59
306 90
200 250
103 160
50 267
18 28
283 79
288 233
280 151
288 233
21 145
21 145
242 173
116 278
40 80
0 259
152 280
151 280
180 18
194 291
194 40
194 80
280 151
194 291
21 145
21 145
278 116
9 28
184 295
21 145
21 145
21 145
269 230
269 93
269 274
269 75
269 33
269 300
279 122
279 211
279 308
249 160
160 249
160 159
151 280
21 145
21 145
200 58
200 52
21 145
18 180
90 43
90 99
134 284
134 85
134 132
160 63
160 249
145 21
21 145
21 145
194 190
21 145
253 47
21 145
278 200
279 10
130 25
190 194
279 173
21 145
21 145
173 279
80 40
38 161
200 52
38 78
38 283
103 60
26 225
159 160
117 45
180 307
25 130
200 254
180 307
161 145
161 79
157 185
13 279
50 38
99 90
267 161
79 161
79 145
79 161
134 284
134 85
134 132
184 295
78 3
85 134
85 132
160 159
200 254
180 18
199 186
180 298
180 298
283 115
18 307
180 18
69 223
267 145
223 69
131 113
161 145
161 79
253 173
253 116
104 52
278 173
120 310
90 199
120 284
120 161
25 130
78 79
194 291
279 7
78 231
78 79
25 277
173 242
279 211
279 308
180 298
253 173
116 173
116 253
79 161
242 173
202 128
202 209
173 242
79 161
112 184
199 90
199 186
199 220
53 298
279 7
249 160
160 159
160 318
66 300
30 28
306 230
249 160
51 80
306 90
6 218
249 160
249 160
52 104
157 185
231 78
307 127
128 202
160 103
160 249
160 159
160 60
160 317
160 63
230 90
161 145
161 267
161 79
307 18
116 173
116 253
16 132
79 267
79 267
151 152
262 74
0 106
0 106
161 145
161 267
161 79
157 185
157 185
0 259
0 106
281 82
132 134
132 85
7 279
184 284
160 249
160 249
310 161
52 158
202 128
161 145
161 267
161 79
184 295
184 161
52 254
21 145
249 160
152 151
21 145
152 28
241 315
94 252
238 79
279 228
90 230
9 127
158 202
186 143
28 195
28 141
28 127
28 280
28 208
28 18
28 307
28 26
28 12
28 285
28 223
194 247
194 291
194 40
194 80
269 230
269 93
269 274
269 75
269 33
269 300
6 133
7 279
93 33
93 274
93 274
93 33
299 83
7 279
90 306
90 230
202 128
2 132
26 92
173 242
184 161
160 249
283 6
28 280
28 81
28 152
28 176
28 64
28 30
28 151
28 26
28 69
28 223
249 160
158 57
279 7
132 2
7 279
50 267
0 259
184 132
160 249
279 242
278 236
159 160
279 242
279 189
2 132
80 40
202 128
202 209
151 54
13 279
159 160
13 211
13 211
202 128
35 116
161 267
314 112
0 259
13 279
50 115
52 158
0 259
16 238
16 2
16 132
132 184
132 238
132 16
132 2
0 259
50 161
50 267
194 291
194 80
194 80
294 274
294 274
242 173
291 194
108 241
132 238
132 16
132 2
83 299
83 209
202 128
269 230
269 93
269 274
269 75
269 33
269 300
249 160
69 121
291 80
194 190
194 291
194 40
194 80
194 291
202 158
116 173
116 270
116 253
116 35
116 57
241 252
249 160
278 236
267 184
6 314
57 173
57 270
57 116
57 253
57 35
40 194
116 57
194 40
160 318
103 159
80 291
158 189
279 7
160 103
160 249
160 159
160 60
160 317
160 63
279 228
279 252
291 80
63 160
194 40
28 285
194 291
300 262
30 26
202 158
13 211
161 295
314 134
60 160
108 241
108 209
108 315
108 104
161 267
112 314
26 30
310 120
132 284
79 238
249 160
249 160
81 226
279 242
132 184
184 132
160 159
279 278
279 278
238 79
279 278
53 174
264 75
82 230
4 12
249 318
80 40
12 4
4 12
230 33
230 33
12 4
161 184
161 267
4 12
0 259
242 173
116 35
134 132
152 151
158 52
288 233
82 281
26 225
184 295
132 134
132 284
132 134
13 211
13 279
13 211
13 279
57 35
161 267
274 294
173 242
9 127
233 288
173 116
173 253
30 26
26 30
35 116
300 74
208 28
208 28
33 274
249 160
253 35
134 132
134 132
7 144
0 259
238 284
283 50
249 160
238 284
238 132
249 160
277 188
0 259
306 230
306 97
306 59
306 90
4 12
279 13
116 35
7 263
161 184
12 4
132 134
161 184
50 78
35 116
13 279
116 35
160 103
160 249
160 60
160 317
160 63
160 103
160 249
160 159
160 60
160 317
160 63
306 230
134 132
7 279
7 228
7 263
7 25
7 279
194 80
160 249
4 12
278 236
278 279
278 279
253 278
132 134
132 238
132 284
190 291
190 291
63 60
131 113
202 128
202 209
190 291
7 279
7 279
28 195
79 184
79 267
12 4
306 97
306 59
306 90
279 7
159 318
0 106
0 227
0 76
161 184
4 12
9 225
9 26
209 202
26 225
26 9
225 127
225 208
225 9
225 18
225 191
225 307
225 26
225 163
225 256
208 18
52 158
161 240
161 184
161 267
26 9
26 225
209 299
161 79
161 283
26 225
278 253
78 50
38 78
160 249
160 63
116 278
78 38
249 160
299 83
278 200
86 252
35 57
249 160
132 284
234 25
7 279
7 279
21 145
21 145
190 291
21 145
279 25
194 190
21 145
53 174
53 280
83 299
83 301
159 160
158 52
7 228
7 263
7 25
7 279
269 230
269 93
269 274
269 75
269 33
269 300
79 267
269 97
252 10
252 20
21 145
242 250
242 250
7 228
7 263
7 25
274 75
21 145
21 145
21 145
21 145
131 113
90 143
90 230
90 264
90 75
90 33
90 199
279 104
144 7
80 291
80 291
80 291
38 134
38 78
38 50
38 161
38 120
38 283
33 274
144 7
132 134
144 7
132 133
263 7
262 74
104 279
291 51
252 10
161 295
144 7
133 132
51 80
112 284
112 161
112 120
151 54
10 252
116 35
252 144
26 225
132 133
6 133
132 134
26 225
79 161
79 145
79 267
161 284
161 79
79 161
161 145
161 267
161 79
249 160
160 249
160 63
249 160
38 283
161 79
263 7
116 173
116 253
160 103
160 249
160 60
160 317
160 63
116 253
249 160
279 242
279 250
200 52
7 263
288 233
151 152
202 128
79 161
90 77
90 167
90 74
90 258
90 230
90 93
90 150
90 274
90 97
90 99
90 88
90 48
90 186
90 75
90 183
90 98
90 33
90 39
90 82
90 262
90 281
90 23
90 199
90 264
90 43
90 143
90 306
90 300
90 220
90 15
160 249
161 79
79 161
249 160
278 116
208 28
28 18
28 26
116 278
161 284
184 295
161 295
183 300
300 183
267 184
236 228
4 26
236 279
208 28
38 295
26 4
279 236
279 228
279 118
279 13
279 104
26 4
306 97
306 59
306 90
38 161
26 223
256 191
223 26
184 295
16 284
230 274
26 225
26 298
26 225
238 78
298 26
300 33
184 295
295 184
1 196
26 225
13 279
33 300
13 278
225 26
26 225
26 285
78 238
11 175
307 127
307 18
307 208
307 69
307 28
0 106
144 7
144 7
144 7
228 101
228 236
228 278
161 38
161 38
250 158
278 173
278 13
278 236
278 228
208 307
283 50
202 158
202 158
242 250
200 52
160 249
118 279
160 103
160 249
160 159
160 60
160 317
160 63
164 104
223 225
242 173
267 50
158 202
189 279
300 33
128 202
116 173
116 253
173 242
307 208
152 280
160 103
160 249
160 159
160 60
160 317
160 63
238 266
93 183
93 183
160 103
160 249
160 60
160 317
160 63
242 173
69 307
202 209
69 307
28 151
28 53
184 295
38 161
299 118
299 228
299 83
299 252
299 301
299 108
299 101
299 279
299 304
133 50
104 13
252 215
21 145
295 184
307 69
263 172
263 260
2 132
269 230
269 93
269 274
269 75
269 33
269 300
134 38
21 145
28 285
307 26
21 145
26 307
291 51
291 194
13 278
13 116
26 1
26 196
281 90
13 278
307 26
116 278
116 13
90 281
160 249
26 307
50 267
307 26
283 50
4 26
234 299
298 109
258 66
26 307
132 134
132 314
263 236
314 132
202 158
278 116
278 253
278 13
80 194
280 53
263 304
304 263
134 133
134 284
134 132
7 279
80 40
10 252
184 295
132 2
209 299
16 2
16 132
281 82
225 18
79 283
161 284
79 267
59 217
134 133
134 284
134 132
2 132
132 284
2 16
2 132
90 167
53 280
284 132
108 241
108 209
108 315
108 104
280 53
280 53
132 284
299 209
132 2
263 7
0 214
284 132
53 280
314 284
131 113
284 132
278 236
284 161
143 186
143 220
263 304
284 132
131 113
180 152
132 284
132 284
132 284
269 230
269 93
269 274
269 75
269 33
269 300
269 59
284 2
11 175
11 175
284 132
283 79
284 132
93 59
132 2
132 284
304 263
300 33
284 132
262 300
314 132
284 2
284 132
300 33
284 161
116 173
116 253
33 232
189 25
284 6
307 127
307 223
284 314
6 284
223 127
223 307
314 284
223 307
33 300
98 186
2 284
307 223
159 160
267 283
173 116
173 253
120 184
252 215
120 184
283 267
225 223
80 40
278 236
223 225
2 132
160 103
160 249
160 159
160 60
160 317
160 63
2 284
2 132
202 209
283 79
79 283
2 284
283 79
79 283
80 194
0 259
116 278
132 284
132 314
132 2
132 284
63 160
132 16
284 2
284 132
284 132
278 116
299 209
134 284
208 28
2 284
2 132
189 252
284 2
284 132
132 2
132 284
2 284
132 2
93 300
202 128
202 209
209 202
132 2
82 281
252 189
16 2
16 132
7 279
11 175
307 208
307 18
307 225
57 242
184 284
57 242
161 267
254 52
132 314
50 267
291 190
291 190
300 93
199 220
161 284
291 194
189 252
279 242
279 250
13 278
13 278
13 253
194 291
194 40
194 80
116 270
307 208
307 18
160 103
160 249
160 159
160 60
160 317
160 63
160 63
314 132
306 230
306 97
306 59
306 90
306 90
63 160
194 190
7 279
180 152
18 307
161 78
2 132
93 300
152 180
307 18
132 145
208 307
7 263
314 132
180 152
50 267
151 54
78 161
252 189
120 284
173 242
173 242
75 274
269 230
269 93
269 274
269 75
269 33
269 300
90 150
173 242
202 128
202 209
150 90
90 150
90 199
90 143
160 63
300 93
300 262
2 132
90 274
13 278
50 38
267 184
267 184
230 97
230 59
230 306
230 269
132 284
262 300
300 262
132 284
279 7
80 255
80 51
80 190
80 291
80 40
80 194
173 116
173 253
63 160
116 173
116 253
151 280
151 280
151 280
228 101
86 252
194 80
194 291
26 225
252 319
252 86
40 80
291 194
3 184
135 277
161 78
194 291
291 194
173 116
173 253
223 28
190 291
291 190
184 3
26 4
161 145
161 267
161 79
3 184
202 128
202 209
160 103
160 249
160 159
160 60
160 317
160 63
269 230
269 93
269 274
269 75
269 33
269 300
262 300
159 160
93 300
314 283
40 80
184 3
78 161
184 267
161 78
314 283
78 161
278 253
269 230
269 93
269 274
269 75
269 33
269 300
190 291
189 57
3 283
151 280
48 74
26 225
26 225
300 93
202 128
194 255
194 51
194 190
194 247
194 291
194 40
194 80
202 209
202 108
40 194
278 173
33 183
190 194
202 128
202 209
199 186
199 220
194 190
202 128
173 278
190 194
132 240
132 6
132 184
132 238
132 71
132 261
132 112
132 38
132 203
132 311
132 16
132 110
132 2
132 257
132 133
132 134
132 78
132 266
132 27
132 3
132 50
132 284
132 295
132 85
132 218
132 314
132 17
132 161
132 145
132 267
132 79
132 120
132 310
132 283
255 80
194 190
151 280
190 194
208 307
159 318
299 209
160 103
160 249
160 159
160 60
160 317
160 63
194 190
278 173
26 225
278 200
26 151
253 278
242 173
173 242
50 267
1 225
2 284
2 132
176 223
60 63
151 54
209 299
209 299
158 234
225 26
225 26
225 26
225 26
225 1
225 223
283 133
283 3
283 314
173 278
173 242
242 173
234 158
291 190
200 52
132 284
47 228
47 228
38 134
202 128
202 209
314 283
78 161
38 283
38 120
184 295
183 300
254 52
278 253
278 13
278 173
120 38
128 202
202 128
9 225
9 26
202 209
26 225
26 9
81 28
13 116
278 173
116 13
230 97
230 59
230 306
230 269
90 199
199 186
199 220
199 90
176 223
0 106
116 173
116 253
160 103
160 249
160 60
160 317
160 63
160 103
160 249
160 60
160 317
160 63
184 161
184 161
161 184
161 295
133 50
306 230
279 7
38 78
24 252
279 118
279 299
279 252
279 278
279 189
2 132
279 7
279 228
279 242
279 241
279 135
279 209
279 158
279 202
279 116
279 108
279 250
279 13
279 315
279 104
279 304
24 252
279 13
300 183
279 228
279 299
315 279
241 279
13 279
13 279
223 225
160 159
118 279
132 2
108 279
209 279
85 133
108 252
85 6
225 26
283 38
0 259
283 314
26 4
6 133
6 85
267 145
295 184
78 38
11 175
267 50
78 161
278 279
299 279
160 63
202 128
202 209
202 128
18 208
18 307
202 128
202 209
202 108
267 145
200 250
267 161
81 28
151 280
199 90
103 160
38 283
234 279
306 230
306 97
306 59
306 90
30 26
279 234
26 30
300 262
262 300
25 234
208 28
90 199
314 219
51 80
236 279
132 240
132 6
132 184
132 238
132 71
132 261
132 112
132 38
132 203
132 311
132 16
132 110
132 2
132 257
132 133
132 134
132 78
132 266
132 27
132 3
132 50
132 284
132 295
132 85
132 218
132 314
132 17
132 161
132 145
132 267
132 79
132 120
132 310
132 283
262 74
262 183
13 253
51 80
300 262
178 304
202 209
262 300
305 234
279 236
279 236
7 279
264 90
89 276
50 267
263 228
194 255
194 51
194 190
194 247
194 291
194 40
194 80
291 194
60 63
160 103
160 249
160 159
160 318
160 60
160 63
236 278
40 194
90 77
90 167
90 74
90 258
90 230
90 93
90 150
90 274
90 97
90 99
90 88
90 48
90 186
90 75
90 183
90 98
90 33
90 39
90 82
90 262
90 281
90 23
90 199
90 264
90 43
90 143
90 306
90 300
90 220
90 15
241 272
25 242
269 230
269 93
269 274
269 75
269 33
269 300
194 40
90 264
90 281
86 252
202 158
116 173
116 253
220 186
220 98
299 118
299 228
299 83
299 252
299 301
299 108
299 101
299 279
299 304
108 202
103 160
108 299
223 28
202 209
223 28
0 259
131 113
300 262
300 33
38 78
38 161
3 240
3 6
3 184
3 238
3 71
3 112
3 38
3 311
3 16
3 110
3 2
3 133
3 134
3 78
3 266
3 27
3 284
3 295
3 85
3 314
3 161
3 145
3 267
3 79
3 120
3 310
3 283
3 132
78 38
278 236
159 160
291 80
252 215
202 128
86 252
310 184
310 184
81 54
314 112
0 259
0 106
267 184
24 252
173 242
269 230
269 93
269 274
269 75
269 33
269 300
223 28
202 128
202 209
174 53
234 173
234 47
234 228
234 242
234 278
234 116
234 253
234 250
234 13
234 305
13 234
234 305
173 234
38 283
253 234
279 234
234 279
190 40
40 190
234 279
279 234
274 82
279 118
279 299
279 252
279 278
279 189
279 7
279 117
279 228
279 242
279 241
279 135
279 209
279 158
279 202
279 116
279 108
279 101
279 250
279 13
279 315
279 104
279 304
279 202
13 279
240 3
132 2
132 284
199 90
241 279
50 267
305 234
278 234
278 279
161 284
128 202
223 28
81 28
184 3
184 145
310 184
161 310
151 54
3 184
118 279
267 50
230 90
173 116
173 253
80 40
50 267
33 300
186 199
26 280
194 291
194 80
38 50
38 295
38 161
38 267
184 267
158 52
184 240
40 80
160 63
300 33
190 40
26 307
200 52
173 116
173 253
158 202
158 202
230 97
230 59
230 306
230 269
26 223
184 161
7 279
7 279
13 211
13 279
267 78
230 97
230 59
230 306
230 269
50 267
50 79
50 78
50 16
50 38
50 295
50 283
50 161
86 252
26 225
161 284
223 28
0 106
18 208
300 74
11 175
230 90
194 291
236 278
161 38
161 50
161 295
161 267
85 6
252 86
131 113
33 300
97 59
291 190
78 38
230 306
230 220
190 40
132 284
132 161
252 86
50 161
223 28
113 131
240 184
269 230
269 93
269 274
269 75
269 33
269 300
202 158
57 135
173 242
57 135
291 40
223 26
3 132
161 184
97 217
300 262
21 145
21 145
21 145
50 38
50 295
50 161
50 267
131 113
86 252
26 28
300 33
161 50
3 85
161 132
291 51
161 38
161 50
161 295
161 267
194 291
194 40
194 80
21 145
6 85
230 97
230 59
230 306
230 269
128 305
28 26
267 38
267 50
267 295
267 161
225 26
26 225
21 145
225 26
26 225
150 74
86 252
202 128
202 209
278 236
278 236
305 128
161 184
254 200
128 305
298 69
53 174
307 191
252 86
191 256
132 2
132 284
209 279
208 18
7 279
33 300
279 7
279 7
279 7
50 6
159 160
161 134
53 280
160 63
230 97
230 59
230 306
230 306
120 112
120 38
38 120
132 3
280 53
300 33
200 250
132 3
33 300
250 200
269 230
269 93
269 274
269 75
269 33
269 300
278 253
262 74
262 300
300 33
223 225
223 28
295 38
295 50
295 161
295 267
278 253
134 161
180 18
190 291
190 291
300 262
38 78
38 161
116 173
116 47
116 228
116 253
116 13
13 116
180 152
180 298
291 194
242 278
230 97
230 59
230 306
230 269
132 284
161 38
57 135
80 40
53 280
53 280
252 189
305 299
230 274
230 97
230 75
230 33
230 59
230 306
230 269
299 305
263 7
105 305
151 26
151 152
116 13
230 306
116 173
116 253
47 228
47 228
26 151
47 228
116 173
116 253
228 47
47 228
13 278
6 50
278 13
50 6
300 232
299 305
278 200
57 135
152 180
6 85
80 291
80 291
38 161
256 191
191 256
305 299
279 7
225 223
50 295
50 16
50 161
50 267
50 78
50 38
50 283
50 79
299 305
38 283
306 230
38 134
38 120
40 80
173 116
173 253
3 132
80 40
242 25
81 28
13 278
13 189
306 230
89 276
91 123
91 185
180 298
180 298
242 250
278 13
278 189
223 176
2 132
91 123
161 38
230 74
230 183
230 82
26 223
7 279
280 28
280 28
91 14
152 280
253 278
38 161
38 161
116 173
116 253
306 230
306 97
306 59
281 183
314 6
132 284
199 90
200 52
200 250
3 132
3 132
3 284
278 253
161 120
38 283
75 274
161 38
223 18
58 193
58 270
58 83
58 301
58 45
58 200
58 254
132 2
132 284
189 13
7 144
133 6
144 7
79 78
33 300
223 225
79 161
157 185
161 267
161 79
53 280
280 53
225 223
262 74
199 90
90 230
90 230
90 199
132 2
208 28
161 79
161 283
194 80
16 161
161 38
161 284
161 120
300 33
230 306
269 230
269 93
269 274
269 75
269 33
269 300
69 223
151 280
318 159
151 26
151 280
158 299
194 80
279 118
279 299
279 252
279 278
279 189
279 118
279 299
279 252
279 278
279 189
262 300
90 77
90 167
90 74
90 258
90 230
90 93
90 150
90 274
90 97
90 99
90 88
90 48
90 186
90 75
90 183
90 98
90 33
90 39
90 82
90 262
90 281
90 23
90 199
90 264
90 43
90 143
90 306
90 300
90 220
90 15
25 241
150 281
158 122
300 262
278 279
3 85
178 47
274 74
274 230
274 93
274 97
274 75
274 33
274 39
274 82
274 59
274 32
274 306
274 90
274 269
262 300
47 178
4 26
178 47
151 26
306 230
306 97
306 59
306 90
26 4
306 230
48 90
299 279
132 240
132 6
132 184
132 238
132 71
132 261
132 112
132 38
132 203
132 311
132 16
132 110
132 2
132 257
132 133
132 134
132 78
132 266
132 27
132 3
132 50
132 284
132 295
132 85
132 218
132 314
132 17
132 161
132 145
132 267
132 79
132 120
132 310
132 283
50 267
26 151
2 132
86 10
86 24
2 284
2 132
173 116
173 253
230 93
281 150
150 281
132 184
132 284
132 120
93 230
180 298
230 93
3 240
3 6
3 184
3 71
3 112
3 38
3 110
3 2
3 257
3 133
3 134
3 78
3 266
3 27
3 50
3 284
3 218
3 161
3 145
3 267
3 79
3 120
3 283
3 132
93 230
93 230
278 13
160 103
160 249
160 60
160 317
160 63
160 103
160 249
160 60
160 317
160 63
50 184
160 103
230 93
83 158
93 230
83 301
291 80
223 28
279 189
230 93
223 225
13 278
132 38
132 284
86 10
86 252
86 24
86 10
86 252
86 24
86 10
86 252
86 24
158 83
83 158
202 299
281 82
225 223
79 3
194 291
194 80
132 27
242 173
200 58
200 270
200 83
200 45
200 250
200 254
253 278
234 162
263 228
199 90
2 284
2 132
234 118
234 299
234 252
234 278
234 189
223 28
234 299
13 116
176 26
279 7
254 52
116 13
158 162
158 83
158 25
158 202
158 101
158 45
158 315
189 279
189 234
189 279
194 291
3 79
160 103
160 249
160 318
160 60
160 63
58 193
58 270
58 83
58 301
58 45
58 200
58 254
279 7
279 117
279 228
279 242
279 241
279 135
279 209
279 158
279 202
279 116
279 108
279 101
279 13
279 315
279 104
279 304
241 279
13 279
160 63
93 230
230 93
26 176
278 253
223 208
208 28
186 143
30 26
269 230
269 93
269 274
269 75
269 33
269 300
26 30
299 234
299 234
86 252
138 11
138 175
85 6
314 112
300 74
108 279
82 281
278 116
278 253
50 267
184 284
202 128
202 209
116 173
116 253
209 279
161 120
106 214
30 26
11 138
79 78
158 162
158 83
158 25
158 202
158 101
158 45
158 315
138 11
138 175
79 267
306 230
306 97
306 59
306 90
306 230
208 28
230 306
267 50
267 50
173 116
173 253
173 116
173 253
173 116
173 253
78 79
79 78
78 79
11 138
242 250
161 79
120 161
306 230
58 200
230 306
230 93
138 11
138 175
93 230
151 280
151 280
269 230
269 93
269 274
269 75
269 33
269 300
161 16
186 143
79 161
199 186
161 120
26 225
180 152
117 45
47 13
116 173
116 270
116 253
116 57
178 104
194 291
194 80
120 112
160 249
160 63
186 143
199 186
28 1
298 109
104 52
269 230
269 93
269 274
269 75
269 33
269 300
200 58
150 77
150 167
150 74
150 258
150 230
150 93
150 274
150 97
150 99
150 88
150 48
150 186
150 75
150 183
150 98
150 33
150 39
150 82
150 262
150 281
150 23
150 199
150 264
150 43
150 143
150 306
150 90
150 300
150 220
150 15
200 58
200 270
200 83
200 45
200 250
200 254
58 200
200 58
108 234
132 134
161 79
253 13
144 7
234 162
234 277
234 315
193 52
144 7
6 314
314 6
202 116
108 209
116 202
108 301
0 214
13 253
131 113
120 161
202 128
283 38
283 161
53 174
225 26
79 161
79 161
161 79
161 50
161 120
79 161
79 267
120 161
160 103
160 249
160 159
160 60
160 317
160 63
160 103
160 249
160 159
160 60
160 317
160 63
269 230
269 93
269 274
269 75
269 33
269 300
194 291
11 138
38 50
53 280
80 291
80 291
280 53
180 18
80 291
80 291
194 291
194 80
254 200
274 230
278 236
47 228
162 234
262 281
53 280
262 197
7 144
11 175
162 234
94 234
197 262
288 233
250 242
132 145
278 228
138 11
138 175
7 114
281 262
2 284
2 132
234 94
253 278
94 234
33 300
253 242
202 209
47 178
47 178
242 253
57 135
278 253
50 267
159 160
103 60
306 230
178 47
28 285
28 285
230 97
230 59
230 306
230 269
184 161
242 253
202 108
176 127
300 33
80 194
116 173
116 270
116 253
116 57
184 161
242 173
223 280
81 28
30 26
16 284
161 184
26 30
161 184
184 161
267 161
90 199
267 161
161 79
161 184
194 291
79 161
79 145
79 267
79 283
161 79
173 116
173 253
160 103
160 249
160 60
160 317
160 63
174 53
199 186
199 220
80 194
26 127
26 174
26 280
26 81
26 4
26 152
26 225
26 208
26 9
26 18
26 121
26 64
26 30
26 191
26 53
26 307
26 298
26 12
26 285
26 180
26 69
26 223
26 256
250 242
90 274
158 202
223 28
223 53
90 77
90 167
90 74
90 258
90 230
90 93
90 150
90 274
90 97
90 99
90 88
90 48
90 186
90 75
90 183
90 98
90 33
90 39
90 82
90 262
90 281
90 23
90 199
90 264
90 43
90 143
90 306
90 300
90 220
90 15
242 173
194 80
97 230
59 97
314 112
11 138
173 242
242 173
30 26
33 300
242 250
161 284
267 79
79 267
99 90
79 78
132 284
202 108
134 16
173 116
173 253
160 159
3 284
242 173
116 173
173 116
116 173
173 116
26 30
78 79
89 276
89 276
173 242
242 250
279 299
12 28
279 242
279 135
279 158
279 250
279 315
279 104
267 161
161 145
161 267
161 79
279 118
279 299
279 252
279 278
279 189
143 90
103 249
279 278
242 173
250 242
241 162
216 276
216 70
180 18
79 3
161 184
161 267
250 279
310 161
250 242
223 225
157 185
268 314
314 268
225 223
299 279
299 279
299 209
223 225
16 134
16 284
16 85
299 228
286 126
286 14
85 16
85 134
85 284
225 26
225 26
90 143
90 150
90 74
79 283
173 242
194 291
283 79
79 50
16 134
16 284
16 85
33 232
269 230
269 93
269 274
269 75
269 33
269 300
242 173
104 304
288 233
93 90
131 113
11 138
104 304
3 240
3 6
3 184
3 238
3 71
3 112
3 38
3 311
3 16
3 110
3 2
3 257
3 133
3 134
3 78
3 27
3 50
3 284
3 295
3 85
3 314
3 161
3 145
3 267
3 79
3 120
3 310
3 283
3 132
116 173
116 253
3 112
194 291
223 28
160 103
160 249
160 60
160 317
160 63
230 306
38 283
11 138
155 157
191 256
112 3
299 118
299 228
299 83
299 252
299 301
299 108
299 101
299 279
299 304
118 299
299 118
2 284
2 132
138 11
138 175
11 138
11 138
138 11
138 175
3 112
138 11
138 175
138 11
138 175
11 138
202 299
79 283
283 79
11 138
79 161
138 11
138 175
300 183
11 138
183 300
93 230
173 242
173 242
160 103
159 160
279 299
279 278
281 150
150 281
279 189
279 139
11 138
249 159
138 11
138 175
281 90
314 6
133 284
199 90
7 144
230 93
120 184
120 184
13 228
6 314
279 7
85 16
85 134
85 284
279 7
314 6
279 7
279 7
250 242
90 199
90 281
160 249
160 63
160 103
160 249
160 60
160 317
160 63
3 112
150 281
150 143
150 15
186 98
186 199
186 143
90 281
298 69
281 90
90 281
223 127
90 77
90 167
90 74
90 258
90 230
90 93
90 150
90 274
90 97
90 99
90 88
90 48
90 186
90 75
90 183
90 98
90 33
90 39
90 82
90 262
90 281
90 23
90 199
90 264
90 43
90 143
90 306
90 300
90 220
90 15
223 53
242 250
223 28
208 28
93 230
202 108
223 28
230 93
28 223
132 2
240 3
300 262
234 279
26 28
174 53
174 298
242 250
242 250
242 250
2 132
202 108
180 225
279 234
161 184
161 50
161 145
2 132
269 230
269 93
269 274
269 75
269 33
269 300
108 241
159 249
103 160
133 50
262 300
300 262
139 279
116 270
116 57
132 284
90 274
242 234
134 16
30 26
242 305
242 193
26 30
12 28
18 28
6 218
16 134
300 74
238 132
134 16
0 214
78 79
78 283
33 230
288 233
279 299
116 57
80 40
80 255
80 51
80 194
81 28
250 7
250 279
161 240
161 6
161 184
161 238
161 71
161 261
161 112
161 38
161 203
161 311
161 16
161 110
161 2
161 257
161 133
161 134
161 78
161 266
161 27
161 3
161 50
161 284
161 295
161 85
161 218
161 314
161 17
161 145
161 267
161 79
161 120
161 310
161 283
161 132
16 284
132 161
81 226
117 301
299 279
209 299
299 301
299 279
30 26
279 7
85 6
26 30
225 180
313 214
299 202
286 126
306 97
306 59
24 252
38 161
230 97
230 59
230 306
230 269
161 112
112 161
283 161
112 161
230 97
230 59
230 306
230 269
291 51
291 194
33 274
16 134
161 112
16 284
279 118
279 299
279 252
279 278
279 189
279 242
279 252
279 189
279 13
13 279
189 279
134 16
18 180
189 279
189 279
40 80
151 54
151 81
162 7
234 242
108 299
189 279
33 230
33 232
33 274
33 300
160 249
160 103
160 249
160 60
160 317
160 63
33 274
230 33
134 133
250 158
86 252
79 267
90 48
120 161
279 7
253 13
300 33
159 160
279 7
116 57
269 230
269 93
269 274
269 75
269 33
269 300
279 250
57 116
83 301
159 103
160 159
279 211
238 6
238 218
26 69
116 57
10 86
249 159
38 184
173 116
173 253
238 112
238 284
238 314
159 249
112 238
75 274
116 173
116 253
132 240
132 6
132 184
132 238
132 71
132 261
132 112
132 38
132 203
132 311
132 16
132 110
132 2
132 257
132 133
132 134
132 78
132 266
132 27
132 3
132 50
132 284
132 295
132 85
132 218
132 314
132 17
132 161
132 145
132 267
132 79
132 120
132 310
132 283
13 253
86 252
86 24
253 13
132 133
132 134
199 90
238 112
238 284
7 250
53 28
252 10
252 10
0 214
2 132
252 10
252 10
160 249
2 132
18 28
208 28
242 234
180 307
159 160
223 225
47 228
180 18
13 253
134 16
242 173
7 263
161 50
50 161
50 267
267 161
242 173
16 134
225 223
250 7
199 90
57 116
199 186
90 143
90 183
90 264
90 75
90 199
2 132
132 16
132 133
132 134
132 50
132 145
132 267
132 310
2 132
132 16
132 133
132 134
132 50
132 145
132 267
132 310
173 242
132 284
132 2
267 50
144 7
132 16
132 133
132 134
132 50
132 145
132 267
132 310
160 317
48 90
300 262
262 300
90 48
132 2
143 90
16 134
16 132
7 250
7 279
16 132
16 134
228 47
47 228
228 47
122 277
112 3
281 150
47 228
47 228
40 80
3 112
7 144
90 143
51 291
51 80
86 252
3 314
2 132
314 3
69 26
18 28
86 10
228 47
28 18
241 47
160 103
50 267
241 228
279 7
279 7
279 7
238 112
40 80
134 16
316 116
90 150
116 57
208 9
208 18
208 1
208 256
208 307
132 134
151 26
10 252
298 26
28 18
26 151
80 40
112 238
269 230
269 93
269 274
269 75
269 33
269 300
116 173
116 253
9 208
83 301
16 134
47 202
194 291
194 80
150 281
47 228
26 28
47 228
280 53
53 280
208 127
26 28
26 28
298 26
26 28
18 28
26 28
133 284
1 208
1 28
307 208
307 28
208 28
242 315
242 308
242 104
242 304
242 57
26 28
24 252
134 16
134 16
241 228
9 208
9 208
7 279
28 256
209 202
28 26
208 28
1 208
1 28
28 26
28 26
28 26
256 28
7 144
13 239
13 211
13 278
13 279
161 50
161 145
26 28
26 208
161 50
161 267
50 161
50 161
50 267
161 50
161 267
267 161
161 267
161 50
161 267
161 50
161 267
250 7
161 50
161 267
208 4
90 274
252 10
202 209
252 10
242 250
252 10
306 230
306 97
306 59
306 90
132 2
90 306
279 242
279 250
279 242
279 250
279 242
279 250
234 279
26 28
132 314
80 51
80 194
132 6
132 112
132 284
132 314
116 57
4 208
57 116
262 300
160 103
53 174
220 98
279 234
47 228
314 132
252 10
116 57
194 291
194 80
314 6
314 112
314 284
314 132
116 57
116 173
116 253
132 6
132 112
132 284
132 314
28 298
4 208
298 28
208 28
173 116
173 253
173 116
173 253
116 57
173 116
173 253
173 116
173 253
228 162
228 47
228 241
228 315
160 103
160 249
160 159
160 60
160 317
160 63
47 228
160 103
160 249
160 60
160 317
160 63
10 252
7 228
7 242
7 263
7 299
7 241
7 301
7 101
7 189
7 139
7 278
3 240
3 6
3 184
3 238
3 71
3 261
3 112
3 38
3 311
3 16
3 110
3 2
3 168
3 257
3 133
3 134
3 78
3 266
3 27
3 50
3 284
3 295
3 85
3 218
3 314
3 161
3 145
3 267
3 79
3 120
3 310
3 283
3 132
269 230
269 93
269 274
269 75
269 33
269 300
28 26
28 26
28 26
28 26
28 26
28 26
28 26
10 252
59 97
241 228
160 103
160 249
160 60
160 317
160 63
116 173
116 253
314 132
132 284
199 186
176 26
253 13
83 301
180 18
144 7
144 7
144 7
144 7
7 144
6 112
6 284
6 314
6 132
144 7
300 74
26 28
11 175
208 28
253 173
40 291
90 150
26 28
83 301
274 90
132 2
230 97
230 59
230 306
230 269
150 90
28 53
26 28
108 118
108 228
108 299
108 83
108 252
108 301
108 101
108 279
108 304
90 274
50 133
279 7
279 242
279 250
279 7
279 242
279 250
90 274
314 238
314 132
208 28
234 7
164 304
118 164
93 230
118 164
249 317
174 195
11 175
90 43
116 270
270 116
199 186
116 270
90 199
279 211
270 116
279 7
279 242
279 250
161 284
11 175
11 175
11 175
256 208
194 80
249 317
108 299
108 299
93 90
50 38
50 16
50 78
50 295
50 161
50 267
50 79
50 283
279 242
279 250
279 242
279 7
279 7
269 230
269 93
269 274
269 75
269 33
269 300
279 315
116 270
317 159
306 230
306 97
306 59
306 90
2 238
2 16
199 186
200 58
200 270
200 83
200 45
200 254
262 232
230 274
241 162
300 232
132 284
25 242
117 45
18 180
280 28
280 53
278 279
278 279
278 200
16 238
16 2
80 40
274 75
279 250
279 250
279 250
80 194
40 80
160 103
160 249
160 159
160 60
160 317
160 63
160 103
160 249
160 159
160 60
160 317
160 63
278 279
2 16
194 291
194 80
118 164
161 284
90 199
238 16
238 2
152 180
234 122
234 277
279 118
279 7
279 228
279 242
279 299
279 252
279 278
279 189
279 13
279 104
11 175
16 238
16 3
202 116
199 90
0 106
13 279
13 299
278 13
13 279
278 236
3 16
3 219
1 256
57 58
116 202
108 299
202 116
279 13
13 279
220 48
230 93
230 274
230 33
132 284
299 228
7 279
173 116
173 253
230 90
199 90
134 38
90 230
58 57
295 184
28 121
160 103
160 249
160 159
160 60
160 317
160 63
274 33
57 58
60 63
306 230
306 97
306 59
306 90
306 230
306 97
306 59
306 90
310 184
162 228
28 121
28 12
213 80
58 57
28 141
28 174
28 18
28 1
28 307
28 26
28 12
28 285
28 223
132 238
132 16
132 2
161 145
90 230
53 28
93 230
7 279
28 53
184 310
132 2
16 3
16 132
90 199
183 143
132 16
53 28
278 236
160 103
160 249
160 159
160 60
160 317
160 63
132 284
30 26
57 116
26 30
152 180
75 274
278 116
278 253
278 13
228 279
202 128
83 301
230 274
0 76
199 90
108 299
132 120
278 253
278 13
83 299
253 278
234 122
85 133
278 234
86 252
252 86
71 120
0 214
279 228
132 284
161 38
202 128
252 86
280 53
11 175
11 175
120 71
120 132
80 40
53 280
208 28
58 57
53 280
189 279
202 128
40 80
90 75
194 291
194 80
40 80
90 230
262 300
28 280
28 81
28 121
28 64
28 30
28 26
28 69
28 223
28 127
28 4
28 208
28 9
28 18
28 1
28 307
28 12
28 256
160 103
160 249
160 159
160 60
160 317
160 63
143 183
262 232
230 90
173 253
253 173
75 90
75 274
253 173
7 279
90 143
90 281
90 264
90 82
90 230
135 25
33 230
33 232
33 274
33 300
242 299
242 114
277 135
262 300
300 33
279 13
135 25
135 277
135 25
135 189
2 132
3 16
13 279
161 284
90 143
58 57
57 58
132 27
58 57
116 278
278 116
116 173
116 270
116 253
116 57
108 209
116 234
230 93
131 113
12 285
12 285
161 145
161 267
161 79
16 3
173 116
173 253
53 280
91 95
161 284
161 284
242 250
105 305
250 242
38 240
38 311
38 257
38 284
38 161
38 267
38 132
202 209
128 202
202 128
280 53
53 280
291 40
128 202
132 2
279 118
279 299
279 252
279 278
279 189
279 122
40 291
252 10
252 10
69 28
120 112
134 38
305 105
105 305
108 299
28 285
25 241
128 202
202 128
80 40
33 230
33 232
33 274
33 300
279 13
53 174
53 280
299 279
116 173
116 253
13 279
13 279
3 16
269 230
269 93
269 274
269 75
269 33
269 300
28 180
28 180
28 180
28 191
28 180
291 194
69 307
3 284
274 230
220 48
2 238
2 284
278 279
80 291
86 252
234 116
116 234
278 299
230 93
279 118
279 299
279 252
279 278
279 189
10 252
299 279
189 279
189 279
11 175
278 200
278 253
278 236
278 253
278 279
278 173
284 238
144 7
144 7
161 145
161 267
161 79
242 250
314 6
157 185
0 214
225 307
225 127
225 18
225 307
225 26
225 307
225 26
225 26
26 225
26 225
26 225
26 225
252 86
26 225
82 281
313 214
199 90
90 199
16 3
161 112
161 38
161 284
161 120
16 238
16 284
307 225
180 152
278 236
108 299
132 2
161 112
161 38
161 284
161 120
291 40
291 194
291 51
30 28
254 52
262 274
0 214
69 28
200 58
200 270
200 83
200 45
200 254
238 16
86 252
38 240
38 257
38 161
38 267
38 132
81 28
305 299
223 28
262 274
28 298
11 138
38 161
9 28
152 180
194 291
194 40
194 291
194 40
238 16
238 2
238 284
180 152
161 120
279 13
138 11
138 175
11 138
90 258
26 18
53 174
53 280
161 145
278 236
278 236
3 16
12 18
278 279
180 307
132 2
132 284
160 103
160 249
160 159
160 318
160 60
160 222
160 63
278 116
116 278
298 28
278 116
264 74
116 278
254 52
38 161
279 13
279 211
314 219
108 299
174 53
173 116
173 253
241 25
103 160
180 18
159 160
38 50
38 161
18 28
18 28
298 28
16 3
231 6
225 223
161 284
161 295
161 120
3 16
40 291
40 194
40 190
40 190
16 3
13 279
13 279
159 160
132 16
132 2
283 132
199 90
0 214
283 38
28 285
280 53
315 228
64 28
202 209
160 159
160 103
90 199
26 28
120 184
53 280
304 164
28 81
28 26
7 279
280 53
280 53
103 160
159 160
278 253
160 103
160 249
160 318
160 60
160 222
160 63
90 98
90 281
90 143
280 28
90 77
90 167
90 74
90 258
90 230
90 93
90 150
90 274
90 97
90 99
90 88
90 48
90 186
90 75
90 183
90 98
90 33
90 39
90 82
90 262
90 281
90 23
90 199
90 264
90 43
90 143
90 306
90 300
90 220
90 15
85 218
279 118
279 299
279 252
279 278
279 189
279 7
81 28
314 284
160 249
314 3
299 279
3 240
3 6
3 184
3 238
3 71
3 112
3 38
3 16
3 2
3 133
3 134
3 78
3 266
3 219
3 27
3 50
3 295
3 85
3 314
3 161
3 145
3 267
3 79
3 120
3 310
3 283
3 132
252 215
132 240
132 6
132 184
132 238
132 71
132 261
132 112
132 38
132 203
132 311
132 16
132 110
132 2
132 257
132 133
132 134
132 78
132 266
132 27
132 3
132 50
132 284
132 295
132 85
132 218
132 314
132 17
132 161
132 145
132 267
132 79
132 120
132 310
132 283
134 38
98 90
28 26
283 132
194 291
132 240
132 6
132 184
132 238
132 71
132 261
132 112
132 38
132 203
132 311
132 16
132 110
132 2
132 257
132 133
132 134
132 78
132 266
132 27
132 3
132 50
132 284
132 295
132 85
132 218
132 314
132 17
132 161
132 145
132 267
132 79
132 120
132 310
132 283
279 158
249 160
132 284
249 160
90 98
28 18
143 90
132 283
132 3
26 28
283 132
161 145
202 128
86 252
180 18
180 18
7 122
7 279
28 18
26 223
112 6
112 314
112 6
180 18
132 120
151 152
151 152
18 28
38 283
7 25
180 18
108 299
86 252
116 278
230 74
295 161
81 28
128 202
209 202
52 58
2 284
2 132
189 279
189 279
132 284
242 173
238 2
238 284
173 242
16 132
132 240
132 6
132 184
132 238
132 71
132 261
132 112
132 38
132 203
132 311
132 16
132 110
132 2
132 257
132 133
132 134
132 78
132 266
132 27
132 3
132 50
132 284
132 295
132 85
132 218
132 314
132 17
132 161
132 145
132 267
132 79
132 120
132 310
132 283
38 161
150 281
120 132
291 80
160 249
93 230
0 214
186 199
118 279
208 28
28 121
132 314
314 132
180 152
256 28
2 238
2 284
159 160
11 138
173 253
11 138
2 284
2 132
131 113
90 99
116 173
116 270
116 253
116 35
116 57
116 173
57 35
278 116
278 94
158 162
158 83
158 25
158 202
158 101
158 45
158 315
138 11
138 175
138 11
138 175
186 199
269 230
269 93
269 274
269 75
269 33
269 300
189 279
132 284
253 13
28 9
38 120
278 279
152 151
173 116
173 253
173 116
173 253
173 116
173 253
199 186
120 38
143 232
116 270
116 35
116 57
116 173
116 270
116 253
116 35
116 57
194 291
194 80
194 291
194 40
194 80
161 120
63 159
116 270
161 184
161 112
161 38
161 284
161 120
7 279
279 7
279 25
9 28
117 45
191 256
51 291
99 90
90 74
233 216
190 40
291 194
40 291
40 194
291 40
299 305
132 284
132 284
231 219
120 161
257 311
176 127
160 103
160 249
160 159
160 60
160 317
160 63
132 240
132 6
132 184
132 238
132 71
132 261
132 112
132 38
132 203
132 311
132 16
132 110
132 2
132 257
132 133
132 134
132 78
132 266
132 27
132 3
132 50
132 284
132 295
132 85
132 218
132 314
132 17
132 161
132 145
132 267
132 79
132 120
132 310
132 283
190 194
314 219
279 7
279 7
194 190
279 242
279 250
279 242
279 278
234 279
279 234
236 278
53 28
132 284
183 300
183 300
278 279
278 236
183 300
299 118
299 228
299 83
299 252
299 301
299 108
299 101
299 279
299 304
158 162
158 83
158 25
158 202
158 101
158 45
158 315
314 71
238 16
299 279
262 300
291 40
71 314
314 71
269 230
269 93
269 274
269 75
269 33
269 300
160 103
184 120
184 3
184 310
3 184
310 184
120 184
16 238
86 252
80 255
80 51
80 190
80 291
80 40
80 194
120 184
120 112
120 38
120 161
159 249
194 291
194 80
0 227
202 128
144 7
299 118
299 228
299 83
299 252
299 301
299 108
299 101
299 279
299 304
75 274
24 252
90 77
3 38
83 228
228 83
57 135
57 35
80 291
27 267
309 279
90 274
228 83
90 274
253 13
24 252
40 291
279 25
103 159
279 242
279 278
279 189
13 253
253 13
173 242
81 28
90 274
174 195
194 291
90 199
174 195
298 174
174 298
13 253
90 99
24 252
24 252
184 120
279 278
314 3
314 284
90 77
90 167
90 74
90 258
90 230
90 93
90 150
90 274
90 97
90 99
90 88
90 48
90 186
90 75
90 183
90 98
90 33
90 39
90 82
90 262
90 281
90 23
90 199
90 264
90 43
90 143
90 306
90 300
90 220
90 15
90 274
202 158
274 75
202 209
253 13
81 26
12 28
239 279
239 279
233 72
116 173
116 270
116 253
116 35
116 57
300 74
13 253
199 90
26 81
310 184
190 194
300 93
209 202
230 33
120 283
16 284
71 283
25 135
25 7
278 200
278 173
278 228
228 278
228 279
228 104
228 290
228 83
228 101
228 83
306 97
306 59
306 90
306 59
306 90
90 199
278 228
50 161
50 267
50 16
50 283
50 79
50 78
50 295
50 38
278 13
194 190
280 53
178 272
279 228
117 234
228 13
278 178
194 291
160 103
253 278
53 174
53 280
13 228
160 103
160 103
160 103
160 249
160 159
160 60
160 317
160 63
283 120
283 71
160 103
83 228
252 10
234 117
252 319
28 285
208 28
202 209
279 13
183 300
202 209
202 299
13 279
314 132
278 236
9 26
26 28
26 9
57 135
300 74
90 258
128 202
13 211
72 233
116 270
202 209
194 40
194 40
256 307
90 23
253 173
24 10
90 186
236 253
153 309
279 7
116 270
116 57
57 116
270 116
253 236
116 270
7 279
194 291
194 40
65 234
128 202
279 7
131 113
131 113
202 128
10 252
279 7
230 300
93 274
230 93
279 7
279 25
26 225
70 288
70 288
131 113
161 184
161 295
78 231
108 241
108 209
108 315
108 104
161 240
161 184
161 203
161 295
161 145
161 267
161 310
117 45
200 250
108 209
13 234
279 7
279 25
160 249
160 318
160 60
160 63
132 284
13 279
120 184
120 112
120 38
160 249
160 63
93 230
200 52
200 250
200 52
132 314
279 13
295 85
161 240
161 295
161 145
161 267
161 44
161 310
161 184
230 300
249 160
178 47
291 194
128 202
202 209
202 116
26 225
47 178
194 291
2 284
2 132
13 279
160 63
208 28
208 28
208 28
208 28
208 28
93 300
90 82
291 194
50 267
93 300
183 262
183 300
116 202
83 171
83 301
202 116
69 223
116 202
28 256
202 116
16 238
16 284
116 270
279 228
47 228
114 7
114 299
116 278
7 114
25 130
25 234
25 277
7 144
202 128
202 209
238 16
194 80
253 173
253 116
234 122
253 47
234 25
24 252
174 195
116 202
116 202
280 174
280 53
194 291
194 80
159 63
7 122
278 116
16 238
156 165
156 5
295 184
295 161
252 154
7 122
26 28
236 278
90 274
269 230
269 93
269 274
269 75
269 33
269 300
295 184
50 38
278 236
38 50
7 122
7 279
161 145
161 267
161 79
7 279
252 10
253 173
7 279
33 32
252 215
135 130
314 219
223 69
79 78
265 227
279 7
234 122
69 223
127 256
18 208
18 307
0 214
0 214
268 314
0 214
11 175
310 184
310 184
11 175
256 127
11 138
90 150
173 116
173 253
278 200
199 90
91 68
53 280
307 225
159 160
178 47
159 160
86 252
242 173
90 199
159 160
79 132
151 152
200 52
160 103
160 249
160 159
160 318
160 60
160 317
160 63
52 200
228 242
57 35
279 7
69 298
7 144
160 222
298 69
180 307
45 117
278 116
143 90
278 7
278 236
278 236
83 301
11 175
7 279
7 279
160 103
160 249
160 159
160 60
160 317
160 63
178 47
279 7
278 173
53 280
138 11
138 175
279 7
279 7
279 7
52 193
279 7
279 239
90 143
279 7
80 194
160 103
160 249
160 60
160 317
160 63
11 138
116 173
116 253
173 242
93 230
12 4
91 95
63 159
138 11
138 175
31 242
31 122
31 279
83 301
11 138
13 278
13 116
138 11
138 175
117 45
159 160
184 132
159 63
132 184
116 202
202 116
202 116
116 13
116 202
194 291
194 40
194 80
291 194
291 194
132 79
242 250
194 291
164 304
63 159
152 30
152 28
152 151
134 38
116 202
202 116
116 202
202 116
239 279
116 270
116 57
132 6
132 112
132 284
132 314
116 202
202 116
230 93
230 93
202 158
116 202
93 230
93 230
230 97
230 75
230 59
230 93
158 279
230 97
230 75
230 59
230 93
230 93
93 230
230 93
134 284
134 132
314 219
208 28
208 28
230 93
93 230
183 300
69 285
202 116
230 93
306 230
230 306
291 51
93 230
269 230
269 93
269 274
269 75
269 33
269 300
225 26
314 6
314 284
161 78
230 97
230 59
230 306
230 269
116 202
174 298
241 58
202 158
202 116
160 159
242 113
279 211
279 299
18 208
128 305
58 241
11 175
132 240
132 6
132 184
132 238
132 71
132 261
132 112
132 38
132 203
132 16
132 110
132 2
132 257
132 133
132 134
132 78
132 266
132 27
132 3
132 50
132 284
132 295
132 85
132 218
132 314
132 17
132 161
132 145
132 267
132 79
132 120
132 310
132 283
80 255
80 51
80 291
80 40
80 194
202 128
202 116
208 18
230 90
132 2
230 306
186 74
186 199
186 143
299 279
279 7
230 306
120 257
120 50
120 161
279 7
279 7
7 279
252 86
225 18
225 307
11 138
306 230
160 103
306 230
194 291
194 40
194 80
208 28
132 27
132 79
132 120
208 28
208 18
90 230
194 80
279 13
202 116
18 225
113 242
80 194
278 116
278 253
278 13
116 278
85 6
194 80
16 238
16 2
16 284
16 132
238 16
238 2
238 284
238 132
71 161
269 230
269 93
269 274
269 75
269 33
269 300
40 190
40 80
40 194
132 238
132 16
132 2
132 284
80 194
279 278
279 13
1 4
279 253
4 1
291 194
278 116
194 80
80 194
160 249
194 80
279 242
279 299
279 278
279 13
279 7
306 230
13 279
13 279
13 279
228 279
299 279
299 209
281 82
253 279
250 242
116 173
116 253
180 152
180 298
16 238
16 2
16 284
16 132
279 228
278 279
35 135
202 209
202 209
279 7
132 284
132 120
161 240
161 6
161 184
161 238
161 71
161 261
161 112
161 38
161 203
161 311
161 16
161 110
161 2
161 257
161 133
161 134
161 78
161 266
161 27
161 3
161 50
161 284
161 295
161 85
161 218
161 314
161 17
161 145
161 267
161 79
161 120
161 310
161 283
161 132
7 122
279 7
82 281
209 202
209 202
281 82
279 13
209 299
50 267
50 295
50 38
50 79
50 283
50 16
50 78
50 161
132 240
132 6
132 184
132 238
132 71
132 261
132 112
132 38
132 203
132 16
132 110
132 2
132 257
132 133
132 134
132 78
132 266
132 27
132 3
132 50
132 284
132 295
132 85
132 218
132 314
132 17
132 161
132 145
132 267
132 79
132 120
132 310
132 283
132 3
53 280
278 253
280 53
33 274
13 279
279 13
13 279
279 278
279 253
279 13
279 13
253 279
13 279
13 279
53 280
135 299
279 299
279 299
279 299
279 299
279 299
69 223
280 53
53 280
280 53
13 253
69 223
33 274
98 264
33 274
53 298
298 53
306 230
90 199
199 90
90 199
13 279
279 211
279 13
13 279
314 112
160 249
90 48
269 230
269 93
269 274
269 75
269 33
269 300
11 138
1 191
228 299
116 173
116 253
116 173
116 253
38 161
190 291
35 130
278 279
230 306
299 228
151 26
209 202
209 202
209 299
209 299
299 242
299 209
7 279
209 299
78 79
6 112
6 314
173 253
274 230
161 267
242 250
299 209
202 158
202 158
90 274
200 52
200 254
180 152
152 180
12 28
278 200
108 209
223 28
279 118
279 228
279 242
279 299
279 252
279 135
279 278
279 158
279 189
279 139
279 7
173 116
173 253
223 28
4 12
139 279
53 174
53 280
53 298
53 280
82 274
52 104
307 180
267 283
158 202
81 69
80 194
199 186
199 264
12 4
299 279
299 108
104 52
80 194
190 80
281 82
79 78
269 230
269 93
269 274
269 75
269 33
269 300
190 80
230 306
263 7
40 291
40 80
40 194
307 225
173 116
173 253
274 300
278 228
116 202
242 250
116 173
116 270
116 202
116 253
116 35
116 57
116 47
116 228
116 13
262 74
262 300
262 300
230 274
189 279
238 16
238 2
238 284
238 132
161 267
161 145
11 138
209 299
11 175
26 225
26 151
11 175
159 160
159 160
161 120
159 63
159 103
11 138
267 161
138 11
138 175
0 214
138 11
138 175
16 238
16 2
174 53
53 280
53 174
174 53
280 53
223 28
120 161
7 263
7 25
7 279
223 225
53 174
18 180
83 299
90 199
90 143
90 82
90 230
160 159
120 161
208 28
161 284
13 116
279 7
279 7
298 174
86 10
86 252
53 280
82 230
279 7
279 263
279 25
223 225
63 159
280 53
131 113
274 230
25 7
236 278
269 230
269 93
269 274
269 75
269 33
269 300
11 138
208 28
7 25
160 249
160 63
278 236
263 272
134 284
134 85
134 132
134 133
26 225
7 263
202 128
28 151
202 116
252 86
25 130
103 160
176 223
278 263
176 223
161 184
161 112
161 38
161 120
63 159
63 159
116 173
116 253
26 225
80 40
80 40
159 63
63 159
161 145
161 267
161 79
161 145
161 267
161 79
199 90
90 199
202 116
90 199
16 238
16 2
199 90
2 238
2 16
132 3
274 230
274 230
150 90
80 40
80 40
238 16
238 2
116 202
143 220
80 40
108 241
180 152
90 150
262 300
40 80
200 52
200 254
135 158
233 276
279 7
279 263
279 25
127 26
40 80
202 128
202 116
86 252
26 225
279 7
279 263
279 25
279 239
152 180
263 278
279 7
113 305
305 113
161 120
33 274
194 291
194 40
194 80
11 138
194 291
160 249
160 63
230 183
138 11
138 175
234 118
234 305
234 228
234 242
234 241
234 25
234 279
234 304
305 234
279 234
0 259
90 77
90 167
90 74
90 258
90 230
90 93
90 150
90 274
90 97
90 99
90 88
90 48
90 186
90 75
90 183
90 98
90 33
90 39
90 82
90 262
90 281
90 23
90 199
90 264
90 43
90 143
90 306
90 300
90 220
90 15
199 90
230 274
193 52
241 234
161 120
256 121
40 80
279 7
26 225
35 57
279 7
279 7
47 228
116 173
116 253
47 228
16 238
16 2
16 284
16 132
83 228
83 299
270 116
270 57
116 270
25 139
132 133
132 284
90 199
50 161
50 295
50 38
50 78
50 283
50 267
50 16
50 79
40 80
194 291
40 80
288 233
300 33
300 33
161 184
161 112
161 38
161 120
300 262
75 274
223 28
299 83
180 152
83 299
199 90
57 35
314 6
7 279
274 230
299 83
133 132
133 132
161 284
33 230
40 291
33 274
257 267
26 127
89 276
161 257
161 284
90 77
90 74
90 258
90 230
90 93
90 150
90 274
90 97
90 99
90 88
90 48
90 186
90 75
90 183
90 98
90 33
90 39
90 82
90 262
90 281
90 23
90 199
90 264
90 43
90 143
90 306
90 300
90 220
90 15
180 18
180 18
18 180
133 132
160 103
160 249
160 159
160 60
160 317
160 63
160 103
160 249
160 159
160 60
160 317
160 63
116 270
116 57
83 228
83 299
83 301
40 80
230 274
200 52
200 254
80 40
269 230
269 93
269 274
269 75
269 33
269 300
86 252
26 12
3 16
3 161
3 132
26 225
225 26
300 183
26 225
26 28
307 28
16 3
127 26
176 223
208 285
225 26
194 291
194 40
194 80
223 28
26 225
105 305
233 276
225 26
26 225
18 28
18 28
35 25
291 80
35 25
225 26
279 7
279 263
279 25
279 7
26 225
35 25
279 228
7 279
225 307
158 279
267 257
132 2
132 284
252 86
24 108
24 252
252 86
86 252
242 241
47 173
202 116
24 108
33 90
223 176
80 51
80 51
300 74
306 230
306 97
306 59
306 90
306 230
306 97
306 59
306 90
306 230
279 299
279 7
280 53
291 80
288 233
234 135
82 281
133 16
133 134
133 284
133 132
133 16
133 134
133 284
133 132
86 10
86 252
86 24
180 152
75 274
278 253
314 38
194 291
194 80
180 152
63 160
57 234
90 77
90 74
90 258
90 230
90 93
90 150
90 274
90 97
90 99
90 88
90 48
90 186
90 75
90 183
90 98
90 33
90 39
90 82
90 262
90 281
90 23
90 199
90 264
90 43
90 143
90 306
90 300
90 220
90 15
180 152
80 40
53 280
53 280
241 242
183 300
299 279
33 274
280 53
242 173
242 139
242 250
69 226
252 299
160 103
160 249
160 159
160 60
160 317
160 63
160 159
306 230
306 97
306 59
306 90
264 90
80 40
24 86
116 173
116 253
269 230
269 93
269 274
269 75
269 33
269 300
38 134
40 80
295 284
295 161
295 120
134 284
134 85
134 132
134 133
2 238
2 16
40 80
253 13
202 299
13 253
253 13
191 127
280 53
117 241
280 53
16 133
16 134
16 284
16 132
16 238
16 2
242 173
279 7
279 228
202 158
202 116
241 117
270 116
270 57
202 299
25 35
116 270
241 234
270 116
270 57
180 18
299 202
252 215
144 7
58 301
53 280
103 160
279 118
279 228
279 242
279 299
279 252
279 135
279 278
279 158
279 189
279 139
202 116
131 113
278 279
202 158
202 158
0 259
262 300
26 28
3 132
291 80
300 262
283 132
234 279
234 57
79 267
279 234
306 230
306 97
306 59
306 90
306 230
306 97
306 59
306 90
306 230
306 97
306 59
306 90
52 104
158 234
104 52
52 104
189 252
90 199
200 52
200 250
299 279
53 251
306 90
306 230
180 191
202 299
80 291
86 252
291 80
80 291
269 230
269 93
269 274
269 75
269 33
269 300
280 225
279 7
6 218
299 202
199 264
202 299
7 279
158 228
313 214
25 241
25 122
25 139
25 279
25 130
116 173
116 253
161 284
281 90
7 279
159 160
7 144
225 307
307 225
256 18
256 307
11 175
11 175
11 138
111 288
194 291
291 194
208 285
138 11
138 175
279 7
279 263
279 135
279 25
33 274
307 28
189 279
202 116
291 80
160 103
160 249
160 159
160 60
160 317
160 63
234 158
234 135
25 241
25 122
25 139
25 279
25 130
303 249
194 291
306 230
306 97
306 59
306 90
79 78
274 183
186 74
307 180
279 242
78 79
307 180
3 240
3 6
3 184
3 238
3 71
3 112
3 38
3 16
3 110
3 133
3 134
3 78
3 266
3 284
3 295
3 85
3 314
3 161
3 145
3 267
3 79
3 120
3 310
3 283
3 132
200 52
200 254
98 90
262 306
11 138
180 18
194 291
194 40
194 80
116 173
116 47
116 228
116 253
116 13
116 202
202 116
143 90
199 264
160 222
11 138
53 174
120 184
28 285
279 7
223 176
279 299
18 208
28 18
222 160
183 300
234 122
138 11
138 175
300 183
314 6
314 284
80 291
127 256
199 186
11 138
33 274
33 274
117 45
33 274
116 278
267 161
161 78
50 79
50 267
50 38
50 295
50 16
50 78
50 283
50 161
80 291
80 291
80 40
279 7
116 173
116 253
173 47
79 145
291 51
291 40
291 194
291 80
40 291
40 194
2 132
273 288
273 111
273 70
3 112
273 72
273 216
273 302
273 233
273 276
273 89
3 112
116 173
116 47
116 228
116 270
116 202
116 253
116 35
116 13
116 57
48 220
202 116
40 80
194 291
194 80
194 291
194 40
194 80
33 230
33 274
159 160
278 116
28 18
222 63
18 28
300 74
53 298
28 18
230 232
28 18
305 234
279 263
279 25
128 202
230 274
197 258
28 208
306 90
173 116
173 253
173 116
173 253
279 7
279 263
279 25
33 274
298 174
298 53
116 173
116 253
40 80
53 298
53 298
38 184
186 74
25 7
269 230
269 93
269 274
269 75
269 33
269 300
28 208
28 18
3 112
3 112
2 238
238 2
160 103
103 249
160 103
160 249
160 159
160 318
160 60
160 222
160 317
160 63
199 264
28 208
28 18
158 202
202 209
202 209
38 240
38 6
38 184
38 238
38 112
38 16
38 110
38 257
38 133
38 134
38 78
38 50
38 284
38 295
38 85
38 314
38 161
38 145
38 267
38 79
38 120
38 310
38 283
38 132
161 284
33 274
3 284
20 252
78 161
161 295
90 77
90 74
90 258
90 230
90 93
90 150
90 274
90 97
90 99
90 88
90 48
90 186
90 75
90 183
90 98
90 33
90 39
90 82
90 262
90 281
90 23
90 199
90 264
90 43
90 143
90 306
90 300
90 220
90 15
90 264
90 281
90 77
90 74
90 258
90 230
90 93
90 150
90 274
90 97
90 99
90 88
90 48
90 186
90 75
90 183
90 98
90 33
90 39
90 82
90 262
90 281
90 23
90 199
90 264
90 43
90 143
90 306
90 300
90 220
90 15
90 143
26 18
150 74
150 90
300 90
173 116
173 253
194 291
194 40
194 80
2 238
40 80
90 300
90 150
144 7
150 90
144 7
144 7
86 10
86 252
86 24
112 3
242 173
298 141
279 7
279 263
279 25
279 7
40 80
279 234
18 26
299 301
53 298
174 53
298 53
70 111
295 161
300 183
300 262
53 28
53 174
295 161
28 53
86 10
86 252
86 24
184 161
216 276
12 4
216 276
306 230
306 97
306 59
306 90
306 230
306 97
306 59
1 256
28 195
28 280
28 225
28 285
28 256
28 251
90 77
90 74
90 258
90 230
90 93
90 150
90 274
90 97
90 99
90 88
90 48
90 186
90 75
90 183
90 98
90 33
90 39
90 82
90 262
90 281
90 23
90 199
90 264
90 43
90 143
90 306
90 300
90 220
90 15
50 267
144 7
300 74
279 7
234 305
158 202
202 116
144 7
116 202
234 305
234 279
18 208
202 116
28 208
28 18
314 284
305 234
10 86
104 164
144 7
93 230
230 93
6 314
252 182
280 53
141 12
132 120
279 7
230 93
230 33
