60 72 27434330
60 91 88
102 142 27485851
102 109 27485851
102 123 27485851
102 94 27485851
102 25 27503708
102 31 27485851
102 95 28443749
102 125 27503708
102 2 27485851
102 119 27485851
102 140 27485851
102 22 27490791
102 116 27485851
102 20 27485851
102 12 27485851
102 132 27485851
102 35 27485851
120 64 28694587
53 72 2636
130 9 28352962
130 64 28352962
91 72 28986235
72 53 1821382
24 60 27345695
78 83 28699999
78 14 18498400
78 112 28610684
78 103 28353966
71 26 28978844
40 89 28528686
9 121 3897787
35 123 28948853
35 31 28596937
135 110 25535334
91 60 19356913
32 40 28713790
32 84 28621095
72 91 28987116
95 109 28089118
95 116 28089118
64 120 28939867
32 100 28962973
40 32 28759018
47 53 8131124
47 122 28694792
130 86 362028
40 84 28525577
100 32 28965694
31 35 28948490
96 40 28956961
110 40 5059681
24 91 24291596
58 59 27256328
72 107 27930958
72 74 27930958
72 60 28986908
72 126 28704764
72 28 28908902
72 111 28987500
11 51 18763241
104 26 27415308
80 54 28604446
80 89 101716
80 96 638877
80 40 7959853
80 110 21771
80 145 15987011
80 32 23246208
80 100 26144
80 135 91619
80 105 21771
100 80 28361909
88 143 28431207
26 71 28983720
26 8 28104140
26 63 28982838
26 59 28982838
63 26 28968864
132 25 13653169
96 32 28624437
89 32 28356926
32 89 27228039
84 110 12966433
84 40 28715284
91 24 26201791
35 22 26890743
20 95 28083394
71 120 28700606
135 80 9099496
101 51 28968487
111 72 28968858
111 124 781875
64 130 28685448
63 117 28719906
117 63 28687760
40 110 28522840
139 117 22057341
12 109 28686916
12 123 28686916
12 35 28686916
117 139 28513569
40 145 28522840
132 102 18931777
40 54 28522840
40 43 5641661
40 33 28522840
40 39 28522840
40 96 28522840
40 80 28625979
40 76 28522840
40 100 28709562
40 27 5641661
40 135 28522840
40 105 28522840
31 102 27146971
95 102 28436757
117 79 23080008
117 97 23080008
117 99 28513569
94 102 23258397
117 71 28522382
117 26 28953158
76 32 28686611
145 89 22998844
39 135 28611894
135 39 28540628
89 145 22776912
32 76 28697633
32 145 27224554
71 117 28368313
89 80 14059494
145 33 9074963
123 12 28611743
123 35 28611743
82 0 111124
82 77 111124
82 88 27917715
82 51 22476175
82 83 9354822
82 78 11171723
82 14 111124
82 112 111124
82 103 27390624
82 11 14602779
82 143 27393588
82 44 111124
82 101 111124
82 18 22207796
82 128 111124
33 145 9077305
89 110 112848
96 54 28624437
96 89 28624437
96 80 28624437
96 110 28624437
96 135 28688946
51 83 26536447
51 11 15301995
73 122 24900583
117 98 28354457
47 60 26897477
51 0 26188985
51 88 25933942
51 78 21886681
51 82 21092521
51 143 25933942
51 18 26551161
51 128 26718672
120 97 27398750
74 122 182322
119 102 18332049
116 25 18330283
25 116 26798575
58 71 27759234
71 98 191730
122 47 28941591
22 142 28949096
71 8 27483703
71 63 28439839
71 99 27483703
71 59 28978844
71 139 27483703
71 58 27735982
25 22 28615170
25 102 28020745
17 53 205171
63 99 28719906
63 139 28719906
63 58 28719906
63 9 28942885
63 85 28719906
134 59 28964890
134 64 28634067
20 116 28083394
134 26 28374601
26 134 28346907
76 84 28370855
84 76 28215161
64 134 28679659
88 51 21271164
71 79 28537289
44 78 27307693
71 104 28703089
76 33 28997221
139 63 28700377
33 76 28996427
59 134 28344151
135 100 26117207
137 117 11713016
26 58 28104140
24 141 19579542
100 89 21192603
89 100 20749358
31 109 28696127
31 123 28696127
31 94 28700069
31 95 28696127
31 119 28696127
31 140 28696127
31 22 28696127
31 12 28696127
31 132 28696127
31 69 28696127
35 20 276850
139 9 24392981
71 97 28697197
71 61 27483703
71 129 28434066
69 31 280144
2 102 22560558
2 123 15303929
137 120 12212317
26 57 24136500
58 26 27930550
58 64 15913597
145 40 28088001
120 26 28356443
35 109 28629412
35 94 26890743
35 25 26890743
35 95 26890743
35 119 28347279
35 140 26890743
35 12 28629412
35 132 28628929
35 69 26890743
117 59 28513569
89 40 28528467
110 54 5059681
11 128 18763241
8 71 26637154
8 97 26198730
8 63 27131758
8 26 27233874
8 58 20220725
8 120 3292363
110 135 5367138
110 100 368270
22 25 23851079
26 117 28610388
53 47 5125957
31 142 10809622
31 25 28443365
31 125 28696127
31 2 28696127
31 116 27320323
31 20 607146
31 4 28517616
104 63 28952989
24 72 28515599
102 70 27485851
72 24 28003406
145 54 27915505
32 96 27314533
143 88 27136128
9 117 620132
84 32 28718826
117 9 28684424
124 111 712034
2 95 21101966
54 80 28361168
26 104 28987215
137 64 11932872
63 134 28719906
63 8 28719906
63 71 28719906
63 97 28719906
63 59 28968864
63 79 28719906
63 120 28719906
63 64 28719906
63 129 28719906
63 104 28719906
100 76 28709003
140 22 25679183
104 71 28947267
119 35 26723785
102 4 27485851
58 63 28449376
61 129 17808248
140 109 17564631
140 12 17564631
140 35 17564631
26 64 28025355
145 76 27861289
0 82 780978
68 16 28440772
103 78 28706512
109 102 8044860
57 26 27145297
57 98 28639121
57 86 28089051
84 89 28719917
123 109 28611743
22 102 27307306
116 95 23940167
89 84 28726505
125 102 23600534
122 73 28425124
117 61 23080008
117 129 23080008
99 63 28539209
35 70 26890743
35 2 26890743
70 35 873995
110 89 893032
116 125 19010322
51 101 27158437
64 26 28078644
74 114 21082222
84 96 18252144
119 22 10289499
143 101 12297353
129 117 22410483
18 143 17803284
110 96 5059681
76 100 28710805
96 105 28624437
32 33 28628174
95 22 28089118
59 64 22392551
89 105 22603581
122 107 1293446
61 137 14778866
53 60 1318783
76 40 28451469
142 22 24459610
84 33 12966433
84 39 12966433
84 145 24890429
84 100 18276892
84 135 12966433
84 105 16087406
18 82 17803284
99 85 28458246
120 71 28555780
71 134 12537213
16 68 28522793
22 140 27740441
69 109 17903891
99 9 28458246
134 71 18433972
142 35 24459610
74 107 18489538
110 39 1736197
123 102 27233844
64 63 14860958
64 8 27991583
64 79 14860958
64 58 28955107
64 97 27315296
64 9 28939867
64 117 25667367
64 85 14860958
64 71 28955077
64 99 14860958
64 139 14860958
64 129 14860958
64 61 14860958
64 104 28943336
0 51 17216937
101 143 9360622
123 142 1838809
76 89 26826624
89 76 26826507
33 40 26711797
20 25 28083394
141 24 19578824
35 142 27998646
39 110 7197544
145 32 26796069
110 84 2682504
20 102 11060088
59 71 28599610
22 94 27397297
105 96 27137737
54 135 20458791
109 116 22562748
20 140 28083394
0 18 18336934
85 71 15816565
20 22 28083394
94 142 26031218
128 78 21096871
64 87 23345291
87 64 14716881
111 107 28951546
94 109 26717324
94 123 26717324
94 25 27319867
94 31 22037983
94 95 28084538
94 90 22037983
94 125 22037983
94 2 26717324
94 56 12813186
94 119 26704937
94 140 22555087
94 22 28095878
94 116 12813186
94 20 27226214
94 12 26717324
94 132 28353037
94 35 26717324
94 4 26717324
94 69 26717324
100 33 21791504
33 100 23086538
104 97 27300219
137 104 8995170
60 24 26631916
111 74 15739382
128 51 26719589
22 119 27225511
74 111 3211269
78 82 13482088
54 32 27913691
141 28 19578824
145 144 15755962
145 39 13663664
145 80 27915489
145 110 5547543
145 27 2611704
145 135 20148787
26 99 28104140
26 139 28104140
96 145 28624437
26 61 27857868
9 64 28941002
76 145 27866352
78 143 15223015
78 51 27502321
104 8 27391853
104 117 27311360
104 99 27311136
104 59 27311360
104 79 27300219
104 139 27313153
104 58 28970081
104 120 26628340
104 9 25669791
104 64 27300219
104 85 27300219
100 105 18512924
128 0 2686316
69 116 25099211
126 41 28965455
125 116 28024000
105 100 27137737
83 51 27913323
71 85 27483703
117 8 28513569
8 117 21880092
126 13 28362873
143 51 24720644
0 143 15311948
14 78 28089537
14 112 28089537
109 12 28088038
109 35 2956657
78 11 14198448
11 78 14198811
22 31 28344840
107 74 18339811
135 89 2969696
89 135 16445023
103 82 19627984
103 143 6676320
9 85 26190876
85 9 14785000
110 32 3163569
116 102 15227990
139 26 21276552
101 78 3901846
137 61 12378803
142 94 24459610
107 111 19119969
83 78 28707183
61 71 14778866
140 102 23611717
12 102 19894035
35 102 18330784
25 132 27757334
47 24 27330613
140 94 17564631
33 32 27744831
24 47 27331274
96 39 28624437
8 137 3292363
8 59 23608667
8 61 22139489
8 129 28088353
64 59 28955077
100 135 23173005
84 80 28612449
54 145 28084876
95 25 28089118
54 33 3733773
137 8 11157911
89 54 14059494
129 8 28088291
54 89 3648393
129 26 23329440
92 98 3652504
109 140 3653097
26 97 27857868
26 79 28025355
26 120 27857868
26 9 27744052
26 85 27744052
33 54 3666526
26 129 28025610
145 84 16421939
142 102 27489515
70 25 3725320
54 84 22387842
84 54 15415185
18 51 28444619
22 132 9699621
25 31 28184377
25 95 28615170
59 26 28963064
57 81 3837146
98 92 3895993
18 0 26200403
18 88 3898692
18 83 3898692
18 78 27313658
18 14 3898692
18 112 3898692
18 103 3898692
18 11 26200403
18 44 3898692
18 101 12980516
18 128 12980516
98 117 28355398
101 0 3901846
101 88 9234906
101 83 3901846
101 14 3901846
101 82 3901846
101 112 3901846
101 103 3901846
101 11 3901846
101 44 3901846
101 18 3901846
101 128 3901846
98 8 15835764
85 139 28369785
128 11 16437273
135 40 20829544
95 2 28089118
116 69 24382086
63 61 28719906
32 54 21877695
32 80 23181003
143 0 4245619
71 64 27483703
58 97 12294145
60 47 28613235
32 110 21877695
32 135 21877695
137 71 9876506
39 96 27746682
9 130 28941002
135 54 20537050
100 110 4496421
54 40 28360406
126 28 28704869
54 110 4593168
28 126 18844903
60 53 4600593
73 47 28166702
73 60 23762857
60 73 23604857
123 94 23942441
47 73 28694792
11 18 18424965
25 20 9347909
137 139 4936909
139 137 4937672
137 93 7539273
100 39 4945780
87 121 5013462
98 57 28084593
59 8 5023599
59 117 5023599
59 97 5023599
59 63 28520329
59 99 5023599
59 79 5023599
59 61 5023599
59 139 12794221
59 58 24994411
59 120 18752451
59 9 11086775
59 85 5023599
59 129 5023599
20 109 28083394
20 123 28083394
20 94 28083394
20 31 28083394
20 90 5033335
20 125 28083394
20 2 28083394
20 119 28083394
20 12 28083394
20 132 28083394
20 35 28083394
20 4 28083394
20 69 5033335
41 141 20148306
137 59 5037964
137 79 11157911
137 58 5037964
137 129 7453962
61 8 15901378
78 0 27760274
78 88 6918532
78 44 27320366
78 34 5106421
78 101 6838097
78 18 27312790
78 128 28701994
132 140 8561094
141 126 19628568
102 10 5460577
100 40 28699663
143 82 23184671
132 22 9601013
96 100 28624437
88 82 9009742
105 32 5557715
0 11 18930102
61 117 23156506
61 120 14778866
61 64 14778866
117 93 5541038
117 58 28513569
117 120 23080008
117 64 23949068
32 105 21877695
145 96 9088458
145 105 28005091
71 93 8572564
24 53 5632397
24 122 5632397
24 28 5632459
117 3 5633547
89 96 28352869
22 95 23002856
9 63 28942774
61 26 18166524
143 103 13417976
25 94 28014434
117 85 28513569
85 117 22386194
4 31 28696813
105 89 27137737
99 120 28458246
88 78 6841194
95 31 28089118
125 20 28002393
4 102 27310897
143 18 28541582
120 61 12372084
96 84 28624437
0 128 7132978
105 54 27137737
105 80 27137737
105 110 27137737
105 145 28012280
105 135 27137737
142 31 24459610
142 95 27308535
59 104 26529788
120 63 19536003
105 40 28012280
9 99 20222123
9 139 28621150
2 94 21107032
44 128 7435421
70 95 18775021
87 26 7442202
26 87 7443395
98 86 22990486
70 22 25068556
89 33 25086007
33 89 25086488
139 85 28085385
85 63 28369785
85 99 28369785
85 58 7540025
99 139 28458246
114 74 18241077
12 56 14448613
22 109 7959045
22 123 9699621
22 125 7959045
22 2 7959045
22 70 7959045
22 116 7959045
22 20 7959045
22 12 9699621
22 35 13397134
22 4 7959045
95 94 28089118
0 78 8045668
104 134 25598947
104 61 27311360
104 129 27311360
64 98 8132078
64 57 8132171
72 73 27930958
93 137 8239868
93 58 8240055
73 72 27719794
89 39 13145893
51 36 8482558
36 51 18164877
142 25 27998903
9 58 28798024
64 86 8566729
86 64 8566853
51 44 22728978
128 83 26695990
58 9 24216077
99 58 28458246
86 98 20224294
47 72 28684843
99 26 28458246
116 31 20820500
103 88 8748765
63 98 8751382
63 57 8751382
70 94 8761357
84 45 27753736
74 72 22558043
25 125 28184377
94 70 26717324
109 123 27134318
39 40 23956883
141 13 9166034
135 96 20495154
70 102 10560078
88 101 9182141
13 141 9247858
123 22 21098885
86 57 28089515
139 99 28085385
25 109 26798575
25 123 26798575
25 90 9347909
25 2 26798575
25 56 14183574
25 119 18328778
25 140 28641144
25 70 26798575
25 12 26798575
25 35 26798575
25 4 26798575
25 69 26798575
12 22 9774651
54 39 9367588
139 71 20164196
79 71 18331541
96 76 28624437
86 92 9785323
76 96 26641797
125 25 23955589
31 70 28696127
71 9 27483703
95 125 28089118
85 26 9968160
93 71 10065846
54 76 10381917
76 54 10384457
111 60 27247483
12 94 20658462
38 126 20136116
126 38 20058659
60 111 27247027
45 84 21899138
143 78 13417976
45 89 12374688
134 61 12921824
137 97 11157911
137 98 11713269
72 122 11837599
72 47 28908277
117 104 28430681
126 60 28363460
109 95 27308842
99 104 28458246
39 89 12207585
58 8 24288636
58 117 23977690
58 99 24923386
58 79 27256328
58 61 12294145
58 139 20499752
58 120 12294145
58 85 12294145
89 45 12312002
105 84 12452182
61 134 12538511
100 84 18237286
120 104 26029738
32 39 21877695
18 34 12980516
97 120 28456392
4 25 13065488
96 33 28624437
45 96 13170192
8 104 27313534
80 84 18861708
125 95 23948401
139 59 13668699
25 142 13755375
120 8 13757742
47 111 13763742
111 47 13764459
61 104 25942369
13 41 28434813
86 121 14089084
40 45 28521504
41 13 28966378
142 20 24459610
11 0 19364918
11 83 14103196
11 34 14103196
104 62 26273333
125 142 15164089
142 125 24459610
97 71 28496488
11 82 14645519
11 143 14645519
100 145 17911321
80 76 14608494
69 123 14623875
69 10 14623875
69 94 14623875
69 140 14623875
69 70 14623875
123 31 14710012
99 64 28458246
76 80 14714903
96 45 28624437
99 59 28458246
125 132 14811890
8 98 24383928
13 111 15231643
111 13 15231898
76 105 17149420
97 64 28456392
123 2 27233844
97 104 26198584
97 134 26198584
97 8 28456392
97 117 28456392
97 63 26198584
97 99 26198584
97 93 26198584
97 59 28456392
97 79 28456392
97 61 28456392
97 26 26198584
97 139 26198584
97 58 28456392
97 9 26198584
97 85 26198584
97 129 28456392
41 126 28966378
132 31 15739472
62 104 15742252
58 104 28095421
112 78 15820647
125 31 16018402
71 62 28434966
97 62 28456392
118 126 16895995
74 7 16960882
7 114 20056985
105 76 17130480
40 138 28522840
140 25 27944062
140 142 17564631
140 123 17564631
140 31 26194139
140 95 17564631
140 125 17564631
140 2 17564631
140 119 17564631
140 70 28965684
140 116 17564631
140 20 18238676
140 132 28430784
140 4 17564631
62 71 28534104
139 58 20507062
26 93 17658279
62 120 17815260
85 104 27141223
109 69 17900907
130 57 20238507
129 59 19642178
119 25 20590061
8 57 24200250
69 25 18418154
95 132 28089118
58 129 24409687
9 104 18759989
129 104 26104169
138 40 28953683
34 78 18950596
126 72 28450260
7 74 19357601
114 7 19357643
107 72 22558582
141 41 23089731
126 141 19614544
96 138 28624437
7 13 19624934
7 141 19957390
13 126 28366041
13 7 19635150
129 71 27324563
135 145 20191526
138 100 28953683
44 83 19894497
95 142 28089118
83 34 19889232
141 7 19893980
12 95 19895541
139 104 22139173
116 4 28082180
138 76 28953983
28 13 20848045
13 28 20498581
100 138 20482201
78 36 20746185
36 78 20583208
76 138 28973441
83 128 23865025
129 58 24396202
94 48 21694791
119 48 21696712
48 94 21702542
32 138 21877695
32 45 21877695
99 117 28458246
138 45 28953683
138 135 28953683
120 117 22570152
48 102 22579781
62 64 22728374
51 34 22728978
48 22 23009678
22 48 23162107
57 8 23168283
26 62 27744052
125 119 28955922
62 97 23168947
96 133 23346394
4 116 28447054
105 39 23344207
60 66 25417555
4 69 23685626
66 60 25350360
109 4 23775012
24 41 26104884
41 24 26103492
30 60 26109356
60 30 23945396
125 35 23955498
125 22 25934485
125 2 23955711
35 125 23957655
66 72 25676023
142 109 24459610
142 123 24459610
142 2 24459610
142 119 24459610
142 140 24459610
142 70 24459610
142 116 24459610
142 12 24459610
142 132 24459610
142 4 24459610
30 66 24919312
64 62 25077024
123 70 26617270
24 30 25698097
20 142 28083394
30 24 25681884
130 92 28079884
92 121 27306367
111 6 27309999
117 55 26535870
132 35 26700474
28 72 26798658
104 86 26876450
8 86 26876927
20 70 28083394
63 52 27248663
79 104 28529136
54 96 27397444
60 28 27833555
95 123 28089118
95 70 28089118
95 12 28089118
95 35 28089118
95 4 28089118
95 69 28086391
95 119 28089118
95 140 28089118
95 20 28089118
135 105 28348923
126 107 28363460
126 74 28363460
126 73 28363460
126 111 28363460
74 126 28365934
125 94 28450198
99 134 28458246
99 8 28458246
99 71 28458246
99 97 28458246
99 62 28458246
99 79 28458246
99 61 28458246
99 129 28458246
134 99 28458726
40 5 28521504
63 62 28719906
120 9 28960559
12 25 28971791
