60 72 32006131
60 91 88
102 142 33381842
102 109 33381842
102 123 33381842
102 94 33381842
102 25 33381842
102 31 33381842
102 95 33381842
102 125 33381842
102 2 33381842
102 119 33381842
102 140 33381842
102 22 33381842
102 116 33381842
102 20 33381842
102 12 33381842
102 132 33381842
102 35 33381842
120 64 33960045
53 72 2636
130 9 33893168
130 64 33893168
91 72 34477155
72 53 1821382
24 60 31544919
78 83 32321248
78 14 18498400
78 112 28610684
78 103 32321248
71 26 32850323
40 89 33984059
9 121 3897787
35 123 33897827
35 31 33527967
135 110 25535334
91 60 19356913
32 40 33448061
32 84 33184994
72 91 34065261
95 109 33897257
95 116 33532610
64 120 33962509
32 100 32865129
40 32 33984059
47 53 8131124
47 122 33984845
130 86 31020788
40 84 33984059
100 32 32684077
31 35 33527717
96 40 33812416
110 40 5059681
24 91 24291596
58 59 33556892
72 107 34133223
72 74 34133223
72 60 34349929
72 126 34133223
72 28 34133223
72 111 34350812
11 51 18763241
104 26 33462798
80 54 31025042
80 89 101716
80 96 638877
80 40 7959853
80 110 21771
80 145 15987011
80 32 23246208
80 100 26144
80 135 91619
80 105 21771
100 80 28361909
88 143 32858792
26 71 32831234
26 8 30332229
26 63 33481515
26 59 33483046
63 26 33521693
132 25 31476557
96 32 33527759
89 32 33449633
32 89 32875479
84 110 12966433
84 40 34398754
91 24 26201791
35 22 31820938
20 95 28083394
71 120 32769424
135 80 9099496
101 51 33757905
111 72 34439433
111 124 781875
64 130 33962509
63 117 30863033
117 63 31474042
40 110 33984059
139 117 22057341
12 109 33961072
12 123 33961072
12 35 33961072
117 139 31474042
40 145 33984059
132 102 31631334
40 54 33984059
40 43 5641661
40 33 33984059
40 39 33984059
40 96 33984059
40 80 33984059
40 76 33984059
40 100 33984059
40 27 5641661
40 135 33984059
40 105 33984059
31 102 33895053
95 102 33976832
117 79 31474042
117 97 31474042
117 99 31474042
94 102 32162513
117 71 32337661
117 26 33275002
76 32 33455582
145 89 22998844
39 135 33985596
135 39 33986568
89 145 22776912
32 76 33182448
32 145 32865129
71 117 32406302
89 80 29051526
145 33 9074963
123 12 33971668
123 35 33971668
82 0 111124
82 77 111124
82 88 33459237
82 51 33362080
82 83 9354822
82 78 11171723
82 14 111124
82 112 111124
82 103 30590570
82 11 14602779
82 143 33530552
82 44 111124
82 101 111124
82 18 33530552
82 128 111124
33 145 9077305
89 110 112848
96 54 33714767
96 89 33527759
96 80 33527759
96 110 33527759
96 135 33527759
51 83 31538619
51 11 15301995
73 122 30873654
117 98 33543011
47 60 31043851
51 0 33984775
51 88 33189133
51 78 21886681
51 82 33189133
51 143 33189133
51 18 33208225
51 128 31637393
120 97 33967336
74 122 182322
119 102 18332049
116 25 18330283
25 116 29131923
58 71 31236667
71 98 191730
122 47 33953761
22 142 33972138
71 8 32347036
71 63 32347036
71 99 32347036
71 59 32762096
71 139 32347036
71 58 32416300
25 22 33184229
25 102 32845052
17 53 205171
63 99 33963460
63 139 33958071
63 58 33521693
63 9 32917322
63 85 31190799
134 59 33387953
134 64 28634067
20 116 28083394
134 26 28374601
26 134 28346907
76 84 33269394
84 76 33225233
64 134 33355260
88 51 32928411
71 79 32347036
44 78 31455824
71 104 33116624
76 33 33800672
139 63 33958812
33 76 34158192
59 134 28344151
135 100 33474892
137 117 11713016
26 58 33531342
24 141 19579542
100 89 33975397
89 100 32872334
31 109 33802729
31 123 33527717
31 94 33527717
31 95 33790492
31 119 33527717
31 140 33527717
31 22 33895053
31 12 33527717
31 132 33527717
31 69 33527717
35 20 276850
139 9 33196359
71 97 32762096
71 61 32873239
71 129 32347036
69 31 280144
2 102 32758958
2 123 15303929
137 120 12212317
26 57 32919083
58 26 33546146
58 64 15913597
145 40 33966982
120 26 32956619
35 109 30589643
35 94 31557052
35 25 30589643
35 95 30589643
35 119 33527932
35 140 26890743
35 12 33897827
35 132 33527932
35 69 30589643
117 59 31816242
89 40 33971100
110 54 5059681
11 128 18763241
8 71 26637154
8 97 26198730
8 63 27131758
8 26 27233874
8 58 20220725
8 120 3292363
110 135 5367138
110 100 368270
22 25 33265168
26 117 32953745
53 47 5125957
31 142 10809622
31 25 33807237
31 125 33527717
31 2 33527717
31 116 33807237
31 20 607146
31 4 32422051
104 63 33446210
24 72 33631089
102 70 33381842
72 24 34057849
145 54 33887133
32 96 32865129
143 88 32858824
9 117 620132
84 32 34418717
117 9 31474042
124 111 712034
2 95 21101966
54 80 33358799
26 104 33457380
137 64 11932872
63 134 28719906
63 8 28719906
63 71 31379026
63 97 28719906
63 59 33521693
63 79 28719906
63 120 28719906
63 64 33433408
63 129 28719906
63 104 33874850
100 76 33895436
140 22 32061309
104 71 33446210
119 35 33809303
102 4 33381842
58 63 33556892
61 129 17808248
140 109 17564631
140 12 17564631
140 35 17564631
26 64 33357082
145 76 30853199
0 82 780978
68 16 33953303
103 78 32067544
109 102 8044860
57 26 27145297
57 98 28639121
57 86 32320437
84 89 34419746
123 109 33971668
22 102 32673472
116 95 33968267
89 84 33810504
125 102 23600534
122 73 30237628
117 61 31474042
117 129 31474042
99 63 33970701
35 70 32781322
35 2 26890743
70 35 32846632
110 89 893032
116 125 19010322
51 101 33788330
64 26 33430845
74 114 21082222
84 96 29749563
119 22 33262754
143 101 12297353
129 117 22410483
18 143 17803284
110 96 5059681
76 100 33806910
96 105 33789658
32 33 32865129
95 22 30845590
59 64 22392551
89 105 22603581
122 107 1293446
61 137 14778866
53 60 1318783
76 40 33455924
142 22 31725514
84 33 12966433
84 39 12966433
84 145 24890429
84 100 18276892
84 135 12966433
84 105 16087406
18 82 33535592
99 85 29301609
120 71 32773224
71 134 32347036
16 68 33351401
22 140 31537908
69 109 17903891
99 9 28458246
134 71 29584134
142 35 30435180
74 107 18489538
110 39 1736197
123 102 31536461
64 63 33430845
64 8 33430845
64 79 33430845
64 58 33430845
64 97 33453823
64 9 33967429
64 117 33430845
64 85 33430845
64 71 33430845
64 99 33430845
64 139 33430845
64 129 33430845
64 61 33430845
64 104 33962509
0 51 32232000
101 143 9360622
123 142 1838809
76 89 32678147
89 76 32253536
33 40 32691996
20 25 33196669
141 24 19578824
35 142 33897827
39 110 7197544
145 32 30265722
110 84 2682504
20 102 11060088
59 71 32398886
22 94 32745938
105 96 27137737
54 135 33550287
109 116 32318945
20 140 32412061
0 18 32227818
85 71 15816565
20 22 33196669
94 142 26031218
128 78 29564610
64 87 31554141
87 64 14716881
111 107 33865057
94 109 30942318
94 123 30942318
94 25 33183570
94 31 22037983
94 95 28084538
94 90 22037983
94 125 32233688
94 2 30942318
94 56 12813186
94 119 26704937
94 140 30953407
94 22 33527501
94 116 12813186
94 20 27226214
94 12 33542793
94 132 28353037
94 35 30942318
94 4 30942318
94 69 30942318
100 33 21791504
33 100 23086538
104 97 33446210
137 104 8995170
60 24 30591793
111 74 15739382
128 51 26719589
22 119 31712316
74 111 3211269
78 82 13482088
54 32 27913691
141 28 33778420
145 144 15755962
145 39 13663664
145 80 33887141
145 110 5547543
145 27 2611704
145 135 31375283
26 99 32588594
26 139 32671327
96 145 33714767
26 61 31565168
9 64 33958694
76 145 32667478
78 143 31128421
78 51 31111436
104 8 33446210
104 117 33446210
104 99 33446210
104 59 33462798
104 79 33446210
104 139 33446210
104 58 33446210
104 120 33446210
104 9 33446210
104 64 33446210
104 85 33446210
100 105 18512924
128 0 2686316
69 116 30434071
126 41 28965455
125 116 28024000
105 100 27137737
83 51 27913323
71 85 32347036
117 8 31474042
8 117 31198838
126 13 28362873
143 51 32428132
0 143 15311948
14 78 32409248
14 112 32409248
109 12 33536838
109 35 2956657
78 11 14198448
11 78 14198811
22 31 32857678
107 74 31121031
135 89 33540515
89 135 33538252
103 82 19627984
103 143 30521582
9 85 26190876
85 9 14785000
110 32 3163569
116 102 31044288
139 26 32667915
101 78 3901846
137 61 12378803
142 94 30435180
107 111 31642286
83 78 31735468
61 71 14778866
140 102 23611717
12 102 19894035
35 102 30505487
25 132 31480143
47 24 27330613
140 94 31477661
33 32 27744831
24 47 27331274
96 39 33877661
8 137 3292363
8 59 23608667
8 61 22139489
8 129 28088353
64 59 33550305
100 135 33463025
84 80 28612449
54 145 29808582
95 25 28089118
54 33 3733773
137 8 11157911
89 54 14059494
129 8 28088291
54 89 3648393
129 26 30274629
92 98 3652504
109 140 3653097
26 97 31581919
26 79 30332229
26 120 33477901
26 9 30332229
26 85 31645467
33 54 3666526
26 129 32676657
145 84 16421939
142 102 32072678
70 25 33450492
54 84 22387842
84 54 15415185
18 51 33198357
22 132 9699621
25 31 32927388
25 95 32927388
59 26 33533280
57 81 3837146
98 92 3895993
18 0 31551603
18 88 29551025
18 83 3898692
18 78 27313658
18 14 3898692
18 112 3898692
18 103 3898692
18 11 26200403
18 44 3898692
18 101 12980516
18 128 31214965
98 117 33357760
101 0 3901846
101 88 9234906
101 83 3901846
101 14 3901846
101 82 3901846
101 112 3901846
101 103 3901846
101 11 3901846
101 44 3901846
101 18 29838417
101 128 3901846
98 8 15835764
85 139 32689261
128 11 16437273
135 40 33537493
95 2 31123731
116 69 32757765
63 61 28719906
32 54 32865129
32 80 32865129
143 0 4245619
71 64 32347036
58 97 12294145
60 47 33879266
32 110 32865129
32 135 32865129
137 71 9876506
39 96 33977357
9 130 33958694
135 54 33987845
100 110 4496421
54 40 28360406
126 28 28704869
54 110 4593168
28 126 18844903
60 53 4600593
73 47 32148159
73 60 31803168
60 73 31801892
123 94 23942441
47 73 33781665
11 18 18424965
25 20 29051135
137 139 4936909
139 137 4937672
137 93 7539273
100 39 4945780
87 121 5013462
98 57 28084593
59 8 5023599
59 117 31812568
59 97 5023599
59 63 32756358
59 99 5023599
59 79 5023599
59 61 5023599
59 139 33189539
59 58 31205941
59 120 18752451
59 9 11086775
59 85 5023599
59 129 5023599
20 109 28083394
20 123 28083394
20 94 28083394
20 31 28083394
20 90 5033335
20 125 28083394
20 2 28083394
20 119 28083394
20 12 29656161
20 132 29223209
20 35 28083394
20 4 28083394
20 69 5033335
41 141 20148306
137 59 5037964
137 79 11157911
137 58 5037964
137 129 7453962
61 8 15901378
78 0 27760274
78 88 6918532
78 44 31631338
78 34 5106421
78 101 6838097
78 18 27312790
78 128 30874092
132 140 32081433
141 126 19628568
102 10 5460577
100 40 33873043
143 82 33189749
132 22 30259620
96 100 33527759
88 82 32708859
105 32 5557715
0 11 18930102
61 117 23156506
61 120 33793419
61 64 14778866
117 93 5541038
117 58 32419698
117 120 31474042
117 64 31474042
32 105 32865129
145 96 9088458
145 105 33362297
71 93 8572564
24 53 5632397
24 122 5632397
24 28 5632459
117 3 5633547
89 96 32683764
22 95 23002856
9 63 32942562
61 26 32663173
143 103 32682871
25 94 32753901
117 85 31474042
85 117 32328389
4 31 32426000
105 89 27137737
99 120 28458246
88 78 6841194
95 31 33460294
125 20 33270014
4 102 27310897
143 18 28541582
120 61 33807825
96 84 33527759
0 128 30266329
105 54 27137737
105 80 27137737
105 110 27137737
105 145 33442347
105 135 27137737
142 31 30435180
142 95 31201936
59 104 33534903
120 63 19536003
105 40 28012280
9 99 31541871
9 139 28621150
2 94 21107032
44 128 7435421
70 95 18775021
87 26 7442202
26 87 7443395
98 86 22990486
70 22 30265046
89 33 25086007
33 89 25086488
139 85 33812081
85 63 32689261
85 99 32689261
85 58 32689261
99 139 33792561
114 74 18241077
12 56 14448613
22 109 7959045
22 123 9699621
22 125 30851484
22 2 30940392
22 70 7959045
22 116 7959045
22 20 7959045
22 12 9699621
22 35 13397134
22 4 7959045
95 94 28089118
0 78 8045668
104 134 33446210
104 61 33446210
104 129 33545371
64 98 8132078
64 57 8132171
72 73 34133223
93 137 8239868
93 58 8240055
73 72 27719794
89 39 30444062
51 36 32062737
36 51 32057841
142 25 30435180
9 58 33290390
64 86 8566729
86 64 8566853
51 44 22728978
128 83 26695990
58 9 33304175
99 58 28458246
86 98 20224294
47 72 33889021
99 26 32250229
116 31 32926441
103 88 8748765
63 98 8751382
63 57 8751382
70 94 8761357
84 45 33206290
74 72 22558043
25 125 29213339
94 70 30942318
109 123 33799041
39 40 23956883
141 13 9166034
135 96 20495154
70 102 10560078
88 101 9182141
13 141 9247858
123 22 21098885
86 57 31025929
139 99 33383190
25 109 26798575
25 123 26798575
25 90 9347909
25 2 31735676
25 56 14183574
25 119 18328778
25 140 33112592
25 70 26798575
25 12 26798575
25 35 26798575
25 4 26798575
25 69 26798575
12 22 9774651
54 39 9367588
139 71 32319194
79 71 18331541
96 76 33527759
86 92 9785323
76 96 32158924
125 25 23955589
31 70 33527717
71 9 32347036
95 125 33980007
85 26 31646622
93 71 10065846
54 76 10381917
76 54 32158924
111 60 27247483
12 94 20658462
38 126 20136116
126 38 20058659
60 111 31572159
45 84 33195015
143 78 30600142
45 89 12374688
134 61 12921824
137 97 11157911
137 98 11713269
72 122 11837599
72 47 34349929
117 104 33269908
126 60 28363460
109 95 33897231
99 104 29835412
39 89 33985733
58 8 30251629
58 117 32420673
58 99 24923386
58 79 31236667
58 61 12294145
58 139 32958572
58 120 12294145
58 85 12294145
89 45 30946206
105 84 12452182
61 134 12538511
100 84 18237286
120 104 26029738
32 39 32865129
18 34 12980516
97 120 33894036
4 25 13065488
96 33 33527759
45 96 13170192
8 104 27313534
80 84 18861708
125 95 33379737
139 59 33196037
25 142 30615835
120 8 13757742
47 111 31799397
111 47 13764459
61 104 31537726
13 41 33874155
86 121 31556232
40 45 33537386
41 13 33875380
142 20 30435180
11 0 19364918
11 83 14103196
11 34 14103196
104 62 33446210
125 142 32934138
142 125 30435180
97 71 31743622
11 82 14645519
11 143 14645519
100 145 17911321
80 76 14608494
69 123 14623875
69 10 14623875
69 94 14623875
69 140 14623875
69 70 14623875
123 31 14710012
99 64 28458246
76 80 32158924
96 45 33181103
99 59 28458246
125 132 14811890
8 98 24383928
13 111 15231643
111 13 15231898
76 105 32158924
97 64 33456638
123 2 31536461
97 104 29210785
97 134 26198584
97 8 28456392
97 117 28456392
97 63 26198584
97 99 26198584
97 93 26198584
97 59 30266272
97 79 28456392
97 61 28456392
97 26 31575416
97 139 26198584
97 58 28456392
97 9 26198584
97 85 26198584
97 129 30420612
41 126 33894925
132 31 15739472
62 104 15742252
58 104 33546146
112 78 15820647
125 31 16018402
71 62 32852829
97 62 28456392
118 126 16895995
74 7 33371074
7 114 20056985
105 76 33808171
40 138 33984059
140 25 33112584
140 142 32678512
140 123 17564631
140 31 26194139
140 95 17564631
140 125 17564631
140 2 17564631
140 119 17564631
140 70 28965684
140 116 17564631
140 20 18238676
140 132 31663812
140 4 17564631
62 71 32319868
139 58 33196037
26 93 32593054
62 120 17815260
85 104 31547205
109 69 17900907
130 57 20238507
129 59 19642178
119 25 20590061
8 57 24200250
69 25 18418154
95 132 30939419
58 129 24409687
9 104 18759989
129 104 32750059
138 40 33983837
34 78 18950596
126 72 32844138
7 74 33547562
114 7 19357643
107 72 22558582
141 41 31468799
126 141 19614544
96 138 33527759
7 13 19624934
7 141 19957390
13 126 33525066
13 7 19635150
129 71 27324563
135 145 32543650
138 100 33983837
44 83 19894497
95 142 28089118
83 34 19889232
141 7 19893980
12 95 19895541
139 104 33956758
116 4 28082180
138 76 33958057
28 13 33461406
13 28 29053597
100 138 33873465
78 36 20746185
36 78 20583208
76 138 32765025
83 128 23865025
129 58 24396202
94 48 21694791
119 48 21696712
48 94 21702542
32 138 32865129
32 45 21877695
99 117 28458246
138 45 33983837
138 135 33983837
120 117 31216850
48 102 22579781
62 64 22728374
51 34 22728978
48 22 23009678
22 48 23162107
57 8 23168283
26 62 32325942
125 119 28955922
62 97 23168947
96 133 23346394
4 116 31823698
105 39 23344207
60 66 25417555
4 69 23685626
66 60 25350360
109 4 23775012
24 41 26104884
41 24 26103492
30 60 26109356
60 30 23945396
125 35 23955498
125 22 31116593
125 2 23955711
35 125 23957655
66 72 25676023
142 109 30435180
142 123 30435180
142 2 30435180
142 119 30435180
142 140 32678317
142 70 30435180
142 116 30435180
142 12 30435180
142 132 30435180
142 4 30435180
30 66 24919312
64 62 33430845
123 70 30417301
24 30 25698097
20 142 33535801
30 24 25681884
130 92 33893168
92 121 33974023
111 6 27309999
117 55 29809519
132 35 26700474
28 72 33964770
104 86 26876450
8 86 26876927
20 70 28083394
63 52 27248663
79 104 28529136
54 96 27397444
60 28 27833555
95 123 28089118
95 70 28089118
95 12 28089118
95 35 28089118
95 4 28089118
95 69 28086391
95 119 28089118
95 140 28089118
95 20 28089118
135 105 28348923
126 107 28363460
126 74 28363460
126 73 28363460
126 111 28363460
74 126 28365934
125 94 31110060
99 134 28458246
99 8 28458246
99 71 28458246
99 97 28458246
99 62 28458246
99 79 28458246
99 61 28458246
99 129 28458246
134 99 28458726
40 5 33537386
63 62 28719906
120 9 28960559
12 25 28971791
9 120 29027347
86 129 29048235
117 62 29121489
129 86 29133804
133 89 29652218
133 96 33886781
73 111 29741555
55 117 29739126
55 104 29739148
32 5 32865129
138 5 33983837
5 32 29838724
128 18 29987233
138 39 33983837
39 138 33983910
85 64 30249064
129 61 30425230
18 36 30438831
36 18 30432463
142 69 30435180
135 138 33475015
138 32 30502497
70 123 30591478
58 57 31060429
57 58 31061690
69 102 33550611
71 57 31208015
73 107 31541489
73 74 31541489
97 86 31542574
86 130 31551708
138 19 33983837
123 140 31555990
123 4 31557705
39 43 31658844
61 63 31735004
2 142 31810628
116 109 31884916
89 15 33385134
12 42 32151838
76 39 32158924
76 110 32158924
76 135 32158924
96 5 33181103
62 26 32327430
121 104 32405203
62 113 32660498
85 59 32689261
76 43 33441936
100 15 32757333
19 76 32771593
40 15 33984059
62 21 33888365
21 62 33896128
76 19 32857617
28 136 33268225
41 136 32840481
32 15 32865129
104 21 33446210
83 103 32940892
96 15 33181103
72 7 33283565
2 35 33465137
92 130 33875255
133 40 33885823
73 24 33957883
15 138 33958811
24 73 33965797
138 15 33983266
