60 72 1236796
60 91 88
102 142 883259
102 109 883259
102 123 883259
102 94 1307105
102 25 1472853
102 31 883259
102 95 1307105
102 125 883259
102 2 883259
102 119 883259
102 140 883259
102 22 1472853
102 116 883259
102 20 883259
102 12 883259
102 132 883259
102 35 883259
120 64 1470212
53 72 2636
130 9 1482336
130 64 1482189
91 72 1302154
72 53 359940
24 60 1241545
78 83 1470887
78 14 359191
78 112 359191
78 103 1470887
71 26 1488115
40 89 1493482
9 121 620068
35 123 1481869
35 31 1481607
135 110 1485657
91 60 6825
32 40 1485885
32 84 1398556
72 91 1294066
95 109 798925
95 116 1402678
64 120 1488970
32 100 13929
40 32 1493482
47 53 1408533
47 122 1229620
130 86 362028
40 84 1493482
100 32 14956
31 35 1300586
96 40 723435
110 40 366942
24 91 31962
58 59 1140836
72 107 1477199
72 74 1477199
72 60 1494388
72 126 1477199
72 28 1477199
72 111 1477199
11 51 1481297
104 26 1214778
80 54 819579
80 89 101716
80 96 638877
80 40 1409551
80 110 21771
80 145 21771
80 32 21771
80 100 26144
80 135 91619
80 105 21771
100 80 21817
88 143 900530
26 71 1499800
26 8 608805
26 63 1479216
26 59 726420
63 26 1480546
132 25 25424
96 32 1152178
89 32 795704
32 89 795095
84 110 1323525
84 40 1437297
91 24 38888
35 22 873856
20 95 30202
71 120 1486177
135 80 42535
101 51 1352390
111 72 1377162
111 124 781875
64 130 1378882
63 117 699196
117 63 199278
40 110 1493482
139 117 89999
12 109 1484149
12 123 1484149
12 35 1484149
117 139 91059
40 145 1493482
132 102 94108
40 54 1493482
40 43 1493482
40 33 1493482
40 39 1493482
40 96 1493482
40 80 1493482
40 76 1493482
40 100 1493482
40 27 1493482
40 135 1493482
40 105 1493482
31 102 615921
95 102 111615
117 79 95632
117 97 95658
117 99 95715
94 102 801792
117 71 1316415
117 26 1316415
76 32 1494107
145 89 98163
39 135 1491487
135 39 1487066
89 145 874905
32 76 646303
32 145 1398556
71 117 1488115
89 80 103987
145 33 106169
123 12 872976
123 35 872976
82 0 111124
82 77 111124
82 88 111124
82 51 1382975
82 83 111124
82 78 111124
82 14 111124
82 112 111124
82 103 111124
82 11 111124
82 143 111124
82 44 111124
82 101 111124
82 18 1382975
82 128 111124
33 145 111461
89 110 112848
96 54 1152178
96 89 1152178
96 80 1152178
96 110 1152178
96 135 1481928
51 83 176505
51 11 176505
73 122 136283
117 98 174983
47 60 1324055
51 0 176505
51 88 1304392
51 78 176505
51 82 1304392
51 143 1304392
51 18 719684
51 128 176505
120 97 1297398
74 122 182322
119 102 709402
116 25 957520
25 116 973077
58 71 712232
71 98 191730
122 47 1206586
22 142 1304016
71 8 1488115
71 63 1488115
71 99 1488115
71 59 1488115
71 139 1488115
71 58 1488115
25 22 1306301
25 102 1477550
17 53 205171
63 99 1494670
63 139 1302212
63 58 1171643
63 9 699196
63 85 1171643
134 59 297285
134 64 212540
20 116 212600
134 26 215821
26 134 217610
76 84 1148674
84 76 1323525
64 134 265234
88 51 265576
71 79 265774
44 78 266523
71 104 266595
76 33 1235999
139 63 1311543
33 76 1214274
59 134 268268
135 100 356563
137 117 269353
26 58 1499603
24 141 269617
100 89 1135293
89 100 272632
31 109 1231287
31 123 1130534
31 94 1130534
31 95 1313512
31 119 1231287
31 140 1130534
31 22 1301266
31 12 1130534
31 132 1130534
31 69 1231287
35 20 276850
139 9 278091
71 97 1486228
71 61 278976
71 129 883233
69 31 280144
2 102 283694
2 123 284300
137 120 287091
26 57 289361
58 26 629281
58 64 292686
145 40 1309558
120 26 349193
35 109 873856
35 94 873856
35 25 873856
35 95 873856
35 119 873856
35 140 873856
35 12 1483291
35 132 873856
35 69 873856
117 59 353681
89 40 1323748
110 54 607824
11 128 361385
8 71 364786
8 97 364786
8 63 364786
8 26 364786
8 58 364786
8 120 364786
110 135 1485631
110 100 368270
22 25 1488661
26 117 1317248
53 47 1486191
31 142 607146
31 25 607146
31 125 607146
31 2 607146
31 116 607146
31 20 607146
31 4 1227000
104 63 607405
24 72 1221589
102 70 883259
72 24 1216858
145 54 616820
32 96 632005
143 88 1134885
9 117 620132
84 32 1438084
117 9 621537
124 111 712034
2 95 629603
54 80 635399
26 104 813388
137 64 638635
63 134 699196
63 8 699196
63 71 699196
63 97 699196
63 59 699196
63 79 699196
63 120 699196
63 64 699196
63 129 699196
63 104 699196
100 76 1393886
140 22 1481069
104 71 783227
119 35 709085
102 4 883259
58 63 812635
61 129 717288
140 109 720147
140 12 720147
140 35 720147
26 64 726420
145 76 780947
0 82 780978
68 16 1308420
103 78 1315174
109 102 785260
57 26 789433
57 98 790214
57 86 790844
84 89 1323525
123 109 872976
22 102 803308
116 95 1394304
89 84 1252147
125 102 815807
122 73 886927
117 61 865265
117 129 1228744
99 63 1413287
35 70 873856
35 2 873856
70 35 873995
110 89 893032
116 125 959154
51 101 960954
64 26 1120388
74 114 1133508
84 96 1323525
119 22 1145836
143 101 1137692
129 117 1139431
18 143 1141094
110 96 1390959
76 100 1234177
96 105 1220046
32 33 1236659
95 22 1225291
59 64 1232022
89 105 1251727
122 107 1293446
61 137 1305935
53 60 1318783
76 40 1322646
142 22 1322917
84 33 1323525
84 39 1323525
84 145 1323525
84 100 1323525
84 135 1323525
84 105 1323525
18 82 1384809
99 85 1405171
120 71 1469211
71 134 1476026
16 68 1481788
22 140 1488661
69 109 1499006
99 9 1499627
