60 72 3643014
60 91 88
102 142 7361265
102 109 7361265
102 123 7361265
102 94 7447054
102 25 7433453
102 31 7361265
102 95 7361265
102 125 7361265
102 2 7361265
102 119 7361265
102 140 7361265
102 22 7433453
102 116 7361265
102 20 7361265
102 12 7361265
102 132 7447054
102 35 7361265
120 64 7386197
53 72 2636
130 9 7443645
130 64 7443388
91 72 7451320
72 53 1821382
24 60 7370642
78 83 5106421
78 14 5106421
78 112 5106421
78 103 7435415
71 26 7460381
40 89 7457003
9 121 3897787
35 123 7262341
35 31 7262341
135 110 5215490
91 60 5528829
32 40 7286318
32 84 7197094
72 91 7452908
95 109 798925
95 116 5538309
64 120 7432567
32 100 6931391
40 32 7446542
47 53 6742679
47 122 7270746
130 86 362028
40 84 7456768
100 32 5103860
31 35 6570762
96 40 5210682
110 40 5059681
24 91 31962
58 59 7196245
72 107 7448161
72 74 7448161
72 60 7448161
72 126 7448161
72 28 7448161
72 111 7448161
11 51 5119991
104 26 7452133
80 54 819579
80 89 101716
80 96 638877
80 40 2532728
80 110 21771
80 145 21771
80 32 21771
80 100 26144
80 135 91619
80 105 21771
100 80 21817
88 143 6758727
26 71 7471558
26 8 7456422
26 63 7273620
26 59 7458161
63 26 6753799
132 25 25424
96 32 7104510
89 32 6750623
32 89 6931391
84 110 3203295
84 40 7456841
91 24 5528829
35 22 3300757
20 95 6859836
71 120 7439510
135 80 42535
101 51 7133671
111 72 7258354
111 124 781875
64 130 7452767
63 117 5534314
117 63 5541038
40 110 7438542
139 117 89999
12 109 7454299
12 123 7454299
12 35 7434002
117 139 5541038
40 145 7438542
132 102 94108
40 54 7438542
40 43 5641661
40 33 7438542
40 39 7438542
40 96 7438542
40 80 7438542
40 76 7438542
40 100 7438542
40 27 5641661
40 135 7460597
40 105 7438542
31 102 7188269
95 102 7361941
117 79 5541038
117 97 5541038
117 99 5541038
94 102 4947177
117 71 5541038
117 26 7431891
76 32 7376524
145 89 5547543
39 135 7456243
135 39 7455116
89 145 6757697
32 76 7278999
32 145 6931391
71 117 7460347
89 80 2967394
145 33 5547543
123 12 7432518
123 35 7432518
82 0 111124
82 77 111124
82 88 4862745
82 51 6767325
82 83 111124
82 78 111124
82 14 111124
82 112 111124
82 103 111124
82 11 2635882
82 143 4862745
82 44 111124
82 101 111124
82 18 5543369
82 128 111124
33 145 111461
89 110 112848
96 54 7104510
96 89 7104510
96 80 7104506
96 110 7104506
96 135 7104506
51 83 7347671
51 11 6657900
73 122 7171872
117 98 174983
47 60 6591537
51 0 7199690
51 88 6923846
51 78 6915554
51 82 7349821
51 143 7349821
51 18 7349821
51 128 7455409
120 97 7266581
74 122 182322
119 102 3311241
116 25 1988758
25 116 5639886
58 71 7196245
71 98 191730
122 47 7458694
22 142 6919379
71 8 7349898
71 63 7374499
71 99 7349898
71 59 7433633
71 139 7349898
71 58 7349898
25 22 7274479
25 102 5200361
17 53 205171
63 99 7469651
63 139 7442140
63 58 7191099
63 9 7197854
63 85 7191099
134 59 5566461
134 64 5493280
20 116 5033335
134 26 5747992
26 134 5644608
76 84 7450743
84 76 7450893
64 134 265234
88 51 4849710
71 79 6668082
44 78 266523
71 104 7457160
76 33 7353996
139 63 7456655
33 76 5197349
59 134 5466088
135 100 7455086
137 117 5037964
26 58 7458161
24 141 6749052
100 89 2705185
89 100 272632
31 109 6570762
31 123 6570762
31 94 6570762
31 95 7440539
31 119 6570762
31 140 6570762
31 22 6570762
31 12 6570762
31 132 6570762
31 69 6570762
35 20 276850
139 9 6838005
71 97 7349898
71 61 7349898
71 129 7439355
69 31 280144
2 102 3308630
2 123 284300
137 120 7452769
26 57 6835829
58 26 2869319
58 64 292686
145 40 7437725
120 26 6761723
35 109 873856
35 94 873856
35 25 873856
35 95 873856
35 119 5205673
35 140 873856
35 12 4502434
35 132 5036020
35 69 6849751
117 59 5541038
89 40 7458988
110 54 5059681
11 128 361385
8 71 4848198
8 97 364786
8 63 364786
8 26 4438118
8 58 3292363
8 120 3292363
110 135 5367138
110 100 368270
22 25 6850385
26 117 7437101
53 47 5125957
31 142 607146
31 25 3113208
31 125 607146
31 2 607146
31 116 5638850
31 20 607146
31 4 3297680
104 63 2611544
24 72 7350272
102 70 7438968
72 24 5543047
145 54 5547543
32 96 7207022
143 88 6847366
9 117 620132
84 32 7369298
117 9 5541038
124 111 712034
2 95 629603
54 80 7273469
26 104 7433297
137 64 7453962
63 134 5279942
63 8 5279942
63 71 6830786
63 97 5279942
63 59 5279942
63 79 5279942
63 120 5279942
63 64 5279942
63 129 5279942
63 104 699196
100 76 5637988
140 22 4502999
104 71 6933779
119 35 709085
102 4 6928009
58 63 7042496
61 129 5535104
140 109 720147
140 12 720147
140 35 720147
26 64 6922818
145 76 5547543
0 82 780978
68 16 7429556
103 78 6842293
109 102 3215056
57 26 6828851
57 98 6676997
57 86 3718654
84 89 7489407
123 109 7355262
22 102 7352538
116 95 5103250
89 84 7443906
125 102 2530527
122 73 7458694
117 61 5541038
117 129 6756233
99 63 7465512
35 70 873856
35 2 873856
70 35 873995
110 89 893032
116 125 6924095
51 101 7195748
64 26 7341183
74 114 3119244
84 96 2949120
119 22 7453861
143 101 1904884
129 117 6755441
18 143 6926075
110 96 5059681
76 100 7355198
96 105 7104501
32 33 7286318
95 22 1225291
59 64 5023599
89 105 6757697
122 107 1293446
61 137 7453811
53 60 1318783
76 40 7376524
142 22 7431295
84 33 1323525
84 39 1323525
84 145 7368605
84 100 1323525
84 135 1323525
84 105 1323525
18 82 5544307
99 85 1405171
120 71 7259296
71 134 2014488
16 68 5105891
22 140 2938419
69 109 1499006
99 9 1499627
134 71 4354638
142 35 1641987
74 107 5202089
110 39 1736197
123 102 6935597
64 63 5446678
64 8 1813273
64 79 1813294
64 58 1813351
64 97 7432632
64 9 6910938
64 117 2086778
64 85 1813458
64 71 5441690
64 99 1813514
64 139 1813533
64 129 1813564
64 61 5625608
64 104 7432648
0 51 4352374
101 143 3901846
123 142 1838809
76 89 5124789
89 76 1847305
33 40 3839622
20 25 5033335
141 24 5200131
35 142 5205673
39 110 7197544
145 32 7287092
110 84 2682504
20 102 6739815
59 71 7354813
22 94 2509826
105 96 7257967
54 135 4520909
109 116 4518138
20 140 5033335
0 18 2095952
85 71 5448104
20 22 5033335
94 142 3126242
128 78 2335365
64 87 7452195
87 64 2355031
111 107 4850914
94 109 4947177
94 123 4947177
94 25 4947177
94 31 4947177
94 95 7436740
94 90 4947177
94 125 4947177
94 2 6571041
94 56 4947177
94 119 7269431
94 140 4947177
94 22 4947177
94 116 4947177
94 20 4947177
94 12 4947177
94 132 4947177
94 35 4947177
94 4 4947177
94 69 4947177
100 33 5640142
33 100 7459067
104 97 2611544
137 104 7453962
60 24 7437315
111 74 4850914
128 51 4924523
22 119 2506845
74 111 3211269
78 82 6838044
54 32 7348456
141 28 6744587
145 144 5547543
145 39 5547543
145 80 5547543
145 110 5547543
145 27 2611704
145 135 5547543
26 99 5644608
26 139 5644608
96 145 7104510
26 61 5645902
9 64 7178300
76 145 7188146
78 143 6838044
78 51 6850949
104 8 2611544
104 117 5103887
104 99 2611544
104 59 7279928
104 79 2611544
104 139 2611544
104 58 2611544
104 120 2611544
104 9 2611544
104 64 3134498
104 85 2611544
100 105 7441397
128 0 2686316
69 116 4074400
126 41 4598639
125 116 7361728
105 100 7257967
83 51 2690264
71 85 3114954
117 8 5541038
8 117 3292363
126 13 2937500
143 51 7264692
0 143 2971160
14 78 2953001
14 112 2953001
109 12 6743630
109 35 2956657
78 11 5106421
11 78 3906034
22 31 6678928
107 74 6658329
135 89 2969696
89 135 2977577
103 82 3027801
103 143 6676320
9 85 7352681
85 9 3031272
110 32 3163569
116 102 3122886
139 26 3221838
101 78 3901846
137 61 7453962
142 94 3132635
107 111 4603345
83 78 3137304
61 71 3208662
140 102 3213908
12 102 7457953
35 102 3308575
25 132 3215446
47 24 5637695
140 94 3222740
33 32 4849654
24 47 5632397
96 39 4588671
8 137 3292363
8 59 3292363
8 61 5197534
8 129 3292363
64 59 7341602
100 135 5639542
84 80 3310035
54 145 5542036
95 25 3500546
54 33 3733773
137 8 5037964
89 54 3647162
129 8 4607692
54 89 3648393
129 26 3648771
92 98 3652504
109 140 3653097
26 97 5644608
26 79 5644608
26 120 6771034
26 9 5644608
26 85 5644608
33 54 3666526
26 129 5644608
145 84 7366740
142 102 7431451
70 25 3725320
54 84 3730742
84 54 3732236
18 51 6665350
22 132 3737588
25 31 6937263
25 95 6937263
59 26 5628573
57 81 3837146
98 92 3895993
18 0 3898692
18 88 3898692
18 83 3898692
18 78 5120666
18 14 3898692
18 112 3898692
18 103 3898692
18 11 4246401
18 44 3898692
18 101 3902155
18 128 3898692
98 117 3897732
101 0 3901846
101 88 3901846
101 83 3901846
101 14 3901846
101 82 3901846
101 112 3901846
101 103 3901846
101 11 3901846
101 44 3901846
101 18 3901846
101 128 3901846
98 8 3901979
85 139 3914795
128 11 3913354
135 40 7455086
95 2 3985512
116 69 4771928
63 61 5279942
32 54 7280107
32 80 7263567
143 0 4245619
71 64 5447022
58 97 4273262
60 47 4324775
32 110 4331357
32 135 4331357
137 71 5037964
39 96 7353382
9 130 7178300
135 54 4936465
100 110 4496421
54 40 4499345
126 28 6849376
54 110 4593168
28 126 4592990
60 53 4600593
73 47 5204746
73 60 5105083
60 73 5116474
123 94 4854656
47 73 6853291
11 18 4935330
25 20 4935666
137 139 4936909
139 137 4937672
137 93 7267470
100 39 4945780
87 121 5013462
98 57 6680745
59 8 5023599
59 117 5023599
59 97 5023599
59 63 5023599
59 99 5023599
59 79 5023599
59 61 5023599
59 139 5023599
59 58 5023599
59 120 5023599
59 9 7351618
59 85 5023599
59 129 5023599
20 109 5033335
20 123 5033335
20 94 5033335
20 31 5033335
20 90 5033335
20 125 5033335
20 2 5033335
20 119 5033335
20 12 5033335
20 132 5033335
20 35 5033335
20 4 5033335
20 69 5033335
41 141 5033505
137 59 5037964
137 79 7453962
137 58 5037964
137 129 7453962
61 8 5534668
78 0 5106421
78 88 6918532
78 44 5106421
78 34 5106421
78 101 6838097
78 18 5106421
78 128 5106421
132 140 5124992
141 126 5200131
102 10 5460577
100 40 5639542
143 82 5449453
132 22 5450072
96 100 7104501
88 82 5453234
105 32 5557715
0 11 5495168
61 117 5534142
61 120 5534761
61 64 5535230
117 93 5541038
117 58 5541038
117 120 5541038
117 64 5541038
32 105 6931391
145 96 6925027
145 105 5547543
71 93 5626435
24 53 5632397
24 122 5632397
24 28 5632459
117 3 5633547
89 96 5636468
22 95 6747480
9 63 7352681
61 26 6569833
143 103 6677176
25 94 6683327
117 85 6744187
85 117 6751940
4 31 6764258
105 89 7257967
99 120 6832756
88 78 6841194
95 31 7268756
125 20 6851183
4 102 6924620
143 18 6924696
120 61 7273400
96 84 7104510
0 128 7132978
105 54 7257967
105 80 7257967
105 110 7257967
105 145 7257967
105 135 7257967
142 31 7278754
142 95 7270895
59 104 7273789
120 63 7273990
105 40 7343227
9 99 7352681
9 139 7352681
2 94 7361967
44 128 7435421
70 95 7444674
87 26 7442202
26 87 7443395
98 86 7446533
70 22 7448157
89 33 7460021
33 89 7460393
139 85 7456704
