60 72 22647181
60 91 88
102 142 23783601
102 109 23783601
102 123 23783601
102 94 23783601
102 25 23857131
102 31 23783601
102 95 23783601
102 125 23783601
102 2 23783601
102 119 23783601
102 140 23783601
102 22 23783601
102 116 23783601
102 20 23783601
102 12 23783601
102 132 23783601
102 35 23783601
120 64 23933630
53 72 2636
130 9 23245076
130 64 23096163
91 72 22227194
72 53 1821382
24 60 23699369
78 83 23600399
78 14 18498400
78 112 23939185
78 103 22128687
71 26 23361789
40 89 23774664
9 121 3897787
35 123 23683827
35 31 23683827
135 110 14127453
91 60 19356913
32 40 23862055
32 84 23705780
72 91 22257055
95 109 23848281
95 116 23782155
64 120 23954062
32 100 23674192
40 32 23774664
47 53 8131124
47 122 23344721
130 86 362028
40 84 23774664
100 32 21881518
31 35 23934081
96 40 23709004
110 40 5059681
24 91 19960412
58 59 23977690
72 107 23196706
72 74 23196706
72 60 23207972
72 126 23196706
72 28 23196706
72 111 23196706
11 51 18763241
104 26 23954523
80 54 9701817
80 89 101716
80 96 638877
80 40 7959853
80 110 21771
80 145 15987011
80 32 23246208
80 100 26144
80 135 91619
80 105 21771
100 80 21817
88 143 21194004
26 71 23101458
26 8 23684764
26 63 23182598
26 59 23861584
63 26 23077987
132 25 13653169
96 32 23685974
89 32 21706677
32 89 21877695
84 110 12966433
84 40 23936079
91 24 19959121
35 22 21185712
20 95 6859836
71 120 23094853
135 80 9099496
101 51 22558451
111 72 23163798
111 124 781875
64 130 23237398
63 117 22640963
117 63 23939939
40 110 23774664
139 117 22057341
12 109 23762490
12 123 23762490
12 35 23762490
117 139 23080008
40 145 23774664
132 102 18931777
40 54 23774664
40 43 5641661
40 33 23774664
40 39 23957093
40 96 23774664
40 80 23774664
40 76 23944820
40 100 23774664
40 27 5641661
40 135 23774664
40 105 23774664
31 102 19030393
95 102 19112864
117 79 23080008
117 97 23080008
117 99 23080008
94 102 23258397
117 71 23185724
117 26 23950645
76 32 23691503
145 89 22998844
39 135 23786700
135 39 23783474
89 145 22776912
32 76 23277084
32 145 21877695
71 117 23178657
89 80 14059494
145 33 9074963
123 12 23956435
123 35 23956435
82 0 111124
82 77 111124
82 88 23005930
82 51 22476175
82 83 9354822
82 78 11171723
82 14 111124
82 112 111124
82 103 22463910
82 11 14602779
82 143 22477975
82 44 111124
82 101 111124
82 18 22207796
82 128 111124
33 145 9077305
89 110 112848
96 54 23685974
96 89 23955961
96 80 23685974
96 110 23685974
96 135 23945070
51 83 22728978
51 11 15301995
73 122 23776379
117 98 174983
47 60 22055545
51 0 22728978
51 88 22580484
51 78 21886681
51 82 21092521
51 143 21344695
51 18 22381731
51 128 23595875
120 97 22732076
74 122 182322
119 102 18332049
116 25 18330283
25 116 23783804
58 71 23266056
71 98 191730
122 47 23954217
22 142 14171047
71 8 23269942
71 63 23361789
71 99 23094853
71 59 23362421
71 139 23094853
71 58 23331421
25 22 23093648
25 102 23862870
17 53 205171
63 99 23239490
63 139 23240360
63 58 23239490
63 9 23240205
63 85 23239490
134 59 23894844
134 64 14473177
20 116 5033335
134 26 18794743
26 134 23096837
76 84 21861355
84 76 21696986
64 134 14860958
88 51 21271164
71 79 23352864
44 78 19962562
71 104 23361789
76 33 23282467
139 63 23258209
33 76 23277791
59 134 21358518
135 100 20829544
137 117 11713016
26 58 23096837
24 141 19579542
100 89 21192603
89 100 20749358
31 109 23934081
31 123 23934081
31 94 23934081
31 95 23953838
31 119 23934081
31 140 23934081
31 22 23934081
31 12 23934081
31 132 23934081
31 69 23934081
35 20 276850
139 9 23273914
71 97 23094853
71 61 23094853
71 129 23094853
69 31 280144
2 102 22560558
2 123 15303929
137 120 12212317
26 57 20248433
58 26 23873896
58 64 15913597
145 40 23337026
120 26 19029604
35 109 21890783
35 94 22048987
35 25 22048987
35 95 21890783
35 119 23683827
35 140 10894759
35 12 23683827
35 132 23683827
35 69 10553512
117 59 23938934
89 40 22393651
110 54 5059681
11 128 18763241
8 71 20671265
8 97 20571108
8 63 364786
8 26 23341515
8 58 20220725
8 120 3292363
110 135 5367138
110 100 368270
22 25 23851079
26 117 23196610
53 47 5125957
31 142 10809622
31 25 23675695
31 125 23934081
31 2 23934081
31 116 23675695
31 20 607146
31 4 23337595
104 63 23178746
24 72 23331935
102 70 23783601
72 24 21792256
145 54 22734173
32 96 23168713
143 88 22729251
9 117 620132
84 32 23856857
117 9 23080008
124 111 712034
2 95 21101966
54 80 23706106
26 104 23861616
137 64 11932872
63 134 20138994
63 8 20138994
63 71 23077987
63 97 20138994
63 59 20431093
63 79 20138994
63 120 20138994
63 64 20138994
63 129 14800042
63 104 23073786
100 76 23265519
140 22 18488976
104 71 23177579
119 35 23096699
102 4 23783601
58 63 23349575
61 129 17808248
140 109 17564631
140 12 17564631
140 35 17564631
26 64 23096837
145 76 14435286
0 82 780978
68 16 23851497
103 78 22721595
109 102 8044860
57 26 20249939
57 98 22554515
57 86 22555523
84 89 22589836
123 109 23598750
22 102 19025493
116 95 23940167
89 84 22488453
125 102 23600534
122 73 23954217
117 61 23080008
117 129 23080008
99 63 22772870
35 70 10894759
35 2 21890783
70 35 873995
110 89 893032
116 125 19010322
51 101 21874207
64 26 14860958
74 114 21082222
84 96 18252144
119 22 10289499
143 101 12297353
129 117 22410483
18 143 17803284
110 96 5059681
76 100 23282467
96 105 23945070
32 33 22734475
95 22 11855507
59 64 22392551
89 105 22603581
122 107 1293446
61 137 14778866
53 60 1318783
76 40 23868390
142 22 18408875
84 33 12966433
84 39 12966433
84 145 15732118
84 100 18276892
84 135 12966433
84 105 16087406
18 82 17803284
99 85 18365925
120 71 19635066
71 134 12537213
16 68 23246462
22 140 9770607
69 109 17903891
99 9 18365965
134 71 18433972
142 35 9938703
74 107 18489538
110 39 1736197
123 102 15403305
64 63 14860958
64 8 23589740
64 79 14860958
64 58 22570597
64 97 23074858
64 9 23954075
64 117 22570435
64 85 14860958
64 71 23163922
64 99 14860958
64 139 14860958
64 129 14860958
64 61 14860958
64 104 23954062
0 51 17216937
101 143 9360622
123 142 1838809
76 89 21799675
89 76 21799529
33 40 23645337
20 25 23002593
141 24 19578824
35 142 23683827
39 110 7197544
145 32 22734866
110 84 2682504
20 102 11060088
59 71 22381490
22 94 21440787
105 96 7257967
54 135 20458791
109 116 22562748
20 140 23249485
0 18 18336934
85 71 15816565
20 22 9682387
94 142 20488383
128 78 21096871
64 87 23345291
87 64 14716881
111 107 23680743
94 109 22037983
94 123 22037983
94 25 23694780
94 31 22037983
94 95 22037983
94 90 22037983
94 125 22037983
94 2 22037983
94 56 12813186
94 119 22037983
94 140 22555087
94 22 23943749
94 116 12813186
94 20 22037983
94 12 22037983
94 132 22037983
94 35 22037983
94 4 22037983
94 69 22037983
100 33 21791504
33 100 23086538
104 97 23759103
137 104 8995170
60 24 23692126
111 74 15739382
128 51 23594795
22 119 10801850
74 111 3211269
78 82 13482088
54 32 21865354
141 28 19578824
145 144 15755962
145 39 13663664
145 80 22652049
145 110 5547543
145 27 2611704
145 135 20148787
26 99 23096837
26 139 23096837
96 145 20825712
26 61 23096837
9 64 23853584
76 145 18937195
78 143 15223015
78 51 15238676
104 8 23759103
104 117 23860924
104 99 23178746
104 59 23960652
104 79 23759103
104 139 23759103
104 58 23866136
104 120 23759103
104 9 23759103
104 64 23759103
104 85 23759103
100 105 18512924
128 0 2686316
69 116 14699864
126 41 22136841
125 116 23163531
105 100 7257967
83 51 23930176
71 85 23094853
117 8 23094376
8 117 21880092
126 13 14182233
143 51 22743157
0 143 15311948
14 78 2953001
14 112 2953001
109 12 23609304
109 35 2956657
78 11 14198448
11 78 14198811
22 31 23171176
107 74 18339811
135 89 2969696
89 135 16445023
103 82 19627984
103 143 6676320
9 85 16939065
85 9 14785000
110 32 3163569
116 102 15227990
139 26 21276552
101 78 3901846
137 61 12378803
142 94 22493613
107 111 19119969
83 78 22728859
61 71 14778866
140 102 23611717
12 102 19894035
35 102 18330784
25 132 23951288
47 24 22050924
140 94 17564631
33 32 22735399
24 47 22050109
96 39 20825712
8 137 3292363
8 59 23608667
8 61 22139489
8 129 19105064
64 59 23941625
100 135 23173005
84 80 18593740
54 145 17888987
95 25 21799660
54 33 3733773
137 8 11157911
89 54 14059494
129 8 16615830
54 89 3648393
129 26 23329440
92 98 3652504
109 140 3653097
26 97 23096837
26 79 23096837
26 120 23096837
26 9 23096837
26 85 23096837
33 54 3666526
26 129 23096837
145 84 16421939
142 102 22398026
70 25 3725320
54 84 22387842
84 54 15415185
18 51 22665655
22 132 9699621
25 31 23267361
25 95 23006980
59 26 21261395
57 81 3837146
98 92 3895993
18 0 3898692
18 88 3898692
18 83 3898692
18 78 20830372
18 14 3898692
18 112 3898692
18 103 3898692
18 11 12884004
18 44 3898692
18 101 12980516
18 128 12980516
98 117 3897732
101 0 3901846
101 88 9234906
101 83 3901846
101 14 3901846
101 82 3901846
101 112 3901846
101 103 3901846
101 11 3901846
101 44 3901846
101 18 3901846
101 128 3901846
98 8 15835764
85 139 18148775
128 11 16437273
135 40 20829544
95 2 21185483
116 69 14609486
63 61 20138994
32 54 21877695
32 80 23181003
143 0 4245619
71 64 23098684
58 97 12294145
60 47 23604857
32 110 21877695
32 135 21877695
137 71 9876506
39 96 17289634
9 130 23845687
135 54 20537050
100 110 4496421
54 40 15236417
126 28 22124994
54 110 4593168
28 126 18844903
60 53 4600593
73 47 21781600
73 60 23762857
60 73 23604857
123 94 23942441
47 73 22983046
11 18 18424965
25 20 9347909
137 139 4936909
139 137 4937672
137 93 7539273
100 39 4945780
87 121 5013462
98 57 18493833
59 8 5023599
59 117 5023599
59 97 5023599
59 63 20587838
59 99 5023599
59 79 5023599
59 61 5023599
59 139 12794221
59 58 23598200
59 120 18752451
59 9 11086775
59 85 5023599
59 129 5023599
20 109 5033335
20 123 5033335
20 94 5033335
20 31 5033335
20 90 5033335
20 125 19535019
20 2 5033335
20 119 5033335
20 12 5033335
20 132 5033335
20 35 5033335
20 4 5033335
20 69 5033335
41 141 20148306
137 59 5037964
137 79 11157911
137 58 5037964
137 129 7453962
61 8 15901378
78 0 8145671
78 88 6918532
78 44 13740747
78 34 5106421
78 101 6838097
78 18 5106421
78 128 21096810
132 140 8561094
141 126 19628568
102 10 5460577
100 40 23700538
143 82 23184671
132 22 9601013
96 100 20825713
88 82 9009742
105 32 5557715
0 11 18930102
61 117 23156506
61 120 14778866
61 64 14778866
117 93 5541038
117 58 23080008
117 120 23080008
117 64 23949068
32 105 21877695
145 96 9088458
145 105 18240362
71 93 8572564
24 53 5632397
24 122 5632397
24 28 5632459
117 3 5633547
89 96 22779502
22 95 23002856
9 63 22481150
61 26 18166524
143 103 13417976
25 94 21790530
117 85 23080008
85 117 22386194
4 31 23335706
105 89 18160794
99 120 6832756
88 78 6841194
95 31 21784232
125 20 19877990
4 102 22647876
143 18 6924696
120 61 12372084
96 84 20844183
0 128 7132978
105 54 7257967
105 80 7257967
105 110 7257967
105 145 15984616
105 135 22145183
142 31 7278754
142 95 23864285
59 104 23597560
120 63 19536003
105 40 22731447
9 99 20222123
9 139 22742522
2 94 21107032
44 128 7435421
70 95 18775021
87 26 7442202
26 87 7443395
98 86 22990486
70 22 23789244
89 33 13145893
33 89 7460393
139 85 17909395
85 63 7540025
85 99 18240920
85 58 7540025
99 139 21693568
114 74 18241077
12 56 14448613
22 109 7959045
22 123 9699621
22 125 7959045
22 2 7959045
22 70 7959045
22 116 7959045
22 20 7959045
22 12 9699621
22 35 13397134
22 4 7959045
95 94 20248676
0 78 8045668
104 134 22125129
104 61 23759103
104 129 23759103
64 98 8132078
64 57 8132171
72 73 23196706
93 137 8239868
93 58 8240055
73 72 22140767
89 39 13145893
51 36 8482558
36 51 18164877
142 25 18161576
9 58 23947763
64 86 8566729
86 64 8566853
51 44 22728978
128 83 8568778
58 9 17216303
99 58 8576365
86 98 20224294
47 72 14092975
99 26 17739034
116 31 20820500
103 88 8748765
63 98 8751382
63 57 8751382
70 94 8761357
84 45 22755204
74 72 22558043
25 125 19904279
94 70 22037983
109 123 22657062
39 40 23956883
141 13 9166034
135 96 20495154
70 102 10560078
88 101 9182141
13 141 9247858
123 22 21098885
86 57 20224294
139 99 21370551
25 109 13083774
25 123 18515703
25 90 9347909
25 2 9347909
25 56 14183574
25 119 18328778
25 140 21881385
25 70 9347909
25 12 9347909
25 35 9347909
25 4 13083774
25 69 18326624
12 22 9774651
54 39 9367588
139 71 20164196
79 71 18331541
96 76 20825712
86 92 9785323
76 96 15302614
125 25 23955589
31 70 23934081
71 9 9944183
95 125 21362811
85 26 9968160
93 71 10065846
54 76 10381917
76 54 10384457
111 60 19639187
12 94 20658462
38 126 20136116
126 38 20058659
60 111 15925570
45 84 21899138
143 78 13417976
45 89 12374688
134 61 12921824
137 97 11157911
137 98 11713269
72 122 11837599
72 47 14089674
117 104 23243155
126 60 11923080
109 95 23796580
99 104 19915338
39 89 12207585
58 8 20676913
58 117 23977690
58 99 22840126
58 79 12294145
58 61 12294145
58 139 20499752
58 120 12294145
58 85 12294145
89 45 12312002
105 84 12452182
61 134 12538511
100 84 18237286
120 104 22379570
32 39 21877695
18 34 12980516
97 120 23332467
4 25 13065488
96 33 20825712
45 96 13170192
8 104 22125419
80 84 18861708
125 95 23948401
139 59 13668699
25 142 13755375
120 8 13757742
47 111 13763742
111 47 13764459
61 104 22403210
13 41 23683145
86 121 14089084
40 45 20660575
41 13 23678415
142 20 14101902
11 0 19364918
11 83 14103196
11 34 14103196
104 62 23759103
125 142 15164089
142 125 14186962
97 71 23010805
11 82 14645519
11 143 14645519
100 145 17911321
80 76 14608494
69 123 14623875
69 10 14623875
69 94 14623875
69 140 14623875
69 70 14623875
123 31 14710012
99 64 14711255
76 80 14714903
96 45 20825712
99 59 14797003
125 132 14811890
8 98 17112152
13 111 15231643
111 13 15231898
76 105 17149420
97 64 23013842
123 2 15403452
97 104 22744727
97 134 21352463
97 8 21352463
97 117 22648618
97 63 21352463
97 99 21352463
97 93 21352463
97 59 21352463
97 79 21352463
97 61 21352463
97 26 21352463
97 139 21352463
97 58 23167697
97 9 21352463
97 85 21352463
97 129 22562755
41 126 22144647
132 31 15739472
62 104 15742252
58 104 23873896
112 78 15820647
125 31 16018402
71 62 23098846
97 62 23167623
118 126 16895995
74 7 16960882
7 114 20056985
105 76 17130480
40 138 23774664
140 25 20669952
140 142 17564631
140 123 17564631
140 31 17564631
140 95 17564631
140 125 17564631
140 2 17564631
140 119 17564631
140 70 17564631
140 116 17564631
140 20 18238676
140 132 17564631
140 4 17564631
62 71 22474863
139 58 20507062
26 93 17658279
62 120 17815260
85 104 22469598
109 69 17900907
130 57 20238507
129 59 19642178
119 25 20590061
8 57 23167255
69 25 18418154
95 132 20250500
58 129 21182019
9 104 18759989
129 104 22405647
138 40 23952198
34 78 18950596
126 72 22745189
7 74 19357601
114 7 19357643
107 72 22558582
141 41 23089731
126 141 19614544
96 138 20825712
7 13 19624934
7 141 19957390
13 126 22123841
13 7 19635150
129 71 19642178
135 145 20191526
138 100 23952198
44 83 19894497
95 142 19886904
83 34 19889232
141 7 19893980
12 95 19895541
139 104 22139173
116 4 20052939
138 76 23952045
28 13 20848045
13 28 20498581
100 138 20482201
78 36 20746185
36 78 20583208
76 138 21780001
83 128 23865025
129 58 21187117
94 48 21694791
119 48 21696712
48 94 21702542
32 138 21877695
32 45 21877695
99 117 22040145
138 45 23952198
138 135 23952198
120 117 22570152
48 102 22579781
62 64 22728374
51 34 22728978
48 22 23009678
22 48 23162107
57 8 23168283
26 62 23096837
125 119 23955710
62 97 23168947
96 133 23346394
4 116 23335706
105 39 23344207
60 66 23682369
4 69 23685626
66 60 23692094
109 4 23775012
24 41 23777849
41 24 23933687
30 60 23945320
60 30 23945396
125 35 23955498
125 22 23955708
125 2 23955711
35 125 23957655
