60 72 9006454
60 91 88
102 142 9353804
102 109 9262628
102 123 9262628
102 94 9351768
102 25 9349946
102 31 9351768
102 95 9351768
102 125 9262628
102 2 9262628
102 119 9351768
102 140 9262628
102 22 9351768
102 116 9262628
102 20 9350014
102 12 9262628
102 132 9351768
102 35 9262628
120 64 9341913
53 72 2636
130 9 9339521
130 64 9186514
91 72 9254992
72 53 1821382
24 60 9263645
78 83 9276507
78 14 5106421
78 112 9276468
78 103 9276468
71 26 8758460
40 89 9368898
9 121 3897787
35 123 9356522
35 31 9186683
135 110 5215490
91 60 5528829
32 40 9346993
32 84 9250945
72 91 9253797
95 109 9444024
95 116 9444133
64 120 9344802
32 100 7803316
40 32 9368898
47 53 8131124
47 122 9329943
130 86 362028
40 84 9369001
100 32 7803490
31 35 9074223
96 40 9360479
110 40 5059681
24 91 8987283
58 59 8569364
72 107 9451260
72 74 9451260
72 60 9451260
72 126 9451260
72 28 9451260
72 111 9451260
11 51 8059904
104 26 8557648
80 54 819579
80 89 101716
80 96 638877
80 40 7959853
80 110 21771
80 145 21771
80 32 21771
80 100 26144
80 135 91619
80 105 21771
100 80 21817
88 143 9009765
26 71 9340313
26 8 9340313
26 63 9365102
26 59 9340313
63 26 9366212
132 25 25424
96 32 9185760
89 32 9205883
32 89 9250526
84 110 9003194
84 40 9279094
91 24 8984143
35 22 8729267
20 95 6859836
71 120 8744063
135 80 9099496
101 51 9103481
111 72 9447417
111 124 781875
64 130 9331800
63 117 5534314
117 63 5541038
40 110 9368898
139 117 89999
12 109 9276756
12 123 9276756
12 35 9341387
117 139 5541038
40 145 9368898
132 102 94108
40 54 9368898
40 43 5641661
40 33 9368898
40 39 9362860
40 96 9368898
40 80 9368898
40 76 9368898
40 100 9368898
40 27 5641661
40 135 9368898
40 105 9368898
31 102 9333950
95 102 9354637
117 79 5541038
117 97 5541038
117 99 5541038
94 102 9346423
117 71 7517378
117 26 7431891
76 32 9252897
145 89 5547543
39 135 9258149
135 39 9174723
89 145 8406180
32 76 9252763
32 145 6931391
71 117 8744063
89 80 8406180
145 33 9074963
123 12 9342401
123 35 9356102
82 0 111124
82 77 111124
82 88 8991925
82 51 8472413
82 83 9354822
82 78 111124
82 14 111124
82 112 111124
82 103 111124
82 11 2635882
82 143 8991925
82 44 111124
82 101 111124
82 18 5543369
82 128 111124
33 145 9077305
89 110 112848
96 54 7840818
96 89 7840818
96 80 7840818
96 110 7840818
96 135 7840818
51 83 8567978
51 11 9173531
73 122 7171872
117 98 174983
47 60 9340947
51 0 9361511
51 88 9361809
51 78 9172904
51 82 9361809
51 143 9361809
51 18 9361809
51 128 8567978
120 97 9251772
74 122 182322
119 102 8042435
116 25 1988758
25 116 9347909
58 71 9446666
71 98 191730
122 47 9242456
22 142 7959045
71 8 8744063
71 63 8744063
71 99 8744063
71 59 8744063
71 139 8744063
71 58 9447472
25 22 9354691
25 102 9348086
17 53 205171
63 99 9363301
63 139 9363301
63 58 9363301
63 9 9363301
63 85 9363301
134 59 7996080
134 64 5493280
20 116 5033335
134 26 7704773
26 134 9340313
76 84 7911342
84 76 9003194
64 134 265234
88 51 9337253
71 79 7807538
44 78 266523
71 104 8745912
76 33 8994797
139 63 9272763
33 76 8994631
59 134 7880152
135 100 7782578
137 117 5037964
26 58 9340313
24 141 6749052
100 89 2705185
89 100 8406180
31 109 9074223
31 123 9074223
31 94 9074223
31 95 9336687
31 119 9074223
31 140 9074223
31 22 9074223
31 12 9074223
31 132 9074223
31 69 9074223
35 20 276850
139 9 9245621
71 97 8744063
71 61 8744063
71 129 8744063
69 31 280144
2 102 3308630
2 123 284300
137 120 9165458
26 57 6835829
58 26 8396399
58 64 292686
145 40 9252634
120 26 6761723
35 109 8729267
35 94 8729267
35 25 8729267
35 95 8729267
35 119 8729267
35 140 8729267
35 12 8729267
35 132 8729267
35 69 8729267
117 59 5541038
89 40 9109604
110 54 5059681
11 128 361385
8 71 4848198
8 97 364786
8 63 364786
8 26 4438118
8 58 3292363
8 120 3292363
110 135 5367138
110 100 368270
22 25 9351287
26 117 9340313
53 47 5125957
31 142 7978639
31 25 3113208
31 125 607146
31 2 607146
31 116 8133302
31 20 607146
31 4 8130620
104 63 8133675
24 72 8469255
102 70 9335174
72 24 8222729
145 54 5547543
32 96 9165547
143 88 9182950
9 117 620132
84 32 9356194
117 9 5541038
124 111 712034
2 95 629603
54 80 9362886
26 104 8131286
137 64 8995170
63 134 5279942
63 8 5279942
63 71 8751382
63 97 5279942
63 59 5279942
63 79 5279942
63 120 5279942
63 64 5279942
63 129 5279942
63 104 699196
100 76 9006434
140 22 4502999
104 71 9343048
119 35 709085
102 4 9262628
58 63 9367989
61 129 5535104
140 109 720147
140 12 720147
140 35 720147
26 64 9340313
145 76 5547543
0 82 780978
68 16 9259690
103 78 9265586
109 102 8044860
57 26 6828851
57 98 6676997
57 86 3718654
84 89 9354681
123 109 9342401
22 102 8555505
116 95 9161987
89 84 8403426
125 102 8144577
122 73 8637008
117 61 5541038
117 129 6756233
99 63 9004418
35 70 8729267
35 2 8729267
70 35 873995
110 89 893032
116 125 6924095
51 101 8487628
64 26 8132201
74 114 3119244
84 96 9003194
119 22 8569814
143 101 9359116
129 117 6755441
18 143 6926075
110 96 5059681
76 100 9005477
96 105 7104501
32 33 7286318
95 22 1225291
59 64 5023599
89 105 8406180
122 107 1293446
61 137 7453811
53 60 1318783
76 40 9082493
142 22 9162528
84 33 9003194
84 39 9003194
84 145 9003194
84 100 9003194
84 135 9003194
84 105 9003194
18 82 5544307
99 85 8742301
120 71 7259296
71 134 2014488
16 68 9160130
22 140 9169023
69 109 1499006
99 9 1499627
134 71 7996080
142 35 1641987
74 107 5202089
110 39 1736197
123 102 9093537
64 63 5446678
64 8 1813273
64 79 1813294
64 58 1813351
64 97 9157675
64 9 9260556
64 117 2086778
64 85 1813458
64 71 7538543
64 99 1813514
64 139 1813533
64 129 1813564
64 61 5625608
64 104 9261090
0 51 8736501
101 143 9360622
123 142 1838809
76 89 5124789
89 76 1847305
33 40 9337652
20 25 7789974
141 24 5200131
35 142 8748392
39 110 7197544
145 32 7796885
110 84 2682504
20 102 6739815
59 71 8753009
22 94 9169023
105 96 7257967
54 135 9367588
109 116 4518138
20 140 5033335
0 18 2095952
85 71 5448104
20 22 5033335
94 142 3126242
128 78 2335365
64 87 9251333
87 64 2355031
111 107 9239922
94 109 9346423
94 123 9346423
94 25 9346423
94 31 9346423
94 95 9346423
94 90 9346423
94 125 9346423
94 2 9346423
94 56 9346423
94 119 9346423
94 140 9346423
94 22 9346423
94 116 9346423
94 20 9346423
94 12 9346423
94 132 9346423
94 35 9346423
94 4 9346423
94 69 9346423
100 33 8131751
33 100 8137889
104 97 8133675
137 104 8995170
60 24 9347828
111 74 4850914
128 51 4924523
22 119 9169023
74 111 3211269
78 82 6838044
54 32 7348456
141 28 6744587
145 144 5547543
145 39 5547543
145 80 5547543
145 110 5547543
145 27 2611704
145 135 5547543
26 99 9340313
26 139 9340313
96 145 9162996
26 61 9340313
9 64 8725684
76 145 7188146
78 143 6838044
78 51 9168282
104 8 8133675
104 117 8133675
104 99 8133675
104 59 8133675
104 79 8133675
104 139 8133675
104 58 8133675
104 120 8133675
104 9 8133675
104 64 9082023
104 85 8133675
100 105 7441397
128 0 2686316
69 116 9277332
126 41 4598639
125 116 7361728
105 100 7257967
83 51 9257282
71 85 3114954
117 8 5541038
8 117 3292363
126 13 2937500
143 51 8647536
0 143 2971160
14 78 2953001
14 112 2953001
109 12 9170670
109 35 2956657
78 11 5106421
11 78 3906034
22 31 7959045
107 74 6658329
135 89 2969696
89 135 8406180
103 82 3027801
103 143 6676320
9 85 7352681
85 9 7540025
110 32 3163569
116 102 3122886
139 26 3221838
101 78 3901846
137 61 8995170
142 94 3132635
107 111 4603345
83 78 8472626
61 71 3208662
140 102 3213908
12 102 7548667
35 102 3308575
25 132 9347909
47 24 5637695
140 94 3222740
33 32 4849654
24 47 5632397
96 39 8498077
8 137 3292363
8 59 3292363
8 61 5197534
8 129 3292363
64 59 8120883
100 135 9077897
84 80 9340648
54 145 9084704
95 25 3500546
54 33 3733773
137 8 5037964
89 54 8406180
129 8 4607692
54 89 3648393
129 26 3648771
92 98 3652504
109 140 3653097
26 97 9340313
26 79 9340313
26 120 9340313
26 9 9340313
26 85 9340313
33 54 3666526
26 129 9340313
145 84 7366740
142 102 9162528
70 25 3725320
54 84 9190866
84 54 9003194
18 51 9182558
22 132 9169023
25 31 9347909
25 95 9347909
59 26 7543514
57 81 3837146
98 92 3895993
18 0 3898692
18 88 3898692
18 83 3898692
18 78 5120666
18 14 3898692
18 112 3898692
18 103 3898692
18 11 4246401
18 44 3898692
18 101 8562926
18 128 3898692
98 117 3897732
101 0 3901846
101 88 9234906
101 83 3901846
101 14 3901846
101 82 3901846
101 112 3901846
101 103 3901846
101 11 3901846
101 44 3901846
101 18 3901846
101 128 3901846
98 8 3901979
85 139 7540025
128 11 3913354
135 40 9348139
95 2 8479499
116 69 4771928
63 61 5279942
32 54 7887854
32 80 7263567
143 0 4245619
71 64 7543536
58 97 4273262
60 47 9252236
32 110 4331357
32 135 4331357
137 71 5037964
39 96 8505991
9 130 8725684
135 54 9099496
100 110 4496421
54 40 8150409
126 28 6849376
54 110 4593168
28 126 4592990
60 53 4600593
73 47 5204746
73 60 9272125
60 73 5116474
123 94 4854656
47 73 8131124
11 18 4935330
25 20 9347909
137 139 4936909
139 137 4937672
137 93 7539273
100 39 4945780
87 121 5013462
98 57 6680745
59 8 5023599
59 117 5023599
59 97 5023599
59 63 5023599
59 99 5023599
59 79 5023599
59 61 5023599
59 139 5023599
59 58 5023599
59 120 5023599
59 9 7351618
59 85 5023599
59 129 5023599
20 109 5033335
20 123 5033335
20 94 5033335
20 31 5033335
20 90 5033335
20 125 5033335
20 2 5033335
20 119 5033335
20 12 5033335
20 132 5033335
20 35 5033335
20 4 5033335
20 69 5033335
41 141 5033505
137 59 5037964
137 79 7453962
137 58 5037964
137 129 7453962
61 8 5534668
78 0 8145671
78 88 6918532
78 44 5106421
78 34 5106421
78 101 6838097
78 18 5106421
78 128 5106421
132 140 8561094
141 126 5200131
102 10 5460577
100 40 9077897
143 82 7878985
132 22 7971557
96 100 7104501
88 82 9009742
105 32 5557715
0 11 5495168
61 117 8138240
61 120 5534761
61 64 5535230
117 93 5541038
117 58 5541038
117 120 5541038
117 64 5541038
32 105 6931391
145 96 9088458
145 105 5547543
71 93 8572564
24 53 5632397
24 122 5632397
24 28 5632459
117 3 5633547
89 96 5636468
22 95 7959045
9 63 8742609
61 26 6569833
143 103 6677176
25 94 9347909
117 85 6744187
85 117 6751940
4 31 6764258
105 89 7257967
99 120 6832756
88 78 6841194
95 31 9166860
125 20 7972360
4 102 6924620
143 18 6924696
120 61 7273400
96 84 7934795
0 128 7132978
105 54 7257967
105 80 7257967
105 110 7257967
105 145 7257967
105 135 7257967
142 31 7278754
142 95 9441776
59 104 7273789
120 63 7273990
105 40 8728368
9 99 7352681
9 139 7352681
2 94 7361967
44 128 7435421
70 95 7444674
87 26 7442202
26 87 7443395
98 86 8053852
70 22 7448157
89 33 7460021
33 89 7460393
139 85 9342856
85 63 7540025
85 99 7540025
85 58 7540025
99 139 7785440
114 74 7952494
12 56 7865081
22 109 7959045
22 123 9169023
22 125 7959045
22 2 7959045
22 70 7959045
22 116 7959045
22 20 7959045
22 12 9169023
22 35 9169023
22 4 7959045
95 94 8036517
0 78 8045668
104 134 8133675
104 61 8133675
104 129 8133675
64 98 8132078
64 57 8132171
72 73 9451260
93 137 8239868
93 58 8240055
73 72 8394838
89 39 8406180
51 36 8482558
36 51 8477474
142 25 8489497
9 58 8662431
64 86 8566729
86 64 8566853
51 44 8567978
128 83 8568778
58 9 8575480
99 58 8576365
86 98 8576645
47 72 8648851
99 26 8735773
116 31 8742735
103 88 8748765
63 98 8751382
63 57 8751382
70 94 8761357
84 45 9362210
74 72 9010188
25 125 9347909
94 70 9346423
109 123 9093360
39 40 9103146
141 13 9166034
135 96 9166044
70 102 9346810
88 101 9182141
13 141 9247858
123 22 9327735
86 57 9340397
139 99 9342856
25 109 9347909
25 123 9347909
25 90 9347909
25 2 9347909
25 56 9347909
25 119 9347909
25 140 9347909
25 70 9347909
25 12 9347909
25 35 9347909
25 4 9347909
25 69 9347909
12 22 9352203
54 39 9367588
