11 39 11725633
48 54 18409736
69 60 13052631
33 84 18160867
54 48 18412289
57 24 17916430
57 26 18191808
57 65 17916430
22 54 3990870
48 22 22792
4 38 18368842
25 71 25129
69 30 13051989
83 56 14635629
60 16 18182105
60 22 18435790
16 60 17573183
16 22 29929
24 57 17916728
29 60 16000627
69 66 875483
69 21 875483
65 54 4946582
39 54 92562
39 64 92968
14 77 187754
61 56 14710408
38 4 18260809
54 65 8486445
70 80 12889783
66 4 212898
85 64 17213102
24 54 17902519
65 24 14221845
48 24 17904706
60 21 16012780
0 89 14175276
54 67 18430193
57 35 15317294
23 60 15674976
23 7 15674976
23 59 15674976
23 62 15674976
23 5 15674976
23 66 15674976
23 21 15674976
23 44 15674976
23 81 15674976
23 69 15674976
23 30 15674976
23 88 15674976
24 65 8676607
49 60 16531744
25 49 12566466
65 35 195787
54 24 18412289
54 16 18423801
16 35 14633102
87 56 17311230
25 14 13574437
14 25 17203305
49 25 17202152
23 58 16965024
60 7 6946145
60 69 13055562
60 15 18182105
85 25 17162927
85 1 10837290
85 19 16964349
85 35 15651215
33 3 17931883
25 85 17232854
85 39 273287
48 25 17306711
64 1 15924655
64 19 12539086
19 64 16963731
19 1 17036849
54 49 18410292
38 53 290078
77 14 14448565
83 80 296102
83 82 3219489
1 83 17574633
88 60 17554010
88 15 17724017
1 64 16943002
48 51 360808
55 80 7892099
43 56 12966497
43 67 18177522
43 49 14552854
43 55 5454927
43 50 12966497
43 80 12966497
70 19 18409404
55 43 1394543
80 25 17314432
80 83 367694
12 55 368300
29 49 14461797
49 43 18364272
57 7 377978
57 80 14637491
69 81 379254
35 88 17055704
84 33 2702597
84 54 387829
83 1 18421983
50 43 18175388
16 61 13752180
61 35 631578
48 67 15866119
83 25 17205981
56 87 8051133
25 83 1259054
24 48 15307865
9 43 714643
69 23 875483
69 35 723708
43 9 1226134
49 67 18497438
35 69 720095
87 84 7810195
87 23 15734841
87 46 7810285
87 33 722186
67 49 18497001
49 29 5556634
25 1 17232854
35 83 787404
61 29 794282
80 55 7793002
87 1 8573494
67 48 8562085
48 78 1394142
38 69 810615
80 69 810774
80 70 17830650
14 35 15420979
43 69 872934
19 25 17201856
19 85 16963731
19 35 16963731
35 19 15995502
55 69 883692
48 12 17076833
16 49 13758354
49 16 15306517
85 46 14464181
83 64 3220193
83 19 14197644
83 87 14180805
85 65 901458
88 25 17715382
77 61 17736962
60 14 1134666
14 60 1137083
61 57 1137200
57 61 11854737
60 88 18244759
54 61 1137917
4 66 1249975
25 35 17232854
85 31 14464181
25 16 17232854
65 50 1237701
60 54 18435790
58 84 1245595
58 23 17308174
58 11 17308174
58 66 17308174
55 25 7440884
80 12 1255027
58 39 17308174
58 85 1260190
52 62 13161531
16 32 4118265
16 4 13768847
16 15 1315732
49 32 7877686
49 54 18497438
49 52 18185061
49 48 18345172
67 43 9173612
80 43 17911693
25 19 17897552
32 80 17030732
46 85 4946082
4 16 13764306
87 83 16610397
39 11 17719760
70 24 1391696
24 70 1392149
14 86 5118111
43 30 1411602
25 2 1411912
46 65 17918966
4 67 1483133
55 49 5558609
49 55 5559923
54 50 17819961
1 88 1490960
65 46 3822221
35 14 15416818
19 70 7880874
32 16 1737801
57 46 18191808
57 87 1745004
16 88 1749870
25 78 17038348
78 25 1754394
51 26 13484592
4 46 18426838
77 88 17210781
1 58 1829107
88 77 1832301
8 66 11580275
8 17 15230846
77 15 18497403
54 32 18172784
54 52 18172784
83 4 1845131
16 64 18172579
88 16 17443968
25 88 18419014
52 57 17140022
80 57 12990132
83 35 8683280
63 54 18151175
4 83 2013799
55 11 2023310
48 65 6587556
11 55 3989052
16 25 15856710
77 25 15673344
25 60 14185798
46 18 2426937
65 48 2440567
11 86 2472169
11 78 2691820
70 55 2532861
78 11 2694023
88 54 5542869
54 88 5545937
43 60 2607544
24 58 2612603
55 32 7894455
24 26 18429588
43 70 18168984
48 43 11088795
58 24 2627717
70 43 18171099
39 80 11072594
58 68 2690670
58 21 2690981
58 81 2691143
58 64 2691316
21 60 17725878
21 62 2691596
21 5 2691596
21 66 11850326
21 44 16943895
21 81 2691596
21 30 12898184
21 88 2691596
77 43 2694666
43 77 2707435
64 58 2945579
66 71 18329318
4 64 6670574
66 60 17567807
66 62 17567807
66 5 17567807
66 44 17567807
66 81 17567807
66 30 17567807
66 88 17567807
49 80 17213645
43 48 3031395
49 64 15767689
60 67 17809154
85 88 3121743
77 60 18326700
60 77 4849574
30 69 7264962
21 55 3130045
25 4 3148331
4 25 3154760
60 66 17064038
44 22 3216827
49 78 16522256
56 83 14623522
85 87 14464241
63 17 6936484
52 54 15657438
62 23 10815677
62 66 10815677
64 16 15756039
22 44 3312457
0 70 18321572
88 84 5550917
64 85 3654352
87 85 16009699
57 67 3819441
54 22 7518427
50 57 17056725
60 30 18409456
60 29 18270252
3 67 3683960
30 66 7264962
18 46 4518889
18 53 4518889
18 38 4518889
18 26 11667820
18 37 4518889
11 30 15149396
44 49 3741347
14 15 14441620
55 64 3747280
55 50 4604527
88 8 5555617
26 65 17920558
26 46 17920558
26 24 18430205
26 57 17920798
3 15 6831251
57 52 17206038
65 26 4426254
48 2 3825060
87 21 3826583
2 48 3827790
84 88 9947266
85 66 3830092
19 9 16963731
14 88 16524784
25 55 5563527
16 9 17559700
49 44 3918977
32 65 3978864
2 65 3980165
71 66 17835376
67 65 3984029
67 54 18497001
52 65 3987428
17 65 3988522
52 84 17567884
84 65 8677435
18 8 3999206
51 38 10217628
60 38 4262327
46 66 4010761
38 54 4198595
54 60 18430193
35 43 4247806
50 52 17063333
88 14 18403558
50 67 4417764
14 33 18430340
38 60 4259822
84 52 17313163
2 14 4327510
24 46 18354650
55 84 4342666
55 63 4342666
55 17 4342666
35 56 5118730
56 35 4348669
88 61 15396717
18 4 4412266
44 14 17811461
44 33 4419199
44 13 4419199
25 11 17206527
66 69 14631975
66 7 17567807
66 59 17567807
66 21 17567807
4 18 4428855
35 85 15648283
85 16 17162642
85 9 4877585
1 61 4455382
87 63 4495824
61 1 4502793
43 14 4505509
85 24 4506116
4 32 5217327
63 65 4510735
63 24 4510837
71 8 17835376
33 14 14785660
83 85 13488995
48 85 4582346
62 88 10815677
55 70 4604527
14 56 4608246
77 49 13595999
49 77 11770541
48 49 17904678
48 15 17725239
32 55 4885904
26 49 4934767
66 58 5120040
30 60 18356616
86 14 5022758
44 60 7979625
52 37 5037655
71 30 16103750
32 25 17203707
67 60 5111094
35 16 17909822
35 25 17151307
87 35 16609904
83 8 5131589
83 62 5131589
83 46 5131589
83 24 18160857
83 65 5131589
83 50 5131589
83 37 5131589
83 63 5131589
83 86 5131589
37 60 5205140
4 24 5214996
4 58 5215443
4 53 17748605
4 56 5217534
24 4 5217585
4 87 5217964
4 1 18426044
4 12 6687617
58 4 5224929
32 4 5400378
87 4 5446601
43 2 18242103
43 37 5455846
9 16 17754553
30 55 5465500
16 54 5465793
65 57 5465986
67 32 14692433
78 37 5469167
32 67 5470214
88 35 5474103
38 32 5474490
61 60 17287640
23 46 10902078
23 9 9204591
88 2 5542759
2 88 5545123
61 16 14709928
88 78 5550802
88 86 5551552
88 39 12463416
25 67 5553963
61 88 5554741
67 25 17307468
88 66 5555240
49 85 12541124
87 39 9098455
49 83 5556043
49 23 12538830
49 63 5556706
49 17 5556814
49 71 5556862
49 66 5556921
46 23 11089255
35 26 17137461
26 35 17565557
39 88 12463537
19 16 16963731
23 39 9096598
26 51 9255517
85 4 6746129
12 4 6676846
48 60 12359034
4 85 17748605
58 30 17308174
60 48 13572915
56 4 6670260
62 60 10815677
62 7 10815677
62 5 10815677
62 49 10815677
62 21 10815677
62 44 10815677
62 81 10815677
62 69 10815677
62 30 10815677
49 15 12907117
22 88 17211795
80 56 7793002
80 67 7793002
80 49 17061302
80 50 15155455
1 4 16941903
85 83 14464241
77 3 6845016
35 46 15395311
11 60 9952547
37 18 14017889
37 46 14017889
37 53 14014949
37 51 6934527
37 38 14014949
37 26 14014949
37 4 14014949
37 27 6934527
22 3 16016579
33 26 6943456
4 37 17748605
60 23 17724226
60 59 6946145
60 72 6946145
60 62 17724226
60 5 6946145
60 49 18435790
60 68 6946145
60 44 17064038
60 71 6946145
4 49 9031742
26 27 17200392
25 68 7189231
30 12 7191169
24 87 7210233
30 23 15670257
30 7 7264962
30 72 7264962
30 62 7264962
30 5 7264962
30 49 7264962
30 21 10899274
30 68 7264962
30 44 14186951
30 81 7264962
30 71 17721353
25 80 18413050
24 21 7273813
49 70 15920358
24 56 7363798
56 24 7364427
56 43 15396646
60 25 17150414
60 11 7379351
80 39 11072452
25 48 9788338
39 60 7454988
54 78 15305688
54 53 7518427
54 44 7518427
54 37 7518427
2 78 7530269
60 43 7535008
25 64 17232854
66 8 18329318
14 11 10814024
43 63 7805338
21 49 7810131
48 11 13668538
53 37 7885512
24 35 9784996
49 4 8160303
49 56 14011452
49 87 12468573
49 58 10550037
32 49 17735533
85 29 7881014
46 55 7886971
50 24 17729998
35 24 15660875
39 1 14178347
56 49 15234388
61 43 7967390
44 11 9084498
43 61 13140977
87 49 11603152
55 4 7994235
39 12 8044179
48 61 15783068
85 61 8050848
60 12 8079013
23 57 8149090
57 23 8149791
57 27 8152605
23 25 17207584
56 54 8392915
48 40 8404215
35 64 9175062
35 1 11675367
48 57 8733955
54 63 18156833
33 46 8477231
25 23 8498344
57 48 8740318
52 60 8480922
60 52 8485785
87 25 17198886
25 87 8491718
35 33 15926393
50 17 8586010
35 65 8649845
50 65 17122890
54 2 15122184
62 52 18247199
1 35 16943002
30 11 8677001
26 25 17202352
37 56 8735952
25 26 16602150
23 35 14097363
43 40 9078890
48 50 8756475
50 48 8757765
8 71 11580275
1 25 17282394
1 85 17140325
35 23 14694632
80 23 8996778
80 62 8996778
44 1 9003920
1 44 9008877
43 11 9017849
50 11 9018176
35 11 9018954
23 11 9020192
54 14 9252183
11 43 9085877
62 29 9086238
11 48 13677461
11 50 9086727
11 35 9086738
11 23 9086802
11 44 9086851
35 22 9091771
43 39 9096282
80 11 9097440
39 43 9099112
39 37 9100706
14 54 16424457
11 61 17633585
29 1 9165189
61 11 16506813
23 1 9171686
30 63 9172240
4 55 9175754
22 11 9179160
14 13 18238506
14 44 18356025
83 23 9203016
62 1 9252118
49 11 16425849
23 55 9634330
15 70 9681317
16 1 9682846
46 1 9688466
11 49 16472218
35 39 9771126
62 11 9771150
24 50 10560302
43 16 17041600
71 23 14801761
71 87 9875301
9 17 9882266
35 21 10835421
35 87 10835421
35 58 10835421
35 30 10835421
85 37 9958314
85 30 12274080
25 44 9961032
18 63 9961655
30 35 10899274
49 86 14805435
1 39 18266835
35 49 10551092
51 46 10217628
51 27 10217628
51 37 10217628
24 83 18155290
18 71 10297451
77 86 10305296
86 15 10384217
35 9 17054895
35 63 10380302
35 17 10380302
25 24 10399324
37 85 10478605
29 62 14461797
49 30 10549534
49 21 10549987
49 35 10550178
30 67 17118112
88 79 10558510
67 30 10562074
71 60 14801761
71 7 14801761
71 62 14801761
71 21 14801761
71 44 14801761
71 81 14801761
71 88 14801761
1 18 11857719
80 1 10586921
18 1 10808564
0 1 17716875
0 64 14537964
14 16 17904755
25 77 15737810
30 87 10899274
30 58 13509496
87 30 12543694
22 29 10906878
31 68 10908337
56 50 10987803
43 54 10993281
85 53 17212782
61 31 11078608
61 68 11078608
61 37 11078608
61 77 11078608
52 50 17554348
80 32 17205226
80 41 11177153
80 76 11185989
17 8 11581556
26 85 11615050
26 18 15310408
83 39 12812368
39 83 11678575
32 54 15663721
44 66 11766628
52 17 17567884
32 61 11849910
29 61 11850125
8 61 11851040
52 61 15309717
58 71 17838805
9 61 11942576
2 54 11943948
71 58 14801761
71 63 12367032
7 60 18494886
57 84 12209017
57 50 17742582
57 17 12209017
36 60 12222392
0 71 18321572
58 60 14700101
11 58 14100433
35 61 17571779
23 87 12473072
49 12 12541124
12 49 12475067
53 60 12559003
18 13 14013074
70 0 18409404
51 39 12825267
25 15 12827921
39 51 12878100
61 67 12884686
44 30 17728725
78 39 12900992
49 50 13163982
50 49 17557145
77 52 17560610
52 77 17554730
17 52 13077227
71 0 17995438
82 0 18491061
39 24 15236853
84 17 13425167
24 39 13746634
54 25 17202899
25 54 13488532
54 23 13495827
30 39 13509496
63 84 13512562
12 11 18261076
9 8 13655300
9 58 13655300
48 30 13668538
30 48 13669577
11 12 13677788
17 18 13681390
22 37 13682805
50 80 13698596
78 54 13744820
52 4 13768980
52 67 16943805
0 82 18321863
61 38 14093631
9 15 14095672
0 39 18321572
77 9 15672715
49 46 14112730
3 22 17823736
49 14 14191873
70 85 14193307
67 44 14194877
67 19 14197735
77 16 17548836
48 63 18244431
46 26 17921779
16 19 16440220
29 23 14461797
29 7 14461797
29 59 14461797
29 5 14461797
29 66 14461797
29 21 14461797
29 44 14461797
29 81 14461797
29 30 14461797
29 88 14461797
71 17 17835376
8 60 14618251
46 49 14628608
17 84 14638768
43 83 14715146
83 43 14725156
33 35 15938697
18 17 14797512
60 61 14798378
4 22 17818537
4 35 16001478
4 26 18426044
4 11 18426133
2 44 15228465
4 84 18426133
48 84 15230361
39 23 15236853
26 61 15301476
35 4 15994858
35 57 15310739
84 4 15657876
11 4 16609063
63 61 15389416
46 61 15390612
19 89 15391320
17 61 15921953
4 3 18426044
12 61 15401110
18 61 15402495
18 66 15407701
26 4 17560773
35 60 15659351
4 62 15662158
61 54 15905342
17 9 15748756
64 49 15753492
61 48 15821968
77 73 18265196
49 53 15907324
24 11 15914448
4 61 15917665
54 17 16003882
23 8 16010063
22 15 16444508
30 3 16446445
23 29 16533149
58 44 16538004
80 52 16947551
57 49 16972953
1 19 16974591
46 4 18430512
9 19 17046800
52 49 17050572
11 25 17207886
50 54 18159169
43 25 17153965
52 25 17200045
37 25 17201886
53 25 17202007
46 25 17203077
24 25 17205177
30 25 17205845
56 25 17206845
24 49 17916610
57 25 17211063
22 25 17211983
8 25 17221117
57 54 18263135
54 57 17569812
12 48 17228206
25 89 17232854
60 56 17286978
44 25 18246010
25 30 17292725
58 8 17308174
76 49 17553362
76 52 17553460
49 76 17562863
87 61 17566916
44 61 17568672
84 49 17572018
49 84 17580446
46 24 17918966
82 39 18404820
88 19 17715382
39 82 18413213
63 49 17739433
22 60 17749638
22 4 17808088
60 53 17809252
60 51 17809252
73 77 17829160
3 4 17852599
66 86 17910686
46 57 17918966
57 39 18264374
2 39 18324467
32 48 18341300
49 57 18345172
48 32 18347406
17 63 18436442
7 23 18494886
7 62 18494886
7 44 18494886
2 24 18495898
