11 39 28109445
48 54 31221522
69 60 13052631
33 84 22146466
54 48 31022094
57 24 28957002
57 26 28957002
57 65 20152026
22 54 29756550
48 22 22792
4 38 30637554
25 71 25129
69 30 13051989
83 56 30276085
60 16 31228211
60 22 31136311
16 60 29327146
16 22 29929
24 57 29211483
29 60 16000627
69 66 875483
69 21 875483
65 54 4946582
39 54 92562
39 64 92968
14 77 25352559
61 56 22919497
38 4 31216792
54 65 8486445
70 80 31477225
66 4 212898
85 64 31425191
24 54 28534194
65 24 14221845
48 24 31477402
60 21 29275872
0 89 14175276
54 67 29033455
57 35 26641883
23 60 25332819
23 7 25332819
23 59 25332819
23 62 27510086
23 5 25332819
23 66 25332819
23 21 25332819
23 44 25332819
23 81 15674976
23 69 25332819
23 30 25332819
23 88 25332819
24 65 8676607
49 60 27944974
25 49 26547877
65 35 195787
54 24 30272063
54 16 28699372
16 35 26026876
87 56 27851759
25 14 20071553
14 25 30420425
49 25 26122228
23 58 30270232
60 7 6946145
60 69 13055562
60 15 31474117
85 25 28953128
85 1 30443209
85 19 28953128
85 35 30563334
33 3 17931883
25 85 28702651
85 39 28953128
48 25 29651308
64 1 28700511
64 19 12539086
19 64 28103949
19 1 26287185
54 49 28431751
38 53 290078
77 14 26015678
83 80 296102
83 82 3219489
1 83 30174921
88 60 27826846
88 15 31216793
1 64 28963097
48 51 360808
55 80 7892099
43 56 29570529
43 67 28631240
43 49 22743700
43 55 21285579
43 50 21354570
43 80 30854580
70 19 31127026
55 43 1394543
80 25 30630343
80 83 367694
12 55 368300
29 49 14461797
49 43 31484738
57 7 19890271
57 80 26890503
69 81 379254
35 88 27917455
84 33 2702597
84 54 387829
83 1 30509590
50 43 21352379
16 61 13752180
61 35 631578
48 67 27136418
83 25 30275121
56 87 27766438
25 83 30276478
24 48 31478016
9 43 714643
69 23 875483
69 35 723708
43 9 1226134
49 67 31126619
35 69 720095
87 84 7810195
87 23 15734841
87 46 19963176
87 33 722186
67 49 27151895
49 29 5556634
25 1 28702651
35 83 26291622
61 29 794282
80 55 7793002
87 1 19550969
67 48 8562085
48 78 29759498
38 69 810615
80 69 810774
80 70 29843398
14 35 31048868
43 69 872934
19 25 17201856
19 85 16963731
19 35 29423151
35 19 29558178
55 69 883692
48 12 29218315
16 49 26558527
49 16 19125627
85 46 30474326
83 64 18876150
83 19 14197644
83 87 27419043
85 65 901458
88 25 31045190
77 61 17736962
60 14 1134666
14 60 27751246
61 57 1137200
57 61 11854737
60 88 20745154
54 61 1137917
4 66 1249975
25 35 29846106
85 31 28953128
25 16 30358157
65 50 1237701
60 54 28108100
58 84 1245595
58 23 24498058
58 11 23885749
58 66 17308174
55 25 7440884
80 12 1255027
58 39 17308174
58 85 1260190
52 62 31129445
16 32 4118265
16 4 13768847
16 15 29241943
49 32 18870265
49 54 31206891
49 52 19045568
49 48 29671442
67 43 28691360
80 43 30620131
25 19 28702651
32 80 17030732
46 85 30451685
4 16 13764306
87 83 25603167
39 11 26798443
70 24 1391696
24 70 1392149
14 86 5118111
43 30 1411602
25 2 1411912
46 65 17918966
4 67 1483133
55 49 5558609
49 55 31126619
54 50 19106688
1 88 1490960
65 46 3822221
35 14 31209744
19 70 28521706
32 16 1737801
57 46 27848797
57 87 19890271
16 88 1749870
25 78 21358928
78 25 1754394
51 26 13484592
4 46 18426838
77 88 17210781
1 58 1829107
88 77 1832301
8 66 20842834
8 17 29293278
77 15 26887129
54 32 20070293
54 52 30864516
83 4 1845131
16 64 19030441
88 16 17443968
25 88 31048124
52 57 31197776
80 57 19384943
83 35 27223439
63 54 30946565
4 83 2013799
55 11 2023310
48 65 6587556
11 55 3989052
16 25 29154461
77 25 23255640
25 60 30870542
46 18 21354145
65 48 2440567
11 86 2472169
11 78 2691820
70 55 2532861
78 11 2694023
88 54 29729475
54 88 29729813
43 60 30349075
24 58 2612603
55 32 7894455
24 26 30007550
43 70 22478473
48 43 20143756
58 24 2627717
70 43 22489986
39 80 27480364
58 68 2690670
58 21 24308822
58 81 2691143
58 64 2691316
21 60 29313343
21 62 2691596
21 5 2691596
21 66 11850326
21 44 16943895
21 81 2691596
21 30 12898184
21 88 2691596
77 43 27500299
43 77 29301914
64 58 2945579
66 71 19629326
4 64 6670574
66 60 21359246
66 62 17567807
66 5 17567807
66 44 17567807
66 81 17567807
66 30 17567807
66 88 17567807
49 80 31126619
43 48 3031395
49 64 26540442
60 67 21899410
85 88 3121743
77 60 31480614
60 77 31478416
30 69 7264962
21 55 3130045
25 4 3148331
4 25 20765642
60 66 23001038
44 22 3216827
49 78 25418160
56 83 20744384
85 87 31049687
63 17 28387545
52 54 30865792
62 23 28628913
62 66 20060183
64 16 30267455
22 44 3312457
0 70 29726533
88 84 5550917
64 85 31193678
87 85 31035743
57 67 3819441
54 22 29754985
50 57 17056725
60 30 29044229
60 29 26572618
3 67 3683960
30 66 24473854
18 46 31460654
18 53 31460654
18 38 31460654
18 26 31460654
18 37 31460654
11 30 15149396
44 49 26292178
14 15 28705444
55 64 3747280
55 50 4604527
88 8 5555617
26 65 17920558
26 46 31035208
26 24 31035208
26 57 31035208
3 15 6831251
57 52 30867702
65 26 4426254
48 2 3825060
87 21 3826583
2 48 3827790
84 88 9947266
85 66 3830092
19 9 16963731
14 88 31201462
25 55 5563527
16 9 30874324
49 44 24227105
32 65 3978864
2 65 3980165
71 66 31213430
67 65 3984029
67 54 29039913
52 65 3987428
17 65 3988522
52 84 19544244
84 65 8677435
18 8 3999206
51 38 10217628
60 38 4262327
46 66 4010761
38 54 4198595
54 60 30868905
35 43 4247806
50 52 17063333
88 14 31197375
50 67 4417764
14 33 30863051
38 60 4259822
84 52 22482773
2 14 29304742
24 46 29211483
55 84 4342666
55 63 4342666
55 17 4342666
35 56 31117415
56 35 4348669
88 61 15396717
18 4 31460723
44 14 26032229
44 33 4419199
44 13 26630940
25 11 28615877
66 69 14631975
66 7 30532042
66 59 29724784
66 21 17567807
4 18 4428855
35 85 30594906
85 16 29223002
85 9 28953128
1 61 4455382
87 63 22148215
61 1 4502793
43 14 4505509
85 24 4506116
4 32 30608348
63 65 4510735
63 24 4510837
71 8 31213430
33 14 30600858
83 85 13488995
48 85 4582346
62 88 20060183
55 70 4604527
14 56 4608246
77 49 29752963
49 77 29751205
48 49 28639840
48 15 28639840
32 55 24564525
26 49 4934767
66 58 5120040
30 60 29060732
86 14 5022758
44 60 31217385
52 37 30863864
71 30 31047085
32 25 28618736
67 60 5111094
35 16 29048861
35 25 31037250
87 35 20233688
83 8 5131589
83 62 5131589
83 46 5131589
83 24 18160857
83 65 5131589
83 50 5131589
83 37 5131589
83 63 5131589
83 86 5131589
37 60 5205140
4 24 5214996
4 58 31211675
4 53 17748605
4 56 5217534
24 4 5217585
4 87 5217964
4 1 20592159
4 12 23266709
58 4 30525038
32 4 30606179
87 4 5446601
43 2 29570578
43 37 29572524
9 16 30879011
30 55 5465500
16 54 29148819
65 57 5465986
67 32 27151568
78 37 5469167
32 67 27490763
88 35 27850100
38 32 5474490
61 60 17287640
23 46 21355076
23 9 27778275
88 2 5542759
2 88 5545123
61 16 14709928
88 78 21263272
88 86 30592784
88 39 27825932
25 67 5553963
61 88 5554741
67 25 22482396
88 66 5555240
49 85 12541124
87 39 19884971
49 83 25934465
49 23 24227105
49 63 19883268
49 17 5556814
49 71 5556862
49 66 24227105
46 23 21354160
35 26 30443444
26 35 31035208
39 88 21183227
19 16 26628939
23 39 21204398
26 51 19890609
85 4 22129507
12 4 22568512
48 60 31023425
4 85 28630276
58 30 17308174
60 48 13572915
56 4 6670260
62 60 31129466
62 7 20060183
62 5 20060183
62 49 20060183
62 21 20060183
62 44 20060183
62 81 20060183
62 69 20060183
62 30 20060183
49 15 28608994
22 88 28366012
80 56 7793002
80 67 29226230
80 49 31477974
80 50 15155455
1 4 20589048
85 83 28953128
77 3 6845016
35 46 29224954
11 60 29777238
37 18 30246005
37 46 14017889
37 53 20490287
37 51 6934527
37 38 20490287
37 26 20490287
37 4 20490287
37 27 6934527
22 3 16016579
33 26 6943456
4 37 17748605
60 23 22153144
60 59 21807664
60 72 6946145
60 62 27928303
60 5 6946145
60 49 28035359
60 68 6946145
60 44 31474840
60 71 6946145
4 49 20153096
26 27 31035208
25 68 7189231
30 12 7191169
24 87 7210233
30 23 21350769
30 7 7264962
30 72 7264962
30 62 7264962
30 5 7264962
30 49 7264962
30 21 10899274
30 68 7264962
30 44 29061849
30 81 7264962
30 71 22829157
25 80 31129512
24 21 7273813
49 70 15920358
24 56 7363798
56 24 7364427
56 43 26626657
60 25 17150414
60 11 22434049
80 39 29058835
25 48 29648089
39 60 21183227
54 78 15305688
54 53 7518427
54 44 7518427
54 37 7518427
2 78 7530269
60 43 28110155
25 64 28702651
66 8 29724784
14 11 10814024
43 63 7805338
21 49 26303275
48 11 13668538
53 37 7885512
24 35 29211483
49 4 20153351
49 56 31126619
49 87 12468573
49 58 10550037
32 49 18870664
85 29 7881014
46 55 7886971
50 24 17729998
35 24 27706856
39 1 28522263
56 49 27482861
61 43 7967390
44 11 9084498
43 61 13140977
87 49 11603152
55 4 7994235
39 12 8044179
48 61 15783068
85 61 8050848
60 12 30254251
23 57 8149090
57 23 8149791
57 27 27168585
23 25 17207584
56 54 8392915
48 40 8404215
35 64 29048861
35 1 29048861
48 57 29557840
54 63 31030192
33 46 8477231
25 23 8498344
57 48 8740318
52 60 23254475
60 52 21899410
87 25 17198886
25 87 8491718
35 33 15926393
50 17 8586010
35 65 8649845
50 65 17122890
54 2 15122184
62 52 31128562
1 35 28963097
30 11 8677001
26 25 29821636
37 56 8735952
25 26 29823009
23 35 21789424
43 40 9078890
48 50 8756475
50 48 8757765
8 71 20842834
1 25 28963097
1 85 30446862
35 23 21793365
80 23 26896899
80 62 8996778
44 1 9003920
1 44 9008877
43 11 9017849
50 11 9018176
35 11 9018954
23 11 9020192
54 14 9252183
11 43 9085877
62 29 9086238
11 48 13677461
11 50 9086727
11 35 9086738
11 23 20585903
11 44 9086851
35 22 9091771
43 39 9096282
80 11 9097440
39 43 9099112
39 37 9100706
14 54 23859295
11 61 17633585
29 1 9165189
61 11 16506813
23 1 24639771
30 63 21350769
4 55 9175754
22 11 9179160
14 13 30863051
14 44 29224765
83 23 9203016
62 1 24390011
49 11 16425849
23 55 9634330
15 70 9681317
16 1 9682846
46 1 9688466
11 49 26281552
35 39 30459781
62 11 9771150
24 50 19114149
43 16 17041600
71 23 22396045
71 87 9875301
9 17 9882266
35 21 10835421
35 87 10835421
35 58 10835421
35 30 19116713
85 37 19978392
85 30 28953128
25 44 20069650
18 63 9961655
30 35 19099600
49 86 14805435
1 39 21802703
35 49 23787139
51 46 10217628
51 27 10217628
51 37 10217628
24 83 27242228
18 71 10297451
77 86 10305296
86 15 10384217
35 9 29048861
35 63 10380302
35 17 10380302
25 24 10399324
37 85 10478605
29 62 14461797
49 30 24227105
49 21 24227105
49 35 23790539
30 67 17118112
88 79 10558510
67 30 10562074
71 60 22396045
71 7 27586788
71 62 22396045
71 21 22396045
71 44 22396045
71 81 14801761
71 88 14801761
1 18 11857719
80 1 10586921
18 1 10808564
0 1 30603334
0 64 28712501
14 16 28030802
25 77 23267066
30 87 10899274
30 58 19099600
87 30 12543694
22 29 26546960
31 68 10908337
56 50 10987803
43 54 28700062
85 53 17212782
61 31 11078608
61 68 11078608
61 37 11078608
61 77 11078608
52 50 23768240
80 32 28980002
80 41 11177153
80 76 30337381
17 8 11581556
26 85 11615050
26 18 19890609
83 39 30606532
39 83 30604109
32 54 22995593
44 66 31217385
52 17 31388377
32 61 11849910
29 61 11850125
8 61 11851040
52 61 15309717
58 71 17838805
9 61 11942576
2 54 21778826
71 58 31213430
71 63 12367032
7 60 22470737
57 84 12209017
57 50 17742582
57 17 19890271
36 60 12222392
0 71 31208817
58 60 14700101
11 58 23880320
35 61 17571779
23 87 12473072
49 12 12541124
12 49 12475067
53 60 12559003
18 13 14013074
70 0 31127026
51 39 12825267
25 15 12827921
39 51 12878100
61 67 12884686
44 30 31217385
78 39 12900992
49 50 31126619
50 49 31232207
77 52 17560610
52 77 17554730
17 52 31204060
71 0 31213430
82 0 31203930
39 24 19466995
84 17 20252633
24 39 19380637
54 25 22389915
25 54 13488532
54 23 13495827
30 39 19099600
63 84 13512562
12 11 18261076
9 8 13655300
9 58 13655300
48 30 13668538
30 48 13669577
11 12 27259401
17 18 13681390
22 37 13682805
50 80 13698596
78 54 13744820
52 4 13768980
52 67 16943805
0 82 30418425
61 38 14093631
9 15 14095672
0 39 30418424
77 9 15672715
49 46 14112730
3 22 17823736
49 14 26542301
70 85 14193307
67 44 14194877
67 19 14197735
77 16 30939514
48 63 31043353
46 26 23867347
16 19 26564585
29 23 14461797
29 7 14461797
29 59 14461797
29 5 14461797
29 66 14461797
29 21 14461797
29 44 14461797
29 81 14461797
29 30 14461797
29 88 14461797
71 17 19452747
8 60 14618251
46 49 14628608
17 84 14638768
43 83 14715146
83 43 14725156
33 35 15938697
18 17 14797512
60 61 19102789
4 22 17818537
4 35 16001478
4 26 18764230
4 11 24215357
2 44 15228465
4 84 19888148
48 84 15230361
39 23 31211150
26 61 15301476
35 4 15994858
35 57 27395548
84 4 19546603
11 4 24198397
63 61 15389416
46 61 15390612
19 89 15391320
17 61 15921953
4 3 18426044
12 61 15401110
18 61 15402495
18 66 15407701
26 4 18846968
35 60 15659351
4 62 15662158
61 54 15905342
17 9 15748756
64 49 26533587
61 48 15821968
77 73 31122074
49 53 15907324
24 11 15914448
4 61 15917665
54 17 16003882
23 8 25332819
22 15 16444508
30 3 16446445
23 29 25332819
58 44 16538004
80 52 16947551
57 49 16972953
1 19 16974591
46 4 18430512
9 19 17046800
52 49 18927888
11 25 28653801
50 54 21373291
43 25 19389390
52 25 28626463
37 25 17201886
53 25 17202007
46 25 23681770
24 25 17205177
30 25 19099600
56 25 31125538
24 49 21707542
57 25 17211063
22 25 17211983
8 25 17221117
57 54 22663696
54 57 22725065
12 48 29215491
25 89 28702651
60 56 31048520
44 25 18246010
25 30 17292725
58 8 17308174
76 49 17553362
76 52 31199317
49 76 17562863
87 61 17566916
44 61 17568672
84 49 17572018
49 84 17580446
46 24 26978350
82 39 28342224
88 19 19645518
39 82 19467112
63 49 21790874
22 60 19455967
22 4 17808088
60 53 17809252
60 51 17809252
73 77 29318104
3 4 17852599
66 86 17910686
46 57 17918966
57 39 19890271
2 39 18324467
32 48 18341300
49 57 18345172
48 32 18347406
17 63 20581649
7 23 22470737
7 62 22470737
7 44 22470737
2 24 30525020
60 73 28714103
24 7 27762443
1 16 28106033
26 39 18755858
39 26 18765104
73 60 28953770
26 30 20067270
7 88 23614484
73 49 18839728
50 84 18782449
49 73 28957403
7 43 18841042
7 71 22470737
7 57 23703743
14 61 18844670
87 0 18852969
88 44 18863414
87 82 20760949
39 87 21285122
24 2 19631392
9 63 31202653
14 48 23865347
14 51 24830342
64 73 19039134
73 64 19039600
30 78 19099600
30 46 19099600
30 9 21350769
30 26 19386215
30 80 19968034
30 17 21350769
0 72 19101354
2 43 30525020
84 63 20081638
54 73 30870872
50 63 19626518
80 24 19634762
2 63 19443817
21 58 24309311
70 56 19453633
80 73 19972388
87 24 19543867
7 25 19547426
24 80 19638191
57 66 19890271
57 83 19890271
26 53 19890609
26 38 19890609
26 37 19890609
39 57 19892472
87 57 19892717
43 59 19897643
46 87 19969212
52 63 20500246
73 80 19972919
85 7 28953128
25 62 20224595
85 44 30564349
60 8 20233874
30 84 20246909
1 24 21379124
24 1 20253263
73 16 30873232
73 54 29046437
57 63 20491781
76 57 20588938
14 73 26198274
64 0 21181827
16 73 29327146
35 66 20839148
35 59 20839242
35 71 20839148
67 63 21348454
23 71 24983925
16 85 28971157
35 48 21277117
35 84 21364963
39 8 21183227
39 7 21183227
39 62 21183227
39 66 21183227
39 35 30505192
39 71 21183227
39 30 21183227
71 46 21203741
48 35 21272330
73 24 21275745
44 4 21280813
30 85 21350769
30 13 21350769
46 71 21354177
84 35 21358288
85 73 28613211
73 85 21360918
4 44 21466254
11 73 21741241
73 11 29037498
80 54 22063670
17 54 21892782
88 73 31216793
54 15 22553148
52 16 22151693
16 52 22154518
48 4 31049640
44 73 22580943
70 25 22391102
77 48 22399977
4 48 31053706
7 59 22470737
7 66 22470737
77 54 28605451
25 12 26207541
25 39 22576658
57 76 28964329
73 44 22581782
25 73 27324178
73 25 22582720
23 54 22669568
85 0 29214825
80 46 23099675
46 80 23183596
4 14 28629315
24 27 29211483
88 7 23678295
25 46 23720834
48 73 29763932
52 73 29827616
48 14 23859911
73 14 23950095
14 4 28474701
87 19 24143904
49 7 24227105
49 62 24227105
49 88 24227105
80 35 30521788
35 80 30516871
33 49 24484559
49 33 24484778
14 49 30516395
1 23 24638588
8 1 24655194
1 8 24668466
73 88 30419761
51 14 24826263
58 83 24907229
83 58 24916916
26 58 25431179
58 26 25425744
26 21 25594073
9 23 30939727
85 6 25675016
83 49 25946719
11 85 26014195
85 11 25954113
57 30 26105652
80 64 26896920
80 85 26036997
80 30 26036997
30 57 26099806
23 49 26123588
19 87 26287185
0 19 26790430
35 0 26545302
25 56 26621350
71 64 26707600
2 49 26724025
25 52 28625482
57 43 26890503
80 59 26896903
80 17 26896922
80 87 27145491
67 52 27151568
52 76 31197776
12 54 27750676
39 76 27480364
54 12 27748961
64 87 27762054
26 7 27764569
12 60 30258142
88 13 27832398
13 88 27918504
88 52 28014535
67 53 27927374
67 37 27927374
80 0 27936737
16 14 28023895
24 63 28352957
80 4 28364855
4 80 28366444
39 18 28522263
39 63 28522263
18 39 28523176
54 77 28602421
33 73 28614058
54 43 28700263
38 85 28702464
25 9 28702651
43 44 28702833
44 43 28707552
18 85 31460654
18 27 31460654
85 23 28953128
85 21 28953128
85 27 28953128
85 58 28953128
1 9 28959925
1 89 30978387
73 52 29827105
2 51 29041459
77 81 29059010
37 22 29217539
22 56 29217739
56 22 29218582
35 27 29225147
35 7 29296928
52 48 30515833
48 52 30560088
48 17 29557840
17 83 29665751
71 83 29749217
83 71 29825862
83 17 29825862
73 48 29820842
52 32 30453274
54 76 30272063
32 52 30461884
33 13 30356456
88 30 30437711
30 88 30470660
44 85 30524840
76 80 30847434
37 52 30862672
57 73 30867708
52 78 31137695
57 78 30954075
78 52 31133798
89 25 30959095
89 64 30959095
89 85 30959095
89 1 30959095
89 35 30959095
48 26 30961117
26 48 30961459
58 25 31145797
25 58 31161035
43 82 31204334
70 82 31204587
2 82 31205014
76 82 31209297
73 82 31211070
44 8 31217385
44 23 31217385
44 7 31217385
44 59 31217385
44 62 31217385
44 21 31217385
44 58 31217385
44 88 31217385
86 88 31220703
38 82 31462242
