11 39 4236719
48 54 7468821
69 60 810121
33 84 7464667
54 48 7381840
57 24 7379018
57 26 7379018
57 65 5465291
22 54 3990870
48 22 22792
4 38 6844657
25 71 25129
69 30 875483
83 56 7040258
60 16 7191966
60 22 3994960
16 60 5462769
16 22 29929
24 57 4419410
29 60 7375778
69 66 875483
69 21 875483
65 54 4946582
39 54 92562
39 64 92968
14 77 187754
61 56 5556197
38 4 6841330
54 65 4350855
70 80 3122036
66 4 212898
85 64 4444984
24 54 1998446
65 24 4598043
48 24 6937969
60 21 6946145
0 89 177248
54 67 7350735
57 35 5130865
23 60 4849256
23 7 4849256
23 59 4849256
23 62 5550770
23 5 4849256
23 66 4849256
23 21 4849256
23 44 4849256
23 81 4849256
23 69 4849256
23 30 7288792
23 88 4849256
24 65 6589888
49 60 6680671
25 49 5563527
65 35 195787
54 24 7364215
54 16 3980533
16 35 199476
87 56 3666189
25 14 6748450
14 25 1395644
49 25 209770
23 58 7288792
60 7 6946145
60 69 2956513
60 15 7380137
85 25 4877585
85 1 4444984
85 19 4877585
85 35 4877585
33 3 290424
25 85 5125897
85 39 273287
48 25 7447331
64 1 4413344
64 19 283950
19 64 5640642
19 1 5640642
54 49 7350735
38 53 290078
77 14 291241
83 80 296102
83 82 3219489
1 83 350813
88 60 6938158
88 15 6685974
1 64 6926532
48 51 360808
55 80 7489583
43 56 5454927
43 67 7187500
43 49 5454927
43 55 5454927
43 50 5454927
43 80 6674520
70 19 5199118
55 43 1394543
80 25 7180183
80 83 367694
12 55 368300
29 49 1917577
49 43 2977610
57 7 377978
57 80 5034075
69 81 379254
35 88 385860
84 33 2702597
84 54 387829
83 1 7365373
50 43 3041403
16 61 1841300
61 35 631578
48 67 3825060
83 25 5131589
56 87 3293233
25 83 1259054
24 48 6938065
9 43 714643
69 23 875483
69 35 723708
43 9 1226134
49 67 6936730
35 69 720095
87 84 7206326
87 23 722186
87 46 5455976
87 33 722186
67 49 1316343
49 29 5556634
25 1 787273
35 83 787404
61 29 794282
80 55 7463079
87 1 3834497
67 48 7374702
48 78 1394142
38 69 810615
80 69 810774
80 70 7370147
14 35 7028231
43 69 872934
19 25 5640642
19 85 5640642
19 35 5640642
35 19 882527
55 69 883692
48 12 883852
16 49 901708
49 16 4332287
85 46 4267370
83 64 3220193
83 19 898450
83 87 7362411
85 65 901458
88 25 6935841
77 61 6930051
60 14 1134666
14 60 1137083
61 57 1137200
57 61 1137290
60 88 7376816
54 61 1137917
4 66 1249975
25 35 1145660
85 31 7351892
25 16 5462225
65 50 1237701
60 54 7461541
58 84 1245595
58 23 1466934
58 11 6593593
58 66 5133373
55 25 7440884
80 12 1255027
58 39 6593593
58 85 1260190
52 62 1301975
16 32 4118265
16 4 4118265
16 15 1315732
49 32 6936730
49 54 7367393
49 52 6936730
49 48 6936730
67 43 7199706
80 43 7370147
25 19 2003463
32 80 3825152
46 85 4946082
4 16 1347918
87 83 7362915
39 11 7370861
70 24 1391696
24 70 1392149
14 86 5118111
43 30 1411602
25 2 1411912
46 65 1426765
4 67 1483133
55 49 5558609
49 55 5559923
54 50 1490260
1 88 1490960
65 46 3822221
35 14 5121230
19 70 7437429
32 16 1737801
57 46 5031571
57 87 1745004
16 88 1749870
25 78 4970069
78 25 1754394
51 26 5110790
4 46 6670574
77 88 5471633
1 58 1829107
88 77 1832301
8 66 1832680
8 17 1832736
77 15 7463157
54 32 7350735
54 52 7350735
83 4 1845131
16 64 6930103
88 16 6685974
25 88 5645054
52 57 4257467
80 57 5037211
83 35 1941715
63 54 1999050
4 83 2013799
55 11 2023310
48 65 6587556
11 55 3989052
16 25 6686335
77 25 2365962
25 60 7465863
46 18 2426937
65 48 2440567
11 86 2472169
11 78 2691820
70 55 2532861
78 11 2694023
88 54 5542869
54 88 5545937
43 60 2607544
24 58 2612603
55 32 2614977
24 26 4419410
43 70 5454927
48 43 2621934
58 24 2627717
70 43 4926942
39 80 2682735
58 68 2690670
58 21 2690981
58 81 2691143
58 64 2691316
21 60 2691596
21 62 2691596
21 5 2691596
21 66 2691596
21 44 2691596
21 81 2691596
21 30 2691596
21 88 2691596
77 43 2694666
43 77 2707435
64 58 2945579
66 71 7263157
4 64 6670574
66 60 4427282
66 62 4427282
66 5 4427282
66 44 4427282
66 81 4427282
66 30 4427282
66 88 4427282
49 80 7466228
43 48 3031395
49 64 3036164
60 67 7205521
85 88 3121743
77 60 7195851
60 77 4849574
30 69 7264962
21 55 3130045
25 4 3148331
4 25 3154760
60 66 6946145
44 22 3216827
49 78 3230194
56 83 6670612
85 87 3296944
63 17 6936484
52 54 7352395
62 23 6672652
62 66 6672652
64 16 6938554
22 44 3312457
0 70 3633883
88 84 5550917
64 85 3654352
87 85 4586596
57 67 3819441
54 22 3658331
50 57 3658525
60 30 7202920
60 29 6946145
3 67 3683960
30 66 7264962
18 46 4518889
18 53 4518889
18 38 4518889
18 26 6770315
18 37 4518889
11 30 3737415
44 49 3741347
14 15 3744095
55 64 3747280
55 50 4604527
88 8 5555617
26 65 5015198
26 46 7176277
26 24 7176277
26 57 7176277
3 15 6831251
57 52 4253809
65 26 4426254
48 2 3825060
87 21 3826583
2 48 3827790
84 88 3828947
85 66 3830092
19 9 5640642
14 88 6748624
25 55 5563527
16 9 3917781
49 44 3918977
32 65 3978864
2 65 3980165
71 66 5547271
67 65 3984029
67 54 7266246
52 65 3987428
17 65 3988522
52 84 4266304
84 65 3996451
18 8 3999206
51 38 4005011
60 38 4262327
46 66 4010761
38 54 4198595
54 60 7462901
35 43 4247806
50 52 4249900
88 14 6744834
50 67 4417764
14 33 6867595
38 60 4259822
84 52 7450161
2 14 4327510
24 46 4419410
55 84 4342666
55 63 4342666
55 17 4342666
35 56 5118730
56 35 4348669
88 61 5550695
18 4 4412266
44 14 4419199
44 33 4419199
44 13 4419199
25 11 4421087
66 69 4427275
66 7 4427282
66 59 4427282
66 21 4427282
4 18 4428855
35 85 4501644
85 16 4877585
85 9 4877585
1 61 4455382
87 63 4495824
61 1 4502793
43 14 4505509
85 24 4506116
4 32 5217327
63 65 4510735
63 24 4510837
71 8 5546501
33 14 5030973
83 85 6581855
48 85 4582346
62 88 6672652
55 70 4604527
14 56 4608246
77 49 4849872
49 77 4846642
48 49 4864304
48 15 4864304
32 55 4885904
26 49 4934767
66 58 5120040
30 60 7375297
86 14 5022758
44 60 5033268
52 37 5037655
71 30 5547128
32 25 6709371
67 60 5111094
35 16 5119285
35 25 6837142
87 35 5130653
83 8 5131589
83 62 5131589
83 46 5131589
83 24 5131589
83 65 5131589
83 50 5131589
83 37 5131589
83 63 5131589
83 86 5131589
37 60 5205140
4 24 5214996
4 58 5215443
4 53 6670407
4 56 5217534
24 4 5217585
4 87 5217964
4 1 6849075
4 12 6687617
58 4 5224929
32 4 5400378
87 4 5446601
43 2 5455846
43 37 5455846
9 16 5465135
30 55 5465500
16 54 5465793
65 57 5465986
67 32 6929896
78 37 5469167
32 67 5470214
88 35 5474103
38 32 5474490
61 60 5534953
23 46 5643969
23 9 7366741
88 2 5542759
2 88 5545123
61 16 5545687
88 78 5550802
88 86 5551552
88 39 5551890
25 67 5553963
61 88 5554741
67 25 5555067
88 66 5555240
49 85 5555950
87 39 5556000
49 83 5556043
49 23 5556397
49 63 5556706
49 17 5556814
49 71 5556862
49 66 5556921
46 23 5568233
35 26 6860901
26 35 7176368
39 88 5634659
19 16 5640642
23 39 5643857
26 51 6579714
85 4 6746129
12 4 6676846
48 60 7358310
4 85 6670825
58 30 6593593
60 48 6594784
56 4 6670260
62 60 6672652
62 7 6672652
62 5 6672652
62 49 6672652
62 21 6672652
62 44 6672652
62 81 6672652
62 69 6672652
62 30 6672652
49 15 6675953
22 88 6765685
80 56 7370147
80 67 7370147
80 49 7465727
80 50 7370147
1 4 6840073
85 83 6843881
77 3 6845016
35 46 6860901
11 60 7462704
37 18 6934527
37 46 6934527
37 53 6934527
37 51 6934527
37 38 6934527
37 26 6934527
37 4 6934527
37 27 6934527
22 3 6939748
33 26 6943456
4 37 6944111
60 23 7361777
60 59 6946145
60 72 6946145
60 62 7361777
60 5 6946145
60 49 6946145
60 68 6946145
60 44 6946145
60 71 6946145
4 49 6953261
26 27 7176277
25 68 7189231
30 12 7191169
24 87 7210233
30 23 7264962
30 7 7264962
30 72 7264962
30 62 7264962
30 5 7264962
30 49 7264962
30 21 7264962
30 68 7264962
30 44 7264962
30 81 7264962
30 71 7264962
25 80 7272920
24 21 7273813
49 70 7283164
24 56 7363798
56 24 7364427
56 43 7375677
60 25 7376915
60 11 7379351
80 39 7439512
25 48 7446617
39 60 7454988
