11 39 8739629
48 54 9860266
69 60 810121
33 84 9597581
54 48 9861963
57 24 9781492
57 26 9781492
57 65 8670215
22 54 3990870
48 22 22792
4 38 9031731
25 71 25129
69 30 875483
83 56 9958496
60 16 9176713
60 22 3994960
16 60 9360730
16 22 29929
24 57 9784996
29 60 8673573
69 66 875483
69 21 875483
65 54 4946582
39 54 92562
39 64 92968
14 77 187754
61 56 5556197
38 4 9108587
54 65 8486445
70 80 3122036
66 4 212898
85 64 7541718
24 54 9350305
65 24 8671505
48 24 8658210
60 21 8079271
0 89 177248
54 67 9705657
57 35 9632419
23 60 9609376
23 7 4849256
23 59 4849256
23 62 9692588
23 5 4849256
23 66 4849256
23 21 4849256
23 44 4849256
23 81 4849256
23 69 4849256
23 30 9204591
23 88 4849256
24 65 8676607
49 60 7886375
25 49 9948462
65 35 195787
54 24 9350800
54 16 3980533
16 35 199476
87 56 8744937
25 14 6748450
14 25 1395644
49 25 9949038
23 58 9204591
60 7 6946145
60 69 2956513
60 15 8404566
85 25 9959692
85 1 9689841
85 19 4877585
85 35 4877585
33 3 9340764
25 85 5125897
85 39 273287
48 25 9780780
64 1 4413344
64 19 9251330
19 64 9085278
19 1 9879177
54 49 9599770
38 53 290078
77 14 8561757
83 80 296102
83 82 3219489
1 83 350813
88 60 8568535
88 15 6685974
1 64 8990673
48 51 360808
55 80 7892099
43 56 9168065
43 67 9168065
43 49 9796420
43 55 5454927
43 50 9168065
43 80 9168065
70 19 5199118
55 43 1394543
80 25 9882967
80 83 367694
12 55 368300
29 49 8064913
49 43 9943644
57 7 377978
57 80 9709927
69 81 379254
35 88 385860
84 33 2702597
84 54 387829
83 1 9805902
50 43 3041403
16 61 9354359
61 35 631578
48 67 3825060
83 25 5131589
56 87 8051133
25 83 1259054
24 48 8658425
9 43 714643
69 23 875483
69 35 723708
43 9 1226134
49 67 9773415
35 69 720095
87 84 7810195
87 23 722186
87 46 7810285
87 33 722186
67 49 8477506
49 29 5556634
25 1 787273
35 83 787404
61 29 794282
80 55 7793002
87 1 8573494
67 48 8562085
48 78 1394142
38 69 810615
80 69 810774
80 70 9718635
14 35 9102076
43 69 872934
19 25 9860369
19 85 9085278
19 35 9085278
35 19 8413253
55 69 883692
48 12 883852
16 49 901708
49 16 4332287
85 46 9858981
83 64 3220193
83 19 898450
83 87 7898248
85 65 901458
88 25 6935841
77 61 9269737
60 14 1134666
14 60 1137083
61 57 1137200
57 61 1137290
60 88 7376816
54 61 1137917
4 66 1249975
25 35 9871203
85 31 7351892
25 16 8155630
65 50 1237701
60 54 9943916
58 84 1245595
58 23 1466934
58 11 6593593
58 66 5133373
55 25 7440884
80 12 1255027
58 39 6593593
58 85 1260190
52 62 9869058
16 32 4118265
16 4 4118265
16 15 1315732
49 32 7877686
49 54 9963073
49 52 6936730
49 48 6936730
67 43 9173612
80 43 9343927
25 19 2003463
32 80 3825152
46 85 4946082
4 16 1347918
87 83 9875938
39 11 9019771
70 24 1391696
24 70 1392149
14 86 5118111
43 30 1411602
25 2 1411912
46 65 1426765
4 67 1483133
55 49 5558609
49 55 5559923
54 50 8383401
1 88 1490960
65 46 3822221
35 14 5121230
19 70 7880874
32 16 1737801
57 46 9781492
57 87 1745004
16 88 1749870
25 78 8420401
78 25 1754394
51 26 9688222
4 46 6670574
77 88 5471633
1 58 1829107
88 77 1832301
8 66 8988629
8 17 8987959
77 15 9358734
54 32 7780576
54 52 8566869
83 4 1845131
16 64 9682840
88 16 6685974
25 88 5645054
52 57 9858493
80 57 5037211
83 35 8683280
63 54 1999050
4 83 2013799
55 11 2023310
48 65 6587556
11 55 3989052
16 25 8157138
77 25 2365962
25 60 7465863
46 18 2426937
65 48 2440567
11 86 2472169
11 78 2691820
70 55 2532861
78 11 2694023
88 54 5542869
54 88 5545937
43 60 2607544
24 58 2612603
55 32 7894455
24 26 9784996
43 70 9168065
48 43 7783001
58 24 2627717
70 43 8994490
39 80 9100706
58 68 2690670
58 21 2690981
58 81 2691143
58 64 2691316
21 60 7962979
21 62 2691596
21 5 2691596
21 66 2691596
21 44 2691596
21 81 2691596
21 30 7800549
21 88 2691596
77 43 2694666
43 77 2707435
64 58 2945579
66 71 8759261
4 64 6670574
66 60 4427282
66 62 4427282
66 5 4427282
66 44 4427282
66 81 4427282
66 30 4427282
66 88 4427282
49 80 7466228
43 48 3031395
49 64 3036164
60 67 7205521
85 88 3121743
77 60 9684477
60 77 4849574
30 69 7264962
21 55 3130045
25 4 3148331
4 25 3154760
60 66 6946145
44 22 3216827
49 78 8066172
56 83 9263784
85 87 3296944
63 17 6936484
52 54 7352395
62 23 9946731
62 66 6672652
64 16 9796988
22 44 3312457
0 70 3633883
88 84 5550917
64 85 3654352
87 85 4586596
57 67 3819441
54 22 7518427
50 57 3658525
60 30 9347917
60 29 8683887
3 67 3683960
30 66 7264962
18 46 4518889
18 53 4518889
18 38 4518889
18 26 6770315
18 37 4518889
11 30 3737415
44 49 3741347
14 15 9786268
55 64 3747280
55 50 4604527
88 8 5555617
26 65 5015198
26 46 9269671
26 24 8136229
26 57 8583657
3 15 6831251
57 52 9777093
65 26 4426254
48 2 3825060
87 21 3826583
2 48 3827790
84 88 9947266
85 66 3830092
19 9 9085278
14 88 6748624
25 55 5563527
16 9 3917781
49 44 3918977
32 65 3978864
2 65 3980165
71 66 9875015
67 65 3984029
67 54 9767886
52 65 3987428
17 65 3988522
52 84 9957455
84 65 8677435
18 8 3999206
51 38 4005011
60 38 4262327
46 66 4010761
38 54 4198595
54 60 9949866
35 43 4247806
50 52 7876259
88 14 6744834
50 67 4417764
14 33 9183510
38 60 4259822
84 52 9887683
2 14 4327510
24 46 9784996
55 84 4342666
55 63 4342666
55 17 4342666
35 56 5118730
56 35 4348669
88 61 5550695
18 4 4412266
44 14 4419199
44 33 4419199
44 13 4419199
25 11 9099825
66 69 4427275
66 7 4427282
66 59 4427282
66 21 4427282
4 18 4428855
35 85 8413253
85 16 9958116
85 9 4877585
1 61 4455382
87 63 4495824
61 1 4502793
43 14 4505509
85 24 4506116
4 32 5217327
63 65 4510735
63 24 4510837
71 8 9875015
33 14 5030973
83 85 9966109
48 85 4582346
62 88 6672652
55 70 4604527
14 56 4608246
77 49 9778707
49 77 9778884
48 49 4864304
48 15 4864304
32 55 4885904
26 49 4934767
66 58 5120040
30 60 9599636
86 14 5022758
44 60 7979625
52 37 5037655
71 30 9875058
32 25 6709371
67 60 5111094
35 16 9693737
35 25 9175062
87 35 9956938
83 8 5131589
83 62 5131589
83 46 5131589
83 24 5131589
83 65 5131589
83 50 5131589
83 37 5131589
83 63 5131589
83 86 5131589
37 60 5205140
4 24 5214996
4 58 5215443
4 53 6670407
4 56 5217534
24 4 5217585
4 87 5217964
4 1 6849075
4 12 6687617
58 4 5224929
32 4 5400378
87 4 5446601
43 2 8645285
43 37 5455846
9 16 5465135
30 55 5465500
16 54 5465793
65 57 5465986
67 32 6929896
78 37 5469167
32 67 5470214
88 35 5474103
38 32 5474490
61 60 5534953
23 46 5643969
23 9 9204591
88 2 5542759
2 88 5545123
61 16 5545687
88 78 5550802
88 86 5551552
88 39 5551890
25 67 5553963
61 88 5554741
67 25 8661659
88 66 5555240
49 85 5555950
87 39 9098455
49 83 5556043
49 23 5556397
49 63 5556706
49 17 5556814
49 71 5556862
49 66 5556921
46 23 5568233
35 26 8748738
26 35 9269671
39 88 5634659
19 16 9683863
23 39 9096598
26 51 9255517
85 4 6746129
12 4 6676846
48 60 7358310
4 85 6670825
58 30 6593593
60 48 6594784
56 4 6670260
62 60 6672652
62 7 6672652
62 5 6672652
62 49 6672652
62 21 6672652
62 44 6672652
62 81 6672652
62 69 6672652
62 30 6672652
49 15 9775561
22 88 6765685
80 56 7793002
80 67 7793002
80 49 9793833
80 50 7793002
1 4 6840073
85 83 8761025
77 3 6845016
35 46 8649845
11 60 9952547
37 18 6934527
37 46 6934527
37 53 7870527
37 51 6934527
37 38 6934527
37 26 6934527
37 4 6934527
37 27 6934527
22 3 6939748
33 26 6943456
4 37 6944111
60 23 7361777
60 59 6946145
60 72 6946145
60 62 7361777
60 5 6946145
60 49 6946145
60 68 6946145
60 44 6946145
60 71 6946145
4 49 9031742
26 27 9269671
25 68 7189231
30 12 7191169
24 87 7210233
30 23 7264962
30 7 7264962
30 72 7264962
30 62 7264962
30 5 7264962
30 49 7264962
30 21 7264962
30 68 7264962
30 44 7264962
30 81 7264962
30 71 7264962
25 80 7272920
24 21 7273813
49 70 7283164
24 56 7363798
56 24 7364427
56 43 7802789
60 25 7552195
60 11 7379351
80 39 9254213
25 48 9788338
39 60 7454988
54 78 7518427
54 53 7518427
54 44 7518427
54 37 7518427
2 78 7530269
60 43 7535008
25 64 7799774
66 8 7547923
14 11 7793361
43 63 7805338
21 49 7810131
48 11 9948413
53 37 7885512
24 35 9784996
49 4 8160303
49 56 9789157
49 87 7985519
49 58 7877686
32 49 7878855
85 29 7881014
46 55 7886971
50 24 7896429
35 24 7893694
39 1 9963419
56 49 7956433
61 43 7967390
44 11 9084498
43 61 7979789
87 49 8148247
55 4 7994235
39 12 8044179
48 61 9955823
85 61 8050848
60 12 8079013
23 57 8149090
57 23 8149791
57 27 8152605
23 25 8498679
56 54 8392915
48 40 8404215
35 64 9175062
35 1 8413253
48 57 8733955
54 63 8475552
33 46 8477231
25 23 8498344
57 48 8740318
52 60 8480922
60 52 8485785
87 25 8488761
25 87 8491718
35 33 8568384
50 17 8586010
35 65 8649845
50 65 9625291
54 2 8727476
62 52 9869759
1 35 8990673
30 11 8677001
26 25 8734699
37 56 8735952
25 26 8744784
23 35 8754996
43 40 9078890
48 50 8756475
50 48 8757765
8 71 8988640
1 25 8990673
1 85 9622192
35 23 9954627
80 23 8996778
80 62 8996778
44 1 9003920
1 44 9008877
43 11 9017849
50 11 9018176
35 11 9018954
23 11 9020192
54 14 9252183
11 43 9085877
62 29 9086238
11 48 9949119
11 50 9086727
11 35 9086738
11 23 9086802
11 44 9086851
35 22 9091771
43 39 9096282
80 11 9097440
39 43 9099112
39 37 9100706
14 54 9100956
11 61 9103419
29 1 9165189
61 11 9171300
23 1 9171686
30 63 9172240
4 55 9175754
22 11 9179160
14 13 9183510
14 44 9188387
83 23 9203016
62 1 9252118
49 11 9623706
23 55 9634330
15 70 9681317
16 1 9682846
46 1 9688466
11 49 9690610
35 39 9771126
62 11 9771150
24 50 9787898
43 16 9799451
71 23 9873746
71 87 9875301
9 17 9882266
35 21 9954627
35 87 9954627
35 58 9954627
35 30 9954627
85 37 9958314
85 30 9959692
25 44 9961032
18 63 9961655
30 35 9962739
49 86 9966842
1 39 9974826
