11 39 28109445
48 54 45189751
69 60 13052631
33 84 22146466
54 48 45188717
57 24 41710828
57 26 28957002
57 65 20152026
22 54 29756550
48 22 22792
4 38 45213488
25 71 25129
69 30 13051989
83 56 43492516
60 16 44590782
60 22 41931287
16 60 41945247
16 22 29929
24 57 41683879
29 60 16000627
69 66 875483
69 21 875483
65 54 4946582
39 54 92562
39 64 92968
14 77 33375655
61 56 22919497
38 4 45215350
54 65 8486445
70 80 32675107
66 4 212898
85 64 40448902
24 54 42359989
65 24 14221845
48 24 43391754
60 21 41931287
0 89 40700076
54 67 37093227
57 35 37205766
23 60 45214088
23 7 44356264
23 59 44356264
23 62 44356264
23 5 44356264
23 66 44356264
23 21 32260854
23 44 44356264
23 81 15674976
23 69 25332819
23 30 44356264
23 88 25332819
24 65 8676607
49 60 42620279
25 49 43912098
65 35 195787
54 24 42360323
54 16 42454025
16 35 43932069
87 56 43811811
25 14 41225748
14 25 42432348
49 25 44088293
23 58 44356264
60 7 44602483
60 69 13055562
60 15 45191769
85 25 43210902
85 1 41741748
85 19 42436265
85 35 40545793
33 3 17931883
25 85 43521008
85 39 28953128
48 25 41823860
64 1 38733852
64 19 43820025
19 64 45199458
19 1 45199458
54 49 43752370
38 53 290078
77 14 33378136
83 80 296102
83 82 3219489
1 83 40791387
88 60 44849320
88 15 44849320
1 64 40019097
48 51 360808
55 80 7892099
43 56 43814410
43 67 40455034
43 49 42870150
43 55 37082231
43 50 21354570
43 80 43814398
70 19 44340892
55 43 1394543
80 25 45195994
80 83 367694
12 55 368300
29 49 14461797
49 43 43225854
57 7 36599837
57 80 37235568
69 81 379254
35 88 27917455
84 33 2702597
84 54 387829
83 1 45282280
50 43 21352379
16 61 13752180
61 35 631578
48 67 43379771
83 25 39614582
56 87 43748659
25 83 30276478
24 48 43834242
9 43 714643
69 23 875483
69 35 723708
43 9 1226134
49 67 33561033
35 69 36904769
87 84 7810195
87 23 44703513
87 46 44703513
87 33 722186
67 49 27151895
49 29 5556634
25 1 44091981
35 83 26291622
61 29 794282
80 55 7793002
87 1 45047882
67 48 8562085
48 78 42880801
38 69 810615
80 69 810774
80 70 43931459
14 35 44012432
43 69 872934
19 25 42451762
19 85 45199458
19 35 45199458
35 19 42605156
55 69 883692
48 12 38731675
16 49 33919738
49 16 36643431
85 46 30474326
83 64 44076413
83 19 14197644
83 87 44778492
85 65 901458
88 25 42333239
77 61 17736962
60 14 41931287
14 60 45219013
61 57 1137200
57 61 11854737
60 88 42347582
54 61 1137917
4 66 1249975
25 35 43837520
85 31 42885482
25 16 43821259
65 50 1237701
60 54 44588924
58 84 1245595
58 23 43906733
58 11 43573938
58 66 41321460
55 25 7440884
80 12 1255027
58 39 38020683
58 85 1260190
52 62 43724637
16 32 4118265
16 4 13768847
16 15 41855639
49 32 18870265
49 54 43909462
49 52 42023388
49 48 45124874
67 43 40451749
80 43 44079759
25 19 43521008
32 80 17030732
46 85 30451685
4 16 13764306
87 83 45047882
39 11 38626999
70 24 1391696
24 70 1392149
14 86 5118111
43 30 1411602
25 2 1411912
46 65 17918966
4 67 1483133
55 49 5558609
49 55 31126619
54 50 37098710
1 88 1490960
65 46 3822221
35 14 44361996
19 70 35861114
32 16 1737801
57 46 27848797
57 87 19890271
16 88 1749870
25 78 43986364
78 25 1754394
51 26 37850928
4 46 18426838
77 88 17210781
1 58 1829107
88 77 1832301
8 66 42462100
8 17 43402901
77 15 43317029
54 32 44936914
54 52 45211716
83 4 1845131
16 64 42632466
88 16 42603802
25 88 42272089
52 57 44510641
80 57 37222071
83 35 27223439
63 54 43909146
4 83 2013799
55 11 2023310
48 65 6587556
11 55 3989052
16 25 39437286
77 25 41232137
25 60 43840602
46 18 33199128
65 48 2440567
11 86 2472169
11 78 36921103
70 55 2532861
78 11 2694023
88 54 29729475
54 88 29729813
43 60 32934242
24 58 2612603
55 32 7894455
24 26 43298206
43 70 45219941
48 43 42523333
58 24 2627717
70 43 45279378
39 80 43722980
58 68 2690670
58 21 24308822
58 81 2691143
58 64 2691316
21 60 29313343
21 62 2691596
21 5 2691596
21 66 11850326
21 44 16943895
21 81 2691596
21 30 12898184
21 88 2691596
77 43 27500299
43 77 29301914
64 58 2945579
66 71 45310383
4 64 6670574
66 60 42027433
66 62 17567807
66 5 17567807
66 44 17567807
66 81 17567807
66 30 43752827
66 88 37779967
49 80 41759793
43 48 44682420
49 64 45120725
60 67 21899410
85 88 3121743
77 60 45199494
60 77 39940210
30 69 7264962
21 55 3130045
25 4 43911776
4 25 43923716
60 66 45196528
44 22 3216827
49 78 33801505
56 83 42017433
85 87 31049687
63 17 45297789
52 54 42517625
62 23 28628913
62 66 20060183
64 16 42283823
22 44 3312457
0 70 45212810
88 84 5550917
64 85 39251839
87 85 31035743
57 67 3819441
54 22 29754985
50 57 17056725
60 30 45129501
60 29 41931287
3 67 3683960
30 66 39848525
18 46 44338480
18 53 44338480
18 38 44338480
18 26 44338480
18 37 44338480
11 30 33194330
44 49 26292178
14 15 45219013
55 64 3747280
55 50 4604527
88 8 43211503
26 65 17920558
26 46 45301515
26 24 45114894
26 57 33467729
3 15 6831251
57 52 44530582
65 26 4426254
48 2 3825060
87 21 3826583
2 48 3827790
84 88 9947266
85 66 3830092
19 9 45199458
14 88 45116689
25 55 5563527
16 9 39257534
49 44 24227105
32 65 3978864
2 65 3980165
71 66 45198074
67 65 3984029
67 54 44069798
52 65 3987428
17 65 3988522
52 84 19544244
84 65 8677435
18 8 3999206
51 38 10217628
60 38 4262327
46 66 4010761
38 54 4198595
54 60 42363863
35 43 4247806
50 52 33245688
88 14 45120095
50 67 4417764
14 33 45028340
38 60 4259822
84 52 22482773
2 14 35087583
24 46 40805659
55 84 4342666
55 63 4342666
55 17 4342666
35 56 32765284
56 35 4348669
88 61 15396717
18 4 44338554
44 14 38215560
44 33 38215560
44 13 43994969
25 11 41327182
66 69 14631975
66 7 43752827
66 59 29724784
66 21 17567807
4 18 44348802
35 85 44505709
85 16 45299697
85 9 28953128
1 61 4455382
87 63 44941586
61 1 4502793
43 14 4505509
85 24 4506116
4 32 30608348
63 65 4510735
63 24 39436130
71 8 45198074
33 14 38388349
83 85 44603779
48 85 4582346
62 88 20060183
55 70 4604527
14 56 4608246
77 49 43914005
49 77 42879498
48 49 45128066
48 15 43838898
32 55 24564525
26 49 4934767
66 58 43752827
30 60 45305184
86 14 5022758
44 60 44430353
52 37 44417894
71 30 45197394
32 25 42454909
67 60 5111094
35 16 42631000
35 25 42615200
87 35 44703513
83 8 5131589
83 62 5131589
83 46 5131589
83 24 18160857
83 65 5131589
83 50 5131589
83 37 5131589
83 63 5131589
83 86 5131589
37 60 36928824
4 24 5214996
4 58 31549680
4 53 17748605
4 56 5217534
24 4 5217585
4 87 44348832
4 1 20592159
4 12 31827257
58 4 31550443
32 4 30606179
87 4 44346056
43 2 45022702
43 37 45022702
9 16 32101813
30 55 5465500
16 54 38219293
65 57 5465986
67 32 38714256
78 37 5469167
32 67 27490763
88 35 27850100
38 32 5474490
61 60 17287640
23 46 21355076
23 9 27778275
88 2 5542759
2 88 5545123
61 16 14709928
88 78 21263272
88 86 44596198
88 39 27825932
25 67 5553963
61 88 5554741
67 25 36500216
88 66 5555240
49 85 12541124
87 39 45047882
49 83 25934465
49 23 44358714
49 63 19883268
49 17 5556814
49 71 5556862
49 66 38286583
46 23 21354160
35 26 45281978
26 35 44935187
39 88 21183227
19 16 45199458
23 39 21204398
26 51 19890609
85 4 22129507
12 4 31809566
48 60 41325433
4 85 28630276
58 30 41321460
60 48 13572915
56 4 6670260
62 60 31129466
62 7 20060183
62 5 20060183
62 49 20060183
62 21 20060183
62 44 20060183
62 81 20060183
62 69 20060183
62 30 20060183
49 15 42620279
22 88 45209879
80 56 36509443
80 67 42446801
80 49 41915976
80 50 15155455
1 4 20589048
85 83 28953128
77 3 6845016
35 46 45281978
11 60 42026261
37 18 37078790
37 46 14017889
37 53 20490287
37 51 6934527
37 38 20490287
37 26 20490287
37 4 20490287
37 27 6934527
22 3 16016579
33 26 6943456
4 37 17748605
60 23 45219985
60 59 38972617
60 72 41931287
60 62 41931287
60 5 41931287
60 49 42187225
60 68 41931287
60 44 41931287
60 71 41931287
4 49 38301637
26 27 45114894
25 68 7189231
30 12 7191169
24 87 45199195
30 23 39848525
30 7 7264962
30 72 7264962
30 62 7264962
30 5 7264962
30 49 7264962
30 21 10899274
30 68 7264962
30 44 31810249
30 81 7264962
30 71 39848525
25 80 45000859
24 21 7273813
49 70 41759793
24 56 7363798
56 24 7364427
56 43 42016352
60 25 43903422
60 11 41931287
80 39 42513421
25 48 41823424
39 60 42864600
54 78 15305688
54 53 7518427
54 44 7518427
54 37 7518427
2 78 7530269
60 43 41931287
25 64 43521008
66 8 44697457
14 11 42430517
43 63 7805338
21 49 26303275
48 11 13668538
53 37 32162233
24 35 40805659
49 4 38296389
49 56 41752860
49 87 33357809
49 58 44357890
32 49 18870664
85 29 7881014
46 55 7886971
50 24 17729998
35 24 45281978
39 1 45279817
56 49 41752255
61 43 7967390
44 11 9084498
43 61 13140977
87 49 33299003
55 4 7994235
39 12 41769624
48 61 15783068
85 61 8050848
60 12 45049074
23 57 8149090
57 23 8149791
57 27 27168585
23 25 17207584
56 54 8392915
48 40 8404215
35 64 45290651
35 1 44001307
48 57 33965089
54 63 45020370
33 46 8477231
25 23 8498344
57 48 34082947
52 60 36482124
60 52 32346757
87 25 43926053
25 87 42264678
35 33 41324856
50 17 8586010
35 65 8649845
50 65 17122890
54 2 40803390
62 52 31128562
1 35 40019097
30 11 8677001
26 25 43916819
37 56 8735952
25 26 29823009
23 35 44510681
43 40 9078890
48 50 8756475
50 48 8757765
8 71 41648625
1 25 40019097
1 85 41334114
35 23 44512151
80 23 26896899
80 62 8996778
44 1 9003920
1 44 9008877
43 11 9017849
50 11 9018176
35 11 45281978
23 11 43906626
54 14 40619152
11 43 9085877
62 29 9086238
11 48 13677461
11 50 9086727
11 35 41046261
11 23 43986360
11 44 9086851
35 22 9091771
43 39 9096282
80 11 9097440
39 43 9099112
39 37 9100706
14 54 40707618
11 61 17633585
29 1 9165189
61 11 16506813
23 1 43906540
30 63 21350769
4 55 9175754
22 11 9179160
14 13 45028340
14 44 45294141
83 23 9203016
62 1 24390011
49 11 16425849
23 55 9634330
15 70 9681317
16 1 41421701
46 1 9688466
11 49 26281552
35 39 31562741
62 11 9771150
24 50 19114149
43 16 38892116
71 23 22396045
71 87 45197394
9 17 40540295
35 21 10835421
35 87 39405870
35 58 38825359
35 30 44001307
85 37 19978392
85 30 28953128
25 44 38727357
18 63 9961655
30 35 19099600
49 86 39174345
1 39 38640511
35 49 44417813
51 46 10217628
51 27 10217628
51 37 10217628
24 83 27242228
18 71 10297451
77 86 10305296
86 15 10384217
35 9 42259279
35 63 10380302
35 17 38825359
25 24 41837180
37 85 10478605
29 62 14461797
49 30 24227105
49 21 24227105
49 35 44358714
30 67 17118112
88 79 10558510
67 30 10562074
71 60 42257938
71 7 41063960
71 62 22396045
71 21 22396045
71 44 32155859
71 81 14801761
71 88 14801761
1 18 11857719
80 1 10586921
18 1 10808564
0 1 38995047
0 64 43206904
14 16 42622593
25 77 38900833
30 87 10899274
30 58 19099600
87 30 12543694
22 29 26546960
31 68 39246987
56 50 10987803
43 54 44955276
85 53 44699146
61 31 11078608
61 68 11078608
61 37 11078608
61 77 11078608
52 50 33203966
80 32 42615987
80 41 11177153
80 76 42525274
17 8 11581556
26 85 11615050
26 18 33465549
83 39 44974563
39 83 45279817
32 54 45035942
44 66 31217385
52 17 45193652
32 61 11849910
29 61 11850125
8 61 11851040
52 61 15309717
58 71 41321460
9 61 11942576
2 54 21778826
71 58 42007571
71 63 12367032
7 60 22470737
57 84 12209017
57 50 17742582
57 17 19890271
36 60 45298674
0 71 40725407
58 60 44068053
11 58 42617287
35 61 17571779
23 87 44526299
49 12 12541124
12 49 12475067
53 60 12559003
18 13 33988830
70 0 44340892
51 39 12825267
25 15 42272089
39 51 12878100
61 67 12884686
44 30 44943673
78 39 12900992
49 50 31126619
50 49 31232207
77 52 17560610
52 77 17554730
17 52 44692135
71 0 45197394
82 0 45203382
39 24 19466995
84 17 20252633
24 39 19380637
54 25 44087856
25 54 13488532
54 23 13495827
30 39 19099600
63 84 13512562
12 11 43728604
9 8 13655300
9 58 13655300
48 30 13668538
30 48 13669577
11 12 45121872
17 18 38656623
22 37 13682805
50 80 13698596
78 54 13744820
52 4 43726052
52 67 16943805
0 82 45213001
61 38 14093631
9 15 14095672
0 39 33960130
77 9 15672715
49 46 14112730
3 22 17823736
49 14 41411144
70 85 14193307
67 44 14194877
67 19 14197735
77 16 44442308
48 63 41741377
46 26 45301553
16 19 39947892
29 23 14461797
29 7 14461797
29 59 14461797
29 5 14461797
29 66 14461797
29 21 14461797
29 44 14461797
29 81 14461797
29 30 14461797
29 88 14461797
71 17 45197394
8 60 14618251
46 49 14628608
17 84 14638768
43 83 14715146
83 43 14725156
33 35 15938697
18 17 14797512
60 61 19102789
4 22 39262309
4 35 16001478
4 26 18764230
4 11 24215357
2 44 15228465
4 84 19888148
48 84 15230361
39 23 31211150
26 61 15301476
35 4 15994858
35 57 38287304
84 4 19546603
11 4 24198397
63 61 15389416
46 61 15390612
19 89 45199458
17 61 15921953
4 3 18426044
12 61 15401110
18 61 15402495
18 66 15407701
26 4 18846968
35 60 15659351
4 62 15662158
61 54 15905342
17 9 43992444
64 49 26533587
61 48 15821968
77 73 44588217
49 53 15907324
24 11 15914448
4 61 15917665
54 17 16003882
23 8 44356264
22 15 16444508
30 3 16446445
23 29 44356264
58 44 16538004
80 52 32350453
57 49 16972953
1 19 44938863
46 4 18430512
9 19 17046800
52 49 18927888
11 25 39589599
50 54 37109896
43 25 40790748
52 25 40036257
37 25 17201886
53 25 17202007
46 25 23681770
24 25 41830575
30 25 19099600
56 25 39585105
24 49 21707542
57 25 44093244
22 25 42365792
8 25 17221117
57 54 22663696
54 57 37098710
12 48 43728469
25 89 44091981
60 56 41931287
44 25 44095127
25 30 40527808
58 8 41321460
76 49 42453520
76 52 33445558
49 76 42449512
87 61 17566916
44 61 17568672
84 49 17572018
49 84 17580446
46 24 38640434
82 39 28342224
88 19 42596422
39 82 19467112
63 49 21790874
22 60 42283375
22 4 17808088
60 53 43303918
60 51 17809252
73 77 43473468
3 4 17852599
66 86 17910686
46 57 17918966
57 39 19890271
2 39 37082764
32 48 18341300
49 57 18345172
48 32 18347406
17 63 41402445
7 23 39402849
7 62 22470737
7 44 22470737
2 24 34575304
60 73 45124352
24 7 38120190
1 16 44942750
26 39 18755858
39 26 18765104
73 60 44089290
26 30 20067270
7 88 23614484
73 49 44510167
50 84 18782449
49 73 44531373
7 43 18841042
7 71 39402849
7 57 36550978
14 61 18844670
87 0 39430403
88 44 18863414
87 82 20760949
39 87 45113907
24 2 32092484
9 63 31202653
14 48 23865347
14 51 24830342
64 73 42009541
73 64 44081848
30 78 19099600
30 46 19099600
30 9 21350769
30 26 19386215
30 80 19968034
30 17 21350769
0 72 38108322
2 43 45110679
84 63 20081638
54 73 44956237
50 63 19626518
80 24 32103147
2 63 19443817
21 58 24309311
70 56 32675107
80 73 43486115
87 24 45198419
7 25 19547426
24 80 19638191
57 66 19890271
57 83 19890271
26 53 19890609
26 38 19890609
26 37 19890609
39 57 19892472
87 57 19892717
43 59 19897643
46 87 19969212
52 63 20500246
73 80 19972919
85 7 36588776
25 62 20224595
85 44 39609940
60 8 41931287
30 84 20246909
1 24 21379124
24 1 20253263
73 16 44513177
73 54 44096527
57 63 20491781
76 57 41246981
14 73 45121454
64 0 44513079
16 73 45304269
35 66 43900907
35 59 38974422
35 71 43900907
67 63 21348454
23 71 44356264
16 85 42632466
35 48 32063994
35 84 21364963
39 8 21183227
39 7 21183227
39 62 21183227
39 66 21183227
39 35 31568063
39 71 21183227
39 30 21183227
71 46 21203741
48 35 32064402
73 24 45130164
44 4 21280813
30 85 21350769
30 13 21350769
46 71 21354177
84 35 21358288
85 73 40726263
73 85 21360918
4 44 21466254
11 73 38655406
73 11 29037498
80 54 41749864
17 54 21892782
88 73 43412931
54 15 22553148
52 16 22151693
16 52 22154518
48 4 44591119
44 73 38813086
70 25 22391102
77 48 22399977
4 48 44619602
7 59 39402849
7 66 39402849
77 54 28605451
25 12 40642326
25 39 22576658
57 76 41241213
73 44 22581782
25 73 42399627
73 25 45020159
23 54 22669568
85 0 29214825
80 46 23099675
46 80 23183596
4 14 39242691
24 27 38120190
88 7 42621402
25 46 23720834
48 73 45108817
52 73 42016765
48 14 23859911
73 14 40197938
14 4 39242703
87 19 24143904
49 7 24227105
49 62 24227105
49 88 42515099
80 35 30521788
35 80 30516871
33 49 24484559
49 33 38984542
14 49 41222385
1 23 24638588
8 1 24655194
1 8 24668466
73 88 42004107
51 14 24826263
58 83 24907229
83 58 24916916
26 58 25431179
58 26 25425744
26 21 25594073
9 23 30939727
85 6 25675016
83 49 25946719
11 85 44514136
85 11 45192639
57 30 36947728
80 64 26896920
80 85 26036997
80 30 26036997
30 57 36657717
23 49 44356264
19 87 26287185
0 19 26790430
35 0 26545302
25 56 26621350
71 64 32165857
2 49 26724025
25 52 40030861
57 43 26890503
80 59 26896903
80 17 42377684
80 87 44710824
67 52 38714256
52 76 41229255
12 54 27750676
39 76 38626999
54 12 27748961
64 87 27762054
26 7 27764569
12 60 44596589
88 13 27832398
13 88 27918504
88 52 28014535
67 53 27927374
67 37 27927374
80 0 27936737
16 14 28023895
24 63 44600756
80 4 28364855
4 80 28366444
39 18 28522263
39 63 28522263
18 39 28523176
54 77 28602421
33 73 28614058
54 43 44953723
38 85 40109002
25 9 43521008
43 44 28702833
44 43 28707552
18 85 44338480
18 27 44338480
85 23 28953128
85 21 28953128
85 27 28953128
85 58 28953128
1 9 38719735
1 89 45029289
73 52 42019582
2 51 29041459
77 81 29059010
37 22 29217539
22 56 29217739
56 22 29218582
35 27 38629480
35 7 32063994
52 48 30515833
48 52 45122399
48 17 41672140
17 83 29665751
71 83 29749217
83 71 44076413
83 17 29825862
73 48 45110450
52 32 30453274
54 76 38364508
32 52 30461884
33 13 41313545
88 30 30437711
30 88 30470660
44 85 37264584
76 80 42529239
37 52 33968178
57 73 43324730
52 78 33898499
57 78 30954075
78 52 33898139
89 25 36560132
89 64 36560132
89 85 30959095
89 1 41319261
89 35 36560132
48 26 30961117
26 48 30961459
58 25 31145797
25 58 31161035
43 82 31204334
70 82 32675107
2 82 35875678
76 82 31209297
73 82 31211070
44 8 31217385
44 23 39857186
44 7 31217385
44 59 31217385
44 62 31217385
44 21 31217385
44 58 33459377
44 88 31217385
86 88 31220703
38 82 31462242
25 21 33382698
77 21 31650320
13 44 36982094
83 44 31726739
67 57 31733608
75 85 38124226
23 47 44356264
85 75 31745491
12 39 40212774
75 44 31804718
60 39 31810490
60 4 32347444
35 18 38974422
18 35 32067933
2 37 45110586
67 24 32079926
63 13 32148591
44 64 32159568
49 37 32160350
13 14 33445691
49 1 32339414
4 60 32345506
1 49 32369820
2 52 32406050
24 52 39861386
63 52 32433574
70 67 32675107
70 49 32675107
37 2 32684341
37 43 32684341
47 74 40200211
39 52 32855413
71 18 32866137
76 54 38316249
12 30 33195277
76 30 33195726
13 18 33204113
17 30 33204555
13 30 33204717
76 63 41421467
76 48 33545971
76 17 33811716
48 76 40105818
17 76 33283612
44 83 33285173
63 76 41418175
1 60 44364627
21 25 33450644
24 76 33381788
11 76 39407172
32 76 33383734
76 11 39408855
76 55 33439347
2 76 33537805
76 24 40975061
38 18 33462848
47 30 42600838
24 53 33880112
52 11 33887154
52 24 39855218
11 52 37076953
54 64 45105531
2 25 44088824
35 12 45281978
87 42 44703513
42 87 44532373
7 85 36551729
67 80 42446670
89 74 36560132
12 80 36567323
89 16 36647666
14 59 36650272
17 45 39317579
77 13 43725229
60 37 36929085
63 73 42353295
18 58 37169990
22 58 37010102
13 58 37013363
77 67 42884353
12 35 37082222
39 2 37086803
54 56 42451973
82 1 37093345
17 10 37159267
42 58 37170947
36 15 44589617
25 86 43409306
58 13 41321460
58 28 41321460
58 47 41321460
45 54 41757299
45 42 45034970
60 13 41931287
42 45 42367651
76 73 43465584
73 76 43464381
23 31 38116523
48 16 38213735
80 31 42536550
45 63 40100048
42 83 44010484
42 47 38198123
87 45 45040308
31 33 38295177
45 24 44604462
33 31 38294195
16 48 38215207
47 10 44692190
47 28 44692190
24 45 43314820
45 87 45034970
49 38 38289403
42 56 38739298
54 80 39578873
4 52 41844675
4 30 42357733
4 88 42613285
4 19 38390273
19 4 38382215
4 27 38820169
54 45 40541208
33 60 42021764
33 23 44075676
46 27 38640434
46 35 38640434
60 47 41931287
60 33 41931287
88 4 42530950
45 48 38859608
1 87 45049628
30 4 38807015
4 10 44614228
30 8 38819273
30 59 38819273
35 10 38825359
35 28 38825359
12 25 38900882
89 0 40697134
10 4 43769023
33 64 38978762
49 47 38984542
73 58 38983979
73 13 38984058
78 44 42007032
74 8 38991853
74 10 38991853
74 47 38991853
48 87 39249635
31 64 42518947
4 17 39431319
4 8 39262344
4 9 42364556
14 10 41754957
7 8 39402849
10 47 45118911
76 39 42516853
48 80 39411325
75 13 39426468
25 32 43517052
39 13 39520102
52 81 39576902
9 4 42359490
58 78 39598829
45 25 40039109
42 25 40468817
35 13 39850878
63 58 45297789
61 55 39777252
35 74 44352841
66 23 42860901
8 7 39867939
1 71 39870810
73 53 39937108
32 73 40011397
1 74 41410008
85 38 40101917
30 73 40030358
25 22 40031181
25 45 40031715
25 42 40468620
73 30 40032071
54 4 40091724
63 45 40104956
75 23 40120471
47 23 40528540
47 42 40200211
60 10 41931287
60 42 41931287
60 83 41931287
60 87 41931287
60 28 41931287
60 58 41931287
60 86 41931287
60 31 41931287
74 23 43822097
32 42 40465270
10 74 45118911
35 73 43816180
73 35 42010672
54 58 40709728
64 13 40881665
73 22 45297456
12 58 41048449
22 13 41223088
43 45 41337260
50 76 41269027
73 29 41303236
73 63 42367254
73 57 41766165
76 50 41305717
45 43 41333966
73 21 41310073
85 89 41316948
58 17 41321460
47 17 41326708
58 7 41329927
73 12 41393164
43 15 41409043
44 78 41412415
74 35 43823785
43 4 41682656
48 45 41741377
87 60 42003077
71 1 45198074
73 33 42015063
73 47 42008263
73 10 42008474
13 60 42011225
74 73 42017427
73 74 42019473
83 60 42024395
47 73 42046280
35 89 42259279
83 42 44081651
22 52 42277155
52 22 42277361
22 73 45287910
88 47 42368942
25 47 42370018
1 47 42441779
48 34 45045463
34 48 44966305
24 5 43225476
88 49 42509106
36 49 42517194
49 36 42517269
31 80 42531573
0 87 42537792
88 5 42539482
30 47 42542863
4 15 42613285
88 80 42595997
19 88 44611078
80 88 42614396
5 88 42619108
47 60 44692190
89 19 42859403
78 48 43206765
0 74 43206844
31 85 43209442
23 17 43230201
74 0 43231658
85 78 45044904
25 74 43521008
13 15 43719355
24 67 43475421
88 22 43488342
5 60 45121781
13 23 43806004
47 8 45204648
89 23 43820686
10 88 43903134
10 16 43903134
23 33 44510681
0 80 43982505
35 5 44001307
33 25 44088654
44 28 44094669
14 64 44098750
74 1 44264759
60 1 44355943
49 18 44357890
49 10 44357890
49 74 44357890
49 13 44357890
8 47 44423067
36 73 44427636
87 18 44703513
87 12 44703513
87 9 44703513
87 26 44703513
87 71 44703513
87 58 44703513
87 80 44703513
87 17 44703513
26 87 44527654
87 76 44526882
76 87 44528228
18 87 44529586
63 87 44941432
77 36 44692397
78 23 44600244
36 77 44692185
23 78 44607506
39 45 44683119
64 15 44691119
77 64 44694916
87 11 44703513
11 87 44972325
88 85 45214156
87 5 45023124
5 87 45034781
87 10 45035888
87 47 45035888
24 73 45119531
19 74 45199458
52 43 45206488
18 73 45216692
73 18 45217845
47 63 45281936
51 76 45283920
63 23 45297789
63 9 45297789
