11 39 11725633
48 54 13496030
69 60 13052631
33 84 12883016
54 48 11779441
57 24 12971371
57 26 12971371
57 65 12971371
22 54 3990870
48 22 22792
4 38 10386040
25 71 25129
69 30 13051989
83 56 13157084
60 16 12919386
60 22 3994960
16 60 13435484
16 22 29929
24 57 10397788
29 60 11617177
69 66 875483
69 21 875483
65 54 4946582
39 54 92562
39 64 92968
14 77 187754
61 56 13157139
38 4 10210748
54 65 8486445
70 80 12889783
66 4 212898
85 64 10837290
24 54 9350305
65 24 8671505
48 24 12470006
60 21 8079271
0 89 177248
54 67 13394339
57 35 12282338
23 60 11759373
23 7 11759373
23 59 11759373
23 62 11759373
23 5 11759373
23 66 11759373
23 21 12473072
23 44 11759373
23 81 11759373
23 69 11759373
23 30 12899585
23 88 11759373
24 65 8676607
49 60 12552570
25 49 12566466
65 35 195787
54 24 9350800
54 16 3980533
16 35 199476
87 56 8744937
25 14 6748450
14 25 12365240
49 25 12551960
23 58 12473072
60 7 6946145
60 69 13055562
60 15 12919386
85 25 11006583
85 1 10837290
85 19 4877585
85 35 4877585
33 3 9340764
25 85 10918863
85 39 273287
48 25 10471431
64 1 10817787
64 19 12539086
19 64 9085278
19 1 9879177
54 49 13152224
38 53 290078
77 14 8561757
83 80 296102
83 82 3219489
1 83 12284995
88 60 8568535
88 15 10546191
1 64 11857719
48 51 360808
55 80 7892099
43 56 12966497
43 67 12966497
43 49 13079946
43 55 5454927
43 50 12966497
43 80 12966497
70 19 12810747
55 43 1394543
80 25 13406880
80 83 367694
12 55 368300
29 49 8064913
49 43 12370336
57 7 377978
57 80 9709927
69 81 379254
35 88 385860
84 33 2702597
84 54 387829
83 1 13488995
50 43 10822444
16 61 9354359
61 35 631578
48 67 10922149
83 25 5131589
56 87 8051133
25 83 1259054
24 48 8658425
9 43 714643
69 23 875483
69 35 723708
43 9 1226134
49 67 10813812
35 69 720095
87 84 7810195
87 23 722186
87 46 7810285
87 33 722186
67 49 11689885
49 29 5556634
25 1 787273
35 83 787404
61 29 794282
80 55 7793002
87 1 8573494
67 48 8562085
48 78 1394142
38 69 810615
80 69 810774
80 70 12891111
14 35 13066136
43 69 872934
19 25 9860369
19 85 9085278
19 35 10392296
35 19 10462139
55 69 883692
48 12 883852
16 49 901708
49 16 4332287
85 46 10998668
83 64 3220193
83 19 898450
83 87 11780816
85 65 901458
88 25 6935841
77 61 13498999
60 14 1134666
14 60 1137083
61 57 1137200
57 61 11854737
60 88 7376816
54 61 1137917
4 66 1249975
25 35 9871203
85 31 10837290
25 16 12894149
65 50 1237701
60 54 12919386
58 84 1245595
58 23 1466934
58 11 6593593
58 66 5133373
55 25 7440884
80 12 1255027
58 39 6593593
58 85 1260190
52 62 13161531
16 32 4118265
16 4 4118265
16 15 1315732
49 32 7877686
49 54 13155444
49 52 6936730
49 48 12538565
67 43 9173612
80 43 9343927
25 19 2003463
32 80 3825152
46 85 4946082
4 16 1347918
87 83 13488807
39 11 9019771
70 24 1391696
24 70 1392149
14 86 5118111
43 30 1411602
25 2 1411912
46 65 1426765
4 67 1483133
55 49 5558609
49 55 5559923
54 50 8383401
1 88 1490960
65 46 3822221
35 14 12375798
19 70 7880874
32 16 1737801
57 46 12971371
57 87 1745004
16 88 1749870
25 78 12982171
78 25 1754394
51 26 13484592
4 46 6670574
77 88 5471633
1 58 1829107
88 77 1832301
8 66 11580275
8 17 13425404
77 15 10549764
54 32 11779441
54 52 12470576
83 4 1845131
16 64 11692306
88 16 6685974
25 88 5645054
52 57 13410878
80 57 12990132
83 35 8683280
63 54 1999050
4 83 2013799
55 11 2023310
48 65 6587556
11 55 3989052
16 25 10565335
77 25 12880756
25 60 12396228
46 18 2426937
65 48 2440567
11 86 2472169
11 78 2691820
70 55 2532861
78 11 2694023
88 54 5542869
54 88 5545937
43 60 2607544
24 58 2612603
55 32 7894455
24 26 9784996
43 70 9168065
48 43 11088795
58 24 2627717
70 43 8994490
39 80 11072594
58 68 2690670
58 21 2690981
58 81 2691143
58 64 2691316
21 60 7962979
21 62 2691596
21 5 2691596
21 66 11850326
21 44 2691596
21 81 2691596
21 30 12898184
21 88 2691596
77 43 2694666
43 77 2707435
64 58 2945579
66 71 8759261
4 64 6670574
66 60 4427282
66 62 4427282
66 5 4427282
66 44 4427282
66 81 4427282
66 30 4427282
66 88 13061360
49 80 13079171
43 48 3031395
49 64 10570164
60 67 12919386
85 88 3121743
77 60 12886886
60 77 4849574
30 69 7264962
21 55 3130045
25 4 3148331
4 25 3154760
60 66 6946145
44 22 3216827
49 78 10569592
56 83 13160741
85 87 3296944
63 17 6936484
52 54 12473140
62 23 10815677
62 66 10815677
64 16 10216787
22 44 3312457
0 70 11063453
88 84 5550917
64 85 3654352
87 85 4586596
57 67 3819441
54 22 7518427
50 57 3658525
60 30 12917801
60 29 8683887
3 67 3683960
30 66 7264962
18 46 4518889
18 53 4518889
18 38 4518889
18 26 11667820
18 37 4518889
11 30 3737415
44 49 3741347
14 15 10208774
55 64 3747280
55 50 4604527
88 8 5555617
26 65 5015198
26 46 12977992
26 24 12375933
26 57 12375933
3 15 6831251
57 52 13062960
65 26 4426254
48 2 3825060
87 21 3826583
2 48 3827790
84 88 9947266
85 66 3830092
19 9 9085278
14 88 10560579
25 55 5563527
16 9 3917781
49 44 3918977
32 65 3978864
2 65 3980165
71 66 13156871
67 65 3984029
67 54 13350854
52 65 3987428
17 65 3988522
52 84 13060746
84 65 8677435
18 8 3999206
51 38 10217628
60 38 4262327
46 66 4010761
38 54 4198595
54 60 12467889
35 43 4247806
50 52 13064239
88 14 10545306
50 67 4417764
14 33 9183510
38 60 4259822
84 52 13061728
2 14 4327510
24 46 9784996
55 84 4342666
55 63 4342666
55 17 4342666
35 56 5118730
56 35 4348669
88 61 11776796
18 4 4412266
44 14 4419199
44 33 4419199
44 13 4419199
25 11 9099825
66 69 4427275
66 7 4427282
66 59 4427282
66 21 4427282
4 18 4428855
35 85 8413253
85 16 9958116
85 9 4877585
1 61 4455382
87 63 4495824
61 1 4502793
43 14 4505509
85 24 4506116
4 32 5217327
63 65 4510735
63 24 4510837
71 8 13156871
33 14 5030973
83 85 13488995
48 85 4582346
62 88 10815677
55 70 4604527
14 56 4608246
77 49 11775931
49 77 11770541
48 49 4864304
48 15 4864304
32 55 4885904
26 49 4934767
66 58 5120040
30 60 12907418
86 14 5022758
44 60 7979625
52 37 5037655
71 30 13156620
32 25 6709371
67 60 5111094
35 16 13076027
35 25 12217258
87 35 10836480
83 8 5131589
83 62 5131589
83 46 5131589
83 24 5131589
83 65 5131589
83 50 5131589
83 37 5131589
83 63 5131589
83 86 5131589
37 60 5205140
4 24 5214996
4 58 5215443
4 53 6670407
4 56 5217534
24 4 5217585
4 87 5217964
4 1 6849075
4 12 6687617
58 4 5224929
32 4 5400378
87 4 5446601
43 2 8645285
43 37 5455846
9 16 5465135
30 55 5465500
16 54 5465793
65 57 5465986
67 32 6929896
78 37 5469167
32 67 5470214
88 35 5474103
38 32 5474490
61 60 5534953
23 46 10902078
23 9 9204591
88 2 5542759
2 88 5545123
61 16 5545687
88 78 5550802
88 86 5551552
88 39 12463416
25 67 5553963
61 88 5554741
67 25 8661659
88 66 5555240
49 85 12541124
87 39 9098455
49 83 5556043
49 23 12538830
49 63 5556706
49 17 5556814
49 71 5556862
49 66 5556921
46 23 11089255
35 26 10829414
26 35 10977627
39 88 12463537
19 16 12295134
23 39 9096598
26 51 9255517
85 4 6746129
12 4 6676846
48 60 12359034
4 85 6670825
58 30 6593593
60 48 6594784
56 4 6670260
62 60 10815677
62 7 10815677
62 5 10815677
62 49 10815677
62 21 10815677
62 44 10815677
62 81 10815677
62 69 10815677
62 30 10815677
49 15 12907117
22 88 6765685
80 56 7793002
80 67 7793002
80 49 9793833
80 50 7793002
1 4 6840073
85 83 10836796
77 3 6845016
35 46 10380411
11 60 9952547
37 18 6934527
37 46 6934527
37 53 7870527
37 51 6934527
37 38 6934527
37 26 6934527
37 4 6934527
37 27 6934527
22 3 11591710
33 26 6943456
4 37 6944111
60 23 7361777
60 59 6946145
60 72 6946145
60 62 11780370
60 5 6946145
60 49 12221428
60 68 6946145
60 44 6946145
60 71 6946145
4 49 9031742
26 27 13068112
25 68 7189231
30 12 7191169
24 87 7210233
30 23 10899274
30 7 7264962
30 72 7264962
30 62 7264962
30 5 7264962
30 49 7264962
30 21 10899274
30 68 7264962
30 44 7264962
30 81 7264962
30 71 7264962
25 80 10311214
24 21 7273813
49 70 13068346
24 56 7363798
56 24 7364427
56 43 13152423
60 25 12460035
60 11 7379351
80 39 11072452
25 48 9788338
39 60 7454988
54 78 7518427
54 53 7518427
54 44 7518427
54 37 7518427
2 78 7530269
60 43 7535008
25 64 7799774
66 8 7547923
14 11 10814024
43 63 7805338
21 49 7810131
48 11 9948413
53 37 7885512
24 35 9784996
49 4 8160303
49 56 9789157
49 87 12468573
49 58 10550037
32 49 7878855
85 29 7881014
46 55 7886971
50 24 7896429
35 24 7893694
39 1 10201309
56 49 11777281
61 43 7967390
44 11 9084498
43 61 13140977
87 49 11603152
55 4 7994235
39 12 8044179
48 61 9955823
85 61 8050848
60 12 8079013
23 57 8149090
57 23 8149791
57 27 8152605
23 25 8498679
56 54 8392915
48 40 8404215
35 64 9175062
35 1 11675367
48 57 8733955
54 63 8475552
33 46 8477231
25 23 8498344
57 48 8740318
52 60 8480922
60 52 8485785
87 25 8488761
25 87 8491718
35 33 8568384
50 17 8586010
35 65 8649845
50 65 9625291
54 2 8727476
62 52 9869759
1 35 11677382
30 11 8677001
26 25 8734699
37 56 8735952
25 26 8744784
23 35 12473072
43 40 9078890
48 50 8756475
50 48 8757765
8 71 11580275
1 25 8990673
1 85 9622192
35 23 10835421
80 23 8996778
80 62 8996778
44 1 9003920
1 44 9008877
43 11 9017849
50 11 9018176
35 11 9018954
23 11 9020192
54 14 9252183
11 43 9085877
62 29 9086238
11 48 9949119
11 50 9086727
11 35 9086738
11 23 9086802
11 44 9086851
35 22 9091771
43 39 9096282
80 11 9097440
39 43 9099112
39 37 9100706
14 54 9100956
11 61 11725501
29 1 9165189
61 11 9171300
23 1 9171686
30 63 9172240
4 55 9175754
22 11 9179160
14 13 12801980
14 44 12801980
83 23 9203016
62 1 9252118
49 11 12541124
23 55 9634330
15 70 9681317
16 1 9682846
46 1 9688466
11 49 9690610
35 39 9771126
62 11 9771150
24 50 10560302
43 16 9799451
71 23 13156620
71 87 9875301
9 17 9882266
35 21 10835421
35 87 10835421
35 58 10835421
35 30 10835421
85 37 9958314
85 30 12274080
25 44 9961032
18 63 9961655
30 35 10899274
49 86 10571453
1 39 9974826
35 49 10551092
51 46 10217628
51 27 10217628
51 37 10217628
24 83 10220460
18 71 10297451
77 86 10305296
86 15 10384217
35 9 10380237
35 63 10380302
35 17 10380302
25 24 10399324
37 85 10478605
29 62 10984846
49 30 10549534
49 21 10549987
49 35 10550178
30 67 11862532
88 79 10558510
67 30 10562074
71 60 10566371
71 7 10566371
71 62 10566371
71 21 10566371
71 44 10566371
71 81 10566371
71 88 10566371
1 18 11857719
80 1 10586921
18 1 10808564
0 1 12810342
0 64 11063372
14 16 12365240
25 77 10841415
30 87 10899274
30 58 10899274
87 30 12543694
22 29 10906878
31 68 10908337
56 50 10987803
43 54 10993281
85 53 10998668
61 31 11078608
61 68 11078608
61 37 11078608
61 77 11078608
52 50 13060746
80 32 11176997
80 41 11177153
80 76 11185989
17 8 11581556
26 85 11615050
26 18 12977992
83 39 12812368
39 83 11678575
32 54 12203582
44 66 11766628
52 17 13060746
32 61 11849910
29 61 11850125
8 61 11851040
52 61 11854577
58 71 11934376
9 61 11942576
2 54 11943948
71 58 13156620
71 63 12367032
7 60 12113716
57 84 12209017
57 50 12209017
57 17 12209017
36 60 12222392
0 71 12294234
58 60 12297649
11 58 12387479
35 61 12463761
23 87 12473072
49 12 12541124
12 49 12475067
53 60 12559003
18 13 12791736
70 0 12810747
51 39 12825267
25 15 12827921
39 51 12878100
61 67 12884686
44 30 12892834
78 39 12900992
49 50 13163982
50 49 13165468
77 52 12994395
52 77 12992052
17 52 13077227
71 0 13156871
82 0 13163307
39 24 13490270
84 17 13425167
24 39 13425614
54 25 13483941
25 54 13488532
54 23 13495827
