47860 17
50400 17
43260 15
43280 15
827300 21
204980 29
224000 29
224020 29
224040 29
224080 29
224400 29
224420 29
224440 29
224460 29
224480 29
224500 29
224520 29
224540 29
224580 29
224600 29
224620 29
224720 29
224740 29
224760 29
225180 29
225300 29
225340 29
225460 29
225520 29
901060 29
902280 29
44280 17
44340 17
44580 21
47860 21
47860 17
49300 21
49740 21
49800 21
49980 21
738760 17
738780 17
811440 17
811460 17
811660 17
210560 17
216700 17
216720 17
216740 17
293380 48
293400 48
652280 17
739880 17
739880 48
748760 17
926080 17
40440 29
40460 29
40480 29
40500 29
40520 29
40560 29
44380 17
44400 17
44420 17
44440 17
44460 17
44480 17
44500 48
44500 17
44520 17
44520 48
44540 17
44540 48
44560 48
44560 21
44600 21
44620 21
44640 48
47500 21
47920 21
47980 21
48000 21
48040 48
48180 48
48900 48
48920 48
48980 48
49000 21
49000 48
49220 21
49220 48
49280 48
49300 21
49300 48
49320 48
49560 21
49620 21
49620 48
49640 21
49660 21
49660 48
49680 21
49680 48
49700 48
49740 21
49740 48
49760 21
49760 48
49780 21
49780 48
49800 48
49800 21
49820 48
49840 48
49860 48
49880 48
49900 48
49920 48
49940 48
49960 48
49980 48
50200 21
50240 21
50400 21
50400 48
37440 29
135020 39
210780 39
295100 39
302820 39
302840 39
302860 39
985660 39
48120 48
217080 21
386220 50
388040 50
388060 50
389840 48
827840 50
827860 50
827880 50
827900 50
827920 50
827940 50
827960 50
828200 50
828220 50
828580 50
828600 50
828740 50
829300 50
829340 50
829360 50
829640 50
918220 50
985080 17
985440 17
985460 17
985480 17
991680 50
991760 50
