47860 17
50400 17
43260 15
43280 15
827300 21
204980 29
224000 29
224020 29
224040 29
224080 29
224400 29
224420 29
224440 29
224460 29
224480 29
224500 29
224520 29
224540 29
224580 29
224600 29
224620 29
224720 29
224740 29
224760 29
225180 29
225300 29
225340 29
225460 29
225520 29
901060 29
902280 29
44280 17
44340 17
44580 21
47860 21
47860 17
49300 21
49740 21
49800 21
49980 21
738760 17
738780 17
811440 17
811460 17
811660 17
210560 17
216700 17
216720 17
216740 17
293380 48
293400 48
652280 17
739880 17
739880 48
748760 17
926080 17
40440 29
40460 29
40480 29
40500 29
40520 29
40560 29
44380 17
44400 17
44420 17
44440 17
44460 17
44480 17
44500 48
44500 17
44520 17
44520 48
44540 17
44540 48
44560 48
44560 21
44600 21
44620 21
44640 48
47500 21
47920 21
47980 21
48000 21
48040 48
48180 48
48900 48
48920 48
48980 48
49000 21
49000 48
49220 21
49220 48
49280 48
49300 21
49300 48
49320 48
49560 21
49620 21
49620 48
49640 21
49660 21
49660 48
49680 21
49680 48
49700 48
49740 21
49740 48
49760 21
49760 48
49780 21
49780 48
49800 48
49800 21
49820 48
49840 48
49860 48
49880 48
49900 48
49920 48
49940 48
49960 48
49980 48
50200 21
50240 21
50400 21
50400 48
37440 29
135020 39
210780 39
295100 39
302820 39
302840 39
302860 39
985660 39
48120 48
217080 21
386220 50
388040 50
388060 50
389840 48
827840 50
827860 50
827880 50
827900 50
827920 50
827940 50
827960 50
828200 50
828220 50
828580 50
828600 50
828740 50
829300 50
829340 50
829360 50
829640 50
918220 50
985080 17
985440 17
985460 17
985480 17
991680 50
991760 50
900820 63
911540 39
911560 39
30380 80
33560 15
35780 29
43180 15
43260 15
43260 29
43280 29
43280 15
43300 15
43420 15
43440 15
43460 15
43480 15
43580 15
43600 15
43680 15
49560 79
49600 29
49800 79
58620 15
59720 15
63660 15
120480 39
120500 39
121160 15
121180 15
121520 15
121540 15
121560 15
121780 15
121840 15
149820 15
149840 15
149860 15
149880 15
149900 15
149920 15
149940 15
149960 15
149980 15
150000 15
150020 15
220040 29
220060 29
222900 29
222920 29
229200 63
229240 29
229260 29
229280 29
231240 29
231260 29
231280 29
293480 56
307360 56
307380 56
308360 15
308420 15
309160 15
309180 15
319140 15
324940 15
324960 15
325020 15
325080 15
325100 15
325220 15
325300 15
385680 29
385740 29
385900 29
385920 29
385940 29
385960 29
648260 29
648280 29
648300 29
732380 15
732400 15
732420 15
732440 15
732460 15
732520 15
732580 15
732600 15
732620 15
732640 15
732660 15
732680 15
732720 15
732740 15
732820 15
732860 15
732900 15
732920 15
732940 15
732960 15
733000 15
733020 15
733040 15
733060 15
733080 15
733100 15
733120 15
733140 15
733160 15
733180 15
733200 15
733220 15
733240 15
733260 15
733440 15
733700 29
733720 29
733740 29
733760 29
733780 29
733800 29
733920 29
733940 29
733960 29
1000280 39
1004100 39
1008900 39
1008940 39
1008960 39
1008980 39
1009000 39
1009080 39
1009260 39
208540 17
208560 17
210920 21
213080 21
213200 21
220220 21
220300 21
220320 21
220720 21
223120 21
641000 80
821680 21
821700 21
821720 21
827240 21
827260 21
827300 21
827340 21
827400 21
827420 21
828420 21
828440 21
828460 21
841940 21
841960 21
44480 17
44520 66
44540 66
44560 66
44580 66
44580 17
44600 66
44600 17
44620 66
44620 17
47480 66
48240 79
50040 50
57520 17
57680 17
57700 17
293820 80
659420 50
659440 50
659460 50
659480 50
659500 50
659520 50
659540 50
659580 50
659660 50
660240 50
660260 50
660280 50
730660 56
732740 50
732760 50
732940 50
733080 50
733100 50
733120 50
733160 50
737580 50
737740 50
753520 17
753520 101
753540 17
812860 50
813260 50
813920 50
813940 50
820640 50
820680 50
828500 80
828500 50
828520 80
828520 50
828540 50
828560 50
842000 17
842020 17
842060 17
842080 17
895800 56
897660 50
899340 80
983340 80
998700 50
57160 63
57180 63
307300 56
41000 105
41600 105
41680 105
42020 105
42080 105
42480 105
43520 105
43700 105
43720 105
43740 105
44680 105
45320 39
45340 39
45560 39
203900 39
203920 39
204920 39
204940 39
204980 39
205000 39
205160 39
205180 39
205200 39
205220 39
205240 39
205260 39
205280 39
205300 39
210640 105
210660 105
210760 105
210780 105
210800 105
210820 105
210860 105
210900 105
210920 105
211000 105
211020 105
211040 105
211060 105
211080 105
211100 105
211120 105
211140 105
211160 105
211180 105
211200 105
211220 105
211240 105
211260 105
211280 105
211300 105
211320 105
211340 105
211360 105
211540 105
211560 105
211580 105
211600 105
211620 105
211640 105
211660 105
211680 105
211700 105
211720 105
211760 105
211780 105
211800 105
211820 105
211840 105
211940 105
211960 105
212040 105
212260 105
212280 105
212300 105
212320 105
212360 105
212380 105
212400 105
212520 105
212560 105
212580 105
212600 105
212620 105
212640 105
212740 105
212760 105
212780 105
212800 105
212820 105
212840 105
212860 105
212880 105
212900 105
212920 105
212940 105
212960 105
212980 105
213000 105
213020 105
213040 105
213100 105
213180 105
213300 105
213320 105
213740 105
213760 105
213780 105
213800 105
213820 105
213860 105
213880 105
213900 105
213960 105
213980 105
214020 105
214040 105
214080 105
214120 105
214480 105
214560 105
214620 105
214700 105
214720 105
214740 105
214760 105
214780 105
214820 105
214860 105
214880 105
214900 105
214920 105
214940 105
214960 105
215060 105
302560 39
302660 39
302680 39
302700 39
303900 39
303920 39
303940 39
303960 39
303980 39
304000 39
304060 39
309840 95
317760 105
317780 105
322260 105
390260 105
391120 105
391300 105
391340 105
392040 105
392180 105
392220 105
392260 105
392280 105
392380 105
392600 105
392640 105
640840 29
640860 29
659860 105
662140 105
662200 105
662220 105
662260 105
662300 105
663580 105
664300 105
664320 105
664340 105
664360 105
664380 105
664420 105
665340 105
668520 39
733400 105
734020 105
810780 39
810800 39
810820 39
810840 39
812080 39
812160 39
812220 39
812260 39
812520 29
812580 29
820900 39
820920 39
896580 39
919840 105
919860 105
919900 105
919920 105
919940 105
919960 105
919980 105
920000 105
920020 105
135580 63
135620 63
135640 63
135660 63
135680 63
135700 63
135720 63
135760 63
135780 63
135800 63
135820 63
135840 63
135860 63
135880 63
135940 63
136020 63
136040 63
136060 63
136080 63
136100 63
136120 63
136140 63
136160 63
136180 63
136200 63
136220 63
136240 63
136260 63
136280 63
136300 63
136320 63
136340 63
210900 95
221880 63
221900 63
221920 63
221940 63
221960 63
221980 63
222000 63
222020 63
222040 63
222060 63
222140 63
222160 63
222280 63
222760 63
222820 63
229000 29
30380 95
30400 80
30400 95
30420 95
30440 95
30460 95
30480 95
320040 50
320160 50
320180 50
320260 50
320280 50
320300 50
840360 39
840380 39
840460 39
840480 39
31560 39
31580 39
31620 39
31640 39
31680 39
31700 39
32020 39
32040 39
32060 39
32080 39
32100 39
32200 39
32260 39
32280 39
32300 39
32320 39
32340 39
127020 95
127040 95
127060 95
204360 29
204960 113
205060 29
205080 29
205100 29
238680 95
238700 95
238720 95
238740 95
238760 95
238780 95
238800 95
238820 95
238840 95
238860 95
238880 95
238900 95
238920 95
238940 95
238980 95
239000 95
239020 95
239040 95
239060 95
239080 95
239100 95
239120 95
291700 113
308180 39
308520 39
308540 39
308560 39
308580 39
722600 29
722620 29
722720 29
31220 79
664200 79
664260 79
664320 79
664340 79
664380 79
664420 79
664480 79
664640 79
664760 79
664920 79
664940 79
664960 79
664980 79
665000 79
665020 79
665040 79
665060 79
665080 79
665120 79
665140 79
665160 79
665180 79
665200 79
665220 79
665240 79
665260 79
665280 79
665300 79
665380 79
665400 79
665440 79
665460 79
665480 79
665520 79
665540 79
665560 79
665580 79
666540 79
666920 79
666940 79
667620 63
725600 29
754780 63
754800 63
815100 63
34180 95
35620 116
63620 95
63640 95
63660 15
63660 95
63680 95
63700 95
63720 95
63740 95
63760 95
63780 95
120260 95
124160 15
124180 15
204500 79
204520 79
204540 79
204560 79
204580 79
204600 79
204620 79
204640 79
204660 79
204680 79
204700 79
204760 79
204780 79
204800 79
204820 79
204880 79
204960 79
205000 79
205020 79
205080 79
208140 15
208160 15
208740 15
209640 15
209660 15
209720 15
210060 15
210080 15
210100 15
210120 15
210140 15
210160 15
212080 15
294060 79
294560 79
294600 79
294840 79
297720 95
297740 95
297760 95
297780 95
297800 95
297820 95
297840 95
297860 95
297880 95
297920 95
297940 95
297960 95
297980 95
298000 95
298020 95
298040 95
298060 95
298080 95
298100 95
298120 95
298140 95
298160 95
298180 95
298200 95
298220 95
298240 95
298260 95
298280 95
298300 95
298340 95
298360 95
298380 95
298400 95
300300 95
300420 95
300480 95
300500 95
300680 95
300700 95
300780 95
300800 95
315580 95
315840 95
316400 95
316420 95
316440 95
316460 95
316480 95
316560 95
316580 95
316700 95
316860 95
316960 95
316980 95
317520 95
317540 95
317560 95
318800 95
319820 95
387240 15
389800 95
397660 95
400320 95
400340 95
402440 95
405180 95
405340 95
405360 95
411080 15
411320 15
411500 15
411540 15
411560 15
411580 15
411840 15
411860 15
411880 15
655380 79
667200 95
667220 95
667240 95
667260 95
667280 95
667300 95
667320 95
667340 95
667360 95
667380 95
667400 95
667420 95
667440 95
667460 95
667480 95
667500 95
667520 95
667540 95
667560 95
667580 95
667600 95
727340 15
727360 15
727380 15
743160 79
809620 79
810180 79
810200 79
810220 79
810300 79
810320 79
824080 15
824120 39
831620 29
897820 39
897840 39
900740 39
900860 39
901140 79
902240 79
902260 79
902280 79
902300 79
902320 79
902340 79
902400 79
914260 95
924220 15
924440 15
924660 15
925600 15
927440 15
927460 15
927520 15
994580 29
122740 50
122820 50
122840 50
122860 50
122880 50
122900 50
122920 50
122960 50
123000 50
123040 50
240300 102
312260 50
318720 102
657500 50
657520 50
657540 50
657560 50
657580 50
657600 50
658120 50
658140 50
658260 50
658280 50
658300 50
658400 50
659360 50
659600 50
659600 102
659620 50
659620 102
659660 102
659680 102
659700 102
659720 102
659740 102
659760 102
659780 102
659800 102
659840 102
659860 102
659880 50
659900 50
659960 102
659980 102
660080 102
660180 102
660220 102
660240 102
660260 50
660260 102
660280 102
660320 102
660340 102
660360 102
660380 102
660400 50
660400 102
660620 102
660800 50
660800 102
660820 50
660820 102
660840 50
737760 50
737760 102
307860 120
307920 120
308020 120
308040 120
308060 120
308080 120
308200 120
308220 120
308240 120
308300 120
308320 120
308340 120
308360 120
308660 120
308680 120
308700 120
309100 56
319020 56
322780 56
389820 63
389840 48
653380 56
653420 56
653460 56
653480 56
653500 56
654440 56
654500 56
655780 56
655800 56
655820 56
656180 56
656980 56
661000 56
668500 56
668520 56
668560 56
668580 56
668600 56
668620 56
668660 56
668680 56
668720 56
668740 56
668940 56
668960 56
669100 56
669120 56
669140 56
669180 56
669200 56
669220 56
669280 56
724800 56
825240 56
825260 56
825280 56
825300 56
830800 56
838580 56
839160 56
839280 56
839620 56
842060 56
842080 56
842120 56
842140 56
842160 56
842200 56
842340 56
842460 56
842480 56
842520 56
842560 56
842620 56
842660 56
842680 56
842700 56
842740 56
842760 56
842800 56
842820 56
842860 56
842880 56
842940 56
843000 56
843040 56
843740 56
843760 56
844020 56
844060 56
897660 56
897780 56
897840 56
897860 56
897880 56
897900 56
897920 56
897960 56
898000 56
898100 56
898120 56
898140 56
898160 56
898200 56
898220 56
898260 56
898300 56
898320 56
898360 56
898380 56
898620 56
904860 119
904880 119
911020 56
920580 56
922360 56
997940 79
997960 79
997980 79
998000 79
998020 79
998040 79
998060 79
998080 79
998100 79
998120 79
998140 79
998160 79
998180 79
998200 79
998220 79
998240 79
998260 79
998280 79
998300 79
998320 79
998340 79
998360 79
998380 79
1002940 56
1003000 56
1003080 56
1014560 56
44620 48
296920 116
307100 50
307140 50
310900 119
649200 80
739800 17
739860 48
739880 48
739880 17
739900 17
753000 101
756040 50
756060 50
907960 50
907980 50
908000 50
908300 50
908400 50
909520 50
909580 50
909600 50
909620 50
909640 50
909700 50
909720 50
909760 50
909780 50
909840 50
926080 17
926080 50
926100 17
926100 50
30020 21
30060 21
31900 21
32300 21
124020 131
124040 131
124060 131
124080 131
124100 131
124120 131
124140 131
124160 131
124180 131
124200 131
124220 131
124240 131
124260 131
124280 131
124300 131
124320 131
124340 131
124360 131
224580 63
232080 116
295940 119
381300 63
381320 63
381340 63
381360 63
381400 63
381420 63
381440 63
381680 63
381700 63
381840 63
381860 63
381880 63
382580 63
383160 63
383560 63
383800 63
384560 63
384660 63
384700 63
384720 63
385860 63
385940 63
385960 63
385980 63
386020 63
386060 63
387940 63
387960 63
388460 63
388600 63
389420 63
389460 63
389680 63
648520 63
654040 63
656000 63
656020 63
656040 63
656260 63
656300 63
734100 63
992680 123
992700 123
992720 123
992760 123
992780 123
992800 123
992820 123
992900 123
992920 123
992940 123
992960 123
993020 123
993040 123
993060 123
993080 123
993100 123
993120 123
993280 123
993300 123
993320 123
993340 123
994720 123
134980 80
216300 150
223420 63
224380 63
318320 63
732460 150
744500 63
744520 63
744540 63
748700 122
748780 150
749240 150
749480 122
749520 122
751900 63
751900 150
819680 150
820700 63
829420 122
829440 122
830000 122
830020 122
830640 122
831700 150
838080 122
838100 122
901220 63
901240 63
901480 63
901840 63
901860 63
901920 63
901940 63
901960 63
901980 63
902000 63
902020 63
902040 63
902060 63
902080 63
909000 122
909020 122
924280 122
924500 122
925020 122
925040 122
994680 123
994700 123
1002800 150
1005800 150
43660 150
43680 150
43700 150
43720 150
43760 150
43820 150
43840 150
43860 150
43880 150
43940 150
43960 150
55940 63
116880 150
120460 150
120480 150
142100 153
151020 153
151100 153
151200 153
151220 153
151440 153
151460 153
151500 153
151780 153
151800 153
151820 153
151840 153
151860 153
223320 63
223340 63
224440 63
381380 150
640220 122
640240 122
662520 122
662540 122
662560 122
662640 122
662680 122
662780 122
662800 122
662820 122
662840 122
662860 122
665100 119
665120 119
724900 122
724920 122
724940 122
724960 122
724980 122
726860 153
727460 122
727640 150
729580 56
729860 63
730500 63
730720 153
734080 63
734100 150
734100 63
734140 63
747620 122
747640 122
747660 122
748280 122
748300 122
751180 63
751780 63
751800 63
751820 63
751840 63
751860 63
751900 63
752800 122
752960 122
809920 122
810760 150
810780 150
810800 150
810820 150
821740 122
821760 122
821780 122
826020 79
831840 122
831860 122
831940 122
832140 122
836820 122
836840 122
836880 122
836980 122
837380 122
842560 122
842580 122
842620 122
842640 122
899580 122
899600 122
899620 122
899640 122
899900 122
899920 122
899940 122
907380 63
907880 122
924380 153
926620 122
926660 122
926680 122
926700 122
926720 122
926820 122
926920 122
926940 122
926960 122
927000 122
989620 122
989640 153
989640 122
989660 122
989680 122
989920 122
47480 123
904740 132
904760 132
904780 132
904920 132
905240 132
905460 132
906980 63
912180 123
912200 123
912220 123
912240 123
912340 123
912360 123
912380 123
912400 123
912420 123
912440 123
912460 123
912480 123
912500 123
912520 123
912540 123
912560 123
912580 123
912600 123
912620 123
912660 123
912680 123
912700 118
912700 123
912720 123
912740 123
912760 123
912780 123
912800 123
912820 123
912840 123
912860 123
912880 123
912900 123
912920 123
912940 123
912960 123
912980 123
913000 123
913080 123
913100 123
913800 122
34740 120
34920 120
36260 120
36280 120
38340 120
38360 120
41620 120
136960 123
136980 123
143980 120
144000 120
206100 120
206180 120
209620 120
212420 120
212440 120
212460 120
212480 120
212500 120
212520 120
213920 120
214060 120
308880 56
309260 80
408840 95
408860 95
409920 123
653280 132
810800 113
810800 120
820640 120
828240 123
829080 120
830200 120
831100 120
900740 123
911080 164
911100 164
911120 164
911180 164
997140 132
997160 132
997180 132
997420 132
997520 132
997620 132
30640 21
34580 50
44340 17
44540 17
44560 102
44580 102
44600 102
44620 102
47580 66
47720 48
47740 48
47740 17
47760 17
47800 48
47820 48
47840 48
220340 21
640980 101
641040 101
641080 101
641280 101
641400 101
641420 101
641440 101
641460 101
641480 101
641500 101
641520 101
641540 101
641560 101
641580 101
641620 101
641640 101
641660 101
641700 101
641720 101
641760 101
641780 101
641800 101
641820 101
641840 101
641860 101
641880 101
641900 101
641920 101
641940 101
641960 101
641980 101
642000 101
642020 101
642040 101
642060 101
642080 101
642100 101
642120 101
642140 101
642160 101
642180 101
642200 101
642220 101
642240 101
642260 101
642280 101
642300 101
642320 101
642340 101
642360 101
642380 101
642400 101
642420 101
642440 101
642460 101
642480 101
642500 101
642520 101
642540 101
642560 101
642580 101
642600 101
642620 101
642640 101
642660 101
642680 101
642700 101
642720 101
642740 101
642800 101
642820 101
642840 101
642860 101
642880 101
642900 101
642920 101
642960 101
642980 101
643000 101
643020 101
643040 101
643060 101
643080 101
643100 101
643120 101
643140 101
643160 101
643180 101
643200 101
643220 101
643240 101
643260 101
643280 101
643300 101
643320 101
643340 101
643360 101
643380 101
643400 101
643420 101
643440 101
643460 101
643480 101
643500 101
643520 101
643540 101
643560 101
643580 101
643600 101
643620 101
643640 101
643660 101
643680 101
643700 101
643720 101
643740 101
643760 101
643780 101
643800 101
643820 101
643840 101
643860 101
643880 101
643900 101
643920 101
643940 101
643980 101
644000 101
644020 101
644040 101
644060 101
644080 101
644100 101
644120 101
644140 101
644160 101
644180 101
644200 101
644220 101
644240 101
644260 101
644280 101
644300 101
644320 101
644340 101
644360 101
644380 101
644400 101
644420 101
644440 101
644460 101
644480 101
644500 101
644520 101
644540 101
644560 101
644580 101
644600 101
644620 101
644640 101
644660 101
644680 101
644700 101
644720 101
644740 101
644760 101
644780 101
644800 101
644820 101
644860 101
644880 101
644900 101
644920 101
644960 101
644980 101
645060 101
645080 101
645120 101
645140 101
645160 101
645180 101
645220 101
645240 101
645380 101
645400 101
645420 101
645440 101
645560 101
645660 101
645680 101
645720 101
645740 101
645780 101
646000 101
646100 101
646140 101
646160 101
646260 101
646280 101
646300 101
646320 101
646340 101
646360 101
652060 17
652240 17
739800 134
739860 134
821220 50
824720 102
830660 101
830680 101
830740 101
830760 101
830780 101
830800 101
830820 101
830840 101
830860 101
830880 101
830920 101
830940 101
830960 101
831020 101
831040 101
831060 101
831080 101
831100 101
831120 101
831140 101
831160 101
831180 101
831200 101
831220 101
831240 101
831260 101
831280 101
831300 101
831320 101
831340 101
831360 101
831380 101
831400 101
831420 101
831440 101
831460 101
831500 101
831520 101
831540 101
831560 101
831580 101
831600 101
831620 101
831640 101
831840 101
831860 101
29780 79
49640 95
293980 56
308420 120
310360 39
390240 105
390260 105
390280 105
390300 105
390320 105
390520 105
390660 105
390680 105
390860 113
648860 105
648920 105
648960 105
649000 105
649140 105
649160 105
649340 105
649940 105
649960 105
649980 105
650020 105
651240 105
907680 39
907840 154
908040 39
913640 95
918920 113
924420 39
924440 39
924580 39
206820 131
207020 118
207140 118
207380 118
207680 118
207700 118
207780 118
207800 118
207820 118
209480 118
209520 118
209660 118
296960 134
296980 134
297000 134
297020 134
297040 134
297060 134
297080 134
297100 134
297120 134
297140 134
297160 134
297180 134
297200 134
297220 39
297240 134
815340 123
815360 123
816000 123
913540 134
913560 134
57380 184
57400 184
125220 131
317640 35
390740 184
33660 56
33680 56
43560 95
43640 95
43660 95
43680 95
46940 113
47020 113
47060 113
62440 95
62460 95
62480 95
62500 95
62520 95
62540 95
62560 95
62580 95
62600 95
62700 95
62720 95
62740 95
62760 95
136400 95
136420 95
136440 95
136460 95
136720 56
136740 56
293440 95
293460 95
293480 95
293520 95
293660 95
293680 95
296140 123
297200 184
303060 113
303120 113
303800 39
303820 39
303840 39
303860 39
303900 113
303900 39
303920 113
303940 113
303940 39
303960 39
303980 39
304020 39
304060 39
307820 132
307900 120
307920 132
307920 120
307920 39
307940 120
307940 39
307960 120
307980 120
308000 120
308020 120
308040 120
308040 132
308060 120
308080 120
308100 120
308120 39
308120 120
308140 120
308160 120
308180 132
308180 120
308180 39
308200 132
308220 120
308220 132
308240 132
308280 132
308280 120
308300 132
308320 132
308380 120
308420 120
308420 181
308440 120
308520 39
308540 120
308540 39
308560 120
308560 39
308580 132
308580 120
308580 39
308600 120
308600 132
308600 39
308640 120
308660 120
308680 120
308680 132
308700 132
308700 120
637400 113
638280 132
640380 113
651760 95
651780 95
651860 95
651880 95
651900 95
651920 95
651960 95
651980 95
652000 95
652020 95
652040 95
652060 95
652080 95
652100 95
652120 95
652140 95
724940 120
724980 29
733960 95
733980 95
897300 113
897320 113
897340 113
897540 113
897560 113
897600 113
897700 113
897940 95
901140 113
907500 29
907820 39
908020 39
908040 181
908040 39
911500 39
911520 39
911580 39
911660 39
911680 39
911700 39
911720 39
911740 39
911760 39
912080 39
912100 39
912120 39
912140 39
912180 39
912200 39
912220 39
926320 95
926680 95
926700 95
926720 95
926980 113
927000 113
1000140 39
30000 150
44460 66
64700 172
120860 172
124000 120
124020 120
124040 120
124060 120
124080 120
124280 120
124300 120
124320 120
127720 120
141620 172
143560 172
144220 172
144240 172
151140 120
205880 120
214260 172
214280 172
297180 184
390280 172
745940 120
745960 120
810920 172
810940 172
832320 79
986480 172
30060 21
30460 21
30520 153
34020 95
44480 39
50060 39
50080 39
50100 39
50120 39
50140 39
63180 39
63200 39
63220 39
127080 95
127280 95
134760 56
134780 56
134800 56
134820 56
135320 56
135340 56
135660 120
297300 95
307320 56
309120 131
396900 39
403620 63
906920 39
1002860 196
1002900 196
1002920 196
1002940 196
1014140 196
44080 48
44100 48
44120 48
44320 179
44340 179
44340 17
44360 66
44380 48
44480 66
44520 66
44540 66
44560 48
44580 48
44600 48
44620 48
44620 134
44620 66
49060 21
49140 21
147740 118
206840 150
216960 50
216980 50
217000 50
217000 17
220660 118
396280 119
408060 48
639540 48
645940 48
646000 48
738660 17
751720 48
751880 48
751920 48
751940 48
751960 48
810640 101
841980 179
842000 179
842020 179
910360 48
910480 48
925880 48
925900 48
925920 48
925940 48
925960 48
998580 48
998620 48
122140 35
122200 35
122240 35
122260 35
122280 35
135000 209
123940 119
209480 116
209520 116
222600 116
222620 116
222660 116
222680 116
229220 116
229240 116
807900 80
392420 211
403060 150
727940 63
728000 63
824880 211
824900 211
824920 211
824940 211
824960 211
824980 211
825000 211
825020 211
825040 211
825060 211
825080 211
825100 211
825120 211
825140 211
825160 211
825180 211
825200 211
825220 211
825240 211
825260 211
825280 211
825300 211
825320 211
825340 211
825360 211
835800 211
843720 211
991160 29
998960 80
44180 80
44420 80
44760 80
44780 80
44800 80
44820 80
44840 80
44860 80
45040 80
45060 80
45080 80
45120 80
45140 80
45260 80
45360 80
45900 80
46340 80
47460 80
47480 80
47640 80
47680 179
47700 179
53520 29
53540 29
119420 79
119500 79
119520 79
119940 79
119960 79
130860 79
135860 196
135900 196
136400 116
208300 211
218500 79
218520 79
218540 79
218560 79
218580 79
218600 79
218760 79
218820 79
222940 29
223000 79
223020 79
232160 79
235300 123
235320 123
235380 123
235440 123
235460 123
238620 95
238640 95
238660 95
640280 154
648360 181
648520 63
649860 80
650540 79
652520 80
652720 80
652740 80
652820 80
652880 80
652900 80
814820 29
826000 79
826080 79
826120 79
826140 79
826160 79
826180 79
826200 79
826220 79
826240 79
826340 79
826360 79
838640 95
838660 95
838680 95
838700 95
838800 95
838820 95
838840 95
838900 95
838940 95
839000 95
839060 95
990860 95
1004480 39
1004500 79
1004520 79
34800 120
44460 196
44480 196
48280 222
48300 222
55660 196
58400 113
58900 205
59340 205
59460 205
123080 123
123100 123
123120 123
123180 123
123200 123
123240 123
123260 123
123280 123
123300 123
123320 123
123340 123
123360 123
123380 123
123400 123
123420 123
123440 123
123460 123
123480 123
123500 123
123520 123
123540 123
123560 123
123580 123
123600 123
123620 123
123640 123
123660 123
123680 123
123700 123
123720 123
123740 123
123760 123
123780 123
123800 123
123820 123
123840 123
123860 123
123880 123
123900 123
123920 123
123940 123
123960 123
123980 123
124000 123
124020 123
124040 123
124060 123
124080 123
124100 123
133960 196
133980 196
134220 196
134480 196
134500 196
134520 196
134540 196
134560 196
134580 196
134600 196
134620 196
134640 196
134660 196
134680 196
134700 196
134760 95
135160 196
135360 196
135380 196
135400 196
135420 196
135440 196
135460 196
135480 196
135500 196
135520 196
136340 222
145140 95
145160 95
149020 15
149120 15
149140 15
149160 15
149180 15
149200 15
207520 205
207540 205
207600 205
207780 205
207940 205
207980 205
224660 15
297200 184
308280 102
309460 123
309480 123
309500 123
309520 123
310680 123
310920 181
314320 123
319820 15
392020 80
646100 196
647440 29
648520 222
648560 222
648580 222
648600 222
648620 222
648640 150
652200 123
661920 123
824300 222
824420 222
824480 222
824920 222
825660 205
825800 123
910200 123
914260 63
984280 95
985220 39
989820 213
994500 95
1007180 123
1007240 123
1008020 123
1008980 222
44780 134
44800 134
44860 134
48680 102
48700 102
49720 134
390020 80
390060 80
390100 50
390180 50
390200 50
390360 105
392640 50
392840 50
395180 63
904620 119
904640 119
904660 119
904680 119
904700 119
904740 119
904800 119
46920 113
47000 113
47020 113
47040 113
120600 95
123580 131
123720 131
149400 194
316520 113
389520 39
389540 39
389600 39
394780 95
30280 39
30280 80
35800 123
35880 123
35980 123
36320 79
36820 123
39760 123
40420 123
40560 123
42040 123
42060 123
42320 123
42340 123
42380 123
44380 123
44440 123
44840 123
44860 123
45440 123
45640 123
46360 123
46380 123
50760 123
51340 123
51400 123
51420 123
51760 123
51960 123
51980 123
52000 123
53880 123
53900 123
55180 123
55200 123
57000 123
57020 123
57040 123
57060 123
59380 123
59400 123
59420 123
59460 123
59500 123
59520 123
59540 123
59700 123
61280 123
61340 123
63380 123
63400 123
63480 223
63660 95
63660 123
64000 123
64020 123
64060 123
64080 123
64100 123
64120 123
64140 123
122480 123
122500 123
123040 123
136060 123
136940 95
151500 123
151560 123
151600 123
151640 123
293980 35
295020 95
301900 123
301920 123
301940 123
301960 123
301980 123
302000 123
302120 123
381840 123
381860 123
381920 123
381940 123
381960 123
387260 123
387560 15
387660 15
387680 15
387740 15
387760 15
387780 15
387800 15
387820 15
387840 15
389540 123
389560 123
649320 120
649340 120
649340 134
649380 120
649400 120
649420 120
649440 120
649440 134
667140 95
667160 95
667200 123
667760 123
667780 123
667800 123
667920 123
727360 15
727400 15
727420 15
727440 15
727460 15
727480 15
727500 15
727520 15
727600 15
727640 123
727960 15
728720 15
728820 15
729020 15
729160 15
729180 15
729700 15
729740 123
730460 123
730860 15
731040 15
731220 15
731240 15
731260 15
731300 15
731360 15
731380 15
731400 15
731420 15
731440 15
731460 15
731480 15
731500 15
731520 123
732120 15
732200 15
736600 79
744420 95
815380 184
815480 184
815500 184
815520 184
815540 184
815560 184
815580 184
815620 184
815640 184
815660 184
816060 123
817980 123
822480 79
825200 123
825220 123
825800 223
825800 123
825860 123
826020 123
826080 123
826260 123
826300 123
826560 123
826620 123
826640 123
826660 123
826680 123
826700 123
826720 123
826760 123
826880 123
826940 123
827000 123
827100 123
827220 123
827240 123
827260 123
827280 123
827400 21
827400 101
836980 95
837000 95
837040 123
837500 123
837560 123
843240 123
901180 123
901200 123
901280 79
901280 123
901300 79
901940 79
902040 79
902060 79
902080 123
902200 79
902560 123
902880 123
902940 123
902960 123
903020 123
903040 123
903060 123
903080 123
903100 123
903120 123
903140 123
903160 123
903180 123
903200 123
903220 123
903240 123
903260 123
903280 123
903300 123
903320 123
903340 123
903360 123
903380 123
903400 123
903420 123
903440 123
903460 123
903480 123
903500 123
903520 123
903540 123
903560 123
903580 123
903600 123
903620 123
903640 123
903660 123
903680 123
903700 123
903720 123
903740 123
903760 123
903780 123
903800 123
903820 123
903920 123
903940 123
903960 123
903980 123
904000 123
904020 123
904120 123
904140 123
904160 123
904180 123
904200 123
904220 123
904240 123
904260 123
904280 123
904300 123
904320 123
904340 123
904360 123
904380 123
904460 123
904480 123
904500 123
904520 123
904540 123
904560 123
904580 123
904600 123
904620 123
904680 123
904700 123
904720 123
904740 123
904760 123
904780 123
904800 123
904840 123
904860 123
904940 123
904960 123
904980 123
905000 123
905020 123
905120 123
905140 123
905160 123
905180 123
905200 123
905220 123
905240 123
905260 123
905280 123
905300 123
905340 123
905360 123
905380 123
905400 123
905420 123
905440 123
905460 123
905480 123
905500 123
905520 123
905540 123
905560 123
905580 123
905600 123
905680 123
905720 123
905740 123
905760 123
905780 123
905800 123
905820 123
905840 123
905900 123
905920 123
905940 123
906120 123
906140 123
906160 123
906200 123
906300 123
906320 123
906360 123
906400 123
906420 123
906440 123
906460 123
906480 123
906500 123
906520 123
906540 123
906780 123
906800 123
906820 123
906840 123
906920 123
906960 123
906980 123
907000 123
907020 123
907040 123
907060 123
907080 123
907160 123
907180 123
907200 123
907220 123
907300 123
911360 123
911740 123
911880 123
911920 123
911940 123
911960 123
912020 123
912260 164
912300 164
912320 164
912340 164
912360 164
912380 164
912400 164
912420 164
912420 123
912440 123
912440 164
912460 123
912460 164
912480 164
912500 164
912540 123
912540 164
912560 123
912560 164
912580 123
912580 164
912600 123
912620 164
912640 164
912640 123
912660 123
912660 164
912680 123
912680 164
912700 123
912700 164
912720 164
912740 123
912740 164
912760 164
912760 123
912780 164
912820 164
912840 164
912920 164
912960 164
913000 164
913080 164
913600 123
640060 240
725080 131
725140 131
725320 122
725540 122
725580 122
736340 80
753220 131
825000 253
827380 253
827380 123
925780 184
989400 184
989420 184
990200 184
1000120 184
1004960 35
134580 56
141180 95
141200 95
141220 95
141820 185
141840 185
205360 211
205400 184
209600 116
218080 184
220200 50
222680 116
233900 50
296580 211
296600 211
296900 134
298960 211
305360 184
305380 184
305400 184
305420 184
305440 184
305440 116
305460 116
312080 185
315820 35
320400 185
320480 185
320500 185
320600 185
320640 185
320660 185
320680 185
320700 185
320820 185
320840 185
320860 185
320900 185
321160 185
321180 185
321220 185
321240 185
640000 240
640060 35
642280 255
649900 184
649920 184
653980 184
654000 184
654020 184
728320 35
728340 35
728360 35
728380 35
728540 35
728820 35
728840 35
728860 35
728880 35
728900 35
738280 184
738320 194
825520 211
897980 87
897980 35
898000 87
898020 87
908700 120
914180 87
914200 87
914240 87
914260 87
923500 184
986440 184
989000 255
989020 255
34580 222
34600 222
34620 222
34640 222
34660 222
47460 205
47500 205
47660 205
47680 205
47700 205
48080 222
48120 222
48140 222
48220 222
48280 223
48280 222
48300 223
48300 222
48320 223
48320 222
48340 223
48340 222
48360 223
48380 184
48680 222
48700 222
48720 222
48740 222
48980 222
49000 222
49100 222
49140 222
49160 222
49520 222
49540 222
49600 222
49640 222
49660 222
49880 39
51960 222
52980 222
53160 222
53200 222
53220 222
53600 222
53840 222
54080 222
54100 222
54120 222
54140 222
59820 222
59840 222
59860 222
59880 222
59900 222
59920 222
59940 222
59960 222
60020 222
60140 222
60160 222
60280 222
60300 222
60320 222
60340 222
60360 222
60380 222
60400 222
60420 222
60440 222
60460 222
60480 222
62660 222
62680 222
62700 222
62720 222
62740 222
120960 164
120980 164
121000 164
123300 222
123320 222
124500 222
124520 222
124800 222
126700 222
134920 120
214880 222
295040 205
297220 39
297300 105
303300 205
303360 105
303360 205
303420 205
303480 205
307280 116
307300 205
307300 56
307320 56
307340 56
307360 95
307360 56
307380 95
307380 56
309160 205
309180 105
316840 205
316860 205
316880 205
317080 196
317100 196
317900 15
380100 211
380120 211
380160 211
380180 211
380200 211
380220 211
380240 211
380260 211
380300 211
380320 211
380380 211
380400 211
381040 105
401800 205
401920 205
401960 205
402660 205
402700 205
402720 205
402740 205
402760 205
402780 205
402800 205
402820 205
402840 205
402860 205
402880 205
402900 205
402920 205
402940 205
402960 205
402980 205
403020 205
403300 205
403320 205
403340 205
403400 205
403440 205
403460 205
403480 205
403500 205
403520 205
403540 205
403560 205
403580 205
403620 63
403620 205
403640 205
403660 205
403720 205
403740 205
403760 205
655300 134
655400 79
661060 222
661080 222
668840 222
668880 222
725520 211
725600 29
727580 222
727600 222
727620 222
727700 222
727800 222
727820 222
727900 222
727920 222
728320 222
731840 222
731880 222
734140 222
734380 222
748400 205
748780 95
748800 95
748820 95
754020 222
755460 222
755500 222
811820 205
811840 205
811920 39
812240 205
821040 222
831300 222
831480 222
831680 222
840120 222
986900 222
986920 222
987000 222
987300 222
987380 222
987460 222
987480 222
987500 222
989760 222
989860 222
990740 222
990760 222
990800 222
990840 222
990880 222
990900 222
990920 222
994700 222
994820 222
994840 222
994860 222
994880 222
994900 222
994920 222
994960 222
994980 222
995000 222
995020 222
995040 222
995260 222
995300 222
995320 222
995340 222
995380 222
1003300 222
1003320 222
1003340 222
1004180 222
1004200 222
1004440 222
1004460 222
1007280 222
1007380 222
1007940 222
1008200 222
1008260 222
1008280 222
1010640 222
1011980 222
57380 184
57400 184
57420 184
57440 184
57540 184
57600 184
57620 184
57720 184
57740 184
57820 184
57860 184
58440 184
58560 184
59620 184
60040 184
62820 184
62840 184
62860 184
62900 184
62980 184
63120 184
63140 184
125860 211
206860 184
206900 118
206920 184
206940 184
206960 184
206980 184
207000 184
207020 184
207040 184
207060 184
207080 184
207100 184
207120 184
207140 184
207160 184
209820 184
209840 184
209920 184
210180 184
232120 184
232280 184
232400 184
232600 184
232620 184
233780 184
233800 184
296960 134
305320 265
305340 265
315940 35
315960 35
315980 35
639840 184
640100 184
645660 222
645880 222
645900 222
645940 222
646240 222
646260 222
646280 222
646300 222
646320 222
646340 222
647000 222
655740 265
655780 265
655800 265
655820 265
657660 184
657960 265
662240 255
662260 255
746820 184
746840 184
746860 184
746880 184
746900 184
747140 184
747160 184
749240 184
751280 255
751300 255
751320 255
751340 255
751360 255
813540 255
815140 255
815200 255
815300 255
815320 255
815720 255
815980 255
816000 255
816060 255
816260 255
816660 35
989860 184
993840 132
1002860 35
1011100 184
34320 150
34340 150
34780 29
45060 63
47920 102
124360 131
124360 150
124380 150
124400 150
124420 150
124440 150
124460 150
124480 150
124500 150
124520 150
124580 150
124600 150
124740 150
124760 150
124780 150
124800 150
124820 150
124840 150
135100 153
136260 153
136360 153
141600 153
141620 153
141640 153
141660 153
141680 153
141700 153
141720 153
141740 153
141760 153
141780 153
141960 153
142000 153
145060 153
145420 153
145720 153
146640 153
146740 153
146780 153
146800 153
146860 153
146880 153
146980 153
147060 153
147080 153
147200 153
147220 153
147240 153
147380 153
147400 153
147420 153
147440 153
147480 153
147580 153
147900 153
148380 153
148400 153
148420 153
148500 153
148520 153
148560 153
148640 153
148660 153
148680 153
148700 153
148760 153
148780 153
148800 153
148900 153
148920 153
148940 153
149100 153
149160 153
149260 153
149280 153
149300 153
149320 153
149340 153
149360 153
149380 153
149400 153
149420 153
149440 153
149460 153
149480 153
149500 153
149520 153
149540 153
149560 153
149580 153
149640 153
149660 153
149680 153
149700 153
149720 153
149740 153
149760 153
149780 153
149800 153
149820 153
149840 153
149860 153
149920 153
150020 153
150080 153
150100 153
150120 153
150220 153
150240 153
150260 153
150380 153
150400 153
150440 153
150500 153
150520 153
150540 153
150560 153
150580 153
150600 153
150640 153
150660 153
150680 153
150720 153
151000 154
151000 153
151020 154
151160 154
151220 154
151240 154
151280 154
293020 153
293040 153
293080 153
293100 153
293120 153
293140 153
293180 153
295000 153
295580 153
295900 153
298700 153
298720 153
298740 153
298780 153
303040 153
303060 153
303120 153
303180 153
303200 153
303360 153
303380 153
303420 153
303480 153
303540 153
303580 153
303620 153
303640 153
307660 153
307700 153
307740 153
307820 153
307840 153
308820 153
308840 153
309840 153
311260 153
312720 153
315520 153
316100 153
316200 153
316260 153
316320 153
316360 153
316380 153
317300 153
317380 150
317620 153
317720 153
319000 153
319020 153
319320 153
319500 153
319520 153
320120 153
320140 153
320160 153
320180 153
321640 153
321660 153
321680 153
321700 153
321720 153
321740 153
321760 153
321780 153
321800 153
321820 153
321840 153
321880 153
321900 153
321940 153
321960 153
322020 153
322040 153
322060 153
322080 153
322100 153
322120 153
322140 153
322160 153
322180 153
322200 153
322240 153
322260 153
322300 153
322320 153
322340 153
322360 153
322380 153
322420 153
322680 153
382300 150
639740 122
639760 122
639780 122
639840 122
639860 122
639940 122
649660 150
650720 222
723440 122
723680 154
723740 154
726420 153
729920 154
730680 153
730760 153
730780 153
730880 153
730900 153
730920 153
730940 153
731220 153
731240 153
731260 153
731280 153
731320 153
731340 153
731360 153
731380 153
731400 153
731420 153
731460 153
733500 154
734140 63
734160 63
734280 153
741180 154
742520 153
742680 153
743540 63
743600 153
744220 153
744240 153
745320 150
747080 122
748480 122
748500 122
748520 150
748540 122
748540 150
748560 150
748580 122
748580 150
748600 122
748620 122
748660 153
748760 153
748920 153
749040 153
749080 153
749220 153
749240 153
749260 153
749280 153
749480 153
749500 153
749520 153
749560 153
749580 153
749760 153
749780 153
749800 153
749820 153
749960 153
749980 153
750120 153
750200 153
750240 153
750300 153
750320 153
750440 153
750580 153
750600 153
750620 153
750660 153
750680 153
750700 153
750760 153
750780 153
750820 153
750840 153
750860 153
750980 153
751000 153
751280 153
751300 153
751320 153
751340 153
751400 153
751480 153
751500 153
751520 153
751540 153
751920 150
751920 153
751960 153
810680 153
810700 153
810720 153
810740 153
810760 153
810780 153
810800 153
810820 153
810840 153
810860 153
810880 153
810900 153
810920 153
811420 153
811440 153
811460 153
811480 153
811500 153
811520 153
811540 153
811660 153
811680 153
811700 153
811720 153
811740 153
811760 153
811940 153
811960 153
811980 153
812140 153
812180 153
812200 153
812260 153
812280 153
812300 153
812340 153
812360 153
812400 153
812420 153
812440 153
812460 153
812480 153
812500 153
812520 153
812540 153
812560 153
812580 153
812600 153
812660 153
812700 153
812720 153
812740 153
812760 153
812800 153
812820 153
812840 153
812860 153
812880 153
812920 153
812940 153
812960 153
813000 153
813100 153
813120 153
813140 153
813160 153
813180 153
813200 153
813220 153
813240 153
813260 153
813280 153
813300 153
813320 153
813340 153
813360 153
813380 153
813400 153
813420 153
813440 153
813560 153
813580 153
813600 153
813620 153
815180 153
815200 153
815220 153
815260 153
815500 153
815520 153
815540 153
815560 153
815620 153
815640 153
815660 153
815680 153
815700 153
815720 153
815740 153
815760 153
815780 153
815800 153
815820 153
815840 153
815860 153
815920 153
815940 153
815960 153
815980 153
816000 153
816020 153
816080 153
816120 153
816140 153
816220 153
816640 153
816660 153
816680 153
816700 153
816720 153
816740 153
816760 153
816780 153
816800 153
819060 150
819200 153
820200 153
824880 153
830740 153
830780 153
832380 153
832400 153
832420 153
832440 153
832460 153
832480 153
833640 150
833660 150
833680 150
833700 150
833720 150
833740 150
833760 150
833780 150
833800 150
835500 150
835520 150
835540 150
835560 150
835580 150
835600 150
835620 150
835660 150
835680 150
835700 150
835720 150
836600 153
836660 153
836680 154
841160 153
841220 153
842500 153
842520 154
842520 153
842580 122
897200 153
897220 153
903300 153
903320 153
903340 153
903360 153
903380 153
905940 153
906980 153
909500 153
914680 153
915440 154
916480 153
916860 153
916880 153
916900 153
917180 153
917220 153
917260 153
917320 153
917360 153
917380 153
917400 153
917480 153
917500 153
917520 153
917540 153
917560 153
917740 153
917760 153
917820 153
917840 153
917860 153
917880 153
917900 153
917920 153
917940 153
918000 153
918020 153
918040 153
918060 153
918080 153
918100 153
918120 153
918140 153
918160 153
918180 153
918200 153
918220 153
918240 153
918260 153
918280 153
918320 153
918340 153
918360 153
918380 153
918400 153
918420 153
918440 153
918520 153
919380 153
919400 153
920800 153
926080 153
926100 153
926120 153
926140 153
926160 153
926180 153
926260 153
987060 153
987080 153
987100 153
987120 153
987140 153
987160 153
987180 153
987200 153
987220 153
987260 153
987280 153
987300 153
987320 153
987340 153
987360 153
987380 153
987400 153
987420 153
987440 153
987460 153
987480 153
987500 153
987520 153
987540 153
987560 153
987580 153
987600 153
987620 153
987640 153
987660 153
987680 153
987700 153
987720 153
987740 153
987760 153
987780 153
987800 153
987820 153
987840 153
987860 153
987880 153
987900 153
987980 153
988000 153
988020 153
988060 153
988080 153
988120 153
988180 153
988200 153
988220 153
988240 153
988260 153
988280 153
988300 153
988320 153
988340 153
988360 153
988380 153
988400 153
988420 153
988440 153
988460 153
988480 153
988500 153
988520 153
988560 153
988620 153
988660 153
988680 153
988700 153
988720 153
989100 153
989120 153
989260 153
989280 153
989300 153
989320 153
989340 153
989360 153
989380 153
989400 153
989420 153
989440 153
989460 153
989480 153
989500 153
989520 153
989540 153
989560 153
989580 153
989600 153
989620 153
989640 153
989660 153
989680 153
989700 153
989720 153
989740 153
989760 153
989780 153
989800 153
989820 153
989840 153
989900 153
989920 153
989940 153
989960 153
989980 153
990060 153
990140 153
990200 153
990240 153
990280 153
990300 153
990340 153
990380 153
990520 153
990560 153
990600 153
990620 153
990640 153
990660 153
990680 153
991340 153
991360 153
991380 153
991700 153
992100 153
992120 153
992140 153
992160 153
992180 153
992200 153
992300 153
992320 153
992340 153
992360 153
992400 153
992460 153
992480 153
992500 153
992540 153
992560 153
992580 153
992600 153
992660 153
992680 153
992700 153
992720 153
992740 153
992760 153
992780 153
992800 153
993200 153
993280 153
993300 153
993320 153
993460 153
993480 153
993500 153
993540 153
993560 153
993580 153
993600 153
993620 153
994700 153
994700 123
1004880 153
1004900 153
1004920 153
1005080 153
1005100 153
1005140 153
1005220 153
1005240 153
1005260 153
1005280 153
1005300 153
1005380 153
1005400 153
1005500 153
1005620 153
1005640 153
1005900 153
1005920 153
1005980 153
1006020 153
1006040 153
1006060 153
1006080 153
1006120 153
1006140 153
1006160 153
1006180 153
1006200 153
1006220 153
1006240 153
1006280 153
1006300 153
1006320 153
1006340 153
1006360 153
1006380 153
1006440 153
1006460 153
1006480 153
1006500 153
1006520 153
1006540 153
1006660 153
1006740 153
1006820 153
1006840 153
1006860 153
1006880 153
1006900 153
1006920 153
1006940 153
1006980 153
1007020 153
1007080 153
1007100 153
1007120 153
1007140 153
1007160 153
1007180 153
1007220 153
1007240 153
1007260 153
1007280 153
1007300 153
1007640 153
1007660 153
1007680 153
1007700 153
1007720 153
1007880 153
1008020 153
1008060 153
1008080 153
1008100 153
1008140 153
1008180 153
1008240 153
1008500 153
1008520 153
1008540 153
1008660 153
1008780 153
1008820 153
1009760 153
1009780 153
1009800 153
1009820 153
1009840 153
1009880 153
28860 267
308880 56
308900 56
323540 39
291160 35
298120 265
322560 185
322580 185
322600 185
322620 185
322640 185
322680 185
322700 185
322740 185
322760 185
322780 185
322800 185
322820 185
322840 185
322880 185
322960 185
379360 255
379380 255
379660 255
379760 255
379780 255
379800 255
396720 255
396740 255
642100 268
644720 131
662800 255
662820 255
745480 255
745540 255
745560 255
748100 255
748160 255
748180 255
748220 255
748920 255
752120 255
752200 255
752260 255
752280 255
752400 255
752420 255
752440 255
752460 255
752620 268
752640 268
752680 268
752700 268
753680 255
809840 255
810240 123
812260 255
812300 255
815340 211
816540 268
818520 184
820700 268
897460 184
34580 79
42400 119
44720 240
46100 105
50120 119
55100 119
55120 119
55940 119
55960 119
309360 119
317540 134
319320 119
319340 119
320520 119
320600 119
320620 119
649860 222
649920 222
650080 80
735820 209
817220 50
826840 119
826860 119
44820 240
44840 240
44840 134
44860 240
44860 134
48240 209
53080 134
60960 150
60980 150
122080 134
122100 134
122120 134
123440 134
123500 134
123520 134
123580 134
123880 134
123900 134
124140 134
139300 154
151920 275
151980 79
898060 50
899820 265
908380 50
909520 134
909540 134
909560 134
909580 134
909600 134
909620 134
909640 134
909660 134
909700 134
909720 134
909740 134
909840 134
909860 134
909920 134
914200 80
914220 80
914240 80
914260 80
914280 80
914340 80
914360 80
914380 80
914460 80
983500 205
983520 205
999920 240
30380 118
30380 95
30400 118
30400 95
30420 118
30420 95
30440 118
30440 95
30460 118
30460 95
30480 118
30480 95
30560 164
33720 194
33800 194
34020 95
34040 205
34060 95
34080 95
34260 205
41500 172
41520 120
41600 172
41620 172
41660 120
42180 172
42200 172
42260 172
42280 172
42300 172
42320 172
42340 172
42360 172
42380 172
42400 172
42420 172
42460 172
44980 205
44980 80
45080 205
45160 205
45200 205
46460 80
46480 80
47380 267
47400 267
47420 267
47460 267
47480 267
47500 267
47520 267
47540 267
47560 267
47580 267
47600 267
47620 267
47640 267
47660 267
47680 267
47700 267
47720 267
47740 267
47760 267
47940 267
48000 267
48020 267
48040 79
50220 223
50240 223
53540 223
60760 194
60780 194
60800 194
61060 194
61140 194
61160 194
61180 194
61200 194
61220 194
62600 194
62620 194
127420 95
127500 95
127520 95
127560 95
127580 95
127600 95
127620 95
127640 95
127660 95
127680 95
127700 95
127720 95
127740 95
127760 95
127780 95
127800 95
127820 95
127840 95
127860 95
127880 95
127900 95
127920 95
127940 95
127960 95
127980 95
128000 95
128020 95
128040 95
128060 95
128080 95
128100 95
128120 95
128140 95
128160 95
128180 95
128200 95
128220 95
128240 95
128260 95
128280 95
128300 95
128320 95
128340 95
128360 95
128380 95
128400 95
128420 95
128440 95
128460 95
128480 95
128500 95
128520 95
128540 95
128560 95
128580 95
128600 95
128620 95
128640 95
128660 95
128680 95
128700 95
128720 95
128740 95
128760 95
128780 95
128960 95
128980 95
129000 95
129020 95
129040 95
129060 95
129080 95
129100 95
129120 95
129140 95
129160 95
129180 95
129200 95
129220 95
129240 95
129260 95
133400 196
133520 196
133560 196
133720 196
133960 196
133980 196
134160 196
134240 196
134260 223
134280 196
134340 196
135620 194
136200 80
136380 222
136400 222
137880 194
144540 194
144660 194
144680 194
144700 194
144720 194
144740 194
144780 194
144800 194
144820 194
145000 205
149320 194
149740 194
149780 194
151640 242
151780 242
217440 80
293360 50
293360 48
294220 223
294220 56
294240 223
294260 223
294280 223
294280 56
297100 95
297140 56
297180 223
297180 56
297200 223
309540 50
309780 131
309800 131
311560 50
311580 50
311840 50
311920 50
312240 50
312240 131
313720 95
315740 223
316720 116
316740 116
317020 223
387960 194
392040 80
392140 181
392220 80
392280 223
392680 223
393180 223
393220 223
393280 223
393320 223
393340 223
393360 223
393380 223
394340 223
396320 95
396500 242
396740 95
399460 123
399480 123
400380 123
404580 123
404640 123
405100 123
405140 123
405160 123
405260 123
405280 123
405360 95
405380 123
405380 95
405420 123
405440 123
636620 194
640700 50
640740 50
640760 50
640780 50
640900 50
640940 50
640960 50
640980 50
641000 50
641120 50
641140 50
641160 50
641180 50
641200 50
641220 50
646220 50
647040 194
649620 79
649820 275
649860 222
649860 275
649880 275
649880 222
649900 213
650000 80
650040 275
650060 275
652180 194
664840 194
664860 194
664920 194
665000 194
665540 223
726940 194
739400 267
740020 194
740500 194
740760 29
740840 194
741360 29
743520 194
743540 194
743560 194
743600 194
743900 194
749840 194
749920 194
750140 194
752860 194
752920 194
754420 194
755140 194
812760 223
814160 50
814180 50
814200 50
814220 50
814260 50
814280 50
814300 50
814320 50
814340 50
814420 50
814440 50
814460 50
814480 50
814500 50
814520 50
814540 50
814560 50
814580 50
814600 50
814620 50
814640 50
814660 50
814680 50
814700 50
814720 50
814740 50
814760 50
814780 50
814800 50
814820 50
814840 50
814860 50
814880 50
814900 50
814920 50
814940 50
814960 50
814980 50
815000 50
815020 50
815040 50
815060 50
815080 50
815100 50
815120 50
815140 50
815160 50
815180 50
815200 50
815220 50
815240 50
815260 50
815280 50
815300 50
815320 50
815340 50
815360 50
815380 50
815400 50
815420 50
815440 50
815460 50
815480 50
815500 50
815520 50
815540 50
815560 50
815580 50
815600 50
815620 50
815640 50
815860 50
816080 50
816120 50
822780 222
822840 255
822860 255
822900 255
822920 255
822940 205
822960 205
822980 205
823000 205
823020 205
823040 205
823040 255
823060 205
823080 205
823100 205
823120 205
823160 205
823180 205
823660 205
823740 205
823760 205
823820 205
823920 205
823940 80
824000 205
824020 205
824040 205
824060 205
824080 205
824100 205
824460 80
824480 80
824500 213
824680 255
825260 205
825280 205
836000 211
837080 223
837100 205
837120 223
837140 223
842540 205
908360 134
908480 134
911020 164
916420 194
916440 194
916460 194
916560 194
916580 194
916600 194
917860 194
917880 194
925500 223
926640 95
926740 95
1005420 194
1005460 194
1007700 194
1007740 194
1007760 194
1007780 194
1007800 194
1007820 194
1007840 194
1007860 194
1007880 194
1007900 194
1007920 194
1007940 194
1007960 194
1007980 194
1008000 194
1008020 194
1008040 194
1008060 194
1008080 194
1008100 194
1008120 194
1008140 194
1008180 194
1008240 194
1008280 194
1008300 194
1008700 194
1008720 194
1008740 194
1008760 194
1008820 194
1008840 194
1008860 194
1008880 194
1008900 194
1008920 194
1008940 194
1009260 194
1009280 194
1009480 194
1010360 194
1012320 194
1012340 194
39660 50
42580 119
121400 102
121420 102
123560 116
123580 116
137260 102
137300 265
137360 102
138120 80
138440 80
139520 275
139540 275
139560 275
139580 275
144020 17
144060 17
144100 17
144120 17
144220 17
144240 17
144300 17
144320 17
150920 17
206840 50
206860 50
216920 179
220500 311
221560 119
221580 119
221600 119
221620 119
221760 119
294660 116
294680 116
294800 116
295500 123
306780 311
310920 119
323320 50
727560 102
753540 102
753640 17
810220 17
811200 17
811560 17
839660 211
34500 21
136460 222
305100 80
305460 134
305480 134
305500 134
305520 134
305540 134
305580 134
309220 275
309240 275
309260 275
309280 275
309300 275
309320 275
309340 275
309360 275
309380 275
309440 275
309460 275
309500 275
309600 275
309620 275
309640 275
309660 275
309680 275
309700 275
309720 275
309740 275
309780 275
309800 275
309820 275
309840 275
309860 275
309880 275
317540 134
318440 134
318480 134
379860 240
379880 240
379900 240
379920 240
380020 240
380100 240
380220 240
380240 240
380260 240
380280 240
380300 240
380340 240
380360 240
380380 240
380400 240
380420 240
380440 240
380460 240
380480 240
644760 275
644780 275
644800 275
644820 275
644840 275
645500 63
653840 101
654080 101
654080 119
732540 56
732900 56
732920 56
733340 56
738680 48
740200 134
740220 134
740240 134
740260 134
740280 134
740360 134
740400 134
740420 134
740440 134
740460 134
740480 134
746460 101
746480 101
899320 285
899680 265
899700 265
900840 285
909520 134
909600 285
909640 285
909920 285
909940 285
910260 285
918980 285
927280 285
927300 285
927320 285
927560 285
984120 285
984140 285
984160 285
984760 285
990160 285
990400 285
990420 285
990440 285
997220 285
31840 122
31860 122
31880 122
31900 122
34740 271
123260 119
123320 119
123340 119
126380 119
126400 119
128000 119
128220 119
128500 119
128520 119
128560 119
128660 119
136420 119
136440 119
136460 119
136480 119
152680 119
152700 119
152720 119
207420 153
214880 153
296260 119
296280 119
639500 63
642560 122
642580 122
642600 122
657140 119
657240 119
657260 119
661820 119
723680 102
725100 271
725120 271
743800 271
909600 150
914240 223
30720 311
38300 63
38480 63
38500 63
38520 63
38540 63
38560 63
38600 63
38620 63
38680 63
38700 63
38720 63
38780 63
38800 63
38860 63
42720 63
45020 63
50060 63
56060 116
56280 116
56860 63
56880 63
56960 63
57280 63
57300 63
57380 63
57400 63
59400 285
60580 285
60600 285
130040 63
130120 63
131740 271
133760 63
133780 63
133800 63
133920 63
133940 63
133960 63
133980 63
134000 63
134020 63
134040 63
134060 63
134080 63
134120 63
134180 63
134200 63
134260 63
134280 63
134300 63
134320 63
134340 63
134360 63
134380 63
134400 63
134420 63
134440 63
134460 63
134500 63
134520 63
134540 63
134560 63
134580 63
134600 63
134620 63
134640 63
134660 63
134680 63
134700 63
134720 63
134740 63
134760 63
134780 63
134800 63
134840 63
134880 63
134900 63
134920 63
134940 63
134960 63
134980 63
135000 63
135020 63
135040 63
135060 63
135180 63
135280 63
135360 63
135400 63
135420 63
135440 63
135460 63
135480 63
135500 63
135520 63
135540 63
135560 63
135700 63
135760 63
135780 63
135800 63
135820 63
135840 63
135860 63
135880 63
136000 63
136040 63
136060 63
136080 63
136100 63
136140 63
136160 63
136180 63
136200 63
136220 63
136240 63
136260 63
136280 63
136320 63
136360 63
136460 63
136560 63
136580 63
136600 63
136620 63
136640 63
136680 63
136720 63
136740 63
136760 63
136780 63
136820 63
136860 63
141680 63
141700 63
141840 63
141860 63
142080 63
142180 63
145540 150
150020 63
150120 63
150160 63
214840 63
215680 63
217760 63
217940 63
217980 63
218560 63
219940 63
219980 63
220000 63
220340 63
220360 63
220380 63
221180 63
221220 63
221260 63
221940 63
221980 63
222880 63
222900 63
223420 153
225820 63
225840 63
225860 63
225880 63
225900 63
293460 63
296300 63
296340 63
299860 63
299880 63
309340 63
309420 150
309440 150
316740 63
316860 63
319360 63
322900 63
323360 63
323440 63
379280 63
379300 63
381340 271
381420 154
381440 154
381500 448
381520 448
381680 448
381700 448
381920 448
381940 448
381960 448
381980 448
382000 448
382020 448
382040 448
382060 448
382080 448
382100 448
382120 448
382180 448
382200 448
382220 448
382240 448
382260 448
382280 448
382300 448
383120 448
383140 448
387040 448
389620 63
389640 63
389800 63
389820 63
403740 63
404700 150
637180 150
640340 63
642020 63
645680 63
648500 63
654040 150
655960 63
656020 150
656280 63
667860 63
667880 63
668020 63
668060 63
669420 63
669440 63
726040 63
726560 63
726680 63
726700 63
726720 63
726740 63
726760 63
727260 63
727280 63
727340 63
727360 63
727400 63
727640 63
727660 63
728580 63
728740 63
728900 63
728920 63
729020 63
729860 271
729880 271
730080 63
730180 63
730220 63
730240 63
730300 63
730320 63
730560 63
730580 63
731720 63
731980 63
732260 63
733000 63
733100 63
741820 63
741840 63
741860 63
741880 63
741900 63
741920 63
747200 63
748400 63
748800 63
751200 154
751500 154
754840 63
812520 63
812540 63
812600 63
816600 63
816620 63
816640 63
816660 63
816680 63
816700 63
816740 63
816760 63
816780 63
816840 63
816880 63
816980 63
817000 63
819840 63
820100 63
820120 63
820160 63
897900 63
897920 63
898140 63
898220 63
898260 63
898280 63
898300 63
898320 63
898360 63
898380 63
898420 63
898500 63
898520 63
898540 63
898560 63
898580 63
898600 63
898620 63
898640 63
898660 63
898680 63
898700 63
898720 63
898740 63
898760 63
898780 63
898800 63
898820 63
898840 63
898860 63
898880 63
898900 63
898920 63
898940 63
898960 63
898980 63
899220 63
899320 63
899980 63
901040 63
911520 63
911740 63
912460 63
912480 63
912500 63
912520 63
914260 63
914660 63
914680 63
914700 63
914720 63
914740 63
914760 63
914780 63
914800 63
914820 63
915220 63
917020 63
917800 63
917820 63
917840 63
917860 63
917880 63
917900 63
917920 63
917960 63
918720 63
919240 63
919260 63
919280 63
919820 63
920040 63
921680 63
925960 63
984900 63
984960 63
984980 63
985000 63
985340 63
985400 63
985480 63
985500 63
985520 63
1005720 150
1008900 63
119980 123
125440 271
134820 153
136240 271
137540 153
137600 153
137620 153
140020 153
145800 153
145820 153
148900 271
151500 154
151640 154
151660 154
151700 154
151720 154
151740 154
151780 154
208620 153
211180 153
219160 153
219340 153
219360 153
220340 153
223020 153
223040 153
223100 153
223120 153
223180 153
223200 153
223260 448
223380 153
223680 153
223740 153
223860 153
224100 153
224120 153
224180 153
224740 153
224760 153
224900 153
224920 153
224940 153
224960 153
224980 153
225000 153
225020 153
225040 153
225060 153
225080 153
225100 153
225180 153
225880 153
226020 153
226040 153
226060 153
226080 153
226100 153
226400 153
226580 153
226980 153
227020 153
227380 153
227620 153
228200 153
228680 153
229000 153
235540 153
236420 153
237500 153
237600 153
292780 271
295200 271
295220 271
295260 271
295460 271
295480 271
295500 271
297620 153
303400 153
303420 153
303600 271
303640 271
307760 271
310060 271
310140 153
311220 119
314740 153
315140 153
315180 153
318300 153
378880 271
378900 271
378920 271
378940 271
378960 271
381480 63
381500 63
381520 63
381540 63
381560 63
381580 63
381600 63
381620 63
381640 63
381760 63
381820 63
382100 63
382120 63
382180 63
382300 63
382440 63
382580 63
382640 63
382660 63
382680 63
382780 63
382800 63
382820 63
382860 63
382900 63
384000 63
384040 63
384060 63
384080 63
384100 63
384120 63
384140 63
384220 63
384240 63
384600 63
384620 63
385200 63
385640 63
385860 63
386680 63
386700 63
386720 63
386740 63
386820 63
386840 63
386880 63
386900 63
386940 63
386960 63
386980 63
387520 63
387620 63
387640 63
387680 63
387700 63
387780 63
387800 63
387900 63
388200 63
388480 63
388500 63
388520 63
388660 63
388760 63
388800 63
388820 63
388840 63
389000 63
389020 63
389040 63
389060 63
389080 63
389280 63
389420 63
666660 271
666680 271
666700 271
666720 271
666860 271
666920 271
667100 271
668200 271
668320 271
668340 271
668460 271
668500 271
724720 153
724760 153
724800 153
740040 153
740060 153
740080 153
740100 153
740120 153
740140 153
740160 153
740180 153
740380 153
740400 153
740420 153
740440 153
740480 153
740500 153
740600 153
740640 153
740660 153
740680 153
740700 153
747580 153
747620 153
747660 153
747680 153
747700 153
747720 153
825580 153
825600 153
825640 153
830920 271
830940 271
830960 271
830980 271
831000 271
831020 271
831040 271
831060 271
831080 271
831100 271
831120 271
831160 271
831180 271
831200 271
831260 271
831280 271
831360 271
831480 271
831500 271
831520 271
831540 271
831560 271
831580 271
831600 271
831620 271
831680 271
831700 271
831720 271
831740 271
831760 271
831840 271
834640 153
836600 154
838080 153
838180 153
838200 153
839900 271
839920 271
839940 271
839960 271
839980 271
841200 153
842840 271
842860 271
842880 271
842900 271
842920 271
842940 271
842960 271
842980 271
843000 271
843020 271
843040 271
843060 271
843080 271
843240 271
843320 271
843420 271
843560 271
843580 271
843640 271
843660 271
843680 271
843720 271
843880 271
843940 271
843960 271
843980 271
844000 271
844020 271
844060 271
845940 271
45460 80
45480 80
45500 80
45520 80
51000 120
51020 120
51040 120
51060 120
51080 120
51120 120
51140 120
51160 120
51180 120
51200 120
51220 120
51240 120
51260 120
51280 120
51300 120
51320 120
51340 120
51400 120
51420 120
51440 120
51460 120
51480 120
51640 120
51660 120
51680 120
51700 120
51720 120
51740 120
51760 120
51780 120
51800 120
51820 120
51840 120
51860 120
51960 120
51980 120
52000 120
52020 120
52040 120
52060 120
52080 120
52100 120
52120 120
52140 120
52160 120
52180 120
52200 120
52220 120
52240 120
52260 120
52280 120
52300 120
52900 120
53060 120
53080 120
53800 120
53900 120
54660 120
54700 120
54720 120
54740 120
54860 120
54900 120
55040 120
55100 120
55120 120
55200 120
55220 120
55560 120
55580 120
55600 120
55620 120
55640 120
55680 120
55700 120
55740 120
55760 120
55780 120
55800 120
55840 120
55860 120
55920 120
56060 120
56180 120
56200 120
56260 120
56280 120
56380 120
56400 120
56420 120
56440 120
56460 120
59840 120
59860 120
59880 120
60040 120
60720 120
60740 120
60760 120
60780 120
60800 120
60820 120
60900 120
61360 120
64480 120
125960 120
125980 120
126000 120
126020 120
126040 120
126060 120
126080 120
126100 120
126120 120
126140 120
126160 120
126180 120
126200 120
126220 120
126240 120
126260 120
126280 120
126300 120
126320 120
126380 120
126560 120
126580 120
126600 120
126620 120
126640 120
126700 120
126720 120
126740 120
135700 120
135740 120
135820 120
135840 120
135860 120
135900 120
135920 120
135940 120
135960 120
135980 120
136000 120
136040 120
136060 120
136180 120
136200 120
136220 120
136240 120
136260 120
136280 120
136300 120
136320 120
136340 120
136360 120
136380 120
140980 120
141000 120
144980 120
146080 120
146140 120
152000 120
152020 120
205220 120
318920 95
391980 80
649400 253
649460 134
655240 120
656320 120
656400 120
656440 120
656980 120
657000 120
657020 120
657060 120
657280 120
657520 120
657540 120
657700 120
657720 120
657900 120
657920 120
657940 120
657960 120
657980 120
658000 120
658020 120
658080 120
658100 120
658120 120
658140 120
658840 120
658900 120
658920 120
658940 120
659000 120
821160 223
824900 255
34420 311
36500 311
36520 311
40320 223
41120 223
44580 205
44820 134
44920 205
44940 205
44980 205
45000 311
45000 205
45020 205
45040 205
45060 205
45080 205
45100 205
45140 205
45160 222
45160 205
45180 311
45180 205
45200 205
45220 205
45240 205
45260 205
45280 205
45300 205
45320 222
45320 205
45340 205
45420 205
46320 311
46340 311
46360 311
46520 311
46540 311
46560 311
46580 311
46600 311
46620 311
46720 311
46960 311
47020 311
47300 311
47320 311
47340 311
47380 311
47400 311
47600 267
47620 267
47640 311
47640 267
47660 311
47660 267
47680 311
47680 267
47760 311
47840 267
47860 267
47880 267
47920 311
48000 311
48000 267
48020 311
48020 267
48040 205
48060 311
59100 15
59100 95
59120 15
59140 15
59700 15
134860 17
139500 311
139580 311
139600 311
139620 311
139640 311
139660 311
139680 311
139700 311
139720 311
139740 311
139760 311
139780 311
140160 311
140180 311
140200 311
140220 311
140480 311
140500 311
140520 311
140540 311
140580 311
140600 311
140620 311
140660 311
140680 311
145120 311
145120 95
145400 223
145460 223
145520 223
145540 223
145600 223
145680 311
145680 223
145700 223
145720 223
145740 223
145760 223
145780 223
145820 223
145840 223
145860 223
145880 223
145900 223
145920 223
145980 223
146060 223
146080 223
146100 223
146300 223
146320 223
222060 223
231100 223
231120 223
231160 223
231180 223
231200 223
231220 223
231240 223
231260 223
231280 223
231300 223
231320 223
231340 223
231380 223
231400 223
231420 223
231440 223
231460 223
231480 223
231500 223
231520 223
231540 223
231580 223
231600 223
231740 223
231780 223
231800 223
231820 223
231860 223
231880 223
231900 223
231920 223
231940 223
231960 223
231980 223
232000 223
297200 134
316880 267
316920 267
317420 223
317440 223
317520 223
317540 223
317840 132
380980 29
381000 29
381780 194
382220 194
407120 311
649900 275
652180 311
652200 311
652240 311
652260 311
652280 311
652460 311
652480 311
652560 311
652580 311
653740 205
653780 205
662160 223
662560 223
662580 223
662600 223
662620 223
662660 223
662740 223
663220 223
736400 311
736420 311
738580 311
738600 311
738620 311
738640 311
738680 222
738740 222
738800 311
738820 311
738820 222
738840 311
738840 222
738860 222
738880 311
738880 222
738900 222
738960 222
738980 222
739000 222
739020 222
739760 222
739860 222
740040 222
750200 267
750400 267
750420 267
812620 113
825640 211
829780 267
900900 39
900920 39
900940 39
986260 223
995440 311
50780 448
123140 448
123360 271
137040 63
137060 63
137100 63
140960 154
140980 154
151140 153
151160 153
217760 63
223000 481
223420 492
291600 150
312280 150
312300 150
313740 271
313760 271
378380 154
378400 154
378740 154
380080 150
380200 150
400220 63
657500 63
659440 154
659680 154
659700 154
659920 154
660000 154
660640 154
660700 154
660720 154
660740 154
661920 154
722820 150
725840 154
726800 63
726880 154
726940 154
726960 154
726980 154
727000 154
728100 154
728120 154
728140 154
728160 154
728180 154
728800 271
728840 271
733060 271
743780 271
744380 271
831100 150
831240 150
831400 150
894300 150
900720 63
914640 63
915100 154
915120 154
915160 63
918960 119
918980 119
924060 63
924080 63
983760 271
50920 335
727040 101
727060 101
727080 101
727100 101
727180 101
727260 101
727300 101
727320 101
727340 101
727360 101
727380 101
727400 101
727440 101
727460 101
727480 101
727500 101
727560 101
727580 101
727600 101
727620 101
727640 101
727660 101
727680 101
727700 101
727740 101
727760 101
727780 101
727800 101
727840 101
727860 101
727940 101
728040 101
728060 101
728080 101
728100 101
728140 101
728160 101
728180 101
728200 101
728220 101
728240 101
728280 101
728320 101
728340 101
728360 101
728400 101
728440 101
728460 101
728500 101
728520 101
728560 101
728640 101
728660 101
728680 101
728840 101
728940 101
729060 101
729120 101
729140 101
729160 101
729300 101
729320 101
729340 101
729360 101
729460 101
729500 101
729560 101
729600 101
729660 101
729680 101
729700 101
729720 101
729760 101
729840 101
729900 101
732720 101
736320 255
811920 255
42040 113
42180 113
42660 113
42880 105
44120 113
237240 29
296420 105
296440 105
296460 105
297320 267
318880 105
320300 105
320840 105
381100 267
381440 105
390460 105
390480 105
390520 181
390540 181
390560 181
390580 181
390600 105
390600 181
390620 181
390640 181
390660 181
390680 181
390780 105
390840 105
392080 113
392780 105
393040 105
411000 105
634560 105
636060 105
638080 105
638100 105
648580 105
648600 105
651540 105
655320 134
655400 105
726080 29
730340 29
732180 113
733180 105
733200 105
986920 105
990400 105
990460 105
118900 448
118920 448
118940 448
121680 271
121840 271
122360 150
122380 150
122560 150
122580 150
122700 150
122720 150
122740 150
122820 150
122860 150
122880 150
122900 150
122920 150
122980 150
123020 150
123060 150
123260 150
123280 150
123340 150
123360 150
123380 150
123420 150
123460 150
124300 271
124320 271
152460 448
152480 448
152680 119
152700 119
152760 448
152780 448
152800 271
152820 271
292880 153
302180 499
302200 499
302260 153
302280 499
302320 499
303520 499
303540 499
303620 271
311600 119
311620 119
311640 119
311660 119
311780 119
311880 119
312420 119
312660 119
313020 119
313040 119
313060 119
314080 119
314100 119
314120 119
314140 119
314160 119
314180 119
314200 119
314220 119
314520 119
315420 119
315520 119
315600 119
315620 119
315640 119
315740 119
315960 119
316060 119
316080 119
316120 119
316160 119
316280 119
316300 119
316320 119
316340 119
316380 119
316720 119
318120 63
318140 63
323340 481
377580 150
377600 150
377900 150
379660 150
379940 150
379960 150
381420 63
381460 63
381460 150
381480 63
381780 63
381900 63
381920 63
382080 63
382100 63
384520 150
384600 63
387000 63
388600 150
388620 150
389420 63
389440 63
637180 122
637200 122
637220 122
637240 122
637260 122
637280 122
637300 122
637320 122
637360 122
639740 150
639760 150
639780 150
639800 150
658940 119
658960 119
659280 448
659300 448
659320 448
659340 448
659360 448
659380 448
659400 448
661760 119
661780 119
661800 119
664860 122
664880 122
664920 122
665020 122
665040 122
665060 122
665080 122
665100 122
665120 122
665140 122
665160 122
665180 122
665240 122
665260 122
665280 122
665300 122
665380 122
665400 122
665440 122
665680 122
665700 122
665720 122
665820 122
665960 122
666480 122
666480 79
666500 122
666620 122
666660 122
666680 122
666700 122
666720 122
666740 122
666780 122
666800 122
722840 150
722860 150
722880 150
722900 150
722920 150
722960 150
723620 150
723640 150
723820 150
723840 150
723860 150
723880 150
724040 150
724060 150
724080 150
724320 150
724340 150
724360 150
724380 150
724440 150
724460 150
724480 150
724500 150
725120 150
725160 150
725180 150
725220 150
725240 150
725440 150
725460 150
725480 150
725600 150
725620 150
725640 150
725660 150
725680 150
725700 150
725740 150
725760 150
725780 150
725800 150
725840 150
725860 150
725880 150
725940 150
725960 150
725980 150
726000 150
726020 150
726040 150
726060 150
726080 150
726100 150
726120 150
726160 150
726180 150
726300 150
726320 150
726340 150
726360 150
726380 150
726400 150
726420 150
726440 150
726460 150
726480 150
726560 150
726780 63
726880 150
727680 150
727720 150
727740 150
727760 150
727880 63
728000 122
728340 150
733360 63
733380 63
733400 63
733460 63
810480 122
810500 122
810520 122
810660 122
810680 122
811220 150
816460 63
828920 196
833280 154
833280 271
836760 122
836780 122
895280 150
895680 150
896060 150
907300 499
913780 164
913800 122
913820 122
913840 122
914480 63
914500 63
914520 63
914540 63
914560 63
914580 63
914640 481
916460 271
916460 153
918520 153
918820 153
919200 271
919240 153
919260 153
919300 153
919340 153
919460 271
919480 271
919500 271
919800 271
920000 271
920020 271
920040 271
920060 271
920360 271
920420 271
920640 271
986200 150
986220 150
986240 150
986260 150
986280 150
986300 150
986320 150
986340 150
986360 150
986380 150
986400 150
986560 150
986600 150
986660 150
986740 150
986760 150
986780 150
986800 150
986820 150
986840 150
986860 150
986880 150
986900 150
986920 150
986940 150
987260 150
987280 150
987700 150
1002100 123
1002380 150
1002400 150
1003160 150
1004620 150
1005340 481
33340 271
34040 271
34580 271
34640 271
34680 150
34760 271
34820 271
34840 271
34860 271
34880 271
34900 271
34920 271
34940 271
34960 271
34980 271
35000 271
35020 271
35040 271
35060 271
35140 271
35160 271
35180 271
35300 271
35560 271
35580 271
35620 271
35640 271
36940 150
44920 271
44980 271
47920 102
47940 271
47960 271
47980 271
48000 271
48080 271
48120 271
48160 271
48220 271
48240 271
48320 271
48360 271
48420 271
48440 271
48460 271
119200 492
119220 492
123780 271
134820 271
134840 271
207220 492
207240 492
207260 492
207320 492
207340 492
216480 153
220780 222
220800 222
220820 222
224540 63
224560 63
224580 63
230100 492
230140 492
230160 492
230180 492
230200 492
230220 492
230240 492
230260 492
230280 492
230300 492
230320 492
230360 492
230380 492
230400 492
230460 492
230480 492
230500 492
230520 492
230540 492
230560 492
230580 492
230600 492
230620 492
230680 492
230700 492
231220 153
231240 153
231260 153
231340 153
231380 153
231400 153
231420 153
231440 153
292860 153
301320 533
301340 533
301360 533
301380 533
301400 533
301420 533
301460 533
301480 533
301500 533
301520 533
301560 533
301580 533
301600 533
301620 533
301640 533
301680 533
301840 533
301880 533
317000 499
317560 153
380240 271
381340 150
381360 271
381380 271
381400 271
381420 150
381420 271
381440 271
381460 271
381480 271
381500 271
381520 271
381540 271
381560 271
381580 271
381600 271
381660 271
381680 271
381700 271
381820 271
381840 271
381880 150
382140 271
382160 150
382280 150
382340 271
382360 271
382380 271
382400 271
382460 271
384620 150
384980 150
385220 150
393180 492
393280 492
393300 492
393320 492
393340 492
393360 492
393380 492
393400 492
393420 492
637820 150
638020 150
640000 271
640060 271
640100 271
640120 271
640420 271
640520 271
640560 271
649660 271
649760 271
649780 271
650700 271
650740 271
650880 271
650900 271
651240 150
658540 223
658660 271
658680 271
658700 271
658720 271
658740 271
658780 271
658800 271
658820 271
658840 271
658860 271
723840 271
724060 271
724080 271
724100 271
724140 271
724160 271
744000 271
744020 271
744040 271
744060 271
744080 271
744120 271
744160 271
744180 271
744200 271
822140 271
822160 271
822180 271
822220 271
822220 153
825120 271
825600 153
825640 153
832560 533
1002980 153
1003000 153
1003020 153
1003040 153
1003060 153
1003080 153
1003100 153
1003120 153
1003140 153
1003160 153
1003440 153
1003540 153
1003560 153
1003600 153
1003620 153
1003640 153
1003680 153
1003700 153
1003720 153
1003740 153
1003760 153
1003780 153
1003800 153
1003820 153
1003840 153
1003860 153
1003880 153
1003980 153
1004000 153
1004020 153
1004100 153
1004120 153
1004140 153
1004160 153
1004180 153
1004200 153
1004220 153
1004240 153
1004260 153
1004280 153
1004360 153
1004380 153
1004400 153
1004420 153
1004440 153
1004460 153
1009780 533
1014300 150
1014320 150
1014660 150
1015040 150
1015180 150
1015380 150
1015400 150
1015440 150
1016420 150
1016440 150
34040 21
120920 267
120940 267
295180 448
308200 132
310940 272
387880 172
653500 120
653560 120
653580 120
752800 153
755260 95
755300 95
755320 95
755340 95
755360 95
755400 95
755460 95
837860 164
838000 164
839220 164
839920 164
840040 164
841740 164
841960 164
844640 164
844660 164
903200 132
985020 267
205880 29
206160 29
206200 29
206220 29
206240 29
217140 311
217280 80
217340 311
217340 496
217480 311
220500 101
222760 311
294700 194
294720 194
294740 194
297120 311
297200 311
297200 134
297200 223
307860 194
307860 132
307880 194
307900 120
307900 39
307920 132
307920 194
307920 120
307920 39
307940 194
307940 39
307960 194
307960 120
308000 113
308000 194
308020 194
308020 132
308120 39
308140 39
308180 39
308200 39
308380 194
308380 132
308580 194
308580 39
308600 194
308620 194
308640 194
308640 120
308660 194
308660 120
308680 120
316740 311
316760 311
316780 311
316800 311
316920 496
317040 267
317420 496
317820 223
379000 181
379020 181
379040 39
379060 39
379080 39
379100 39
379120 39
379160 39
379180 39
379200 39
379220 39
379240 39
379280 39
379300 39
379380 39
379400 39
393420 223
393440 223
393460 223
393480 223
393500 223
393520 223
393840 223
393860 223
393880 223
393980 223
394000 223
394680 223
637720 205
638140 194
649900 80
652120 79
652220 39
652460 39
657720 63
662500 223
662700 496
723020 120
814960 39
821240 311
822420 222
825720 223
831200 311
833460 95
833540 95
833560 95
833600 95
833620 95
833640 95
833660 95
833680 95
833700 95
833720 95
833740 95
833800 95
835880 311
835900 311
835920 311
835960 311
835980 211
836100 205
836120 205
836140 205
837080 311
837080 223
896740 39
897220 205
913480 95
914800 311
914820 311
914840 311
914860 311
914880 311
914900 311
914920 311
914940 311
914960 311
914980 311
915000 311
915020 311
915040 311
915060 311
915080 311
915100 311
915300 311
915320 311
915640 311
915660 311
915900 311
919560 39
919580 39
922820 311
985720 39
990900 29
206260 481
206880 150
207400 153
213460 63
215600 63
215620 63
217900 63
217900 481
217960 63
218000 63
218020 481
218040 63
218060 63
218080 63
218320 63
219160 63
219520 63
219600 63
219620 63
219760 63
219980 63
220340 63
220400 63
220420 63
220680 63
220820 63
221960 63
221960 481
221980 63
222000 116
222020 116
222040 63
222060 63
222080 63
222120 63
222140 63
222160 63
222160 116
222200 63
222220 63
222240 63
222260 63
222280 63
222320 63
222780 481
222800 63
222800 481
222820 63
222840 63
222840 116
222880 481
222900 63
222920 63
222940 63
223140 63
223240 63
223260 63
223620 481
225300 153
225320 153
225340 153
225360 153
225760 153
225780 153
226060 116
228860 63
230600 63
231200 150
231220 150
231240 150
231260 150
231280 150
233140 116
234280 481
294480 601
294580 601
294600 601
294800 601
294820 601
294840 601
294900 601
294980 601
295020 601
295040 601
295060 601
295060 150
295080 601
295120 601
295140 601
295160 601
295180 601
295200 601
295220 601
295220 150
295240 601
295260 601
295280 601
295340 601
300840 63
302840 481
307980 150
310640 533
311760 150
311780 150
381240 63
381300 150
381680 63
384320 63
389440 63
389460 150
399140 63
400700 481
401020 481
405780 481
405800 481
405820 481
405920 150
405940 150
405960 150
639140 63
639180 63
639220 63
639240 63
639260 63
639300 63
639420 63
639460 63
645600 481
655860 150
655880 150
656160 150
656280 150
656380 150
658780 63
658820 63
661960 533
661980 533
662800 533
662820 533
662840 533
663020 533
664220 63
664320 63
664340 63
665220 481
665240 481
667660 63
667680 63
667720 63
667760 63
669300 533
669460 63
726220 481
726240 481
726260 481
727220 481
727820 481
727860 481
727880 533
728040 63
728060 63
728620 63
728660 63
728680 63
728880 63
728960 63
729000 63
729300 63
729380 63
729400 63
729540 271
729560 271
729600 271
729620 271
729720 271
729740 271
729760 271
729780 271
729820 271
729840 271
730540 481
730560 481
730640 481
731860 150
731880 150
734120 150
734180 150
734200 150
734220 150
734240 150
734260 150
734280 150
734300 150
734320 150
734340 150
734360 150
742120 63
742140 63
742160 63
742180 63
742300 63
742440 63
742620 271
742640 271
742660 271
743460 271
743480 271
743760 481
747200 150
747240 150
747260 150
747260 271
747280 153
747280 271
747380 481
747400 63
747420 63
748520 150
748520 122
748780 63
748800 63
748820 63
748840 63
748860 63
748880 63
748900 63
748920 63
748940 63
748960 63
811320 63
812140 150
812180 150
815360 63
816400 63
816420 63
816440 63
816480 63
816500 63
816520 63
816540 63
817320 63
817360 63
817380 63
817400 63
817480 63
817500 63
818940 63
832420 481
833260 154
833280 154
899480 481
911980 63
916600 63
919820 63
919840 63
919880 63
919900 63
919920 63
921580 63
984660 63
984720 255
984740 255
984840 63
984860 63
985220 63
989140 134
993380 63
993400 63
