47860 17
50400 17
43260 15
43280 15
827300 21
204980 29
224000 29
224020 29
224040 29
224080 29
224400 29
224420 29
224440 29
224460 29
224480 29
224500 29
224520 29
224540 29
224580 29
224600 29
224620 29
224720 29
224740 29
224760 29
225180 29
225300 29
225340 29
225460 29
225520 29
901060 29
902280 29
44280 17
44340 17
44580 21
47860 21
47860 17
49300 21
49740 21
49800 21
49980 21
738760 17
738780 17
811440 17
811460 17
811660 17
210560 17
216700 17
216720 17
216740 17
293380 48
293400 48
652280 17
739880 17
739880 48
748760 17
926080 17
40440 29
40460 29
40480 29
40500 29
40520 29
40560 29
44380 17
44400 17
44420 17
44440 17
44460 17
44480 17
44500 48
44500 17
44520 17
44520 48
44540 17
44540 48
44560 48
44560 21
44600 21
44620 21
44640 48
47500 21
47920 21
47980 21
48000 21
48040 48
48180 48
48900 48
48920 48
48980 48
49000 21
49000 48
49220 21
49220 48
49280 48
49300 21
49300 48
49320 48
49560 21
49620 21
49620 48
49640 21
49660 21
49660 48
49680 21
49680 48
49700 48
49740 21
49740 48
49760 21
49760 48
49780 21
49780 48
49800 48
49800 21
49820 48
49840 48
49860 48
49880 48
49900 48
49920 48
49940 48
49960 48
49980 48
50200 21
50240 21
50400 21
50400 48
37440 29
135020 39
210780 39
295100 39
302820 39
302840 39
302860 39
985660 39
48120 48
217080 21
386220 50
388040 50
388060 50
389840 48
827840 50
827860 50
827880 50
827900 50
827920 50
827940 50
827960 50
828200 50
828220 50
828580 50
828600 50
828740 50
829300 50
829340 50
829360 50
829640 50
918220 50
985080 17
985440 17
985460 17
985480 17
991680 50
991760 50
900820 63
911540 39
911560 39
30380 80
33560 15
35780 29
43180 15
43260 15
43260 29
43280 29
43280 15
43300 15
43420 15
43440 15
43460 15
43480 15
43580 15
43600 15
43680 15
49560 79
49600 29
49800 79
58620 15
59720 15
63660 15
120480 39
120500 39
121160 15
121180 15
121520 15
121540 15
121560 15
121780 15
121840 15
149820 15
149840 15
149860 15
149880 15
149900 15
149920 15
149940 15
149960 15
149980 15
150000 15
150020 15
220040 29
220060 29
222900 29
222920 29
229200 63
229240 29
229260 29
229280 29
231240 29
231260 29
231280 29
293480 56
307360 56
307380 56
308360 15
308420 15
309160 15
309180 15
319140 15
324940 15
324960 15
325020 15
325080 15
325100 15
325220 15
325300 15
385680 29
385740 29
385900 29
385920 29
385940 29
385960 29
648260 29
648280 29
648300 29
732380 15
732400 15
732420 15
732440 15
732460 15
732520 15
732580 15
732600 15
732620 15
732640 15
732660 15
732680 15
732720 15
732740 15
732820 15
732860 15
732900 15
732920 15
732940 15
732960 15
733000 15
733020 15
733040 15
733060 15
733080 15
733100 15
733120 15
733140 15
733160 15
733180 15
733200 15
733220 15
733240 15
733260 15
733440 15
733700 29
733720 29
733740 29
733760 29
733780 29
733800 29
733920 29
733940 29
733960 29
1000280 39
1004100 39
1008900 39
1008940 39
1008960 39
1008980 39
1009000 39
1009080 39
1009260 39
208540 17
208560 17
210920 21
213080 21
213200 21
220220 21
220300 21
220320 21
220720 21
223120 21
641000 80
821680 21
821700 21
821720 21
827240 21
827260 21
827300 21
827340 21
827400 21
827420 21
828420 21
828440 21
828460 21
841940 21
841960 21
44480 17
44520 66
44540 66
44560 66
44580 66
44580 17
44600 66
44600 17
44620 66
44620 17
47480 66
48240 79
50040 50
57520 17
57680 17
57700 17
293820 80
659420 50
659440 50
659460 50
659480 50
659500 50
659520 50
659540 50
659580 50
659660 50
660240 50
660260 50
660280 50
730660 56
732740 50
732760 50
732940 50
733080 50
733100 50
733120 50
733160 50
737580 50
737740 50
753520 17
753520 101
753540 17
812860 50
813260 50
813920 50
813940 50
820640 50
820680 50
828500 80
828500 50
828520 80
828520 50
828540 50
828560 50
842000 17
842020 17
842060 17
842080 17
895800 56
897660 50
899340 80
983340 80
998700 50
57160 63
57180 63
307300 56
41000 105
41600 105
41680 105
42020 105
42080 105
42480 105
43520 105
43700 105
43720 105
43740 105
44680 105
45320 39
45340 39
45560 39
203900 39
203920 39
204920 39
204940 39
204980 39
205000 39
205160 39
205180 39
205200 39
205220 39
205240 39
205260 39
205280 39
205300 39
210640 105
210660 105
210760 105
210780 105
210800 105
210820 105
210860 105
210900 105
210920 105
211000 105
211020 105
211040 105
211060 105
211080 105
211100 105
211120 105
211140 105
211160 105
211180 105
211200 105
211220 105
211240 105
211260 105
211280 105
211300 105
211320 105
211340 105
211360 105
211540 105
211560 105
211580 105
211600 105
211620 105
211640 105
211660 105
211680 105
211700 105
211720 105
211760 105
211780 105
211800 105
211820 105
211840 105
211940 105
211960 105
212040 105
212260 105
212280 105
212300 105
212320 105
212360 105
212380 105
212400 105
212520 105
212560 105
212580 105
212600 105
212620 105
212640 105
212740 105
212760 105
212780 105
212800 105
212820 105
212840 105
212860 105
212880 105
212900 105
212920 105
212940 105
212960 105
212980 105
213000 105
213020 105
213040 105
213100 105
213180 105
213300 105
213320 105
213740 105
213760 105
213780 105
213800 105
213820 105
213860 105
213880 105
213900 105
213960 105
213980 105
214020 105
214040 105
214080 105
214120 105
214480 105
214560 105
214620 105
214700 105
214720 105
214740 105
214760 105
214780 105
214820 105
214860 105
214880 105
214900 105
214920 105
214940 105
214960 105
215060 105
302560 39
302660 39
302680 39
302700 39
303900 39
303920 39
303940 39
303960 39
303980 39
304000 39
304060 39
309840 95
317760 105
317780 105
322260 105
390260 105
391120 105
391300 105
391340 105
392040 105
392180 105
392220 105
392260 105
392280 105
392380 105
392600 105
392640 105
640840 29
640860 29
659860 105
662140 105
662200 105
662220 105
662260 105
662300 105
663580 105
664300 105
664320 105
664340 105
664360 105
664380 105
664420 105
665340 105
668520 39
733400 105
734020 105
810780 39
810800 39
810820 39
810840 39
812080 39
812160 39
812220 39
812260 39
812520 29
812580 29
820900 39
820920 39
896580 39
919840 105
919860 105
919900 105
919920 105
919940 105
919960 105
919980 105
920000 105
920020 105
135580 63
135620 63
135640 63
135660 63
135680 63
135700 63
135720 63
135760 63
135780 63
135800 63
135820 63
135840 63
135860 63
135880 63
135940 63
136020 63
136040 63
136060 63
136080 63
136100 63
136120 63
136140 63
136160 63
136180 63
136200 63
136220 63
136240 63
136260 63
136280 63
136300 63
136320 63
136340 63
210900 95
221880 63
221900 63
221920 63
221940 63
221960 63
221980 63
222000 63
222020 63
222040 63
222060 63
222140 63
222160 63
222280 63
222760 63
222820 63
229000 29
30380 95
30400 80
30400 95
30420 95
30440 95
30460 95
30480 95
320040 50
320160 50
320180 50
320260 50
320280 50
320300 50
840360 39
840380 39
840460 39
840480 39
31560 39
31580 39
31620 39
31640 39
31680 39
31700 39
32020 39
32040 39
32060 39
32080 39
32100 39
32200 39
32260 39
32280 39
32300 39
32320 39
32340 39
127020 95
127040 95
127060 95
204360 29
204960 113
205060 29
205080 29
205100 29
238680 95
238700 95
238720 95
238740 95
238760 95
238780 95
238800 95
238820 95
238840 95
238860 95
238880 95
238900 95
238920 95
238940 95
238980 95
239000 95
239020 95
239040 95
239060 95
239080 95
239100 95
239120 95
291700 113
308180 39
308520 39
308540 39
308560 39
308580 39
722600 29
722620 29
722720 29
31220 79
664200 79
664260 79
664320 79
664340 79
664380 79
664420 79
664480 79
664640 79
664760 79
664920 79
664940 79
664960 79
664980 79
665000 79
665020 79
665040 79
665060 79
665080 79
665120 79
665140 79
665160 79
665180 79
665200 79
665220 79
665240 79
665260 79
665280 79
665300 79
665380 79
665400 79
665440 79
665460 79
665480 79
665520 79
665540 79
665560 79
665580 79
666540 79
666920 79
666940 79
667620 63
725600 29
754780 63
754800 63
815100 63
34180 95
35620 116
63620 95
63640 95
63660 15
63660 95
63680 95
63700 95
63720 95
63740 95
63760 95
63780 95
120260 95
124160 15
124180 15
204500 79
204520 79
204540 79
204560 79
204580 79
204600 79
204620 79
204640 79
204660 79
204680 79
204700 79
204760 79
204780 79
204800 79
204820 79
204880 79
204960 79
205000 79
205020 79
205080 79
208140 15
208160 15
208740 15
209640 15
209660 15
209720 15
210060 15
210080 15
210100 15
210120 15
210140 15
210160 15
212080 15
294060 79
294560 79
294600 79
294840 79
297720 95
297740 95
297760 95
297780 95
297800 95
297820 95
297840 95
297860 95
297880 95
297920 95
297940 95
297960 95
297980 95
298000 95
298020 95
298040 95
298060 95
298080 95
298100 95
298120 95
298140 95
298160 95
298180 95
298200 95
298220 95
298240 95
298260 95
298280 95
298300 95
298340 95
298360 95
298380 95
298400 95
300300 95
300420 95
300480 95
300500 95
300680 95
300700 95
300780 95
300800 95
315580 95
315840 95
316400 95
316420 95
316440 95
316460 95
316480 95
316560 95
316580 95
316700 95
316860 95
316960 95
316980 95
317520 95
317540 95
317560 95
318800 95
319820 95
387240 15
389800 95
397660 95
400320 95
400340 95
402440 95
405180 95
405340 95
405360 95
411080 15
411320 15
411500 15
411540 15
411560 15
411580 15
411840 15
411860 15
411880 15
655380 79
667200 95
667220 95
667240 95
667260 95
667280 95
667300 95
667320 95
667340 95
667360 95
667380 95
667400 95
667420 95
667440 95
667460 95
667480 95
667500 95
667520 95
667540 95
667560 95
667580 95
667600 95
727340 15
727360 15
727380 15
743160 79
809620 79
810180 79
810200 79
810220 79
810300 79
810320 79
824080 15
824120 39
831620 29
897820 39
897840 39
900740 39
900860 39
901140 79
902240 79
902260 79
902280 79
902300 79
902320 79
902340 79
902400 79
914260 95
924220 15
924440 15
924660 15
925600 15
927440 15
927460 15
927520 15
994580 29
122740 50
122820 50
122840 50
122860 50
122880 50
122900 50
122920 50
122960 50
123000 50
123040 50
240300 102
312260 50
318720 102
657500 50
657520 50
657540 50
657560 50
657580 50
657600 50
658120 50
658140 50
658260 50
658280 50
658300 50
658400 50
659360 50
659600 50
659600 102
659620 50
659620 102
659660 102
659680 102
659700 102
659720 102
659740 102
659760 102
659780 102
659800 102
659840 102
659860 102
659880 50
659900 50
659960 102
659980 102
660080 102
660180 102
660220 102
660240 102
660260 50
660260 102
660280 102
660320 102
660340 102
660360 102
660380 102
660400 50
660400 102
660620 102
660800 50
660800 102
660820 50
660820 102
660840 50
737760 50
737760 102
307860 120
307920 120
308020 120
308040 120
308060 120
308080 120
308200 120
308220 120
308240 120
308300 120
308320 120
308340 120
308360 120
308660 120
308680 120
308700 120
309100 56
319020 56
322780 56
389820 63
389840 48
653380 56
653420 56
653460 56
653480 56
653500 56
654440 56
654500 56
655780 56
655800 56
655820 56
656180 56
656980 56
661000 56
668500 56
668520 56
668560 56
668580 56
668600 56
668620 56
668660 56
668680 56
668720 56
668740 56
668940 56
668960 56
669100 56
669120 56
669140 56
669180 56
669200 56
669220 56
669280 56
724800 56
825240 56
825260 56
825280 56
825300 56
830800 56
838580 56
839160 56
839280 56
839620 56
842060 56
842080 56
842120 56
842140 56
842160 56
842200 56
842340 56
842460 56
842480 56
842520 56
842560 56
842620 56
842660 56
842680 56
842700 56
842740 56
842760 56
842800 56
842820 56
842860 56
842880 56
842940 56
843000 56
843040 56
843740 56
843760 56
844020 56
844060 56
897660 56
897780 56
897840 56
897860 56
897880 56
897900 56
897920 56
897960 56
898000 56
898100 56
898120 56
898140 56
898160 56
898200 56
898220 56
898260 56
898300 56
898320 56
898360 56
898380 56
898620 56
904860 119
904880 119
911020 56
920580 56
922360 56
997940 79
997960 79
997980 79
998000 79
998020 79
998040 79
998060 79
998080 79
998100 79
998120 79
998140 79
998160 79
998180 79
998200 79
998220 79
998240 79
998260 79
998280 79
998300 79
998320 79
998340 79
998360 79
998380 79
1002940 56
1003000 56
1003080 56
1014560 56
44620 48
296920 116
307100 50
307140 50
310900 119
649200 80
739800 17
739860 48
739880 48
739880 17
739900 17
753000 101
756040 50
756060 50
907960 50
907980 50
908000 50
908300 50
908400 50
909520 50
909580 50
909600 50
909620 50
909640 50
909700 50
909720 50
909760 50
909780 50
909840 50
926080 17
926080 50
926100 17
926100 50
30020 21
30060 21
31900 21
32300 21
124020 131
124040 131
124060 131
124080 131
124100 131
124120 131
124140 131
124160 131
124180 131
124200 131
124220 131
124240 131
124260 131
124280 131
124300 131
124320 131
124340 131
124360 131
224580 63
232080 116
295940 119
381300 63
381320 63
381340 63
381360 63
381400 63
381420 63
381440 63
381680 63
381700 63
381840 63
381860 63
381880 63
382580 63
383160 63
383560 63
383800 63
384560 63
384660 63
384700 63
384720 63
385860 63
385940 63
385960 63
385980 63
386020 63
386060 63
387940 63
387960 63
388460 63
388600 63
389420 63
389460 63
389680 63
648520 63
654040 63
656000 63
656020 63
656040 63
656260 63
656300 63
734100 63
992680 123
992700 123
992720 123
992760 123
992780 123
992800 123
992820 123
992900 123
992920 123
992940 123
992960 123
993020 123
993040 123
993060 123
993080 123
993100 123
993120 123
993280 123
993300 123
993320 123
993340 123
994720 123
134980 80
216300 150
223420 63
224380 63
318320 63
732460 150
744500 63
744520 63
744540 63
748700 122
748780 150
749240 150
749480 122
749520 122
751900 63
751900 150
819680 150
820700 63
829420 122
829440 122
830000 122
830020 122
830640 122
831700 150
838080 122
838100 122
901220 63
901240 63
901480 63
901840 63
901860 63
901920 63
901940 63
901960 63
901980 63
902000 63
902020 63
902040 63
902060 63
902080 63
909000 122
909020 122
924280 122
924500 122
925020 122
925040 122
994680 123
994700 123
1002800 150
1005800 150
43660 150
43680 150
43700 150
43720 150
43760 150
43820 150
43840 150
43860 150
43880 150
43940 150
43960 150
55940 63
116880 150
120460 150
120480 150
142100 153
151020 153
151100 153
151200 153
151220 153
151440 153
151460 153
151500 153
151780 153
151800 153
151820 153
151840 153
151860 153
223320 63
223340 63
224440 63
381380 150
640220 122
640240 122
662520 122
662540 122
662560 122
662640 122
662680 122
662780 122
662800 122
662820 122
662840 122
662860 122
665100 119
665120 119
724900 122
724920 122
724940 122
724960 122
724980 122
726860 153
727460 122
727640 150
729580 56
729860 63
730500 63
730720 153
734080 63
734100 150
734100 63
734140 63
747620 122
747640 122
747660 122
748280 122
748300 122
751180 63
751780 63
751800 63
751820 63
751840 63
751860 63
751900 63
752800 122
752960 122
809920 122
810760 150
810780 150
810800 150
810820 150
821740 122
821760 122
821780 122
826020 79
831840 122
831860 122
831940 122
832140 122
836820 122
836840 122
836880 122
836980 122
837380 122
842560 122
842580 122
842620 122
842640 122
899580 122
899600 122
899620 122
899640 122
899900 122
899920 122
899940 122
907380 63
907880 122
924380 153
926620 122
926660 122
926680 122
926700 122
926720 122
926820 122
926920 122
926940 122
926960 122
927000 122
989620 122
989640 153
989640 122
989660 122
989680 122
989920 122
47480 123
904740 132
904760 132
904780 132
904920 132
905240 132
905460 132
906980 63
912180 123
912200 123
912220 123
912240 123
912340 123
912360 123
912380 123
912400 123
912420 123
912440 123
912460 123
912480 123
912500 123
912520 123
912540 123
912560 123
912580 123
912600 123
912620 123
912660 123
912680 123
912700 118
912700 123
912720 123
912740 123
912760 123
912780 123
912800 123
912820 123
912840 123
912860 123
912880 123
912900 123
912920 123
912940 123
912960 123
912980 123
913000 123
913080 123
913100 123
913800 122
34740 120
34920 120
36260 120
36280 120
38340 120
38360 120
41620 120
136960 123
136980 123
143980 120
144000 120
206100 120
206180 120
209620 120
212420 120
212440 120
212460 120
212480 120
212500 120
212520 120
213920 120
214060 120
308880 56
309260 80
408840 95
408860 95
409920 123
653280 132
810800 113
810800 120
820640 120
828240 123
829080 120
830200 120
831100 120
900740 123
911080 164
911100 164
911120 164
911180 164
997140 132
997160 132
997180 132
997420 132
997520 132
997620 132
30640 21
34580 50
44340 17
44540 17
44560 102
44580 102
44600 102
44620 102
47580 66
47720 48
47740 48
47740 17
47760 17
47800 48
47820 48
47840 48
220340 21
640980 101
641040 101
641080 101
641280 101
641400 101
641420 101
641440 101
641460 101
641480 101
641500 101
641520 101
641540 101
641560 101
641580 101
641620 101
641640 101
641660 101
641700 101
641720 101
641760 101
641780 101
641800 101
641820 101
641840 101
641860 101
641880 101
641900 101
641920 101
641940 101
641960 101
641980 101
642000 101
642020 101
642040 101
642060 101
642080 101
642100 101
642120 101
642140 101
642160 101
642180 101
642200 101
642220 101
642240 101
642260 101
642280 101
642300 101
642320 101
642340 101
642360 101
642380 101
642400 101
642420 101
642440 101
642460 101
642480 101
642500 101
642520 101
642540 101
642560 101
642580 101
642600 101
642620 101
642640 101
642660 101
642680 101
642700 101
642720 101
642740 101
642800 101
642820 101
642840 101
642860 101
642880 101
642900 101
642920 101
642960 101
642980 101
643000 101
643020 101
643040 101
643060 101
643080 101
643100 101
643120 101
643140 101
643160 101
643180 101
643200 101
643220 101
643240 101
643260 101
643280 101
643300 101
643320 101
643340 101
643360 101
643380 101
643400 101
643420 101
643440 101
643460 101
643480 101
643500 101
643520 101
643540 101
643560 101
643580 101
643600 101
643620 101
643640 101
643660 101
643680 101
643700 101
643720 101
643740 101
643760 101
643780 101
643800 101
643820 101
643840 101
643860 101
643880 101
643900 101
643920 101
643940 101
643980 101
644000 101
644020 101
644040 101
644060 101
644080 101
644100 101
644120 101
644140 101
644160 101
644180 101
644200 101
644220 101
644240 101
644260 101
644280 101
644300 101
644320 101
644340 101
644360 101
644380 101
644400 101
644420 101
644440 101
644460 101
644480 101
644500 101
644520 101
644540 101
644560 101
644580 101
644600 101
644620 101
644640 101
644660 101
644680 101
644700 101
644720 101
644740 101
644760 101
644780 101
644800 101
644820 101
644860 101
644880 101
644900 101
644920 101
644960 101
644980 101
645060 101
645080 101
645120 101
645140 101
645160 101
645180 101
645220 101
645240 101
645380 101
645400 101
645420 101
645440 101
645560 101
645660 101
645680 101
645720 101
645740 101
645780 101
646000 101
646100 101
646140 101
646160 101
646260 101
646280 101
646300 101
646320 101
646340 101
646360 101
652060 17
652240 17
739800 134
739860 134
821220 50
824720 102
830660 101
830680 101
830740 101
830760 101
830780 101
830800 101
830820 101
830840 101
830860 101
830880 101
830920 101
830940 101
830960 101
831020 101
831040 101
831060 101
831080 101
831100 101
831120 101
831140 101
831160 101
831180 101
831200 101
831220 101
831240 101
831260 101
831280 101
831300 101
831320 101
831340 101
831360 101
831380 101
831400 101
831420 101
831440 101
831460 101
831500 101
831520 101
831540 101
831560 101
831580 101
831600 101
831620 101
831640 101
831840 101
831860 101
29780 79
49640 95
293980 56
308420 120
310360 39
390240 105
390260 105
390280 105
390300 105
390320 105
390520 105
390660 105
390680 105
390860 113
648860 105
648920 105
648960 105
649000 105
649140 105
649160 105
649340 105
649940 105
649960 105
649980 105
650020 105
651240 105
907680 39
907840 154
908040 39
913640 95
918920 113
924420 39
924440 39
924580 39
206820 131
207020 118
207140 118
207380 118
207680 118
207700 118
207780 118
207800 118
207820 118
209480 118
209520 118
209660 118
296960 134
296980 134
297000 134
297020 134
297040 134
297060 134
297080 134
297100 134
297120 134
297140 134
297160 134
297180 134
297200 134
297220 39
297240 134
815340 123
815360 123
816000 123
913540 134
913560 134
57380 184
57400 184
125220 131
317640 35
390740 184
33660 56
33680 56
43560 95
43640 95
43660 95
43680 95
46940 113
47020 113
47060 113
62440 95
62460 95
62480 95
62500 95
62520 95
62540 95
62560 95
62580 95
62600 95
62700 95
62720 95
62740 95
62760 95
136400 95
136420 95
136440 95
136460 95
136720 56
136740 56
293440 95
293460 95
293480 95
293520 95
293660 95
293680 95
296140 123
297200 184
303060 113
303120 113
303800 39
303820 39
303840 39
303860 39
303900 113
303900 39
303920 113
303940 113
303940 39
303960 39
303980 39
304020 39
304060 39
307820 132
307900 120
307920 132
307920 120
307920 39
307940 120
307940 39
307960 120
307980 120
308000 120
308020 120
308040 120
308040 132
308060 120
308080 120
308100 120
308120 39
308120 120
308140 120
308160 120
308180 132
308180 120
308180 39
308200 132
308220 120
308220 132
308240 132
308280 132
308280 120
308300 132
308320 132
308380 120
308420 120
308420 181
308440 120
308520 39
308540 120
308540 39
308560 120
308560 39
308580 132
308580 120
308580 39
308600 120
308600 132
308600 39
308640 120
308660 120
308680 120
308680 132
308700 132
308700 120
637400 113
638280 132
640380 113
651760 95
651780 95
651860 95
651880 95
651900 95
651920 95
651960 95
651980 95
652000 95
652020 95
652040 95
652060 95
652080 95
652100 95
652120 95
652140 95
724940 120
724980 29
733960 95
733980 95
897300 113
897320 113
897340 113
897540 113
897560 113
897600 113
897700 113
897940 95
901140 113
907500 29
907820 39
908020 39
908040 181
908040 39
911500 39
911520 39
911580 39
911660 39
911680 39
911700 39
911720 39
911740 39
911760 39
912080 39
912100 39
912120 39
912140 39
912180 39
912200 39
912220 39
926320 95
926680 95
926700 95
926720 95
926980 113
927000 113
1000140 39
30000 150
44460 66
64700 172
120860 172
124000 120
124020 120
124040 120
124060 120
124080 120
124280 120
124300 120
124320 120
127720 120
141620 172
143560 172
144220 172
144240 172
151140 120
205880 120
214260 172
214280 172
297180 184
390280 172
745940 120
745960 120
810920 172
810940 172
832320 79
986480 172
30060 21
30460 21
30520 153
34020 95
44480 39
50060 39
50080 39
50100 39
50120 39
50140 39
63180 39
63200 39
63220 39
127080 95
127280 95
134760 56
134780 56
134800 56
134820 56
135320 56
135340 56
135660 120
297300 95
307320 56
309120 131
396900 39
403620 63
906920 39
1002860 196
1002900 196
1002920 196
1002940 196
1014140 196
44080 48
44100 48
44120 48
44320 179
44340 179
44340 17
44360 66
44380 48
44480 66
44520 66
44540 66
44560 48
44580 48
44600 48
44620 48
44620 134
44620 66
49060 21
49140 21
147740 118
206840 150
216960 50
216980 50
217000 50
217000 17
220660 118
396280 119
408060 48
639540 48
645940 48
646000 48
738660 17
751720 48
751880 48
751920 48
751940 48
751960 48
810640 101
841980 179
842000 179
842020 179
910360 48
910480 48
925880 48
925900 48
925920 48
925940 48
925960 48
998580 48
998620 48
122140 35
122200 35
122240 35
122260 35
122280 35
135000 209
123940 119
209480 116
209520 116
222600 116
222620 116
222660 116
222680 116
229220 116
229240 116
807900 80
392420 211
403060 150
727940 63
728000 63
824880 211
824900 211
824920 211
824940 211
824960 211
824980 211
825000 211
825020 211
825040 211
825060 211
825080 211
825100 211
825120 211
825140 211
825160 211
825180 211
825200 211
825220 211
825240 211
825260 211
825280 211
825300 211
825320 211
825340 211
825360 211
835800 211
843720 211
991160 29
998960 80
