1 2
3 4
5 2
6 7
8 7
9 10
9 11
12 13
9 14
9 15
9 16
9 17
9 14
9 18
19 18
20 21
19 22
8 23
9 24
9 22
25 21
26 7
27 28
29 25
30 31
30 31
30 31
30 31
32 33
34 35
34 33
36 37
38 39
36 40
41 15
41 11
41 14
41 13
41 39
41 42
41 43
9 40
44 45
46 22
44 46
47 46
48 46
9 49
36 50
44 51
32 52
36 32
53 54
36 55
56 57
36 32
36 58
44 59
51 58
44 14
36 56
36 60
56 61
62 50
36 60
32 59
36 60
36 50
41 63
41 64
41 65
41 56
41 61
41 43
41 52
41 58
41 59
9 64
9 58
12 66
32 58
12 66
67 32
41 32
67 32
32 68
68 56
67 32
67 32
68 61
67 32
67 8
69 67
70 51
44 50
67 32
71 58
71 72
51 58
72 71
73 74
74 73
73 74
74 73
34 58
44 75
44 75
9 58
73 74
9 76
32 77
41 76
41 78
79 48
79 63
41 80
79 58
41 81
79 70
19 82
19 72
12 32
19 64
19 58
19 58
19 58
19 52
83 59
51 70
38 58
41 58
63 79
41 63
67 59
41 63
41 58
44 84
19 85
19 72
3 84
19 8
19 58
84 86
83 58
36 60
86 48
87 63
36 88
87 8
36 89
90 56
36 90
36 84
91 92
36 93
91 92
36 90
91 92
36 60
36 84
51 58
94 84
36 84
94 84
94 84
69 84
69 95
87 8
3 84
3 84
48 86
84 8
91 81
96 88
8 84
84 8
91 47
97 98
98 97
97 98
48 97
99 8
99 8
97 48
100 101
102 97
97 48
97 102
101 100
48 58
97 48
103 72
103 58
104 59
104 59
103 72
