1 2
3 4
5 2
6 7
8 7
9 10
9 11
12 13
9 14
9 15
9 16
9 17
9 14
9 18
19 18
20 21
19 22
8 23
9 24
9 22
25 21
26 7
27 28
29 25
30 31
30 31
30 31
30 31
32 33
34 35
34 33
36 37
38 39
36 40
41 15
41 11
41 14
41 13
41 39
41 42
41 43
9 40
44 45
46 22
44 46
47 46
48 46
9 49
36 50
44 51
32 52
36 32
53 54
36 55
56 57
36 32
36 58
44 59
51 58
44 14
36 56
36 60
56 61
62 50
36 60
32 59
36 60
36 50
41 63
41 64
41 65
41 56
41 61
41 43
41 52
41 58
41 59
9 64
9 58
12 66
32 58
12 66
67 32
41 32
67 32
32 68
68 56
67 32
67 32
68 61
67 32
67 8
69 67
70 51
44 50
67 32
71 58
71 72
51 58
72 71
73 74
74 73
73 74
74 73
34 58
44 75
44 75
9 58
73 74
9 76
32 77
41 76
41 78
79 48
79 63
41 80
79 58
41 81
79 70
19 82
19 72
12 32
19 64
19 58
19 58
19 58
19 52
83 59
51 70
38 58
41 58
63 79
41 63
67 59
41 63
41 58
44 84
19 85
19 72
3 84
19 8
19 58
84 86
83 58
36 60
86 48
87 63
36 88
87 8
36 89
90 56
36 90
36 84
91 92
36 93
91 92
36 90
91 92
36 60
36 84
51 58
94 84
36 84
94 84
94 84
69 84
69 95
87 8
3 84
3 84
48 86
84 8
91 81
96 88
8 84
84 8
91 47
97 98
98 97
97 98
48 97
99 8
99 8
97 48
100 101
102 97
97 48
97 102
101 100
48 58
97 48
103 72
103 58
104 59
104 59
103 72
105 56
106 72
105 61
105 8
105 33
105 107
105 81
44 102
36 105
36 104
34 108
34 109
36 110
111 112
34 58
36 113
36 109
79 109
114 105
101 115
56 90
56 105
56 68
29 58
87 58
44 116
44 117
44 117
44 79
80 58
96 32
118 100
119 120
119 120
120 119
120 75
119 120
120 119
119 58
74 73
118 120
121 108
72 106
44 92
26 122
44 79
1 123
96 124
125 126
36 104
44 79
44 79
36 124
36 127
36 128
44 79
44 129
44 116
9 120
79 58
36 109
124 109
36 109
124 61
124 72
36 109
36 112
124 85
85 124
32 130
36 112
124 85
72 124
124 8
131 30
99 126
103 72
103 72
103 63
103 117
103 72
131 30
69 95
69 124
69 79
132 30
36 99
36 133
36 60
36 134
36 133
36 81
103 72
103 135
133 135
135 133
36 133
103 135
19 52
133 135
103 135
103 135
135 133
133 135
36 133
36 133
36 133
9 109
9 109
62 136
96 32
137 138
96 137
19 120
44 90
96 137
137 138
19 139
44 60
44 88
44 102
44 90
19 111
44 90
9 32
44 90
44 90
103 63
103 72
38 86
140 105
103 72
38 86
38 101
38 101
38 101
103 101
38 101
103 101
38 61
75 120
38 81
44 141
44 141
44 74
44 127
124 135
140 124
19 82
19 82
19 82
105 56
19 82
124 135
105 58
105 63
19 82
105 61
105 135
124 135
71 72
135 124
9 32
63 105
72 71
142 58
124 135
124 135
143 32
144 99
144 105
144 121
9 109
103 109
103 63
103 63
103 109
48 81
95 81
145 48
95 63
145 95
95 109
145 95
145 48
145 95
145 48
145 48
95 109
96 48
95 109
96 95
96 95
96 48
96 95
105 144
105 63
6 146
44 60
44 105
63 95
44 32
114 105
34 109
36 105
36 109
36 147
44 32
19 120
9 136
9 148
9 149
9 150
9 151
9 152
9 153
9 58
9 58
9 135
9 22
9 8
9 154
9 121
1 135
3 155
36 109
3 155
30 132
3 58
68 56
36 156
131 30
101 51
101 34
9 8
36 73
96 95
9 76
9 8
9 157
19 158
9 58
9 32
44 129
105 135
105 129
44 129
44 129
44 129
51 101
1 159
44 74
44 129
160 72
129 8
36 147
36 109
36 105
36 129
9 8
34 101
161 162
163 72
32 164
58 8
32 58
41 76
41 120
41 132
41 165
41 166
41 157
41 167
41 168
41 169
41 134
56 68
41 56
56 154
56 170
56 171
56 172
103 101
51 157
32 130
8 58
8 164
103 63
103 173
67 154
32 26
96 163
9 58
41 56
9 20
9 165
9 61
103 109
32 155
32 109
32 174
175 50
103 85
124 109
164 8
103 63
38 128
103 63
103 63
19 109
103 63
103 63
161 164
161 164
38 109
41 63
103 63
176 63
41 63
176 63
41 63
161 63
103 63
41 63
176 63
41 63
161 63
103 63
32 164
176 63
41 63
176 63
41 63
161 63
103 63
41 177
41 177
164 178
164 177
32 175
32 177
176 63
164 179
41 63
32 179
41 63
41 63
41 63
41 63
161 63
96 164
41 63
41 177
41 177
41 63
41 177
41 63
161 63
32 177
41 177
32 177
41 177
41 63
41 180
32 177
41 63
161 63
41 177
41 180
177 32
41 63
41 177
180 177
180 177
180 181
41 177
180 182
41 180
41 90
41 63
32 177
41 180
41 63
41 177
177 180
177 180
177 32
41 180
41 177
41 180
32 177
41 63
183 184
41 63
177 32
32 177
41 177
177 32
175 32
32 177
32 175
41 168
175 32
41 168
41 177
177 32
63 174
174 63
63 174
174 63
41 168
41 177
32 175
63 174
174 63
41 168
9 32
41 177
63 174
32 177
175 32
32 175
41 168
41 177
41 168
41 168
63 155
174 63
41 177
177 32
41 168
175 32
63 174
174 63
63 174
41 168
41 177
41 177
32 175
41 177
175 32
175 32
32 175
41 177
41 168
174 63
63 174
41 168
41 168
41 177
41 168
41 177
174 63
63 174
41 168
41 177
41 177
41 177
41 177
9 32
41 177
41 185
41 168
185 147
185 32
41 185
41 177
32 185
186 185
140 185
155 32
32 155
185 186
155 63
41 177
103 177
187 186
185 97
103 97
187 186
41 185
41 185
41 186
41 185
41 186
185 63
41 168
187 186
63 155
63 185
103 58
103 63
187 186
103 188
189 175
189 175
140 185
187 186
185 109
140 185
189 8
102 97
140 185
41 86
41 188
101 100
101 190
191 175
101 190
101 190
101 190
101 190
103 192
101 190
101 190
101 190
101 190
101 190
101 190
101 190
101 190
193 149
101 100
193 190
191 78
101 190
101 190
190 109
101 190
193 190
109 124
103 109
103 190
103 109
103 109
41 192
194 149
194 195
176 20
176 61
176 149
176 120
176 132
176 86
176 97
176 72
176 58
176 8
176 196
176 197
176 198
176 199
176 200
176 190
176 192
176 201
176 188
176 202
176 185
176 203
176 180
176 181
176 177
176 184
176 175
176 166
204 205
204 104
204 184
189 144
3 185
3 32
199 58
63 185
63 199
63 184
199 101
194 199
194 206
194 207
204 123
121 191
175 191
204 129
63 199
101 184
101 208
63 46
63 199
101 88
191 121
191 175
103 177
199 20
184 101
103 132
199 209
101 184
36 105
103 210
36 209
184 101
209 199
199 209
199 210
101 184
184 101
176 101
68 101
32 198
211 101
212 209
211 213
211 93
211 85
189 199
214 215
103 109
103 215
103 82
44 214
103 215
63 199
63 199
103 215
103 215
103 168
214 109
215 67
103 215
214 215
41 215
41 216
103 127
215 62
214 109
176 217
176 216
176 218
103 109
219 124
19 109
63 127
88 101
103 168
103 56
63 127
103 56
214 56
214 56
63 127
51 215
19 175
19 109
44 214
215 51
44 214
19 215
19 215
103 175
44 214
19 215
103 175
214 175
51 215
19 215
214 215
215 51
19 215
96 95
96 32
19 215
96 164
103 215
103 215
19 215
144 185
103 168
220 214
220 32
19 215
144 32
103 175
103 175
175 214
103 175
103 175
103 175
176 221
103 98
3 32
222 120
41 222
41 222
41 223
214 175
41 97
41 134
51 215
36 222
36 221
212 66
96 224
175 214
214 175
225 223
36 221
36 214
176 223
176 226
221 161
36 221
44 226
221 161
36 221
221 161
56 214
221 161
221 161
221 161
161 221
36 221
36 214
221 161
204 221
227 26
211 228
214 101
229 230
220 214
96 231
96 232
103 221
103 20
103 86
220 214
220 214
103 66
212 66
124 109
103 185
212 6
103 185
103 8
63 202
63 185
103 93
63 185
9 233
103 233
9 97
9 190
166 234
69 34
69 34
235 191
69 185
41 166
41 32
3 32
3 132
1 30
41 32
41 173
103 166
63 127
63 199
103 166
63 92
97 228
97 228
103 58
191 136
32 58
131 30
191 236
32 237
9 235
101 34
237 32
97 191
48 81
48 81
175 214
176 233
9 101
48 52
48 52
48 175
52 48
48 52
9 177
97 191
9 175
52 48
175 48
96 48
41 32
9 175
41 174
9 175
48 175
12 175
48 52
175 48
48 175
12 175
12 168
12 175
52 48
175 48
48 52
12 81
12 175
48 175
175 48
12 175
48 175
12 175
52 48
48 52
12 175
175 48
52 48
12 175
48 52
12 175
48 175
12 175
175 48
52 48
12 175
12 175
12 175
220 214
12 175
88 220
48 175
48 52
12 175
175 48
52 48
9 175
48 175
12 175
12 175
175 48
12 175
9 175
48 175
12 175
48 52
9 175
175 48
9 209
12 175
48 175
103 66
103 52
12 175
103 66
175 48
52 48
103 66
12 175
12 175
48 52
48 175
175 48
48 175
48 175
9 175
9 209
175 48
175 48
220 48
9 175
48 175
144 185
175 48
220 48
48 175
144 222
220 48
175 48
220 48
220 48
48 175
220 48
175 48
48 175
220 48
175 48
144 195
48 175
191 237
220 48
175 48
220 48
48 175
220 95
95 168
220 48
176 198
220 95
191 175
220 95
176 201
175 48
175 191
191 175
48 175
175 191
175 48
191 175
144 88
175 191
220 48
191 175
175 191
144 238
191 175
175 191
220 95
239 175
144 240
239 175
239 236
220 95
220 48
220 95
12 90
220 95
144 23
220 95
3 132
220 95
220 95
220 95
103 52
144 32
220 48
144 48
36 222
220 95
88 144
220 95
220 95
220 95
144 48
220 48
144 48
220 95
220 95
220 48
9 144
144 241
103 144
9 216
194 242
194 199
194 209
194 182
32 144
32 243
204 241
63 127
227 144
194 209
168 95
63 127
44 214
41 32
9 244
245 191
228 97
211 228
211 246
19 52
233 88
34 242
19 233
127 63
143 32
143 95
9 235
9 177
63 127
32 88
211 233
88 32
32 88
247 248
248 247
176 248
176 248
211 232
88 32
176 248
176 63
32 88
249 63
41 250
41 248
95 168
41 251
34 242
176 72
44 88
103 177
103 86
12 168
51 86
212 252
176 63
41 97
168 95
249 63
212 34
212 252
176 63
212 252
176 63
212 34
249 63
212 34
103 63
144 247
204 51
103 63
101 208
212 34
212 252
53 253
9 251
164 8
8 164
212 34
44 88
44 48
44 88
44 48
254 8
8 254
44 88
254 8
95 168
254 8
8 254
254 8
8 254
254 8
1 255
103 256
143 32
204 257
52 48
258 76
168 95
259 260
261 256
19 52
204 81
19 52
259 256
51 260
260 51
204 262
19 52
103 260
263 254
263 254
204 51
260 51
204 51
41 256
204 51
204 51
36 254
204 51
36 222
204 51
204 51
204 51
204 51
62 215
204 51
264 158
6 122
204 51
36 254
36 6
41 265
204 51
204 51
36 6
36 254
260 51
204 51
36 222
96 6
204 51
96 6
256 259
204 48
36 254
36 6
204 51
96 6
36 6
96 6
204 51
96 6
204 51
36 6
36 254
36 254
204 48
96 6
211 251
204 266
204 51
267 260
267 256
260 51
260 267
12 260
263 191
12 101
204 48
204 51
204 266
12 175
204 48
204 51
51 267
260 51
204 48
260 51
268 149
267 51
189 8
63 127
51 267
204 48
204 221
127 63
204 48
212 6
204 48
204 48
267 51
140 6
12 175
103 267
204 48
69 254
212 34
212 48
103 267
176 269
204 48
103 166
19 265
95 168
212 254
212 48
176 270
176 267
212 48
69 271
212 48
69 271
69 271
69 271
272 273
69 271
48 256
69 271
274 48
69 271
274 48
144 260
103 265
212 48
263 222
198 256
103 270
176 256
212 48
263 239
212 48
135 105
263 239
103 228
212 48
103 228
204 48
101 271
101 34
275 20
103 228
276 8
20 275
20 275
101 34
263 277
263 277
140 6
9 135
140 278
9 135
34 101
127 260
9 135
101 68
260 127
103 52
199 279
199 260
260 199
260 127
41 101
63 127
19 52
41 280
271 101
68 101
176 101
260 127
281 254
41 280
41 280
277 68
282 34
176 283
176 283
41 280
176 283
176 283
41 280
176 248
176 284
176 166
220 271
41 270
12 101
220 67
9 135
12 101
67 256
12 101
36 285
12 101
220 67
286 221
36 285
36 285
101 32
189 132
220 221
220 221
221 3
181 180
181 177
181 177
181 260
260 287
236 239
260 181
51 288
215 51
1 255
79 166
79 256
79 260
204 68
289 135
204 79
204 276
204 221
204 271
3 221
58 199
44 290
27 221
291 292
69 293
69 104
9 260
114 124
199 58
63 290
32 291
36 236
36 291
51 294
36 236
105 135
211 228
291 32
211 260
204 68
204 276
204 79
295 296
204 48
211 288
211 284
204 288
204 284
294 51
263 277
6 221
44 129
297 191
70 124
32 291
51 294
53 291
204 298
294 51
9 32
9 177
220 221
289 220
211 265
221 3
221 6
221 211
27 221
277 34
263 277
277 299
277 299
300 52
212 67
277 50
204 221
204 181
211 221
140 124
6 221
184 32
193 233
32 184
32 184
32 184
301 63
32 184
193 149
289 8
9 299
140 124
6 88
302 138
204 68
288 51
288 211
228 211
260 51
260 199
260 79
260 211
260 181
63 301
303 294
204 68
155 3
205 304
155 8
277 252
204 68
212 211
204 68
204 68
204 68
288 50
204 68
101 32
204 68
143 67
212 228
212 228
228 121
67 164
67 132
228 61
228 304
305 306
239 236
114 124
51 294
67 172
51 288
277 172
288 51
209 299
67 175
3 221
3 155
307 6
307 6
307 51
6 299
307 6
307 6
277 51
307 6
277 79
277 51
281 308
307 6
277 51
193 302
307 6
302 193
307 67
281 302
193 302
307 6
60 308
60 308
60 308
60 308
60 308
309 175
310 72
143 67
308 60
212 209
302 193
307 67
189 302
193 302
212 34
277 184
281 302
302 193
189 302
193 302
212 34
277 184
277 184
302 193
277 184
9 177
277 184
9 299
277 184
121 228
193 302
308 60
36 211
302 193
303 212
36 155
193 302
193 311
36 34
194 296
211 128
36 211
296 63
302 193
194 312
281 302
193 302
9 8
128 51
194 132
294 51
302 193
128 51
294 51
299 209
9 8
299 6
248 283
128 236
263 308
281 302
9 299
36 299
19 302
128 51
9 8
128 51
294 51
67 32
103 299
36 299
9 299
313 228
263 308
9 8
314 308
277 191
212 51
306 305
9 299
277 191
9 8
9 299
212 51
263 311
103 299
277 191
103 299
277 191
9 299
193 280
212 51
314 254
281 302
303 212
303 298
263 315
212 51
263 316
260 51
51 59
263 315
260 79
103 299
128 211
314 308
314 51
314 34
103 299
286 221
308 315
9 315
9 316
317 315
318 124
63 296
128 51
9 316
286 34
9 299
314 51
212 51
317 315
63 301
128 236
260 51
9 316
314 48
314 34
318 34
286 34
294 51
204 51
140 124
204 68
204 298
318 34
314 48
314 34
50 288
314 34
286 34
176 311
9 8
176 306
176 299
176 319
176 300
144 193
282 67
176 315
176 316
9 8
288 50
228 121
318 34
318 124
282 34
212 6
297 34
124 318
289 212
297 88
140 124
254 308
9 8
83 313
103 318
140 124
9 8
34 318
297 34
144 288
214 154
212 6
212 6
36 299
144 88
308 254
101 184
9 8
212 6
254 308
211 288
94 320
282 214
211 260
318 124
36 211
212 211
288 211
318 34
211 228
211 288
194 88
212 211
144 290
27 194
194 88
212 34
9 32
9 8
176 233
124 318
176 32
44 99
144 48
144 51
318 34
9 8
318 34
318 124
176 32
212 34
228 315
44 99
32 184
9 316
321 144
144 99
44 99
67 32
9 8
184 101
41 184
67 32
67 32
193 315
144 193
9 8
9 299
9 260
9 132
144 99
144 322
44 99
144 193
281 323
99 144
144 193
144 99
95 52
52 95
103 324
95 52
103 324
63 155
176 324
297 325
297 325
144 99
44 299
209 299
297 325
297 34
60 308
103 324
144 99
51 324
155 63
297 325
324 51
78 326
51 324
324 51
63 155
51 324
324 51
297 325
281 144
51 324
144 193
67 63
212 209
324 51
144 99
193 144
51 324
297 325
144 193
34 324
323 34
144 99
63 67
144 193
297 325
307 325
144 99
212 51
297 325
324 51
27 194
297 325
324 34
144 48
144 48
34 324
319 34
48 144
319 325
34 88
212 51
144 99
297 325
52 95
319 325
144 48
319 34
204 327
297 325
204 68
204 51
51 324
325 319
324 51
297 325
52 328
281 144
103 324
51 324
324 329
297 325
212 51
329 324
62 78
297 325
72 291
324 51
212 51
324 329
9 294
329 324
103 324
9 97
204 68
9 318
128 329
9 78
38 52
9 52
308 60
9 330
51 52
9 86
51 331
38 288
38 288
332 333
324 329
51 324
9 61
9 262
38 288
12 168
324 51
9 288
51 324
9 288
12 288
62 260
128 324
12 288
281 323
324 51
9 288
313 78
281 323
38 288
12 288
9 288
9 316
51 324
324 51
303 316
12 288
38 288
9 316
51 324
103 324
38 288
12 288
67 90
324 51
303 316
9 288
38 288
316 303
12 288
334 128
303 316
281 323
38 288
335 34
103 324
51 324
9 316
38 288
12 288
38 288
323 281
12 288
9 288
38 288
12 288
103 324
38 288
324 51
323 281
38 288
323 281
51 324
12 288
9 97
9 288
324 51
323 281
12 288
12 288
9 282
12 288
324 329
281 323
333 319
9 288
323 281
332 281
9 316
329 324
9 288
323 281
9 288
323 281
332 281
281 323
336 315
9 288
323 281
323 281
128 324
9 288
332 281
9 288
9 288
9 288
281 323
9 288
335 34
336 333
335 34
323 281
128 324
308 333
332 281
333 308
9 288
332 281
332 281
332 281
323 281
335 34
323 281
281 323
9 288
36 189
333 329
323 281
323 281
323 333
335 34
34 101
41 97
36 75
103 324
329 333
332 281
128 221
103 316
323 281
36 211
41 308
260 211
128 324
335 34
337 281
103 324
34 313
41 308
337 260
337 281
281 254
34 313
337 281
335 34
41 308
254 281
62 260
335 34
220 221
308 311
176 311
103 324
335 34
128 329
324 51
41 308
41 308
41 308
103 324
9 308
338 260
260 338
103 324
260 338
254 311
335 34
311 308
263 311
311 254
254 311
263 311
9 308
308 311
335 34
191 315
103 311
335 191
335 34
311 50
311 254
311 308
34 311
308 311
254 311
9 308
335 191
9 311
103 311
103 324
9 308
9 308
9 311
103 311
9 311
254 8
9 308
204 339
103 311
324 329
329 324
9 282
324 329
313 34
313 34
329 324
324 329
34 313
34 313
329 324
53 34
50 311
53 340
53 308
53 305
53 341
313 34
48 311
338 319
34 313
319 34
319 333
319 338
342 260
67 32
51 324
319 333
319 325
317 311
97 338
97 191
34 343
34 299
299 34
34 299
120 222
344 209
32 8
41 120
47 78
345 56
345 318
299 34
34 299
313 34
220 32
63 32
294 51
44 299
44 34
332 308
88 144
277 6
44 34
53 308
53 346
319 333
297 88
314 333
235 347
314 228
338 348
314 95
319 338
319 338
314 48
349 8
319 338
349 319
317 308
317 308
9 233
317 308
44 308
317 308
317 308
317 308
317 308
317 308
317 308
263 308
317 308
317 308
97 338
317 308
317 308
317 308
317 308
317 308
317 308
317 308
263 308
317 308
317 308
308 263
263 308
103 97
317 263
308 281
333 319
317 263
317 263
317 263
281 308
317 263
191 347
317 254
317 254
317 254
317 254
317 254
317 263
317 254
317 263
317 254
317 254
317 254
34 313
44 34
317 254
317 254
337 254
337 254
337 254
337 281
332 281
317 191
317 254
332 281
254 302
302 281
317 191
302 254
317 191
254 302
337 281
337 281
51 324
302 254
317 263
317 254
263 281
281 263
254 302
272 263
263 254
302 254
281 263
263 281
254 302
302 254
254 302
281 263
303 298
263 281
302 254
324 51
254 302
281 263
263 281
281 263
332 281
281 263
332 281
263 281
337 281
281 263
281 263
337 281
263 281
296 63
263 281
281 263
281 263
281 263
337 281
337 281
281 308
281 254
263 281
337 281
337 281
263 281
281 263
263 281
317 281
53 341
27 184
281 302
204 184
160 72
160 72
27 184
308 281
212 263
27 184
281 308
51 324
324 51
350 6
351 299
350 299
239 349
304 228
263 352
350 299
319 349
101 208
353 254
103 134
353 254
317 319
176 101
317 308
281 352
62 354
316 355
316 263
316 281
103 353
281 316
272 316
99 349
204 184
172 128
321 233
6 252
8 349
332 281
277 263
3 51
356 63
308 281
237 191
357 358
32 263
3 51
289 359
176 101
308 281
281 308
308 281
204 184
204 271
332 308
332 308
69 349
191 237
69 155
332 308
263 32
291 32
291 72
317 308
289 86
3 51
72 291
323 340
323 281
332 263
263 316
61 105
61 105
323 34
316 263
323 281
316 263
3 308
323 281
176 61
328 52
323 281
281 323
323 281
281 323
32 291
12 360
235 191
235 263
357 358
357 128
357 175
60 194
60 194
103 314
103 360
103 158
12 360
48 314
12 316
332 316
103 360
308 337
221 211
221 128
44 308
44 308
44 308
323 281
323 340
131 297
211 221
323 102
323 191
302 281
323 102
41 308
34 313
277 263
323 191
313 34
41 308
34 313
323 191
323 88
349 8
307 48
63 74
41 32
131 297
317 263
209 242
355 316
316 355
266 50
316 263
53 305
316 308
263 316
307 48
316 263
272 316
88 323
349 297
272 263
307 48
323 88
272 316
297 349
272 316
297 349
263 316
263 316
272 260
297 248
316 263
281 323
316 263
297 349
323 281
323 281
281 302
323 281
294 339
281 323
263 316
297 349
316 263
323 281
323 281
297 349
281 323
323 88
263 316
323 281
316 263
281 323
297 349
124 323
349 97
162 161
323 281
281 323
323 281
323 281
297 349
99 349
281 323
277 308
277 361
323 281
124 323
281 323
88 323
281 323
323 281
277 362
97 316
97 349
323 88
323 281
344 128
363 364
212 51
212 211
355 316
323 281
212 263
302 281
242 209
19 302
323 281
97 349
281 323
323 281
323 281
316 355
308 316
316 308
281 302
308 316
88 323
316 308
323 88
307 281
307 281
228 314
281 323
332 281
281 323
332 281
332 281
307 254
334 364
212 88
332 281
323 102
323 281
323 88
323 281
307 254
75 313
307 281
209 365
307 254
307 281
323 75
307 254
308 254
323 88
19 331
254 308
323 75
19 365
212 75
323 75
313 75
365 209
323 124
19 365
323 75
75 313
212 88
345 318
323 124
19 365
19 365
19 365
212 75
308 60
313 75
308 254
19 365
286 221
9 308
88 212
19 365
74 63
75 313
88 358
9 308
313 75
72 337
358 88
323 75
9 177
9 311
75 313
36 75
88 358
9 366
323 281
9 358
19 365
323 75
36 75
212 88
60 308
358 88
212 224
36 75
97 349
286 367
19 365
9 282
9 358
19 365
286 202
286 202
286 202
9 358
19 365
368 367
212 75
355 316
36 361
128 236
334 128
367 368
254 337
254 281
254 281
281 254
20 21
254 281
20 275
368 367
75 313
9 212
32 63
212 75
63 74
63 32
368 288
327 144
74 63
288 368
32 63
144 281
32 263
313 75
144 88
63 74
63 32
368 288
97 349
97 327
316 355
144 142
288 368
74 63
368 288
355 316
314 228
144 369
288 368
323 281
314 48
212 74
144 370
314 48
63 74
371 306
314 95
368 288
311 48
144 359
288 368
323 372
368 288
63 74
316 355
212 75
289 212
144 283
355 316
316 355
316 263
263 316
277 191
316 263
144 48
355 316
263 316
316 355
332 281
235 191
373 308
248 283
308 373
308 373
338 144
212 263
308 281
248 374
103 316
355 316
316 355
355 316
220 221
316 355
355 316
316 355
103 375
372 242
128 324
103 365
44 174
44 373
103 316
368 340
95 365
44 372
372 368
9 177
281 308
9 371
44 365
365 95
281 323
308 281
9 368
44 372
372 371
281 308
340 368
48 314
368 340
372 375
95 365
48 311
332 281
236 128
365 95
372 375
95 365
372 376
376 372
376 377
365 95
335 72
372 376
102 97
335 155
337 72
103 375
335 88
103 378
103 365
103 375
176 374
9 368
337 72
53 305
248 375
375 248
335 155
248 375
72 337
335 368
379 349
335 72
332 352
335 72
335 98
335 98
335 368
335 98
41 380
41 371
98 97
335 50
41 381
335 365
41 382
41 343
335 368
41 383
335 368
335 368
103 365
335 368
128 236
335 368
368 194
194 368
335 72
368 194
335 368
335 368
368 236
368 322
335 368
335 368
171 56
368 309
62 102
62 347
176 378
176 378
32 63
32 378
189 358
317 311
300 384
41 300
41 325
97 338
309 368
372 97
372 375
1 146
1 101
1 211
1 30
70 385
277 362
154 56
321 154
27 221
79 365
79 386
228 314
239 349
386 50
386 260
319 338
376 50
50 386
50 376
386 50
376 50
376 50
386 387
386 50
30 72
277 362
277 376
63 32
376 191
212 376
212 376
212 376
371 377
311 48
376 377
212 376
311 365
388 306
378 32
189 349
314 48
50 386
50 376
9 177
359 144
34 365
1 30
385 70
254 378
345 361
345 346
365 79
365 311
204 374
72 30
204 374
204 298
145 88
204 298
204 298
189 349
70 385
204 298
204 298
191 376
389 254
63 337
63 193
337 63
212 388
263 378
212 376
212 224
390 316
27 184
391 349
349 391
212 224
378 254
378 263
392 383
319 337
387 386
393 394
395 8
395 8
393 263
396 378
395 8
176 396
386 387
386 343
176 396
9 391
9 52
308 281
8 395
9 386
9 8
176 396
289 392
41 391
289 375
41 325
289 371
254 378
289 391
308 373
308 263
263 308
378 254
260 386
254 378
393 263
378 254
393 263
254 378
281 308
281 308
393 263
393 263
378 254
372 97
321 359
372 376
283 260
372 97
254 378
393 263
308 281
254 396
378 254
254 378
62 371
378 254
254 378
1 397
396 254
254 396
321 396
396 254
32 378
32 63
327 97
254 396
357 396
378 254
378 32
396 254
332 308
357 378
357 396
254 396
254 378
220 373
357 378
32 378
220 308
220 224
357 396
396 254
220 62
254 396
220 254
378 254
376 191
220 62
378 32
254 378
254 378
378 254
254 378
204 294
32 396
398 209
32 378
321 396
254 378
355 316
399 396
378 254
378 32
145 88
145 263
32 378
399 364
399 382
209 396
399 126
399 299
399 375
32 58
378 32
32 378
399 59
289 371
399 386
399 76
398 378
400 32
74 379
74 396
398 378
74 378
399 365
378 74
398 378
399 311
48 311
399 149
373 308
400 32
316 355
316 390
398 378
228 392
373 308
378 396
396 378
396 378
378 396
378 396
400 396
36 296
12 175
74 378
36 128
36 401
400 396
378 74
74 378
12 402
396 74
396 399
12 402
400 396
12 402
12 402
400 396
12 402
212 303
365 399
400 396
368 309
400 396
95 365
9 175
9 52
9 8
30 72
310 97
9 212
403 8
9 88
9 34
402 281
323 281
176 396
303 212
176 396
303 389
44 242
176 263
44 242
393 191
191 396
8 403
393 191
396 191
176 396
396 191
191 396
393 191
396 191
9 8
400 323
176 396
191 396
396 191
393 191
41 263
393 191
176 396
9 8
384 300
9 212
6 404
212 394
176 396
9 8
176 396
398 405
176 396
9 8
176 396
398 405
176 396
398 405
9 34
191 405
398 405
9 8
9 212
405 191
398 405
398 405
314 281
194 406
103 396
6 378
398 405
103 405
378 6
389 254
389 62
398 405
389 303
191 405
398 405
405 191
398 405
191 405
405 191
378 396
79 365
281 314
281 402
281 323
41 407
9 405
404 132
314 228
314 281
378 396
212 303
281 314
297 62
9 405
378 396
103 393
9 405
9 212
297 62
9 405
74 408
9 405
378 396
9 405
409 50
201 410
410 201
201 410
201 52
214 396
41 396
396 214
214 396
103 371
396 214
378 396
103 371
214 396
378 396
396 214
308 281
409 50
41 396
212 376
281 308
308 281
214 396
41 396
396 214
281 308
214 396
308 281
308 32
344 403
396 214
260 283
214 396
6 378
281 308
344 403
308 281
272 273
63 337
27 406
297 272
344 403
344 403
263 405
344 403
303 389
3 308
38 365
368 394
3 88
321 411
321 411
88 3
234 166
321 412
402 281
307 368
281 402
212 303
405 263
103 344
172 344
9 212
9 411
9 411
372 389
372 407
394 368
409 263
372 407
368 394
6 413
321 405
212 413
131 393
38 288
131 191
321 344
27 414
38 405
389 303
38 175
415 329
27 414
414 396
303 212
413 6
27 414
83 368
212 413
6 413
344 172
27 414
9 177
325 344
321 344
27 414
321 389
69 6
103 343
38 405
69 403
27 414
204 374
38 177
325 378
212 413
321 177
317 281
303 212
321 72
317 308
212 413
321 72
416 212
27 414
27 414
325 6
281 352
212 387
6 325
323 281
212 416
303 212
32 308
325 6
6 325
131 393
67 410
323 281
67 410
303 6
303 6
357 343
67 396
277 417
357 405
277 417
131 393
303 212
212 416
357 393
67 378
413 212
357 63
323 281
131 393
317 281
317 281
357 389
311 365
311 399
212 413
69 418
317 281
323 281
41 407
378 325
413 212
365 311
378 67
378 6
378 325
6 378
27 414
323 413
378 6
303 212
96 74
350 6
41 407
350 6
212 376
6 378
350 6
323 337
52 201
321 311
323 356
321 311
212 413
378 6
376 6
69 75
335 72
19 396
3 51
41 407
3 51
6 378
6 376
131 393
335 50
289 419
335 278
378 6
6 378
303 212
161 162
19 8
378 6
19 419
249 8
102 62
325 378
6 378
325 378
249 8
321 52
378 325
44 19
325 378
249 8
335 6
378 6
398 378
378 325
398 378
96 74
74 419
398 378
212 413
398 368
51 419
44 129
6 378
398 378
96 74
335 6
378 6
228 311
96 74
3 51
19 396
6 378
3 132
398 378
212 413
398 405
62 102
335 6
249 8
212 413
398 368
303 212
335 6
51 3
323 356
36 296
263 405
398 368
335 6
323 102
3 51
335 6
413 6
212 51
398 368
294 51
323 367
335 6
19 420
19 420
6 413
323 421
398 368
294 51
335 6
413 6
212 51
398 6
212 413
368 294
398 368
335 263
294 368
145 281
413 212
368 294
212 51
398 368
398 6
335 6
294 51
132 3
212 413
378 6
422 212
398 368
294 368
3 132
6 413
294 288
413 212
288 294
294 368
102 62
57 56
413 6
294 368
263 311
6 378
372 407
335 6
372 389
335 72
294 368
372 212
6 413
413 6
372 389
289 212
256 48
335 373
372 72
294 51
378 6
41 407
340 56
335 373
335 6
372 311
372 233
294 368
335 174
372 368
405 263
335 72
263 405
423 410
423 410
335 373
372 368
303 212
144 283
372 407
405 263
372 368
335 115
212 413
413 212
212 413
335 60
41 407
6 413
335 373
372 212
372 407
6 378
372 368
335 60
372 72
228 378
41 419
69 373
19 109
373 311
335 60
176 419
335 6
69 373
367 323
69 228
335 6
144 48
6 413
372 72
335 72
144 338
335 6
41 407
413 6
372 212
423 8
372 72
372 389
144 413
6 413
389 68
413 6
321 212
335 19
228 386
335 6
335 72
372 212
372 72
372 389
372 389
6 413
423 97
335 72
423 128
144 374
72 372
372 72
335 6
413 6
335 72
6 413
72 372
424 405
300 384
368 221
212 372
424 236
335 6
321 212
372 212
335 72
372 72
335 356
72 372
392 228
372 212
335 72
368 236
335 356
236 368
72 335
356 335
335 6
335 356
368 236
236 368
48 6
6 335
41 392
176 392
368 236
413 6
69 356
48 6
48 256
6 413
194 184
48 6
194 1
48 6
176 392
194 296
41 392
48 6
69 356
176 392
41 392
176 392
176 392
103 392
176 392
48 6
6 413
41 392
425 396
176 392
103 392
422 335
176 392
425 378
103 417
48 6
176 392
41 392
103 392
176 392
176 392
103 392
103 392
103 392
413 6
103 392
409 191
409 50
426 427
103 392
409 8
6 413
103 392
409 194
103 392
409 6
263 405
409 260
409 149
409 413
409 149
234 391
263 391
338 386
72 263
329 415
422 194
174 335
317 308
386 399
308 373
36 428
308 311
36 413
342 8
342 63
41 407
398 6
398 405
289 392
398 335
429 242
297 234
32 429
424 144
321 392
429 32
32 429
321 392
321 392
289 392
321 392
321 371
321 392
430 164
430 58
289 392
321 392
424 260
321 392
431 371
289 392
431 32
424 175
405 263
431 88
432 8
289 392
27 414
398 405
321 392
429 309
431 407
431 407
431 365
431 32
321 392
289 392
321 392
289 392
242 429
424 315
289 392
289 392
51 429
321 392
32 8
263 405
310 405
431 407
263 72
63 430
144 283
398 8
395 8
398 8
41 300
378 425
189 8
388 212
405 263
342 194
281 263
56 345
56 154
56 340
263 405
263 405
212 388
334 358
409 413
409 191
409 50
433 434
189 358
405 263
350 335
350 376
103 392
435 308
435 281
372 409
372 392
350 436
103 392
434 433
372 212
372 429
32 430
72 263
372 236
263 405
323 413
372 429
429 32
429 242
174 335
372 429
405 263
372 407
44 432
242 429
398 405
62 266
350 376
62 266
62 266
62 266
398 405
145 281
389 62
389 68
389 62
340 56
391 263
391 349
391 234
27 414
228 392
357 407
286 416
392 228
431 407
74 437
321 52
400 323
68 389
345 56
395 175
204 432
204 298
145 281
30 392
400 429
400 365
30 392
236 407
228 392
30 392
400 392
400 52
400 52
236 260
236 191
306 438
387 386
392 228
392 30
317 308
317 281
323 276
323 395
400 392
400 365
400 323
400 188
400 188
400 157
439 440
407 236
400 365
396 425
400 52
398 405
398 6
52 201
400 144
400 314
400 82
32 429
400 428
400 428
400 396
191 236
289 391
124 396
236 191
400 323
400 392
441 442
441 442
441 442
191 236
145 281
51 314
400 441
228 392
316 355
400 443
400 444
400 445
400 445
400 445
400 445
400 446
396 124
447 325
124 396
260 448
260 283
379 74
407 396
396 407
407 396
260 236
124 396
396 407
234 391
289 449
396 124
447 6
69 450
321 392
124 396
124 396
447 6
29 443
124 396
424 175
447 6
429 209
429 372
451 32
451 67
321 437
429 32
124 452
297 372
124 396
297 272
297 234
400 396
308 281
281 308
32 429
308 281
357 407
308 281
281 308
396 124
211 212
357 429
400 429
281 308
429 32
124 396
357 8
308 281
409 413
400 396
32 429
409 6
396 124
400 429
124 396
357 65
400 396
400 396
132 149
425 378
453 32
302 393
425 52
289 65
372 392
372 429
357 454
392 228
27 414
323 455
297 372
310 405
323 98
323 98
317 316
456 457
368 441
323 458
389 454
74 379
378 425
323 88
41 389
88 323
74 459
176 445
323 88
323 88
274 6
41 437
41 389
323 88
372 392
323 281
372 392
44 296
388 212
140 201
140 201
274 74
389 68
44 74
41 389
323 88
44 296
274 416
88 323
323 88
172 460
274 6
389 236
274 6
88 323
372 461
236 191
460 172
372 461
44 74
274 462
44 296
302 372
281 323
297 372
274 6
1 211
62 389
176 463
303 194
236 407
176 463
44 74
236 389
41 463
44 74
172 460
19 443
19 446
44 74
212 372
289 65
460 172
297 372
350 376
103 464
103 464
297 172
297 372
447 6
447 172
41 463
103 464
465 456
176 463
41 463
447 456
466 392
398 74
398 74
41 463
389 236
389 68
176 463
398 74
396 425
398 74
389 467
44 74
398 74
286 468
398 134
398 396
378 396
398 463
164 430
134 398
398 164
398 463
398 134
236 389
44 74
396 378
389 236
263 409
409 263
469 463
140 470
263 409
19 134
424 175
409 263
463 469
398 463
378 396
398 463
321 392
469 463
396 378
398 365
398 471
321 460
398 468
463 469
41 437
469 463
38 288
38 365
38 288
38 437
469 463
38 288
38 288
38 288
38 288
378 396
396 378
9 391
38 437
472 263
38 288
41 437
41 473
9 282
38 288
38 288
357 409
263 472
357 437
472 263
38 288
38 288
396 378
38 288
357 409
103 464
67 32
409 349
357 405
38 288
103 134
407 236
357 409
19 409
38 409
67 396
212 472
357 409
67 378
212 472
103 464
357 409
474 32
474 456
474 74
357 409
429 32
357 464
429 372
475 368
357 409
263 332
424 343
424 405
41 407
357 409
357 476
317 309
357 409
477 1
357 409
67 396
357 460
212 472
321 460
357 409
19 409
19 409
38 409
357 168
357 409
19 409
263 460
19 409
357 409
19 478
38 478
19 409
38 464
19 409
38 405
357 409
19 409
263 472
6 472
19 409
357 409
19 409
19 409
263 479
398 405
321 460
19 409
321 460
19 409
357 409
475 368
19 409
480 212
321 460
212 480
479 263
212 480
67 396
373 308
212 481
212 481
357 409
212 481
475 368
368 460
398 365
357 409
321 263
321 482
460 368
321 212
357 409
483 368
368 460
372 429
212 481
19 409
359 460
460 359
398 175
6 481
359 460
481 6
483 368
277 482
392 466
277 481
6 481
392 466
212 481
277 481
481 6
6 481
481 6
282 34
19 481
321 460
277 482
6 481
466 392
277 481
274 6
321 392
392 466
372 460
19 109
274 481
321 454
321 392
483 368
372 466
460 359
368 483
423 343
481 6
423 454
277 482
484 372
321 392
321 88
310 405
274 481
321 376
483 368
481 6
357 466
274 481
398 254
321 343
277 481
274 376
321 392
274 481
321 460
357 120
460 372
484 372
398 72
277 482
321 352
236 407
277 481
321 460
372 460
321 472
321 191
368 483
423 464
131 368
321 278
321 392
460 372
228 314
321 460
321 392
321 405
372 460
357 480
321 392
282 214
372 482
277 352
131 368
321 392
309 352
289 392
321 481
236 389
485 175
321 392
398 480
321 8
131 368
289 392
321 288
372 482
372 482
372 482
407 236
321 392
321 460
172 486
321 288
460 372
483 368
193 63
321 481
321 288
67 396
321 392
321 313
463 469
321 309
321 392
321 75
321 368
321 120
423 392
479 481
321 487
321 175
481 479
321 75
321 464
479 481
308 435
423 392
172 488
321 349
297 75
321 309
372 460
479 358
484 372
321 479
439 440
321 450
368 483
317 281
321 313
321 368
484 372
321 489
321 368
321 72
140 308
483 368
321 236
317 429
321 358
321 487
172 460
321 476
483 479
321 72
368 483
321 368
321 376
479 8
321 487
321 368
475 481
51 489
321 368
321 72
277 172
483 479
409 8
483 368
484 372
51 149
19 409
389 68
19 109
321 480
317 479
321 376
19 409
321 376
424 175
389 236
389 62
19 302
321 236
321 325
376 6
350 376
51 476
321 490
321 491
321 372
321 344
321 365
321 402
51 466
321 228
321 172
402 281
321 174
19 302
263 344
236 389
9 282
51 120
483 368
236 407
492 389
493 128
494 63
492 343
494 389
128 493
9 466
447 51
447 51
9 472
9 463
389 236
9 465
424 495
308 263
140 308
9 389
494 389
263 308
494 389
9 460
494 463
236 191
494 389
447 372
494 389
228 463
400 429
494 445
400 365
209 437
494 429
400 392
9 389
400 61
9 389
236 389
19 302
209 429
9 8
9 177
400 396
400 472
389 236
400 454
400 454
263 454
400 343
472 263
483 368
19 409
19 409
409 302
19 409
9 389
400 389
483 368
368 236
263 389
44 19
466 372
368 468
483 368
336 333
263 297
468 300
400 392
475 468
475 468
466 51
483 368
475 496
484 372
479 278
372 466
483 368
405 263
405 263
466 372
297 263
484 372
103 480
475 496
400 392
483 368
497 405
263 405
372 466
297 263
405 497
497 405
103 454
263 297
236 368
297 263
405 263
405 497
321 365
389 263
321 405
103 437
498 495
497 405
405 497
263 297
321 405
368 236
321 437
297 263
497 405
484 372
212 372
400 392
236 389
263 297
297 263
236 368
355 316
355 102
368 236
389 236
497 302
263 297
344 263
297 263
263 344
483 368
103 437
498 97
321 392
194 499
194 303
194 184
53 481
496 475
475 496
194 344
63 193
496 454
62 368
496 475
194 60
6 376
41 437
194 182
297 289
194 368
475 496
1 477
321 500
194 209
297 289
62 454
321 491
194 62
501 236
263 297
62 481
321 502
501 236
62 349
321 502
501 236
297 263
501 236
321 502
62 236
501 236
297 263
309 502
6 343
321 502
502 309
332 263
194 223
321 392
321 502
309 502
379 74
321 392
321 392
6 84
502 309
379 289
62 465
62 236
263 297
501 236
263 297
309 502
62 502
263 503
502 309
221 368
297 263
502 62
379 289
321 392
503 263
321 480
379 74
194 62
379 289
321 392
62 502
392 502
379 289
502 62
194 62
334 62
502 392
297 263
181 454
392 502
62 502
321 392
502 392
194 62
321 495
62 236
502 62
392 502
62 502
502 392
502 392
334 62
502 62
194 62
62 502
263 297
321 437
334 437
194 62
321 504
181 495
181 294
194 62
220 505
194 62
220 88
103 437
128 325
128 62
128 62
128 62
62 128
501 236
501 236
501 236
501 236
501 236
501 236
60 296
32 429
483 368
70 174
9 466
70 482
70 482
429 372
398 405
398 97
289 97
342 194
453 264
429 209
429 32
342 454
447 372
209 194
321 437
321 316
321 209
348 338
316 355
321 506
321 316
321 507
321 209
316 263
321 316
321 348
263 316
263 316
316 263
355 316
263 316
263 316
355 316
316 355
316 263
355 316
316 355
344 263
316 355
344 194
355 316
316 355
32 154
431 398
212 480
431 372
431 372
212 303
212 372
431 454
431 454
431 454
355 316
405 508
398 405
398 254
508 405
474 74
41 503
358 479
509 454
372 508
194 456
431 372
372 355
260 236
260 51
176 453
303 212
303 194
431 372
508 372
321 454
321 358
454 263
211 194
27 184
454 496
454 181
68 437
391 289
263 257
454 510
456 194
448 352
181 454
74 379
74 379
350 365
69 450
69 263
296 194
53 481
69 124
372 508
44 432
372 460
34 313
44 372
53 254
44 34
325 128
447 325
44 511
447 34
128 325
325 128
212 263
212 48
19 512
299 399
128 325
212 211
460 372
323 281
513 388
513 514
465 62
323 88
323 124
440 513
317 308
474 74
474 32
422 365
263 212
62 454
62 481
62 465
422 460
101 515
453 516
228 392
465 62
474 236
517 368
289 391
517 68
379 74
517 289
379 450
359 460
465 398
379 432
432 379
297 248
474 236
297 272
181 432
368 194
281 402
281 323
368 221
425 378
425 396
368 359
368 309
359 368
368 359
359 368
342 454
474 359
294 51
368 359
359 368
62 465
62 481
517 368
62 368
474 359
517 359
9 465
368 359
474 359
9 391
359 368
9 194
368 359
359 368
474 359
194 211
368 359
194 456
359 368
372 460
368 359
474 32
359 368
316 355
378 425
474 359
378 396
368 359
359 368
368 359
465 62
359 368
359 368
32 209
518 345
368 359
456 194
19 519
19 519
483 368
520 32
493 329
143 32
400 504
521 305
400 428
273 272
389 496
273 522
62 368
62 465
523 524
469 519
44 432
44 432
379 432
469 463
400 454
400 396
400 429
520 291
520 291
520 292
400 429
44 211
422 365
496 454
214 525
321 454
392 228
41 523
321 359
321 480
477 526
32 527
457 456
350 365
9 282
36 413
9 465
425 378
350 365
460 359
9 8
9 8
9 282
9 8
9 465
9 8
9 8
9 527
9 528
9 8
302 497
9 8
9 8
297 234
441 368
209 32
9 8
447 325
447 34
447 48
9 8
62 375
12 175
12 302
51 529
51 528
51 523
51 530
456 527
456 527
456 501
447 48
447 48
363 502
389 424
400 428
400 286
396 378
357 409
400 396
357 502
400 502
228 392
12 502
32 209
447 325
32 52
53 254
103 502
447 325
447 325
41 527
41 529
357 502
41 502
176 502
357 502
355 316
355 316
62 475
357 501
501 456
103 503
355 316
475 62
398 502
62 475
502 398
475 62
456 501
62 278
474 32
357 502
474 32
357 502
176 502
526 477
483 62
209 355
357 502
400 441
41 502
483 62
447 325
193 63
483 62
357 502
193 149
456 209
467 389
172 531
501 456
103 452
357 502
456 501
482 389
357 168
357 502
193 355
41 502
474 372
103 456
193 502
502 193
474 372
193 502
128 62
41 502
357 502
41 452
501 236
501 236
501 456
482 532
398 502
357 428
502 193
357 502
41 502
313 34
38 313
63 193
103 134
41 502
38 313
38 313
532 482
38 313
228 475
38 313
38 313
38 313
38 313
38 313
38 313
41 502
38 365
38 313
38 313
38 313
501 236
38 313
38 313
38 313
38 313
67 378
38 313
38 313
67 215
67 215
67 533
67 534
67 529
67 527
67 371
67 482
67 273
67 8
67 288
41 502
67 440
67 535
67 74
67 288
67 72
67 236
67 260
67 313
67 502
67 242
67 424
67 521
67 365
67 172
67 475
67 313
389 482
67 475
389 424
38 313
67 288
241 501
38 502
67 475
67 288
67 72
41 502
38 313
241 260
36 413
67 288
67 475
38 502
41 502
67 72
67 288
193 63
67 74
67 72
67 288
67 72
38 313
38 502
67 475
74 503
38 502
389 467
67 72
67 72
38 313
67 475
193 502
67 72
67 72
38 502
67 475
67 72
67 475
502 193
509 454
67 475
509 454
67 475
38 502
233 372
67 475
38 502
38 502
38 502
67 475
38 475
41 502
38 502
38 313
38 313
67 88
38 313
67 475
38 502
38 288
38 313
38 177
38 288
38 313
38 177
38 177
38 313
27 414
297 482
38 177
38 502
482 389
38 313
41 502
38 288
38 502
38 288
38 288
38 177
38 502
41 502
38 502
38 313
38 502
409 302
38 502
409 413
38 288
38 502
38 502
38 177
38 288
41 502
38 288
355 193
386 387
355 209
38 386
38 288
509 534
38 502
38 502
38 502
38 502
38 502
38 502
38 502
38 502
38 502
38 502
38 502
38 502
38 288
38 502
38 502
38 288
501 241
74 379
38 288
38 177
38 502
38 502
38 502
38 177
38 177
41 502
517 481
38 502
38 475
41 502
38 475
38 502
38 475
38 502
41 502
38 502
38 502
41 528
38 502
474 74
38 168
400 428
62 481
38 475
38 502
214 512
41 536
19 409
400 502
398 308
398 308
398 308
465 398
41 355
469 97
41 464
41 464
342 502
398 308
398 308
393 32
537 536
398 308
143 201
143 201
241 501
400 168
501 236
143 201
398 308
143 201
400 378
398 308
456 405
143 201
400 365
143 201
143 201
352 309
501 241
143 201
398 308
241 501
143 201
143 456
143 201
456 389
143 201
143 201
143 456
143 201
143 201
143 201
501 241
241 501
282 456
257 263
19 538
19 109
539 502
422 536
19 538
475 74
75 475
517 481
308 68
475 75
475 75
140 276
75 475
475 75
422 97
308 540
308 538
236 501
75 475
41 538
475 75
475 75
236 242
236 501
44 74
68 308
75 475
75 475
475 75
19 538
475 75
19 538
501 236
539 368
19 538
19 538
75 475
19 538
75 475
19 538
19 538
475 75
19 538
475 75
19 538
75 475
19 538
19 538
75 475
475 75
75 475
19 538
75 475
475 75
475 75
539 368
475 75
38 313
536 532
532 536
539 368
191 536
536 532
532 536
536 532
532 536
536 532
536 191
532 541
532 536
536 532
191 536
532 536
282 34
532 463
368 542
542 368
9 177
41 355
9 177
368 542
501 236
128 62
513 440
128 236
522 273
236 128
97 352
97 542
128 236
144 398
542 97
97 542
325 482
97 542
236 128
542 97
128 236
542 543
97 542
128 97
501 236
542 97
236 501
97 542
325 523
501 236
543 542
145 119
236 128
325 482
542 97
236 501
501 236
542 543
325 72
97 542
540 308
542 97
128 236
543 542
97 542
236 501
325 482
542 543
236 128
119 144
74 378
542 97
97 542
325 97
325 97
325 97
543 542
97 325
128 236
74 527
74 528
74 544
325 482
542 97
74 519
325 97
97 542
74 541
97 325
542 97
325 97
97 325
542 97
97 542
325 97
542 97
97 325
68 97
97 542
542 97
97 68
482 325
325 97
97 542
325 482
97 325
542 97
325 97
236 128
97 542
97 325
68 97
325 513
325 513
482 325
97 68
325 482
542 97
513 325
325 97
41 513
325 513
481 62
97 542
542 513
513 325
97 325
513 542
325 513
542 97
542 513
325 97
513 542
97 542
68 48
325 61
482 325
97 325
325 482
68 61
325 97
542 61
513 98
542 97
41 513
325 109
542 97
482 325
72 325
513 545
97 542
97 542
97 542
97 542
97 542
542 97
325 482
325 72
97 542
542 97
542 97
72 325
482 325
325 97
325 482
97 542
546 532
97 325
482 325
546 542
542 97
325 97
325 482
546 454
482 325
546 97
325 482
482 325
97 542
97 325
325 482
325 97
97 325
547 311
325 97
97 325
325 97
97 325
325 97
482 325
325 482
546 97
325 542
542 325
542 548
325 542
548 542
542 325
325 542
542 548
542 325
325 542
297 75
325 549
549 325
62 481
277 352
432 379
545 513
321 84
321 550
321 203
321 68
321 119
321 242
321 491
321 365
44 74
536 191
289 536
536 532
536 289
532 536
536 532
537 74
532 536
536 532
398 308
532 536
537 536
447 325
536 532
212 289
415 329
389 482
389 456
451 32
76 399
76 258
542 97
41 76
285 536
536 285
193 502
509 389
509 536
41 542
375 372
536 509
536 289
474 32
19 451
509 536
41 375
509 536
291 393
551 224
482 389
551 306
551 545
551 377
36 73
36 119
19 538
36 119
36 119
103 502
103 538
36 119
36 119
103 466
552 236
9 76
103 358
289 536
103 168
103 365
321 119
321 68
51 553
103 553
103 554
103 62
447 119
465 398
103 465
204 456
204 432
103 549
447 119
97 542
423 294
423 454
103 62
447 119
9 543
9 543
103 62
509 97
97 509
321 68
509 454
509 302
321 68
555 509
509 302
509 302
51 528
119 302
51 215
302 119
204 540
456 294
103 168
119 302
509 302
456 175
540 308
456 553
379 74
379 482
103 61
308 540
236 509
62 554
103 500
509 236
509 272
540 308
103 128
62 285
302 119
61 325
509 302
119 302
61 68
103 556
61 542
509 302
398 509
204 456
509 236
509 302
509 236
509 236
302 509
204 482
509 236
325 549
509 302
509 302
204 482
204 62
532 364
204 482
204 62
308 540
549 325
325 549
204 482
204 482
204 482
258 76
204 482
321 365
204 482
557 527
97 289
549 325
535 513
74 379
557 302
302 557
557 302
302 557
557 302
103 365
27 414
193 355
302 557
379 74
103 365
103 393
393 291
103 393
294 456
62 554
557 302
481 479
302 557
557 302
302 557
355 193
260 241
557 302
214 302
103 365
393 54
103 393
302 557
302 214
95 393
302 558
128 236
36 73
103 128
68 61
557 302
302 557
1 477
302 138
36 73
36 73
36 3
302 74
557 302
204 482
103 128
316 355
325 549
389 509
325 542
389 559
1 302
325 548
325 560
465 398
302 557
560 325
447 119
36 3
355 316
1 302
193 355
316 355
302 557
557 302
553 456
553 51
557 302
355 316
302 557
242 236
316 355
19 233
19 65
527 32
527 74
316 355
527 554
316 355
554 527
252 6
41 460
204 242
144 398
74 302
74 527
527 74
209 527
41 527
527 209
542 325
542 548
41 527
540 308
41 527
97 325
252 97
97 252
474 32
97 252
97 252
481 252
389 482
302 74
252 481
103 175
103 513
103 128
266 97
41 561
474 74
214 302
481 252
97 266
325 97
97 325
252 481
283 144
193 389
389 193
525 211
525 214
525 93
481 252
481 252
51 561
193 389
252 481
549 325
549 325
367 393
283 375
283 515
51 39
286 549
549 286
103 175
103 525
214 525
103 128
325 549
214 500
325 553
456 553
204 456
456 527
555 562
465 456
400 144
297 263
465 456
456 252
465 456
252 456
465 456
456 252
252 456
465 456
456 252
252 456
357 134
456 252
465 456
252 456
465 456
400 428
103 168
103 134
456 27
465 398
465 456
456 538
400 429
389 193
389 252
357 134
465 398
398 456
465 456
357 538
398 456
465 398
389 252
465 456
465 398
389 252
389 252
481 252
252 481
389 252
38 148
38 177
38 177
398 394
465 398
563 239
447 119
38 168
38 393
38 233
103 168
465 398
214 437
398 175
214 564
465 456
260 283
525 214
494 325
494 389
400 286
51 465
539 396
483 127
561 51
465 456
41 353
523 565
561 51
447 119
447 119
456 144
119 168
465 456
465 398
561 51
465 398
465 456
176 270
41 566
41 460
465 398
41 270
400 396
561 51
567 260
168 119
567 460
103 168
568 370
297 481
277 252
41 389
465 398
454 181
277 252
41 389
252 389
103 168
62 454
313 127
19 566
19 566
19 566
539 454
62 454
539 454
539 536
465 398
41 481
9 527
9 177
539 454
9 177
9 389
465 398
9 569
9 566
370 568
389 252
398 465
220 308
220 308
539 454
517 481
41 389
538 438
536 532
517 438
517 540
532 536
536 532
75 97
532 536
83 536
277 567
236 128
252 389
83 386
75 475
538 570
83 536
128 236
422 536
193 389
236 128
193 368
119 538
308 220
128 236
363 454
363 454
363 454
495 540
204 482
404 6
193 368
422 536
336 368
540 495
236 128
336 368
48 538
48 538
538 540
540 538
538 48
538 540
540 538
48 538
538 540
538 48
454 363
540 538
355 316
321 365
538 540
540 538
48 538
289 97
355 316
321 454
538 48
355 316
538 540
540 538
538 289
538 540
289 538
538 48
48 371
538 289
540 538
336 368
321 454
538 540
538 48
289 538
48 538
540 538
321 538
538 289
321 454
538 48
128 236
289 538
48 538
538 289
538 48
321 538
289 538
48 538
321 454
538 289
321 270
48 538
321 454
538 48
538 48
336 368
289 538
48 538
308 352
48 538
308 454
355 193
538 48
454 308
336 294
308 454
538 48
38 128
308 540
38 270
204 336
454 308
204 336
144 283
48 538
48 538
538 48
538 48
48 538
538 48
48 538
538 48
144 456
48 538
74 459
9 127
193 355
538 48
193 355
48 538
538 48
73 393
144 48
308 336
48 538
144 48
73 454
144 48
336 308
308 336
144 48
392 228
73 343
48 144
144 48
73 452
392 127
336 536
103 144
308 97
97 308
392 538
38 128
38 378
103 378
355 316
103 396
571 128
282 456
571 128
103 270
571 128
571 128
400 454
571 128
571 260
571 128
571 128
128 571
571 128
128 571
440 460
172 392
128 571
571 128
571 128
571 128
571 128
128 571
128 571
546 454
405 456
189 144
481 348
546 454
546 572
481 252
252 481
62 60
6 566
214 525
536 336
456 396
9 144
551 224
551 83
204 571
363 454
83 536
475 75
289 319
27 456
316 355
316 355
27 414
316 355
355 316
355 316
317 308
355 316
316 355
316 355
355 193
355 316
355 316
316 355
316 355
321 454
308 549
289 449
321 449
316 308
355 316
316 102
355 316
355 102
316 355
355 316
316 355
540 308
540 571
449 289
456 449
551 319
321 449
449 456
456 449
551 456
365 540
551 456
540 365
551 147
365 540
551 456
540 365
199 536
365 540
277 73
277 172
540 365
277 73
193 355
365 540
540 365
365 540
289 449
8 32
32 8
525 214
8 32
517 252
266 97
289 365
365 289
283 144
289 365
70 573
9 97
41 567
325 559
41 567
204 567
308 316
389 252
389 193
32 8
32 8
233 193
233 481
204 567
574 6
41 389
212 119
456 355
266 449
236 128
6 404
302 449
6 515
