1 2
3 4
5 2
6 7
8 7
9 10
9 11
12 13
9 14
9 15
9 16
9 17
9 14
9 18
19 18
20 21
19 22
8 23
9 24
9 22
25 21
26 7
27 28
29 25
30 31
30 31
30 31
30 31
32 33
34 35
34 33
36 37
38 39
36 40
41 15
41 11
41 14
41 13
41 39
41 42
41 43
9 40
44 45
46 22
44 46
47 46
48 46
9 49
36 50
44 51
32 52
36 32
53 54
36 55
56 57
36 32
36 58
44 59
51 58
44 14
36 56
36 60
56 61
62 50
36 60
32 59
36 60
36 50
41 63
41 64
41 65
41 56
41 61
41 43
41 52
41 58
41 59
9 64
9 58
12 66
32 58
12 66
67 32
41 32
67 32
32 68
68 56
67 32
67 32
68 61
67 32
67 8
69 67
70 51
44 50
67 32
71 58
71 72
51 58
72 71
73 74
74 73
73 74
74 73
34 58
44 75
44 75
9 58
73 74
9 76
32 77
41 76
41 78
79 48
79 63
41 80
79 58
41 81
79 70
19 82
19 72
12 32
19 64
19 58
19 58
19 58
19 52
83 59
51 70
38 58
41 58
63 79
41 63
67 59
41 63
41 58
44 84
19 85
19 72
3 84
19 8
19 58
84 86
83 58
36 60
86 48
87 63
36 88
87 8
36 89
90 56
36 90
36 84
91 92
36 93
91 92
36 90
91 92
36 60
36 84
51 58
94 84
36 84
94 84
94 84
69 84
69 95
87 8
3 84
3 84
48 86
84 8
91 81
96 88
8 84
84 8
91 47
97 98
98 97
97 98
48 97
99 8
99 8
97 48
100 101
102 97
97 48
97 102
101 100
48 58
97 48
103 72
103 58
104 59
104 59
103 72
105 56
106 72
105 61
105 8
105 33
105 107
105 81
44 102
36 105
36 104
34 108
34 109
36 110
111 112
34 58
36 113
36 109
79 109
114 105
101 115
56 90
56 105
56 68
29 58
87 58
44 116
44 117
44 117
44 79
80 58
96 32
118 100
119 120
119 120
120 119
120 75
119 120
120 119
119 58
74 73
118 120
121 108
72 106
44 92
26 122
44 79
1 123
96 124
125 126
36 104
44 79
44 79
36 124
36 127
36 128
44 79
44 129
44 116
9 120
79 58
36 109
124 109
36 109
124 61
124 72
36 109
36 112
124 85
85 124
32 130
36 112
124 85
72 124
124 8
131 30
99 126
103 72
103 72
103 63
103 117
103 72
131 30
69 95
69 124
69 79
132 30
36 99
36 133
36 60
36 134
36 133
36 81
103 72
103 135
133 135
135 133
36 133
103 135
19 52
133 135
103 135
103 135
135 133
133 135
36 133
36 133
36 133
9 109
9 109
62 136
96 32
137 138
96 137
19 120
44 90
96 137
137 138
19 139
44 60
44 88
44 102
44 90
19 111
44 90
9 32
44 90
44 90
103 63
103 72
38 86
140 105
103 72
38 86
38 101
38 101
38 101
103 101
38 101
103 101
38 61
75 120
38 81
44 141
44 141
44 74
44 127
124 135
140 124
19 82
19 82
19 82
105 56
19 82
124 135
105 58
105 63
19 82
105 61
105 135
124 135
71 72
135 124
9 32
63 105
72 71
142 58
124 135
124 135
143 32
144 99
144 105
144 121
9 109
103 109
103 63
103 63
103 109
48 81
95 81
145 48
95 63
145 95
95 109
145 95
145 48
145 95
145 48
145 48
95 109
96 48
95 109
96 95
96 95
96 48
96 95
105 144
105 63
6 146
