1 2
3 4
5 2
6 7
8 7
9 10
9 11
12 13
9 14
9 15
9 16
9 17
9 14
9 18
19 18
20 21
19 22
8 23
9 24
9 22
25 21
26 7
27 28
29 25
30 31
30 31
30 31
30 31
32 33
34 35
34 33
36 37
38 39
36 40
41 15
41 11
41 14
41 13
41 39
41 42
41 43
9 40
44 45
46 22
44 46
47 46
48 46
9 49
36 50
44 51
32 52
36 32
53 54
36 55
56 57
36 32
36 58
44 59
51 58
44 14
36 56
36 60
56 61
62 50
36 60
32 59
36 60
36 50
41 63
41 64
41 65
41 56
41 61
41 43
41 52
41 58
41 59
9 64
9 58
12 66
32 58
12 66
67 32
41 32
67 32
32 68
68 56
67 32
67 32
68 61
67 32
67 8
69 67
70 51
44 50
67 32
71 58
71 72
51 58
72 71
73 74
74 73
73 74
74 73
34 58
44 75
44 75
9 58
73 74
9 76
32 77
41 76
41 78
79 48
79 63
41 80
79 58
41 81
79 70
19 82
19 72
12 32
19 64
19 58
19 58
19 58
19 52
83 59
51 70
38 58
41 58
63 79
41 63
67 59
41 63
41 58
44 84
19 85
19 72
3 84
19 8
19 58
84 86
83 58
36 60
86 48
87 63
36 88
87 8
36 89
90 56
36 90
36 84
91 92
36 93
91 92
36 90
91 92
36 60
36 84
51 58
94 84
36 84
94 84
94 84
69 84
69 95
87 8
3 84
3 84
48 86
84 8
91 81
96 88
8 84
84 8
91 47
97 98
98 97
97 98
48 97
99 8
99 8
97 48
100 101
102 97
97 48
97 102
101 100
48 58
97 48
103 72
103 58
104 59
104 59
103 72
105 56
106 72
105 61
105 8
105 33
105 107
105 81
44 102
36 105
36 104
34 108
34 109
36 110
111 112
34 58
36 113
36 109
79 109
114 105
101 115
56 90
56 105
56 68
29 58
87 58
44 116
44 117
44 117
44 79
80 58
96 32
118 100
119 120
119 120
120 119
120 75
119 120
120 119
119 58
74 73
118 120
121 108
72 106
44 92
26 122
44 79
1 123
96 124
125 126
36 104
44 79
44 79
36 124
36 127
36 128
44 79
44 129
44 116
9 120
79 58
36 109
124 109
36 109
124 61
124 72
36 109
36 112
124 85
85 124
32 130
36 112
124 85
72 124
124 8
131 30
99 126
103 72
103 72
103 63
103 117
103 72
131 30
69 95
69 124
69 79
132 30
36 99
36 133
36 60
36 134
36 133
36 81
103 72
103 135
133 135
135 133
36 133
103 135
19 52
133 135
103 135
103 135
135 133
133 135
36 133
36 133
36 133
9 109
9 109
62 136
96 32
137 138
96 137
19 120
44 90
96 137
137 138
19 139
44 60
44 88
44 102
44 90
19 111
44 90
9 32
44 90
44 90
103 63
103 72
38 86
140 105
103 72
38 86
38 101
38 101
38 101
103 101
38 101
103 101
38 61
75 120
38 81
44 141
44 141
44 74
44 127
124 135
140 124
19 82
19 82
19 82
105 56
19 82
124 135
105 58
105 63
19 82
105 61
105 135
124 135
71 72
135 124
9 32
63 105
72 71
142 58
124 135
124 135
143 32
144 99
144 105
144 121
9 109
103 109
103 63
103 63
103 109
48 81
95 81
145 48
95 63
145 95
95 109
145 95
145 48
145 95
145 48
145 48
95 109
96 48
95 109
96 95
96 95
96 48
96 95
105 144
105 63
6 146
44 60
44 105
63 95
44 32
114 105
34 109
36 105
36 109
36 147
44 32
19 120
9 136
9 148
9 149
9 150
9 151
9 152
9 153
9 58
9 58
9 135
9 22
9 8
9 154
9 121
1 135
3 155
36 109
3 155
30 132
3 58
68 56
36 156
131 30
101 51
101 34
9 8
36 73
96 95
9 76
9 8
9 157
19 158
9 58
9 32
44 129
105 135
105 129
44 129
44 129
44 129
51 101
1 159
44 74
44 129
160 72
129 8
36 147
36 109
36 105
36 129
9 8
34 101
161 162
163 72
32 164
58 8
32 58
41 76
41 120
41 132
41 165
41 166
41 157
41 167
41 168
41 169
41 134
56 68
41 56
56 154
56 170
56 171
56 172
103 101
51 157
32 130
8 58
8 164
103 63
103 173
67 154
32 26
96 163
9 58
41 56
9 20
9 165
9 61
103 109
32 155
32 109
32 174
175 50
103 85
124 109
164 8
103 63
38 128
103 63
103 63
19 109
103 63
103 63
161 164
161 164
38 109
41 63
103 63
176 63
41 63
176 63
41 63
161 63
103 63
41 63
176 63
41 63
161 63
103 63
32 164
176 63
41 63
176 63
41 63
161 63
103 63
41 177
41 177
164 178
164 177
32 175
32 177
176 63
164 179
41 63
32 179
41 63
41 63
41 63
41 63
161 63
96 164
41 63
41 177
41 177
41 63
41 177
41 63
161 63
32 177
41 177
32 177
41 177
41 63
41 180
32 177
41 63
161 63
41 177
41 180
177 32
41 63
41 177
180 177
180 177
180 181
41 177
180 182
41 180
41 90
41 63
32 177
41 180
41 63
41 177
177 180
177 180
177 32
41 180
41 177
41 180
32 177
41 63
183 184
41 63
177 32
32 177
41 177
177 32
175 32
32 177
32 175
41 168
175 32
41 168
41 177
177 32
63 174
174 63
63 174
174 63
41 168
41 177
32 175
63 174
174 63
41 168
9 32
41 177
63 174
32 177
175 32
32 175
41 168
41 177
41 168
41 168
63 155
174 63
41 177
177 32
41 168
175 32
63 174
174 63
63 174
41 168
41 177
41 177
32 175
41 177
175 32
175 32
32 175
41 177
41 168
174 63
63 174
41 168
41 168
41 177
41 168
41 177
174 63
63 174
41 168
41 177
41 177
41 177
41 177
9 32
41 177
41 185
41 168
185 147
185 32
41 185
41 177
32 185
186 185
140 185
155 32
32 155
185 186
155 63
41 177
103 177
187 186
185 97
103 97
187 186
41 185
41 185
41 186
41 185
41 186
185 63
41 168
187 186
63 155
63 185
103 58
103 63
187 186
103 188
189 175
189 175
140 185
187 186
185 109
140 185
189 8
102 97
140 185
41 86
41 188
101 100
101 190
191 175
101 190
101 190
101 190
101 190
103 192
101 190
101 190
101 190
101 190
101 190
101 190
101 190
101 190
193 149
101 100
193 190
191 78
101 190
101 190
190 109
101 190
193 190
109 124
103 109
103 190
103 109
103 109
41 192
194 149
194 195
176 20
176 61
176 149
176 120
176 132
176 86
176 97
176 72
176 58
176 8
176 196
176 197
176 198
176 199
176 200
176 190
176 192
176 201
176 188
176 202
176 185
176 203
176 180
176 181
176 177
176 184
176 175
176 166
204 205
204 104
204 184
189 144
3 185
3 32
199 58
63 185
63 199
63 184
199 101
194 199
194 206
194 207
204 123
121 191
175 191
204 129
63 199
101 184
101 208
63 46
63 199
101 88
191 121
191 175
103 177
199 20
184 101
103 132
199 209
101 184
36 105
103 210
36 209
184 101
209 199
199 209
199 210
101 184
184 101
176 101
68 101
32 198
211 101
212 209
211 213
211 93
211 85
189 199
214 215
103 109
103 215
103 82
44 214
103 215
63 199
63 199
103 215
103 215
103 168
214 109
215 67
103 215
214 215
41 215
41 216
103 127
215 62
214 109
176 217
176 216
176 218
103 109
219 124
19 109
63 127
88 101
103 168
103 56
63 127
103 56
214 56
214 56
63 127
51 215
19 175
19 109
44 214
215 51
44 214
19 215
19 215
103 175
44 214
19 215
103 175
214 175
51 215
19 215
214 215
215 51
19 215
96 95
96 32
19 215
96 164
103 215
103 215
19 215
144 185
103 168
220 214
220 32
19 215
144 32
103 175
103 175
175 214
103 175
103 175
103 175
176 221
103 98
3 32
222 120
41 222
41 222
41 223
214 175
41 97
41 134
51 215
36 222
36 221
212 66
96 224
175 214
214 175
225 223
36 221
36 214
176 223
176 226
221 161
36 221
44 226
221 161
36 221
221 161
56 214
221 161
221 161
221 161
161 221
36 221
36 214
221 161
204 221
227 26
211 228
214 101
229 230
220 214
96 231
96 232
103 221
103 20
103 86
220 214
220 214
103 66
212 66
124 109
103 185
212 6
103 185
103 8
63 202
63 185
103 93
63 185
9 233
103 233
9 97
9 190
166 234
69 34
69 34
235 191
69 185
41 166
41 32
3 32
3 132
1 30
41 32
41 173
103 166
63 127
63 199
103 166
63 92
97 228
97 228
103 58
191 136
32 58
131 30
191 236
32 237
9 235
101 34
237 32
97 191
48 81
48 81
175 214
176 233
9 101
48 52
48 52
48 175
52 48
48 52
9 177
97 191
9 175
52 48
175 48
96 48
41 32
9 175
41 174
9 175
48 175
12 175
48 52
175 48
48 175
12 175
12 168
12 175
52 48
175 48
48 52
12 81
12 175
48 175
175 48
12 175
48 175
12 175
52 48
48 52
12 175
175 48
52 48
12 175
48 52
12 175
48 175
12 175
175 48
52 48
12 175
12 175
12 175
220 214
12 175
88 220
48 175
48 52
12 175
175 48
52 48
9 175
48 175
12 175
12 175
175 48
12 175
9 175
48 175
12 175
48 52
9 175
175 48
9 209
12 175
48 175
103 66
103 52
12 175
103 66
175 48
52 48
103 66
12 175
12 175
48 52
48 175
175 48
48 175
48 175
9 175
9 209
175 48
175 48
220 48
9 175
48 175
144 185
175 48
220 48
48 175
144 222
220 48
175 48
220 48
220 48
48 175
220 48
175 48
48 175
220 48
175 48
144 195
48 175
191 237
220 48
175 48
220 48
48 175
220 95
95 168
220 48
176 198
220 95
191 175
220 95
176 201
175 48
175 191
191 175
48 175
175 191
175 48
191 175
144 88
175 191
220 48
191 175
175 191
144 238
191 175
175 191
220 95
239 175
144 240
239 175
239 236
220 95
220 48
220 95
12 90
220 95
144 23
220 95
3 132
220 95
220 95
220 95
103 52
144 32
220 48
144 48
36 222
220 95
88 144
220 95
220 95
220 95
144 48
220 48
144 48
220 95
220 95
220 48
9 144
144 241
103 144
9 216
194 242
194 199
194 209
194 182
32 144
32 243
204 241
63 127
227 144
194 209
168 95
63 127
44 214
41 32
9 244
245 191
228 97
211 228
211 246
19 52
233 88
34 242
19 233
127 63
143 32
143 95
9 235
9 177
63 127
32 88
211 233
88 32
32 88
247 248
248 247
176 248
176 248
211 232
88 32
176 248
176 63
32 88
249 63
41 250
41 248
95 168
41 251
