204 3453
204 3737
204 4199
204 4199
204 4199
224 19
224 32
224 32
224 51
224 51
224 58
224 59
224 59
224 59
224 59
224 61
224 61
224 62
224 62
224 67
224 67
224 68
224 72
224 72
224 72
224 75
224 75
224 75
224 81
224 82
224 82
224 82
224 83
224 83
224 85
224 91
224 95
224 95
224 95
224 96
224 96
224 96
224 98
224 98
224 99
224 99
224 99
224 100
224 100
224 153
224 153
224 159
224 159
224 172
224 187
224 192
224 192
224 192
224 193
224 227
224 227
224 227
224 227
224 233
224 238
224 238
224 429
224 429
224 441
224 554
224 554
224 554
224 594
224 594
224 594
224 594
224 599
224 599
224 599
224 599
224 599
224 599
224 612
224 612
224 612
224 612
224 627
224 627
224 627
224 715
224 715
224 715
224 735
224 735
224 735
224 735
224 852
224 852
224 857
224 859
224 863
224 863
224 867
224 868
224 868
224 868
224 868
224 871
224 874
224 874
224 874
224 875
224 875
224 877
224 877
224 878
224 878
224 985
224 985
224 985
224 993
224 994
224 995
224 996
224 997
224 997
224 998
224 998
224 999
224 1001
224 1001
224 1001
224 1003
224 1004
224 1005
224 1005
224 1005
224 1005
224 1005
224 1008
224 1013
224 1013
224 1013
224 1013
224 1013
224 1014
224 1014
224 1014
224 1014
224 1015
224 1017
224 1017
224 1019
224 1019
224 1019
224 1019
224 1027
224 1027
224 1079
224 1079
224 1083
224 1083
224 1083
224 1083
224 1083
224 1098
224 1098
224 1098
224 1098
224 1103
224 1103
224 1103
224 1122
224 1207
224 1242
224 1242
224 1303
224 1413
224 1413
224 1413
224 1427
224 1513
224 1513
224 1513
224 1513
224 1534
224 1534
224 1703
224 1703
224 1703
224 1709
224 1709
224 1709
224 1709
224 1709
224 1811
224 1811
224 1811
224 1811
224 1814
224 1814
224 1836
224 1836
224 1836
224 1836
224 1844
224 1844
224 1878
224 1878
224 1878
224 1879
224 1881
224 1883
224 1885
224 1886
224 1886
224 1888
224 1888
224 1888
224 1888
224 1888
224 1889
224 1889
224 1890
224 1890
224 1890
224 1890
224 1893
224 1893
224 1895
224 1895
224 1895
224 1899
224 1899
224 1900
224 1957
224 1957
224 2027
224 2029
224 2029
224 2043
224 2043
224 2043
224 2043
224 2128
224 2128
224 2343
224 2343
224 2343
224 2343
224 2444
224 2444
224 2469
224 2469
224 2488
224 2488
224 2488
224 2490
224 2490
224 2531
224 2552
224 2554
224 2554
224 2554
224 2556
224 2559
224 2559
224 2562
224 2567
224 2570
224 2570
224 2570
224 2571
224 2571
224 2629
224 2629
224 2629
224 2633
224 2633
224 2633
224 2648
224 2648
224 2648
224 2648
224 2792
224 2792
224 2792
224 2792
224 2861
224 2861
224 2861
224 2861
224 2861
224 2861
224 2861
224 2893
224 2893
224 2893
224 2893
224 2893
224 2936
224 2937
224 2937
224 2938
224 2938
224 2938
224 3011
224 3011
224 3011
224 3011
224 3119
224 3201
224 3281
224 3298
224 3298
224 3299
224 3299
224 3299
224 3299
224 3299
224 3302
224 3302
224 3306
224 3306
224 3306
224 3430
224 3430
224 3436
224 3436
224 3436
224 3530
224 3530
224 3530
224 3530
224 3768
224 3781
224 3784
224 3784
224 3789
224 3789
224 3920
224 3920
224 3941
224 3941
224 3941
224 3988
224 4079
224 4079
224 4129
224 4129
224 4129
224 4250
224 4250
224 4250
224 4493
224 4494
224 4495
224 4495
224 4495
224 4495
224 4541
224 4541
224 4541
224 4541
224 4541
224 4735
224 4795
224 4795
224 4795
224 4807
224 4807
224 4807
224 4807
224 4807
224 4809
224 4809
224 4809
224 5170
224 5170
224 5254
224 5381
224 5381
224 5381
224 5471
224 5471
224 5550
224 5550
224 5785
224 5785
224 6064
224 6065
224 6070
224 6180
224 6241
224 6241
224 6241
224 6732
224 6742
224 6743
224 6784
224 6884
224 6939
224 7069
224 7342
224 7343
224 7343
224 7343
224 7345
224 7346
224 7357
224 7357
224 7357
224 7934
224 8069
224 8069
224 8367
224 8367
224 8668
224 8668
224 9253
224 9255
224 9296
224 9321
224 9338
224 9338
224 9469
224 9469
224 9505
224 9505
224 9505
224 9591
224 9825
224 9825
224 9969
224 9969
224 9980
224 9980
224 9990
224 9990
224 9990
224 10115
224 10115
224 10620
224 10620
224 10742
224 10742
224 10742
224 10753
224 10753
224 10761
224 10761
224 10847
224 10847
224 10847
224 10847
224 11243
224 11733
224 11733
224 11871
224 11871
224 11871
224 11913
224 11913
224 11913
224 11913
224 11913
224 11933
224 11933
224 12009
224 12009
224 12220
224 12220
224 12220
224 12220
224 12298
224 12298
224 12817
224 12817
224 13004
224 13004
224 13004
224 13004
224 13156
224 13156
224 13168
224 13168
224 13178
224 13416
224 13529
224 13529
224 13532
224 13532
224 13900
224 13900
224 14402
224 14402
224 15164
224 15164
224 15584
224 15586
224 15586
224 15586
224 15637
224 15771
224 15771
224 15771
224 16141
224 17157
224 17157
224 17157
224 17166
224 17166
224 17505
224 17505
224 17505
224 17505
224 18224
386 163
386 230
386 959
386 2361
386 6350
386 6361
430 51
430 51
430 51
430 59
430 59
430 98
430 98
430 99
430 99
430 193
430 285
430 441
430 441
430 511
430 511
430 599
430 735
430 874
430 905
430 1003
430 1006
430 1076
430 1090
430 1122
430 1795
430 1810
430 1832
430 1879
430 1879
430 2556
430 2556
430 2556
430 2562
430 2562
430 2562
430 3675
430 3921
430 5833
430 5833
430 6783
430 6783
430 6784
430 6785
430 6785
430 6790
430 6790
430 6790
430 7076
430 8995
430 9255
430 11339
430 14712
430 14712
430 14712
430 17166
595 188
595 188
595 188
595 188
595 518
595 518
595 518
595 518
595 707
595 707
595 707
595 707
595 917
595 917
595 917
595 917
595 918
595 918
595 918
595 918
595 922
595 922
595 922
595 922
595 924
595 924
595 924
595 924
595 928
595 928
595 928
595 928
595 930
595 930
595 930
595 930
595 936
595 936
595 936
595 936
595 937
595 937
595 937
595 937
595 942
595 942
595 942
595 942
595 944
595 944
595 944
595 944
595 954
595 954
595 954
595 954
595 957
595 957
595 957
595 957
595 958
595 958
595 958
595 958
595 1339
595 1339
595 1339
595 1339
595 1342
595 1342
595 1342
595 1342
595 1349
595 1349
595 1349
595 1349
595 1350
595 1350
595 1350
595 1350
595 1358
595 1358
595 1358
595 1358
595 1374
595 1374
595 1374
595 1374
595 1710
595 1710
595 1710
595 1710
595 1997
595 1997
595 1997
595 1997
595 2009
595 2009
595 2009
595 2009
595 3425
595 3425
595 3425
595 3425
595 4326
595 4326
595 4326
595 4326
595 4342
595 4342
595 4342
595 4342
595 4680
595 4680
595 4680
595 4680
595 5155
595 5155
595 5155
595 5155
734 198
734 198
734 220
734 230
734 412
734 453
734 504
734 707
734 724
734 830
734 830
734 1132
734 1181
734 1186
734 1470
734 1905
734 2834
734 4103
734 6298
734 6724
734 10857
1108 6407
1108 6408
1149 59
1149 67
1149 72
1149 77
1149 77
1149 159
1149 172
1149 225
1149 227
1149 428
1149 429
1149 429
1149 441
1149 533
1149 599
1149 599
1149 601
1149 734
1149 868
1149 875
1149 961
1149 1013
1149 1083
1149 1118
1149 1119
1149 1239
1149 1464
1149 1795
1149 1844
1149 1892
1149 1892
1149 4126
1149 4982
1421 155
1421 167
1421 182
1421 190
1421 197
1421 215
1421 229
1421 235
1421 292
1421 412
1421 425
1421 428
1421 434
1421 436
1421 569
1421 599
1421 599
1421 615
1421 716
1421 716
1421 786
1421 857
1421 857
1421 869
1421 945
1421 965
1421 1090
1421 1103
1421 1231
1421 1380
1421 1383
1421 1513
1421 1520
1421 1610
1421 1814
1421 1878
1421 1883
1421 1985
1421 2176
1421 2418
1421 2475
1421 2614
1421 2632
1421 3440
1421 3616
1421 3878
1421 4051
1421 4064
1421 4069
1421 4260
1421 4354
1421 4389
1421 4435
1421 4451
1421 4451
1421 5258
1421 5423
1421 5785
1421 6192
1421 6226
1421 6685
1421 6730
1421 7146
1421 7274
1421 7289
1421 7329
1421 7530
1421 7871
1421 8715
1421 8830
1421 9262
1421 9959
1421 10199
1421 10579
1421 11185
1421 11216
1421 11253
1421 11933
1421 12484
1421 13406
1421 13575
1421 14318
1421 14456
1421 14456
1421 14457
1421 14458
1421 14459
1421 14460
1421 14463
1421 14464
1421 14465
1421 14469
1421 14469
1421 17934
1421 18641
1654 4324
1654 4324
1654 4324
1654 4324
1654 4324
1904 52
1904 53
1904 166
1904 204
1904 210
1904 355
1904 534
1904 538
1904 630
1904 630
1904 683
1904 885
1904 889
1904 891
1904 898
1904 898
1904 961
1904 1220
1904 1418
1904 1534
1904 1718
1904 2013
1904 2419
1904 2625
1904 2628
1904 2628
1904 2786
1904 2855
1904 2910
1904 3114
1904 3119
1904 3460
1904 3466
1904 3466
1904 3466
1904 3482
1904 3613
1904 4043
1904 4432
1904 4447
1904 4531
1904 4545
1904 5415
1904 5421
1904 5542
1904 5789
1904 5901
1904 5901
1904 6677
1904 6677
1904 6677
1904 6677
1904 7286
1904 7286
1904 7286
1904 7404
1904 7404
1904 7533
1904 8188
1904 8594
1904 9467
1904 9470
1904 9539
1904 10224
1904 10638
1904 11974
1904 12194
1904 12194
1904 12276
1904 12276
1904 12276
1904 12997
1904 13365
1904 13474
1904 14052
1904 15038
1904 15527
1904 15527
1904 16952
1904 17490
1904 17492
1904 17493
1904 17493
1904 17494
1904 17495
1904 17495
1904 17496
