204 3453
204 3737
204 4199
204 4199
204 4199
224 19
224 32
224 32
224 51
224 51
224 58
224 59
224 59
224 59
224 59
224 61
224 61
224 62
224 62
224 67
224 67
224 68
224 72
224 72
224 72
224 75
224 75
224 75
224 81
224 82
224 82
224 82
224 83
224 83
224 85
224 91
224 95
224 95
224 95
224 96
224 96
224 96
224 98
224 98
224 99
224 99
224 99
224 100
224 100
224 153
224 153
224 159
224 159
224 172
224 187
224 192
224 192
224 192
224 193
224 227
224 227
224 227
224 227
224 233
224 238
224 238
224 429
224 429
224 441
224 554
224 554
224 554
224 594
224 594
224 594
224 594
224 599
224 599
224 599
224 599
224 599
224 599
224 612
224 612
224 612
224 612
224 627
224 627
224 627
224 715
224 715
224 715
224 735
224 735
224 735
224 735
224 852
224 852
224 857
224 859
224 863
224 863
224 867
224 868
224 868
224 868
224 868
224 871
224 874
224 874
224 874
224 875
224 875
224 877
224 877
224 878
224 878
224 985
224 985
224 985
224 993
224 994
224 995
224 996
224 997
224 997
224 998
224 998
224 999
224 1001
224 1001
224 1001
224 1003
224 1004
224 1005
224 1005
224 1005
224 1005
224 1005
224 1008
224 1013
224 1013
224 1013
224 1013
224 1013
224 1014
224 1014
224 1014
224 1014
224 1015
224 1017
224 1017
224 1019
224 1019
224 1019
224 1019
224 1027
224 1027
224 1079
224 1079
224 1083
224 1083
224 1083
224 1083
224 1083
224 1098
224 1098
224 1098
224 1098
224 1103
224 1103
224 1103
224 1122
224 1207
224 1242
224 1242
224 1303
224 1413
224 1413
224 1413
224 1427
224 1513
224 1513
224 1513
224 1513
224 1534
224 1534
224 1703
224 1703
224 1703
224 1709
224 1709
224 1709
224 1709
224 1709
224 1811
224 1811
224 1811
224 1811
224 1814
224 1814
224 1836
224 1836
224 1836
224 1836
224 1844
224 1844
224 1878
224 1878
224 1878
224 1879
224 1881
224 1883
224 1885
224 1886
224 1886
224 1888
224 1888
224 1888
224 1888
224 1888
224 1889
224 1889
224 1890
224 1890
224 1890
224 1890
224 1893
224 1893
224 1895
224 1895
224 1895
224 1899
224 1899
224 1900
224 1957
224 1957
224 2027
224 2029
224 2029
224 2043
224 2043
224 2043
224 2043
224 2128
224 2128
224 2343
224 2343
224 2343
224 2343
224 2444
224 2444
224 2469
224 2469
224 2488
224 2488
224 2488
224 2490
224 2490
224 2531
224 2552
224 2554
224 2554
224 2554
224 2556
224 2559
224 2559
224 2562
224 2567
224 2570
224 2570
224 2570
224 2571
224 2571
224 2629
224 2629
224 2629
224 2633
224 2633
224 2633
224 2648
224 2648
224 2648
224 2648
224 2792
224 2792
224 2792
224 2792
224 2861
224 2861
224 2861
224 2861
224 2861
224 2861
224 2861
224 2893
224 2893
224 2893
224 2893
224 2893
224 2936
224 2937
224 2937
224 2938
224 2938
224 2938
224 3011
224 3011
224 3011
224 3011
224 3119
224 3201
224 3281
224 3298
224 3298
224 3299
224 3299
224 3299
224 3299
224 3299
224 3302
224 3302
224 3306
224 3306
224 3306
224 3430
224 3430
224 3436
224 3436
224 3436
224 3530
224 3530
224 3530
224 3530
224 3768
224 3781
224 3784
224 3784
224 3789
224 3789
224 3920
224 3920
224 3941
224 3941
224 3941
224 3988
224 4079
224 4079
224 4129
224 4129
224 4129
224 4250
224 4250
224 4250
224 4493
224 4494
224 4495
224 4495
224 4495
224 4495
224 4541
224 4541
224 4541
224 4541
224 4541
224 4735
224 4795
224 4795
224 4795
224 4807
224 4807
224 4807
224 4807
224 4807
224 4809
224 4809
224 4809
224 5170
224 5170
224 5254
224 5381
224 5381
224 5381
224 5471
224 5471
224 5550
224 5550
224 5785
224 5785
224 6064
224 6065
224 6070
224 6180
224 6241
224 6241
224 6241
224 6732
224 6742
224 6743
224 6784
224 6884
224 6939
224 7069
224 7342
224 7343
224 7343
224 7343
224 7345
224 7346
224 7357
224 7357
224 7357
224 7934
224 8069
224 8069
224 8367
224 8367
224 8668
224 8668
224 9253
224 9255
224 9296
224 9321
224 9338
224 9338
224 9469
224 9469
224 9505
224 9505
224 9505
224 9591
224 9825
224 9825
224 9969
224 9969
224 9980
224 9980
224 9990
224 9990
224 9990
224 10115
224 10115
224 10620
224 10620
224 10742
224 10742
224 10742
224 10753
224 10753
224 10761
224 10761
224 10847
224 10847
224 10847
224 10847
224 11243
224 11733
224 11733
224 11871
224 11871
224 11871
224 11913
224 11913
224 11913
224 11913
224 11913
224 11933
224 11933
224 12009
224 12009
224 12220
224 12220
224 12220
224 12220
224 12298
224 12298
224 12817
224 12817
224 13004
224 13004
224 13004
224 13004
224 13156
224 13156
224 13168
224 13168
224 13178
224 13416
224 13529
224 13529
224 13532
224 13532
224 13900
224 13900
224 14402
224 14402
224 15164
224 15164
224 15584
224 15586
224 15586
224 15586
224 15637
224 15771
224 15771
224 15771
224 16141
224 17157
224 17157
224 17157
224 17166
224 17166
224 17505
224 17505
224 17505
224 17505
224 18224
386 163
386 230
386 959
386 2361
386 6350
386 6361
430 51
430 51
430 51
430 59
430 59
430 98
430 98
430 99
430 99
430 193
430 285
430 441
430 441
430 511
430 511
430 599
430 735
430 874
430 905
430 1003
430 1006
430 1076
430 1090
430 1122
430 1795
430 1810
430 1832
430 1879
430 1879
430 2556
430 2556
430 2556
430 2562
430 2562
430 2562
430 3675
430 3921
430 5833
430 5833
430 6783
430 6783
430 6784
430 6785
430 6785
430 6790
430 6790
430 6790
430 7076
430 8995
430 9255
430 11339
430 14712
430 14712
430 14712
430 17166
595 188
595 188
595 188
595 188
595 518
595 518
595 518
595 518
595 707
595 707
595 707
595 707
595 917
595 917
595 917
595 917
595 918
595 918
595 918
595 918
595 922
595 922
595 922
595 922
595 924
595 924
595 924
595 924
595 928
595 928
595 928
595 928
595 930
595 930
595 930
595 930
595 936
595 936
595 936
595 936
595 937
595 937
595 937
595 937
595 942
595 942
595 942
595 942
595 944
595 944
595 944
595 944
595 954
595 954
595 954
595 954
595 957
595 957
595 957
595 957
595 958
595 958
595 958
595 958
595 1339
595 1339
595 1339
595 1339
595 1342
595 1342
595 1342
595 1342
595 1349
595 1349
595 1349
595 1349
595 1350
595 1350
595 1350
595 1350
595 1358
595 1358
595 1358
595 1358
595 1374
595 1374
595 1374
595 1374
595 1710
595 1710
595 1710
595 1710
595 1997
595 1997
595 1997
595 1997
595 2009
595 2009
595 2009
595 2009
595 3425
595 3425
595 3425
595 3425
595 4326
595 4326
595 4326
595 4326
595 4342
595 4342
595 4342
595 4342
595 4680
595 4680
595 4680
595 4680
595 5155
595 5155
595 5155
595 5155
734 198
734 198
734 220
734 230
734 412
734 453
734 504
734 707
734 724
734 830
734 830
734 1132
734 1181
734 1186
734 1470
734 1905
734 2834
734 4103
734 6298
734 6724
734 10857
1108 6407
1108 6408
1149 59
1149 67
1149 72
1149 77
1149 77
1149 159
1149 172
1149 225
1149 227
1149 428
1149 429
1149 429
1149 441
1149 533
1149 599
1149 599
1149 601
1149 734
1149 868
1149 875
1149 961
1149 1013
1149 1083
1149 1118
1149 1119
1149 1239
1149 1464
1149 1795
1149 1844
1149 1892
1149 1892
1149 4126
1149 4982
1421 155
1421 167
1421 182
1421 190
1421 197
1421 215
1421 229
1421 235
1421 292
1421 412
1421 425
1421 428
1421 434
1421 436
1421 569
1421 599
1421 599
1421 615
1421 716
1421 716
1421 786
1421 857
1421 857
1421 869
1421 945
1421 965
1421 1090
1421 1103
1421 1231
1421 1380
1421 1383
1421 1513
1421 1520
1421 1610
1421 1814
1421 1878
1421 1883
1421 1985
1421 2176
1421 2418
1421 2475
1421 2614
1421 2632
1421 3440
1421 3616
1421 3878
1421 4051
1421 4064
1421 4069
1421 4260
1421 4354
1421 4389
1421 4435
1421 4451
1421 4451
1421 5258
1421 5423
1421 5785
1421 6192
1421 6226
1421 6685
1421 6730
1421 7146
1421 7274
1421 7289
1421 7329
1421 7530
1421 7871
1421 8715
1421 8830
1421 9262
1421 9959
1421 10199
1421 10579
1421 11185
1421 11216
1421 11253
1421 11933
1421 12484
1421 13406
1421 13575
1421 14318
1421 14456
1421 14456
1421 14457
1421 14458
1421 14459
1421 14460
1421 14463
1421 14464
1421 14465
1421 14469
1421 14469
1421 17934
1421 18641
1654 4324
1654 4324
1654 4324
1654 4324
1654 4324
1904 52
1904 53
1904 166
1904 204
1904 210
1904 355
1904 534
1904 538
1904 630
1904 630
1904 683
1904 885
1904 889
1904 891
1904 898
1904 898
1904 961
1904 1220
1904 1418
1904 1534
1904 1718
1904 2013
1904 2419
1904 2625
1904 2628
1904 2628
1904 2786
1904 2855
1904 2910
1904 3114
1904 3119
1904 3460
1904 3466
1904 3466
1904 3466
1904 3482
1904 3613
1904 4043
1904 4432
1904 4447
1904 4531
1904 4545
1904 5415
1904 5421
1904 5542
1904 5789
1904 5901
1904 5901
1904 6677
1904 6677
1904 6677
1904 6677
1904 7286
1904 7286
1904 7286
1904 7404
1904 7404
1904 7533
1904 8188
1904 8594
1904 9467
1904 9470
1904 9539
1904 10224
1904 10638
1904 11974
1904 12194
1904 12194
1904 12276
1904 12276
1904 12276
1904 12997
1904 13365
1904 13474
1904 14052
1904 15038
1904 15527
1904 15527
1904 16952
1904 17490
1904 17492
1904 17493
1904 17493
1904 17494
1904 17495
1904 17495
1904 17496
164 204
164 204
224 550
224 550
224 550
224 5920
224 6544
224 6544
224 6776
224 6776
224 10111
224 10111
224 10794
627 924
627 957
627 1373
627 2370
627 4671
627 4681
627 4787
627 7713
627 8690
627 8692
1035 11892
1035 11892
1035 11892
1035 11892
1035 11892
1035 11892
1035 11892
1035 11892
1035 11892
1035 11892
1035 11892
1035 11892
1035 11892
1098 10
1098 1295
1098 4113
1108 15085
1212 65
1212 65
1212 226
1212 227
1212 227
1212 234
1212 234
1212 234
1212 533
1212 533
1212 614
1212 614
1212 707
1212 707
1212 709
1212 709
1212 735
1212 1116
1212 1116
1212 1239
1212 1239
1212 1249
1212 1406
1212 1639
1212 1639
1212 2346
1212 3464
1212 3464
1212 6097
1212 6097
1421 4124
1421 4124
1421 10955
1421 14467
1421 14468
1421 14468
1421 14468
1433 405
1433 504
1433 726
1433 923
1433 930
1433 1339
1433 1786
1433 1798
1433 1914
1433 1917
1433 2018
1433 2963
1433 3919
1433 4383
1433 4985
1433 8789
1433 10433
1433 12038
1433 12987
1433 14533
1585 157
1585 192
1585 227
1585 241
1585 257
1585 717
1585 913
1585 959
1585 1427
1585 1427
1585 1464
1585 1622
1585 1820
1585 1846
1585 1846
1585 1860
1585 2179
1585 2226
1585 2893
1585 3357
1585 3481
1585 3951
1585 4598
1585 4883
1585 5789
1585 8546
1585 8991
1585 8992
1585 10608
1585 11062
1585 12893
1585 14098
1585 15922
1585 17515
1621 29
1621 31
1621 35
1621 767
1621 1066
1621 1255
1621 5581
1621 10521
1621 11095
1621 11103
1621 15626
1883 3298
1883 3298
1929 429
1929 605
1929 605
1929 1527
1929 3264
1929 5027
224 864
224 1000
224 1028
224 1203
224 1301
224 1301
224 1707
224 1902
224 1902
224 1902
224 2277
224 4109
224 4978
224 4978
224 5917
224 5917
224 5926
224 6698
224 6698
224 8543
224 8543
224 8543
224 9865
224 10662
224 10662
224 10662
224 13086
224 13427
224 15122
224 15122
224 15601
224 15601
224 15991
224 17890
430 51
430 98
430 5833
1035 11892
1035 11892
1035 11892
1035 11892
1035 11892
1035 11892
1035 11892
1035 11892
1035 11892
1035 11892
1035 11892
1035 11892
1035 11892
1035 11892
1035 11892
1035 11892
1035 11892
1035 11892
1035 11892
1035 11892
1035 11892
1035 11892
1421 154
1421 154
1421 155
1421 192
1421 197
1421 212
1421 233
1421 266
1421 425
1421 431
1421 431
1421 569
1421 622
1421 720
1421 869
1421 1017
1421 1150
1421 1231
1421 1380
1421 1513
1421 1814
1421 1883
1421 1947
1421 2632
1421 3440
1421 3616
1421 4064
1421 4832
1421 5260
1421 5785
1421 6226
1421 6730
1421 7146
1421 7289
1421 7333
1421 9959
1421 10195
1421 11253
1421 14458
1421 14459
1421 14459
1421 14460
1421 14462
1421 14462
1421 14462
1421 14464
1421 14465
1585 51
1585 51
1585 51
1585 51
1585 64
1585 67
1585 69
1585 69
1585 69
1585 180
1585 227
1585 227
1585 230
1585 253
1585 253
1585 253
1585 285
1585 291
1585 295
1585 301
1585 333
1585 333
1585 333
1585 434
1585 511
1585 511
1585 534
1585 562
1585 706
1585 706
1585 857
1585 885
1585 885
1585 987
1585 987
1585 993
1585 993
1585 999
1585 999
1585 999
1585 1015
1585 1017
1585 1475
1585 1475
1585 1795
1585 1795
1585 1820
1585 1883
1585 1883
1585 2226
1585 2469
1585 2469
1585 2899
1585 2932
1585 3104
1585 3104
1585 3230
1585 3302
1585 3302
1585 3374
1585 3489
1585 3489
1585 3992
1585 3992
1585 4130
1585 4180
1585 4432
1585 4620
1585 4620
1585 4759
1585 5072
1585 5550
1585 5550
1585 6308
1585 6308
1585 8178
1585 8991
1585 8991
1585 8991
1585 9421
1585 12044
1585 12044
1585 13126
1585 13900
1585 13900
1585 15449
1585 17490
1621 10
1621 13
1621 19
1621 1256
1621 1270
1621 4871
1621 6871
1623 820
1623 820
1623 820
1623 820
1623 939
1623 939
1623 939
1623 939
1623 944
1623 944
1623 944
1623 944
1623 1113
1623 1113
1623 1113
1623 1113
1623 1134
1623 1134
1623 1134
1623 1134
1623 1214
1623 1214
1623 1214
1623 1214
1623 1996
1623 1996
1623 1996
1623 1996
1623 1998
1623 1998
1623 1998
1623 1998
1623 2005
1623 2005
1623 2005
1623 2005
1623 2974
1623 2974
1623 2974
1623 2974
1623 3723
1623 3723
1623 3723
1623 3723
1623 3788
1623 3788
1623 3788
1623 3788
1623 4610
1623 4610
1623 4610
1623 4610
1623 4613
1623 4613
1623 4613
1623 4613
1623 4670
1623 4670
1623 4670
1623 4670
1623 4671
1623 4671
1623 4671
1623 4671
1623 4678
1623 4678
1623 4678
1623 4678
1623 4681
1623 4681
1623 4681
1623 4681
1623 4787
1623 4787
1623 4787
1623 4787
1623 8333
1623 8333
1623 8333
1623 8333
1623 8690
1623 8690
1623 8690
1623 8690
1623 9453
1623 9453
1623 9453
1623 9453
1623 11516
1623 11516
1623 11516
1623 11516
1623 14002
1623 14002
1623 14002
1623 14002
1623 16637
1623 16637
1623 16637
1623 16637
1981 65
1981 65
1981 65
1981 65
1981 154
1981 154
1981 154
1981 182
1981 190
1981 221
1981 235
1981 268
1981 463
1981 697
1981 909
1981 1106
1981 1377
1981 1377
1981 1377
1981 1377
1981 1377
1981 1377
1981 1377
1981 1377
1981 1377
1981 1377
1981 1385
1981 1385
1981 1385
1981 1424
1981 1556
1981 2614
1981 4762
1981 5555
1981 5555
1981 5555
1981 5555
1981 5555
1981 5555
1981 5555
1981 6852
1981 6852
1981 6852
1981 6852
1981 6852
1981 6852
1981 6852
1981 7274
1981 7274
1981 7274
1981 8043
1981 8043
1981 8043
1981 8043
1981 8043
1981 8592
1981 9959
1981 9959
1981 10118
1981 10118
1981 10118
1981 10961
1981 10961
1981 11024
1981 11910
1981 14184
1032 227
1032 227
1032 227
1032 227
1032 227
1032 562
1032 562
1032 562
1032 565
1032 565
1032 565
1032 565
1032 569
1032 569
1032 569
1032 569
1032 572
1032 572
1032 572
1032 572
1032 572
1032 572
1032 576
1032 576
1032 576
1032 576
1032 580
1032 580
1032 580
1032 580
1032 581
1032 581
1032 581
1032 581
1032 583
1032 583
1032 583
1032 583
1032 583
1032 583
1032 584
1032 584
1032 584
1032 585
1032 585
1032 585
1032 585
1032 585
1032 585
1032 585
1032 585
1032 599
1032 599
1032 599
1032 599
1032 630
1032 630
1032 728
1032 728
1032 728
1032 728
1032 728
1032 730
1032 730
1032 730
1032 735
1032 735
1032 735
1032 750
1032 750
1032 750
1032 750
1032 863
1032 863
1032 863
1032 863
1032 868
1032 868
1032 868
1032 868
1032 1412
1032 1412
1032 1412
1032 1412
1032 1427
1032 1427
1032 1427
1032 1427
1032 1639
1032 1639
1032 1639
1032 1639
1032 1639
1032 1639
1032 2842
1032 2842
1032 2842
1032 2842
1032 2842
1032 2842
1032 3620
1032 3620
1032 3620
1032 3620
1032 3620
1032 3620
1032 3776
1032 3776
1032 3778
1032 3778
1032 3778
1032 3778
1032 3778
1032 4541
1032 5660
1032 5660
1032 5660
1032 5660
1032 7056
1032 7056
1032 7056
1032 7056
1032 8108
1032 8108
1032 8108
1032 8108
1032 8108
1032 8110
1032 8110
1032 8111
1032 8111
1032 8111
1032 8111
1032 8111
1032 8122
1032 8122
1032 8122
1032 8122
1032 11917
1032 11917
1032 11917
1032 15301
1032 15301
1032 15301
1032 15301
1585 51
1585 51
1585 56
1585 56
1585 56
1585 56
1585 56
1585 56
1585 59
1585 67
1585 67
1585 67
1585 72
1585 72
1585 72
1585 77
1585 77
1585 77
1585 77
1585 234
1585 257
1585 265
1585 265
1585 265
1585 292
1585 292
1585 316
1585 333
1585 389
1585 389
1585 459
1585 465
1585 488
1585 599
1585 701
1585 715
1585 730
1585 733
1585 913
1585 951
1585 959
1585 959
1585 986
1585 996
1585 1014
1585 1090
1585 1090
1585 1099
1585 1116
1585 1225
1585 1244
1585 1464
1585 1513
1585 2050
1585 2050
1585 2183
1585 2183
1585 2554
1585 2554
1585 2558
1585 2565
1585 2625
1585 2742
1585 3427
1585 3466
1585 3466
1585 3482
1585 3482
1585 3482
1585 3675
1585 3761
1585 3764
1585 3889
1585 3889
1585 3982
1585 4037
1585 4363
1585 4363
1585 4785
1585 5045
1585 5045
1585 5045
1585 5045
1585 6069
1585 6130
1585 6504
1585 6504
1585 6698
1585 7151
1585 8991
1585 9366
1585 9467
1585 9579
1585 11063
1585 11063
1585 11063
1585 11070
1585 11395
1585 12044
1585 12565
1585 12570
1585 13158
1585 13372
1585 13372
1585 16723
1708 51
1708 51
1708 51
1708 51
1708 51
1708 51
1708 51
1708 51
1708 51
1708 51
1708 51
1708 51
1708 51
1708 59
1708 59
1708 59
1708 59
1708 59
1708 59
1708 59
1708 59
1708 59
1708 59
1708 59
1708 59
1708 59
1708 70
1708 70
1708 70
1708 70
1708 70
1708 70
1708 70
1708 70
1708 70
1708 70
1708 70
1708 70
1708 70
1708 155
1708 155
1708 155
1708 155
1708 155
1708 155
1708 155
1708 155
1708 155
1708 155
1708 155
1708 155
1708 155
1708 172
1708 172
1708 172
1708 172
1708 172
1708 172
1708 172
1708 172
1708 172
1708 172
1708 172
1708 172
1708 172
1708 217
1708 217
1708 217
1708 217
1708 217
1708 217
1708 217
1708 217
1708 217
1708 217
1708 217
1708 217
1708 217
1708 225
1708 225
1708 225
1708 225
1708 225
1708 225
1708 225
1708 225
1708 225
1708 225
1708 225
1708 225
1708 225
1708 227
1708 227
1708 227
1708 227
1708 227
1708 227
1708 227
1708 227
1708 227
1708 227
1708 227
1708 227
1708 227
1708 235
1708 235
1708 235
1708 235
1708 235
1708 235
1708 235
1708 235
1708 235
1708 235
1708 235
1708 235
1708 235
1708 355
1708 355
1708 355
1708 355
1708 355
1708 355
1708 355
1708 355
1708 355
1708 355
1708 355
1708 355
1708 355
1708 426
1708 426
1708 426
1708 426
1708 426
1708 426
1708 426
1708 426
1708 426
1708 426
1708 426
1708 426
1708 426
1708 429
1708 429
1708 429
1708 429
1708 429
1708 429
1708 429
1708 429
1708 429
1708 429
1708 429
1708 429
1708 429
1708 511
1708 511
1708 511
1708 511
1708 511
1708 511
1708 511
1708 511
1708 511
1708 511
1708 511
1708 511
1708 511
1708 534
1708 534
1708 534
1708 534
1708 534
1708 534
1708 534
1708 534
1708 534
1708 534
1708 534
1708 534
1708 534
1708 683
1708 683
1708 683
1708 683
1708 683
1708 683
1708 683
1708 683
1708 683
1708 683
1708 683
1708 683
1708 683
1708 709
1708 709
1708 709
1708 709
1708 709
1708 709
1708 709
1708 709
1708 709
1708 709
1708 709
1708 709
1708 709
1708 718
1708 718
1708 718
1708 718
1708 718
1708 718
1708 718
1708 718
1708 718
1708 718
1708 718
1708 718
1708 718
1708 858
1708 858
1708 858
1708 858
1708 858
1708 858
1708 858
1708 858
1708 858
1708 858
1708 858
1708 858
1708 858
1708 1202
1708 1202
1708 1202
1708 1202
1708 1202
1708 1202
1708 1202
1708 1202
1708 1202
1708 1202
1708 1202
1708 1202
1708 1202
1708 1510
1708 1510
1708 1510
1708 1510
1708 1510
1708 1510
1708 1510
1708 1510
1708 1510
1708 1510
1708 1510
1708 1510
1708 1510
1708 1824
1708 1824
1708 1824
1708 1824
1708 1824
1708 1824
1708 1824
1708 1824
1708 1824
1708 1824
1708 1824
1708 1824
1708 1824
1708 2346
1708 2346
1708 2346
1708 2346
1708 2346
1708 2346
1708 2346
1708 2346
1708 2346
1708 2346
1708 2346
1708 2346
1708 2346
1708 4153
1708 4153
1708 4153
1708 4153
1708 4153
1708 4153
1708 4153
1708 4153
1708 4153
1708 4153
1708 4153
1708 4153
1708 4153
1708 4435
1708 4435
1708 4435
1708 4435
1708 4435
1708 4435
1708 4435
1708 4435
1708 4435
1708 4435
1708 4435
1708 4435
1708 4435
1708 5553
1708 5553
1708 5553
1708 5553
1708 5553
1708 5553
1708 5553
1708 5553
1708 5553
1708 5553
1708 5553
1708 5553
1708 5553
1708 6789
1708 6789
1708 6789
1708 6789
1708 6789
1708 6789
1708 6789
1708 6789
1708 6789
1708 6789
1708 6789
1708 6789
1708 6789
1708 7076
1708 7076
1708 7076
1708 7076
1708 7076
1708 7076
1708 7076
1708 7076
1708 7076
1708 7076
1708 7076
1708 7076
1708 7076
1708 7194
1708 7194
1708 7194
1708 7194
1708 7194
1708 7194
1708 7194
1708 7194
1708 7194
1708 7194
1708 7194
1708 7194
1708 7194
1708 10657
1708 10657
1708 10657
1708 10657
1708 10657
1708 10657
1708 10657
1708 10657
1708 10657
1708 10657
1708 10657
1708 10657
1708 10657
1708 15771
1708 15771
1708 15771
1708 15771
1708 15771
1708 15771
1708 15771
1708 15771
1708 15771
1708 15771
1708 15771
1708 15771
1708 15771
1708 16340
1708 16340
1708 16340
1708 16340
1708 16340
1708 16340
1708 16340
1708 16340
1708 16340
1708 16340
1708 16340
1708 16340
1708 16340
1708 18655
1708 18655
1708 18655
1708 18655
1708 18655
1708 18655
1708 18655
1708 18655
1708 18655
1708 18655
1708 18655
1708 18655
1708 18655
1929 5175
1981 65
1981 190
1981 2544
1981 2544
1981 2544
1981 3104
1981 3753
1981 7187
1981 7187
1981 11910
1981 12303
34 1146
34 1146
34 1154
34 1166
204 549
204 3737
204 3737
204 3737
204 4183
204 4183
204 4183
224 2480
224 2480
224 2480
224 2480
224 2480
224 5918
224 5918
224 6833
224 6833
224 7144
224 7144
224 7144
224 7144
224 8831
224 8831
224 8831
224 15125
224 15125
224 17044
224 18295
359 2856
359 4180
359 5159
359 8743
418 229
418 374
418 984
418 1105
418 1105
418 1947
418 2632
418 3057
418 3258
418 3341
418 3748
418 6680
418 12214
418 14315
430 72
430 72
430 72
935 2
935 2
935 19
978 152
978 188
978 751
978 751
978 920
978 924
978 928
978 930
978 936
978 937
978 942
978 944
978 1113
978 1132
978 1169
978 1263
978 1263
978 1338
978 1339
978 1342
978 1349
978 1374
978 1993
978 1994
978 1995
978 1998
978 2006
978 2009
978 3417
978 3417
978 3779
978 4267
978 4285
978 4285
978 4335
978 4610
978 4613
978 4668
978 4670
978 4681
978 4691
978 4691
978 4949
978 4949
978 7052
978 7052
978 7100
978 7100
978 7100
978 7713
978 7899
978 9530
978 9530
978 10585
978 10675
978 15302
1016 6687
1016 6687
1016 6687
1083 209
1083 209
1195 236
1280 8656
1280 13634
1421 215
1421 428
1421 14457
1421 14470
1421 14470
1431 794
1431 2044
1579 159
1579 199
1579 199
1579 199
1579 211
1579 211
1579 211
1579 211
1579 217
1579 217
1579 225
1579 225
1579 225
1579 226
1579 403
1579 403
1579 433
1579 433
1579 433
1579 433
1579 433
1579 434
1579 434
1579 618
1579 618
1579 1103
1579 1103
1579 1103
1579 1888
1579 1888
1579 1957
1579 1957
1579 1957
1579 2440
1579 3258
1579 3258
1579 3258
1579 3258
1579 3744
1579 4827
1579 5027
1579 5249
1579 5249
1579 5549
1579 5549
1585 53
1585 54
1585 54
1585 65
1585 67
1585 67
1585 161
1585 722
1585 1001
1585 1076
1585 2183
1585 2183
1585 2535
1585 3466
1585 3481
1585 4118
1585 4118
1585 4118
1585 4130
1708 1146
1708 1146
1708 1146
1708 1146
1708 1146
1708 6302
1708 6302
1708 7126
1708 7126
1904 1150
1904 2265
1904 2625
1904 11974
1929 27
1929 55
1929 59
1929 63
1929 65
1929 72
1929 75
1929 152
1929 159
1929 163
1929 172
1929 227
1929 233
1929 245
1929 302
1929 375
1929 396
1929 436
1929 441
1929 515
1929 562
1929 607
1929 701
1929 706
1929 717
1929 724
1929 724
1929 787
1929 788
1929 794
1929 875
1929 900
1929 910
1929 917
1929 920
1929 922
1929 922
1929 959
1929 965
1929 997
1929 998
1929 1014
1929 1027
1929 1071
1929 1073
1929 1110
1929 1213
1929 1230
1929 1233
1929 1249
1929 1249
1929 1343
1929 1343
1929 1358
1929 1369
1929 1369
1929 1381
1929 1412
1929 1413
1929 1425
1929 1464
1929 1468
1929 1513
1929 1534
1929 1707
1929 1707
1929 1716
1929 1804
1929 1810
1929 1892
1929 2003
1929 2013
1929 2030
1929 2031
1929 2227
1929 2227
1929 2236
1929 2236
1929 2247
1929 2247
1929 2251
1929 2342
1929 2342
1929 2347
1929 2444
1929 2463
1929 2469
1929 2472
1929 2477
1929 2531
1929 2531
1929 2569
1929 2698
1929 2698
1929 2792
1929 3269
1929 3438
1929 3451
1929 3481
1929 4124
1929 4183
1929 4620
1929 4784
1929 4920
1929 5020
1929 5254
1929 6324
1929 6324
1929 6452
1929 6776
1929 7156
1929 7347
1929 7871
1929 8042
1929 9093
1929 9322
1929 9598
1929 9738
1929 9821
1929 9821
1929 9919
1929 10174
1929 10222
1929 10662
1929 10662
1929 11219
1929 12228
1929 12228
1929 12733
1929 12733
1929 12742
1929 13604
1929 17331
1929 17616
1929 18142
1981 1151
1981 2051
1981 2051
1981 2051
1981 2404
1981 2404
1981 2572
1981 3493
1981 4731
1981 13748
224 212
224 212
224 630
224 630
224 630
224 1372
224 1372
224 1372
224 1412
224 1412
224 1412
224 1412
224 1414
224 1414
224 1639
224 1639
224 1639
224 2853
224 2853
224 2853
224 4792
224 4792
224 5159
224 5159
224 7411
224 17702
224 17702
694 5260
694 5260
694 9858
1086 51
1086 53
1086 67
1086 82
1086 96
1086 154
1086 182
1086 187
1086 193
1086 204
1086 215
1086 227
1086 229
1086 257
1086 265
1086 289
1086 292
1086 306
1086 310
1086 316
1086 349
1086 355
1086 356
1086 366
1086 429
1086 465
1086 525
1086 562
1086 569
1086 602
1086 615
1086 618
1086 683
1086 730
1086 733
1086 735
1086 786
1086 868
1086 889
1086 891
1086 909
1086 945
1086 959
1086 961
1086 985
1086 986
1086 991
1086 993
1086 1001
1086 1076
1086 1098
1086 1122
1086 1242
1086 1244
1086 1412
1086 1415
1086 1505
1086 1519
1086 1639
1086 1687
1086 1824
1086 1892
1086 2027
1086 2183
1086 2436
1086 2437
1086 2442
1086 2454
1086 2463
1086 2467
1086 2546
1086 2571
1086 2627
1086 2834
1086 2840
1086 2893
1086 3110
1086 3458
1086 3466
1086 3482
1086 3489
1086 3585
1086 3589
1086 3603
1086 3605
1086 3749
1086 4114
1086 4130
1086 4369
1086 4616
1086 4898
1086 5255
1086 5264
1086 5452
1086 5767
1086 6602
1086 6714
1086 7274
1086 7318
1086 7321
1086 7533
1086 8311
1086 8314
1086 8555
1086 8743
1086 9079
1086 9084
1086 9470
1086 10183
1086 10668
1086 10677
1086 12194
1086 12214
1086 12215
1086 13422
1086 14329
1086 15391
1086 15403
1086 15481
1086 16952
1108 6190
1108 8878
1108 12358
1108 12361
1108 12361
1579 417
1579 417
1579 422
1579 422
1579 424
1579 424
1579 424
1579 486
1579 533
1579 533
1579 533
1579 1116
1579 1116
1579 1381
1579 1381
1579 1381
1579 1394
1579 1394
1579 1520
1579 1520
1579 1520
1579 1779
1579 1779
1579 4742
1579 4742
1579 4742
1579 5416
1579 5416
1579 8707
1579 8707
1579 8707
1579 8708
1579 8708
1579 8708
1579 8710
1579 8710
1579 8710
1579 8713
1579 8713
1579 9230
1579 9230
1579 9230
1579 14846
1579 14846
1579 14846
1585 257
1585 316
1585 730
1585 730
1585 730
1585 1000
1585 1016
1585 1795
1585 1795
1585 2500
1585 2934
1585 2934
1585 9255
1708 3299
1708 15839
1904 46
1904 204
1904 355
1904 609
1904 715
1904 1112
1904 1117
1904 1121
1904 1123
1904 1130
1904 1139
1904 1175
1904 1491
1904 1708
1904 2265
1904 2625
1904 3613
1904 5982
1904 7119
1904 7404
1904 8066
1904 8133
1904 8234
1904 9271
1904 9470
1904 9539
1904 10225
1904 12194
1904 12276
1904 13065
1904 13365
1904 13910
1904 15038
1904 16068
1904 16333
1904 17490
1904 17493
1904 17494
1904 17496
1904 17766
1981 511
1981 3866
1981 3866
1981 3866
1981 7725
1981 7725
1981 7725
1981 7725
1981 11253
1981 17894
224 862
224 862
224 905
224 905
224 1062
224 1062
224 1062
224 1213
224 1213
224 1213
224 1344
224 1516
224 1884
224 1884
224 2037
224 2481
224 2481
224 2495
224 2495
224 2495
224 2495
224 2542
224 2542
224 2542
224 2560
224 2560
224 2560
224 3230
224 3230
224 3282
224 3282
224 3613
224 3942
224 3942
224 3942
224 3942
224 4068
224 4538
224 4538
224 4538
224 4622
224 4622
224 5303
224 5303
224 5603
224 5603
224 5770
224 5790
224 5790
224 6146
224 6782
224 6782
224 6782
224 6782
224 6788
224 6791
224 6791
224 6852
224 7670
224 7670
224 8111
224 8111
224 8549
224 8549
224 8549
224 8672
224 8672
224 9423
224 9423
224 9642
224 9823
224 9823
224 9824
224 9824
224 9824
224 9826
224 10119
224 10119
224 10444
224 10444
224 10444
224 10444
224 10444
224 10444
224 10743
224 10743
224 10756
224 10756
224 10756
224 10756
224 10764
224 10764
224 10764
224 10764
224 12130
224 12219
224 12219
224 12219
224 12219
224 12603
224 12603
224 12603
224 12710
224 12710
224 12710
224 12710
224 12710
224 12710
224 12725
224 13084
224 13084
224 13558
224 13558
224 13558
224 14088
224 14106
224 14106
224 14144
224 14144
224 14385
224 14385
224 14385
224 14385
224 15124
224 15124
224 15387
224 15387
224 15482
224 15482
224 15866
224 15866
224 15866
224 16859
224 16859
224 17478
224 17478
224 17478
224 17889
224 17889
224 18343
224 18343
224 18343
297 81
297 81
297 81
297 81
297 199
297 199
297 199
297 199
297 199
297 206
297 206
297 206
297 206
297 222
297 222
297 222
297 222
297 222
297 225
297 225
297 226
297 226
297 226
297 234
297 234
297 234
297 425
297 425
297 425
297 425
297 439
297 439
297 439
297 439
297 709
297 858
297 858
297 858
297 1090
297 1090
297 1090
297 1098
297 1098
297 1098
297 1098
297 1098
297 1109
297 1424
297 1424
297 1424
297 1768
297 1768
297 1768
297 1768
297 1768
297 1768
297 1814
297 1814
297 1814
297 1814
297 1814
297 2660
297 2660
297 2660
297 2660
297 2660
297 2660
297 2660
297 3129
297 3129
297 3200
297 3200
297 3200
297 3200
297 3200
297 3469
297 3469
297 3469
297 3469
297 3469
297 3739
297 3739
297 3739
297 4793
297 4793
297 4793
297 5027
297 5027
297 5027
297 5410
297 5410
297 5410
297 5410
297 5410
297 5410
297 5411
297 5411
297 8830
297 8830
297 8830
297 8830
297 12078
297 12078
297 12078
297 12078
297 12078
297 12078
320 18
320 19
320 24
320 44
320 45
320 52
320 53
320 54
320 58
320 81
320 154
320 159
320 184
320 197
320 206
320 209
320 211
320 238
320 311
320 331
320 407
320 424
320 515
320 515
320 538
320 580
320 602
320 610
320 613
320 625
320 697
320 697
320 718
320 718
320 724
320 728
320 730
320 737
320 864
320 878
320 972
320 986
320 991
320 1079
320 1203
320 1231
320 1249
320 1253
320 1295
320 1415
320 1459
320 1489
320 1489
320 1519
320 1519
320 1519
320 1632
320 1639
320 1639
320 1694
320 1746
320 2039
320 2419
320 2436
320 2439
320 2442
320 2442
320 2443
320 2443
320 2449
320 2453
320 2457
320 2457
320 2458
320 2468
320 2544
320 2570
320 2638
320 2834
320 2842
320 2901
320 2938
320 3003
320 3019
320 3109
320 3132
320 3285
320 3285
320 3417
320 3558
320 3601
320 3601
320 3611
320 3748
320 3748
320 3748
320 3902
320 3992
320 4113
320 4138
320 4138
320 4316
320 4520
320 4543
320 4545
320 4545
320 4691
320 4732
320 4875
320 5186
320 5186
320 5197
320 5197
320 5267
320 5421
320 5625
320 5625
320 5625
320 5626
320 5626
320 5626
320 6004
320 6004
320 6257
320 6257
320 7318
320 8215
320 8309
320 8563
320 8649
320 9144
320 9498
320 9598
320 11253
320 11917
320 12312
320 12312
320 12508
320 13754
320 14286
320 14509
320 15034
320 15034
320 16977
380 1025
529 1110
529 1110
529 1110
529 1468
529 1468
529 1468
529 3481
529 3481
529 4784
529 4784
529 7791
529 7791
529 7793
529 7793
1051 198
1051 920
1086 251
1086 253
1086 291
1086 319
1086 340
1086 403
1086 455
1086 540
1086 709
1086 892
1086 913
1086 974
1086 1015
1086 1383
1086 1444
1086 1459
1086 1469
1086 1489
1086 1590
1086 2019
1086 2439
1086 2523
1086 2792
1086 3067
1086 3375
1086 3460
1086 3600
1086 3856
1086 4103
1086 4201
1086 4223
1086 4489
1086 4837
1086 5770
1086 6699
1086 6777
1086 7140
1086 7286
1086 8576
1086 9528
1086 11725
1086 14042
1086 15038
1086 16076
1086 17490
1091 378
1091 2014
1091 12273
1108 1965
1108 6407
1108 12361
1108 12366
1108 14434
1421 200
1421 236
1421 427
1421 434
1421 618
1421 630
1421 899
1421 1155
1421 1231
1421 1375
1421 1380
1421 1418
1421 1508
1421 1636
1421 2121
1421 2276
1421 2424
1421 2531
1421 2823
1421 2938
1421 3250
1421 3468
1421 3475
1421 3555
1421 3750
1421 4074
1421 4451
1421 4536
1421 5412
1421 5540
1421 5550
1421 5553
1421 6043
1421 6293
1421 6422
1421 6681
1421 7287
1421 8476
1421 8479
1421 9959
1421 10203
1421 10203
1421 10210
1421 12297
1421 13539
1421 14120
1421 14462
1421 14468
1421 17500
1421 17953
1433 7395
1579 207
1579 207
1579 3701
1579 3701
1579 5417
1585 3921
1666 293
1666 306
1666 349
1666 403
1666 3320
1904 17492
1929 151
1929 3308
1929 16013
1981 184
1981 184
1981 193
1981 296
1981 472
1981 1730
1981 1730
1981 1730
1981 7178
204 16878
204 16878
224 1799
224 3291
224 3291
224 6736
224 6736
224 6736
224 11602
234 330
234 605
234 1636
297 173
297 173
297 173
297 173
297 173
297 436
297 436
297 436
297 618
297 618
297 618
297 618
297 3186
297 3186
297 3186
297 4860
297 4860
297 4860
297 4860
297 4860
297 5263
297 5417
297 5417
297 5417
297 5417
297 5417
297 5417
297 10026
297 10026
297 10026
320 86
320 86
320 86
320 197
320 724
320 1117
320 1208
320 1328
320 1328
320 1643
320 1643
320 1645
320 1652
320 1694
320 2006
320 2182
320 2182
320 2638
320 2786
320 2786
320 3614
320 3620
320 3620
320 3620
320 3881
320 3890
320 3890
320 4258
320 4285
320 4354
320 5027
320 5027
320 5027
320 5306
320 6417
320 6417
320 6454
320 7260
320 7651
320 8582
320 8592
320 8649
320 8649
320 9521
320 9521
320 11281
320 11602
320 11780
320 11780
320 11780
320 11917
320 14636
418 6681
529 7793
529 7793
595 506
595 506
595 854
595 854
595 854
627 4788
694 51
694 59
694 61
694 72
694 76
694 82
694 98
694 99
694 159
694 172
694 225
694 428
694 429
694 441
694 709
694 857
694 859
694 874
694 1000
694 1014
694 1027
694 1073
694 1083
694 1090
694 1534
694 1703
694 1794
694 1878
694 1885
694 1886
694 2027
694 2029
694 2043
694 2531
694 2937
694 2938
694 2938
694 2938
694 3279
694 3281
694 3436
694 3441
694 3768
694 3781
694 5258
694 5260
694 6073
694 6776
694 7325
694 7347
694 7880
694 9320
694 9324
694 9324
694 9332
1012 30
1012 88
1012 229
1012 230
1012 233
1012 233
1012 3300
1012 8584
1012 10564
1012 10685
1079 377
1079 517
1079 537
1079 614
1079 898
1079 1672
1079 4058
1086 333
1086 965
1086 1249
1086 1384
1086 2637
1086 5480
1086 6452
1086 14318
1108 198
1108 1740
1108 5094
1108 6404
1108 6408
1108 8408
1108 12361
1433 12559
1470 246
1470 246
1470 261
1470 261
1470 439
1470 439
1470 1241
1470 1241
1470 1755
1470 1755
1470 1757
1470 1757
1470 1764
1470 1764
1470 1768
1470 1768
1470 1775
1470 1775
1470 3386
1470 3386
1470 5226
1470 5226
1470 5416
1470 5416
1470 6472
1470 6472
1470 11398
1470 11398
1470 11935
1470 11935
1579 199
1579 207
1579 207
1579 210
1579 210
1579 210
1579 210
1579 211
1579 217
1579 291
1579 431
1579 431
1579 431
1579 434
1579 434
1579 434
1579 618
1579 857
1579 857
1579 857
1579 857
1579 857
1579 1159
1579 1159
1579 1159
1579 2271
1579 2271
1579 2271
1579 2416
1579 2535
1579 2535
1579 2535
1579 2535
1579 2535
1579 2708
1579 2708
1579 2708
1579 2708
1579 2708
1579 3892
1579 3892
1579 3892
1579 4260
1579 4260
1579 4260
1579 4793
1579 4817
1579 4817
1579 5412
1579 5412
1579 5412
1579 5419
1579 5419
1579 6527
1579 6527
1579 6527
1579 6527
1579 7073
1579 7073
1579 7073
1579 7073
1579 7076
1579 7076
1579 7076
1579 7077
1579 7077
1579 7077
1579 7911
1579 7911
1579 7911
1579 7911
1579 11812
1579 11812
1579 11812
1579 11812
1579 15119
1579 15119
1579 15119
1579 17310
1579 17310
1579 17310
1579 17310
1579 17628
1585 51
1585 51
1585 51
1585 67
1585 171
1585 171
1585 171
1585 180
1585 182
1585 5072
1585 5072
1585 5072
1585 7075
1585 7075
1585 7533
1585 7533
1585 8042
1585 8042
1637 424
1637 424
1637 424
1637 15752
1637 15752
1637 15752
1666 291
1666 293
1666 293
1666 293
1666 296
1666 318
1666 333
1666 462
1666 523
1666 525
1666 540
1666 701
1666 972
1666 1684
1666 1684
1666 3320
1900 227
1900 227
1900 227
1900 441
1900 441
1900 851
1900 851
1900 851
1900 993
1900 993
1900 2562
1900 2562
1900 2562
1900 3280
1900 5785
1900 7068
1900 7068
1900 7325
1900 7325
1900 8656
1900 8656
1900 8656
1900 8665
1900 8995
1900 8995
1900 10761
1900 10761
1900 13575
1981 1730
1981 2047
1981 3753
1981 7406
1981 11725
1981 11725
1981 13688
2014 59
2014 61
2014 72
2014 83
2014 91
2014 100
2014 159
2014 173
2014 429
2014 441
2014 511
2014 599
2014 875
2014 877
2014 878
2014 993
2014 998
2014 1000
2014 1001
2014 1013
2014 1703
2014 1844
2014 1881
2014 1895
2014 2029
2014 2265
2014 2531
2014 2936
2014 3201
2014 3464
2014 3482
2014 5929
2014 7054
2014 9322
164 159
164 159
224 552
224 552
224 552
224 5900
224 12603
224 15839
282 163
282 176
282 220
282 227
282 234
282 234
282 436
282 614
282 630
282 630
282 707
282 717
282 733
282 868
282 868
282 959
282 975
282 982
282 1110
282 1110
282 1122
282 1122
282 1132
282 1372
282 1372
282 1412
282 1412
282 1413
282 1413
282 1414
282 1415
282 1416
282 1778
282 2341
282 2342
282 2343
282 2346
282 2346
282 2469
282 2786
282 2787
282 2901
282 2901
282 3065
282 3071
282 3471
282 3471
282 3774
282 3774
282 4180
282 4784
282 5301
282 5301
282 5452
282 6362
282 9543
282 9543
282 9706
282 9706
297 444
297 444
297 444
297 1159
297 1159
297 1159
297 1159
297 3333
297 3333
297 5153
297 5153
297 13939
312 18110
320 8
320 27
320 27
320 32
320 34
320 390
320 396
320 522
320 537
320 1093
320 1146
320 1157
320 1256
320 1256
320 1277
320 1277
320 1295
320 1303
320 2043
320 2043
320 2477
320 2542
320 3432
320 5554
320 6256
320 7126
320 11416
320 11486
320 11897
320 11898
431 951
431 951
431 951
431 952
431 952
431 952
431 2347
431 2347
431 2347
431 2361
431 2361
431 2361
431 2565
431 2565
431 2565
431 2787
431 2787
431 2787
431 2797
431 2797
431 2797
431 2859
431 2859
431 2859
431 2973
431 2973
431 2973
431 3474
431 3474
431 3474
431 4180
431 4180
431 4180
431 5016
431 5016
431 5016
431 7112
431 7112
431 7112
431 9714
431 9714
431 9714
431 9822
431 9822
431 9822
627 8691
978 930
978 955
978 1710
978 2746
978 5718
1012 4725
1079 4069
1079 9747
1108 5481
1108 5523
1108 6127
1108 7375
1108 12361
1108 12366
1108 12366
1108 15085
1108 15097
1235 18
1235 18
1235 18
1235 51
1235 51
1235 51
1235 233
1235 233
1235 603
1235 603
1235 1707
1235 1707
1235 1707
1235 2060
1235 2060
1235 2060
1235 4126
1235 4126
1235 4126
1235 4928
1235 6060
1235 6060
1235 7260
1235 7260
1235 7260
1235 12736
1235 12736
1236 1873
1254 1974
1280 1089
1280 1089
1280 1089
1360 444
1360 748
1360 778
1360 1418
1360 3411
1360 3707
1360 4732
1360 11316
1421 14461
1421 14461
1565 170
1565 418
1579 3208
1579 3208
1579 3208
1579 3208
1579 17628
1579 17628
1579 17628
1585 51
1585 51
1585 51
1585 51
1585 55
1585 59
1585 59
1585 67
1585 67
1585 67
1585 68
1585 68
1585 159
1585 166
1585 167
1585 175
1585 180
1585 180
1585 203
1585 220
1585 230
1585 253
1585 253
1585 257
1585 257
1585 306
1585 306
1585 377
1585 377
1585 386
1585 429
1585 429
1585 468
1585 468
1585 489
1585 489
1585 511
1585 511
1585 517
1585 517
1585 517
1585 525
1585 534
1585 534
1585 603
1585 603
1585 959
1585 966
1585 966
1585 975
1585 993
1585 1001
1585 1001
1585 1001
1585 1003
1585 1003
1585 1009
1585 1016
1585 1016
1585 1016
1585 1122
1585 1122
1585 1378
1585 1378
1585 1399
1585 1399
1585 1406
1585 1406
1585 1468
1585 1468
1585 1470
1585 1470
1585 1595
1585 1595
1585 1641
1585 1641
1585 1641
1585 1795
1585 1881
1585 1881
1585 1883
1585 2179
1585 2179
1585 2247
1585 2247
1585 2265
1585 2265
1585 2265
1585 2500
1585 2500
1585 2500
1585 2745
1585 2745
1585 2745
1585 2834
1585 2834
1585 3104
1585 3308
1585 3308
1585 3316
1585 3316
1585 3316
1585 3316
1585 3427
1585 3464
1585 3466
1585 3466
1585 3489
1585 3754
1585 3758
1585 3758
1585 3777
1585 3863
1585 3863
1585 3876
1585 3876
1585 4179
1585 4179
1585 4180
1585 4180
1585 4369
1585 4432
1585 4620
1585 4880
1585 4880
1585 5072
1585 5072
1585 5072
1585 5072
1585 5217
1585 5217
1585 5217
1585 5217
1585 5432
1585 5988
1585 5988
1585 5988
1585 6249
1585 6249
1585 6249
1585 6249
1585 6504
1585 6504
1585 6504
1585 7054
1585 7054
1585 7075
1585 7193
1585 7193
1585 7193
1585 8111
1585 8178
1585 8594
1585 8789
1585 8789
1585 8789
1585 8789
1585 9193
1585 9193
1585 9193
1585 9193
1585 9417
1585 9417
1585 12681
1585 15453
1585 15453
1585 15481
1585 15481
1585 16735
1585 17577
1585 17577
1585 18606
1683 204
1683 204
1683 217
1683 316
1683 418
1683 439
1683 439
1683 439
1683 439
1683 701
1683 3110
1683 3110
1683 4466
1683 4466
1683 4466
1683 4466
1747 2578
1747 15882
1747 15882
1747 15882
1747 15882
1747 15882
1747 15882
1861 3694
1861 3694
1861 8922
1861 11604
1861 17184
1861 17184
1861 17184
1861 17185
1861 17185
2014 7
2014 715
