204 3453
204 3737
204 4199
204 4199
204 4199
224 19
224 32
224 32
224 51
224 51
224 58
224 59
224 59
224 59
224 59
224 61
224 61
224 62
224 62
224 67
224 67
224 68
224 72
224 72
224 72
224 75
224 75
224 75
224 81
224 82
224 82
224 82
224 83
224 83
224 85
224 91
224 95
224 95
224 95
224 96
224 96
224 96
224 98
224 98
224 99
224 99
224 99
224 100
224 100
224 153
224 153
224 159
224 159
224 172
224 187
224 192
224 192
224 192
224 193
224 227
224 227
224 227
224 227
224 233
224 238
224 238
224 429
224 429
224 441
224 554
224 554
224 554
224 594
224 594
224 594
224 594
224 599
224 599
224 599
224 599
224 599
224 599
224 612
224 612
224 612
224 612
224 627
224 627
224 627
224 715
224 715
224 715
224 735
224 735
224 735
224 735
224 852
224 852
224 857
224 859
224 863
224 863
224 867
224 868
224 868
224 868
224 868
224 871
224 874
224 874
224 874
224 875
224 875
224 877
224 877
224 878
224 878
224 985
224 985
224 985
224 993
224 994
224 995
224 996
224 997
224 997
224 998
224 998
224 999
224 1001
224 1001
224 1001
224 1003
224 1004
224 1005
224 1005
224 1005
224 1005
224 1005
224 1008
224 1013
224 1013
224 1013
224 1013
224 1013
224 1014
224 1014
224 1014
224 1014
224 1015
224 1017
224 1017
224 1019
224 1019
224 1019
224 1019
224 1027
224 1027
224 1079
224 1079
224 1083
224 1083
224 1083
224 1083
224 1083
224 1098
224 1098
224 1098
224 1098
224 1103
224 1103
224 1103
224 1122
224 1207
224 1242
224 1242
224 1303
224 1413
224 1413
224 1413
224 1427
224 1513
224 1513
224 1513
224 1513
224 1534
224 1534
224 1703
224 1703
224 1703
224 1709
224 1709
224 1709
224 1709
224 1709
224 1811
224 1811
224 1811
224 1811
224 1814
224 1814
224 1836
224 1836
224 1836
224 1836
224 1844
224 1844
224 1878
224 1878
224 1878
224 1879
224 1881
224 1883
224 1885
224 1886
224 1886
224 1888
224 1888
224 1888
224 1888
224 1888
224 1889
224 1889
224 1890
224 1890
224 1890
224 1890
224 1893
224 1893
224 1895
224 1895
224 1895
224 1899
224 1899
224 1900
224 1957
224 1957
224 2027
224 2029
224 2029
224 2043
224 2043
224 2043
224 2043
224 2128
224 2128
224 2343
224 2343
224 2343
224 2343
224 2444
224 2444
224 2469
224 2469
224 2488
224 2488
224 2488
224 2490
224 2490
224 2531
224 2552
224 2554
224 2554
224 2554
224 2556
224 2559
224 2559
224 2562
224 2567
224 2570
224 2570
224 2570
224 2571
224 2571
224 2629
224 2629
224 2629
224 2633
224 2633
224 2633
224 2648
224 2648
224 2648
224 2648
224 2792
224 2792
224 2792
224 2792
224 2861
224 2861
224 2861
224 2861
224 2861
224 2861
224 2861
224 2893
224 2893
224 2893
224 2893
224 2893
224 2936
224 2937
224 2937
224 2938
224 2938
224 2938
224 3011
224 3011
224 3011
224 3011
224 3119
224 3201
224 3281
224 3298
224 3298
224 3299
224 3299
224 3299
224 3299
224 3299
224 3302
224 3302
224 3306
224 3306
224 3306
224 3430
224 3430
224 3436
224 3436
224 3436
224 3530
224 3530
224 3530
224 3530
224 3768
224 3781
224 3784
224 3784
224 3789
224 3789
224 3920
224 3920
224 3941
224 3941
224 3941
224 3988
224 4079
224 4079
224 4129
224 4129
224 4129
224 4250
224 4250
224 4250
224 4493
224 4494
224 4495
224 4495
224 4495
224 4495
224 4541
224 4541
224 4541
224 4541
224 4541
224 4735
224 4795
224 4795
224 4795
224 4807
224 4807
224 4807
224 4807
224 4807
224 4809
224 4809
224 4809
224 5170
224 5170
224 5254
224 5381
224 5381
224 5381
224 5471
224 5471
224 5550
224 5550
224 5785
224 5785
224 6064
224 6065
224 6070
224 6180
224 6241
224 6241
224 6241
224 6732
224 6742
224 6743
224 6784
224 6884
224 6939
224 7069
224 7342
224 7343
224 7343
224 7343
224 7345
224 7346
224 7357
224 7357
224 7357
224 7934
224 8069
224 8069
224 8367
224 8367
224 8668
224 8668
224 9253
224 9255
224 9296
224 9321
224 9338
224 9338
224 9469
224 9469
224 9505
224 9505
224 9505
224 9591
224 9825
224 9825
224 9969
224 9969
224 9980
224 9980
224 9990
224 9990
224 9990
224 10115
224 10115
224 10620
224 10620
224 10742
224 10742
224 10742
224 10753
224 10753
224 10761
224 10761
224 10847
224 10847
224 10847
224 10847
224 11243
224 11733
224 11733
224 11871
224 11871
224 11871
224 11913
224 11913
224 11913
224 11913
224 11913
224 11933
224 11933
224 12009
224 12009
224 12220
224 12220
224 12220
224 12220
224 12298
224 12298
224 12817
224 12817
224 13004
224 13004
224 13004
224 13004
224 13156
224 13156
224 13168
224 13168
224 13178
224 13416
224 13529
224 13529
224 13532
224 13532
224 13900
224 13900
224 14402
224 14402
224 15164
224 15164
224 15584
224 15586
224 15586
224 15586
224 15637
224 15771
224 15771
224 15771
224 16141
224 17157
224 17157
224 17157
224 17166
224 17166
224 17505
224 17505
224 17505
224 17505
224 18224
386 163
386 230
386 959
386 2361
386 6350
386 6361
430 51
430 51
430 51
430 59
430 59
430 98
430 98
430 99
430 99
430 193
430 285
430 441
430 441
430 511
430 511
430 599
430 735
430 874
430 905
430 1003
430 1006
430 1076
430 1090
430 1122
430 1795
430 1810
430 1832
430 1879
430 1879
430 2556
430 2556
430 2556
430 2562
430 2562
430 2562
430 3675
430 3921
430 5833
430 5833
430 6783
430 6783
430 6784
430 6785
430 6785
430 6790
430 6790
430 6790
430 7076
430 8995
430 9255
430 11339
430 14712
430 14712
430 14712
430 17166
595 188
595 188
595 188
595 188
595 518
595 518
595 518
595 518
595 707
595 707
595 707
595 707
595 917
595 917
595 917
595 917
595 918
595 918
595 918
595 918
595 922
595 922
595 922
595 922
595 924
595 924
595 924
595 924
595 928
595 928
595 928
595 928
595 930
595 930
595 930
595 930
595 936
595 936
595 936
595 936
595 937
595 937
595 937
595 937
595 942
595 942
595 942
595 942
595 944
595 944
595 944
595 944
595 954
595 954
595 954
595 954
595 957
595 957
595 957
595 957
595 958
595 958
595 958
595 958
595 1339
595 1339
595 1339
595 1339
595 1342
595 1342
595 1342
595 1342
595 1349
595 1349
595 1349
595 1349
595 1350
595 1350
595 1350
595 1350
595 1358
595 1358
595 1358
595 1358
595 1374
595 1374
595 1374
595 1374
595 1710
595 1710
595 1710
595 1710
595 1997
595 1997
595 1997
595 1997
595 2009
595 2009
595 2009
595 2009
595 3425
595 3425
595 3425
595 3425
595 4326
595 4326
595 4326
595 4326
595 4342
595 4342
595 4342
595 4342
595 4680
595 4680
595 4680
595 4680
595 5155
595 5155
595 5155
595 5155
734 198
734 198
734 220
734 230
734 412
734 453
734 504
734 707
734 724
734 830
734 830
734 1132
734 1181
734 1186
734 1470
734 1905
734 2834
734 4103
734 6298
734 6724
734 10857
1108 6407
1108 6408
1149 59
1149 67
1149 72
1149 77
1149 77
1149 159
1149 172
1149 225
1149 227
1149 428
1149 429
1149 429
1149 441
1149 533
1149 599
1149 599
1149 601
1149 734
1149 868
1149 875
1149 961
1149 1013
1149 1083
1149 1118
1149 1119
1149 1239
1149 1464
1149 1795
1149 1844
1149 1892
1149 1892
1149 4126
1149 4982
1421 155
1421 167
1421 182
1421 190
1421 197
1421 215
1421 229
1421 235
1421 292
1421 412
1421 425
1421 428
1421 434
1421 436
1421 569
1421 599
1421 599
1421 615
1421 716
1421 716
1421 786
1421 857
1421 857
1421 869
1421 945
1421 965
1421 1090
1421 1103
1421 1231
1421 1380
1421 1383
1421 1513
1421 1520
1421 1610
1421 1814
1421 1878
1421 1883
1421 1985
1421 2176
1421 2418
1421 2475
1421 2614
1421 2632
1421 3440
1421 3616
1421 3878
1421 4051
1421 4064
1421 4069
1421 4260
1421 4354
1421 4389
1421 4435
1421 4451
1421 4451
1421 5258
1421 5423
1421 5785
1421 6192
1421 6226
1421 6685
1421 6730
1421 7146
1421 7274
1421 7289
1421 7329
1421 7530
1421 7871
1421 8715
1421 8830
1421 9262
1421 9959
1421 10199
1421 10579
1421 11185
1421 11216
1421 11253
1421 11933
1421 12484
1421 13406
1421 13575
1421 14318
1421 14456
1421 14456
1421 14457
1421 14458
1421 14459
1421 14460
1421 14463
1421 14464
1421 14465
1421 14469
1421 14469
1421 17934
1421 18641
1654 4324
1654 4324
1654 4324
1654 4324
1654 4324
1904 52
1904 53
1904 166
1904 204
1904 210
1904 355
1904 534
1904 538
1904 630
1904 630
1904 683
1904 885
1904 889
1904 891
1904 898
1904 898
1904 961
1904 1220
1904 1418
1904 1534
1904 1718
1904 2013
1904 2419
1904 2625
1904 2628
1904 2628
1904 2786
1904 2855
1904 2910
1904 3114
1904 3119
1904 3460
1904 3466
1904 3466
1904 3466
1904 3482
1904 3613
1904 4043
1904 4432
1904 4447
1904 4531
1904 4545
1904 5415
1904 5421
1904 5542
1904 5789
1904 5901
1904 5901
1904 6677
1904 6677
1904 6677
1904 6677
1904 7286
1904 7286
1904 7286
1904 7404
1904 7404
1904 7533
1904 8188
1904 8594
1904 9467
1904 9470
1904 9539
1904 10224
1904 10638
1904 11974
1904 12194
1904 12194
1904 12276
1904 12276
1904 12276
1904 12997
1904 13365
1904 13474
1904 14052
1904 15038
1904 15527
1904 15527
1904 16952
1904 17490
1904 17492
1904 17493
1904 17493
1904 17494
1904 17495
1904 17495
1904 17496
164 204
164 204
224 550
224 550
224 550
224 5920
224 6544
224 6544
224 6776
224 6776
224 10111
224 10111
224 10794
627 924
627 957
627 1373
627 2370
627 4671
627 4681
627 4787
627 7713
627 8690
627 8692
1035 11892
1035 11892
1035 11892
1035 11892
1035 11892
1035 11892
1035 11892
1035 11892
1035 11892
1035 11892
1035 11892
1035 11892
1035 11892
1098 10
1098 1295
1098 4113
1108 15085
1212 65
1212 65
1212 226
1212 227
1212 227
1212 234
1212 234
1212 234
1212 533
1212 533
1212 614
1212 614
1212 707
1212 707
1212 709
1212 709
1212 735
1212 1116
1212 1116
1212 1239
1212 1239
1212 1249
1212 1406
1212 1639
1212 1639
1212 2346
1212 3464
1212 3464
1212 6097
1212 6097
1421 4124
1421 4124
1421 10955
1421 14467
1421 14468
1421 14468
1421 14468
1433 405
1433 504
1433 726
1433 923
1433 930
1433 1339
1433 1786
1433 1798
1433 1914
1433 1917
1433 2018
1433 2963
1433 3919
1433 4383
1433 4985
1433 8789
1433 10433
1433 12038
1433 12987
1433 14533
1585 157
1585 192
1585 227
1585 241
1585 257
1585 717
1585 913
1585 959
1585 1427
1585 1427
1585 1464
1585 1622
1585 1820
1585 1846
1585 1846
1585 1860
1585 2179
1585 2226
1585 2893
1585 3357
1585 3481
1585 3951
1585 4598
1585 4883
1585 5789
1585 8546
1585 8991
1585 8992
1585 10608
1585 11062
1585 12893
1585 14098
1585 15922
1585 17515
1621 29
1621 31
1621 35
1621 767
1621 1066
1621 1255
1621 5581
1621 10521
1621 11095
1621 11103
1621 15626
1883 3298
1883 3298
1929 429
1929 605
1929 605
1929 1527
1929 3264
1929 5027
224 864
224 1000
224 1028
224 1203
224 1301
224 1301
224 1707
224 1902
224 1902
224 1902
224 2277
224 4109
224 4978
224 4978
224 5917
224 5917
224 5926
224 6698
224 6698
224 8543
224 8543
224 8543
224 9865
224 10662
224 10662
224 10662
224 13086
224 13427
224 15122
224 15122
224 15601
224 15601
224 15991
224 17890
430 51
430 98
430 5833
1035 11892
1035 11892
1035 11892
1035 11892
1035 11892
1035 11892
1035 11892
1035 11892
1035 11892
1035 11892
1035 11892
1035 11892
1035 11892
1035 11892
1035 11892
1035 11892
1035 11892
1035 11892
1035 11892
1035 11892
1035 11892
1035 11892
1421 154
1421 154
1421 155
1421 192
1421 197
1421 212
1421 233
1421 266
1421 425
1421 431
1421 431
1421 569
1421 622
1421 720
1421 869
1421 1017
1421 1150
1421 1231
1421 1380
1421 1513
1421 1814
1421 1883
1421 1947
1421 2632
1421 3440
1421 3616
1421 4064
1421 4832
1421 5260
1421 5785
1421 6226
1421 6730
1421 7146
1421 7289
1421 7333
1421 9959
1421 10195
1421 11253
1421 14458
1421 14459
1421 14459
1421 14460
1421 14462
1421 14462
1421 14462
1421 14464
1421 14465
1585 51
1585 51
1585 51
1585 51
1585 64
1585 67
1585 69
1585 69
1585 69
1585 180
1585 227
1585 227
1585 230
1585 253
1585 253
1585 253
1585 285
1585 291
1585 295
1585 301
1585 333
1585 333
1585 333
1585 434
1585 511
1585 511
1585 534
1585 562
1585 706
1585 706
1585 857
1585 885
1585 885
1585 987
1585 987
1585 993
1585 993
1585 999
1585 999
1585 999
1585 1015
1585 1017
1585 1475
1585 1475
1585 1795
1585 1795
1585 1820
1585 1883
1585 1883
1585 2226
1585 2469
1585 2469
1585 2899
1585 2932
1585 3104
1585 3104
1585 3230
1585 3302
1585 3302
1585 3374
1585 3489
1585 3489
1585 3992
1585 3992
1585 4130
1585 4180
1585 4432
1585 4620
1585 4620
1585 4759
1585 5072
1585 5550
1585 5550
1585 6308
1585 6308
1585 8178
1585 8991
1585 8991
1585 8991
1585 9421
1585 12044
1585 12044
1585 13126
1585 13900
1585 13900
1585 15449
1585 17490
1621 10
1621 13
1621 19
1621 1256
1621 1270
1621 4871
1621 6871
1623 820
1623 820
1623 820
1623 820
1623 939
1623 939
1623 939
1623 939
1623 944
1623 944
1623 944
1623 944
1623 1113
1623 1113
1623 1113
1623 1113
1623 1134
1623 1134
1623 1134
1623 1134
1623 1214
1623 1214
1623 1214
1623 1214
1623 1996
1623 1996
1623 1996
1623 1996
1623 1998
1623 1998
1623 1998
1623 1998
1623 2005
1623 2005
1623 2005
1623 2005
1623 2974
1623 2974
1623 2974
1623 2974
1623 3723
1623 3723
1623 3723
1623 3723
1623 3788
1623 3788
1623 3788
1623 3788
1623 4610
1623 4610
1623 4610
1623 4610
1623 4613
1623 4613
1623 4613
1623 4613
1623 4670
1623 4670
1623 4670
1623 4670
1623 4671
1623 4671
1623 4671
1623 4671
1623 4678
1623 4678
1623 4678
1623 4678
1623 4681
1623 4681
1623 4681
1623 4681
1623 4787
1623 4787
1623 4787
1623 4787
1623 8333
1623 8333
1623 8333
1623 8333
1623 8690
1623 8690
1623 8690
1623 8690
1623 9453
1623 9453
1623 9453
1623 9453
1623 11516
1623 11516
1623 11516
1623 11516
1623 14002
1623 14002
1623 14002
1623 14002
1623 16637
1623 16637
1623 16637
1623 16637
1981 65
1981 65
1981 65
1981 65
1981 154
1981 154
1981 154
1981 182
1981 190
1981 221
1981 235
1981 268
1981 463
1981 697
1981 909
1981 1106
1981 1377
1981 1377
1981 1377
1981 1377
1981 1377
1981 1377
1981 1377
1981 1377
1981 1377
1981 1377
1981 1385
1981 1385
1981 1385
1981 1424
1981 1556
1981 2614
1981 4762
1981 5555
1981 5555
1981 5555
1981 5555
1981 5555
1981 5555
1981 5555
1981 6852
1981 6852
1981 6852
1981 6852
1981 6852
1981 6852
1981 6852
1981 7274
1981 7274
1981 7274
1981 8043
1981 8043
1981 8043
1981 8043
1981 8043
1981 8592
1981 9959
1981 9959
1981 10118
1981 10118
1981 10118
1981 10961
1981 10961
1981 11024
1981 11910
1981 14184
1032 227
1032 227
1032 227
1032 227
1032 227
1032 562
1032 562
1032 562
1032 565
1032 565
1032 565
1032 565
1032 569
1032 569
1032 569
1032 569
1032 572
1032 572
1032 572
1032 572
1032 572
1032 572
1032 576
1032 576
1032 576
1032 576
1032 580
1032 580
1032 580
1032 580
1032 581
1032 581
1032 581
1032 581
1032 583
1032 583
1032 583
1032 583
1032 583
1032 583
1032 584
1032 584
1032 584
1032 585
1032 585
1032 585
1032 585
1032 585
1032 585
1032 585
1032 585
1032 599
1032 599
1032 599
1032 599
1032 630
1032 630
1032 728
1032 728
1032 728
1032 728
1032 728
1032 730
1032 730
1032 730
1032 735
1032 735
1032 735
1032 750
1032 750
1032 750
1032 750
1032 863
1032 863
1032 863
1032 863
1032 868
1032 868
1032 868
1032 868
1032 1412
1032 1412
1032 1412
1032 1412
1032 1427
1032 1427
1032 1427
1032 1427
1032 1639
1032 1639
1032 1639
1032 1639
1032 1639
1032 1639
1032 2842
1032 2842
1032 2842
1032 2842
1032 2842
1032 2842
1032 3620
1032 3620
1032 3620
1032 3620
1032 3620
1032 3620
1032 3776
1032 3776
1032 3778
1032 3778
1032 3778
1032 3778
1032 3778
1032 4541
1032 5660
1032 5660
1032 5660
1032 5660
1032 7056
1032 7056
1032 7056
1032 7056
1032 8108
1032 8108
1032 8108
1032 8108
1032 8108
1032 8110
1032 8110
1032 8111
1032 8111
1032 8111
1032 8111
1032 8111
1032 8122
1032 8122
1032 8122
1032 8122
1032 11917
1032 11917
1032 11917
1032 15301
1032 15301
1032 15301
1032 15301
1585 51
1585 51
1585 56
1585 56
1585 56
1585 56
1585 56
1585 56
1585 59
1585 67
1585 67
1585 67
1585 72
1585 72
1585 72
1585 77
1585 77
1585 77
1585 77
1585 234
1585 257
1585 265
1585 265
1585 265
1585 292
1585 292
1585 316
1585 333
1585 389
1585 389
1585 459
1585 465
1585 488
1585 599
1585 701
1585 715
1585 730
1585 733
1585 913
1585 951
1585 959
1585 959
1585 986
1585 996
1585 1014
1585 1090
1585 1090
1585 1099
1585 1116
1585 1225
1585 1244
1585 1464
1585 1513
1585 2050
1585 2050
1585 2183
1585 2183
1585 2554
1585 2554
1585 2558
1585 2565
1585 2625
1585 2742
1585 3427
1585 3466
1585 3466
1585 3482
1585 3482
1585 3482
1585 3675
1585 3761
1585 3764
1585 3889
1585 3889
1585 3982
1585 4037
1585 4363
1585 4363
1585 4785
1585 5045
1585 5045
1585 5045
1585 5045
1585 6069
1585 6130
1585 6504
1585 6504
1585 6698
1585 7151
1585 8991
1585 9366
1585 9467
1585 9579
1585 11063
1585 11063
1585 11063
1585 11070
1585 11395
1585 12044
1585 12565
1585 12570
1585 13158
1585 13372
1585 13372
1585 16723
1708 51
1708 51
1708 51
1708 51
1708 51
1708 51
1708 51
1708 51
1708 51
1708 51
1708 51
1708 51
1708 51
1708 59
1708 59
1708 59
1708 59
1708 59
1708 59
1708 59
1708 59
1708 59
1708 59
1708 59
1708 59
1708 59
1708 70
1708 70
1708 70
1708 70
1708 70
1708 70
1708 70
1708 70
1708 70
1708 70
1708 70
1708 70
1708 70
1708 155
1708 155
1708 155
1708 155
1708 155
1708 155
1708 155
1708 155
1708 155
1708 155
1708 155
1708 155
1708 155
1708 172
1708 172
1708 172
1708 172
1708 172
1708 172
1708 172
1708 172
1708 172
1708 172
1708 172
1708 172
1708 172
1708 217
1708 217
1708 217
1708 217
1708 217
1708 217
1708 217
1708 217
1708 217
1708 217
1708 217
1708 217
1708 217
1708 225
1708 225
1708 225
1708 225
1708 225
1708 225
1708 225
1708 225
1708 225
1708 225
1708 225
1708 225
1708 225
1708 227
1708 227
1708 227
1708 227
1708 227
1708 227
1708 227
1708 227
1708 227
1708 227
1708 227
1708 227
1708 227
1708 235
1708 235
1708 235
1708 235
1708 235
1708 235
1708 235
1708 235
1708 235
1708 235
1708 235
1708 235
1708 235
1708 355
1708 355
1708 355
1708 355
1708 355
1708 355
1708 355
1708 355
1708 355
1708 355
1708 355
1708 355
1708 355
1708 426
1708 426
1708 426
1708 426
1708 426
1708 426
1708 426
1708 426
1708 426
1708 426
1708 426
1708 426
1708 426
1708 429
1708 429
1708 429
1708 429
1708 429
1708 429
1708 429
1708 429
1708 429
1708 429
1708 429
1708 429
1708 429
1708 511
1708 511
1708 511
1708 511
1708 511
1708 511
1708 511
1708 511
1708 511
1708 511
1708 511
1708 511
1708 511
1708 534
1708 534
1708 534
1708 534
1708 534
1708 534
1708 534
1708 534
1708 534
1708 534
1708 534
1708 534
1708 534
1708 683
1708 683
1708 683
1708 683
1708 683
1708 683
1708 683
1708 683
1708 683
1708 683
1708 683
1708 683
1708 683
1708 709
1708 709
1708 709
1708 709
1708 709
1708 709
1708 709
1708 709
1708 709
1708 709
1708 709
1708 709
1708 709
1708 718
1708 718
1708 718
1708 718
1708 718
1708 718
1708 718
1708 718
1708 718
1708 718
1708 718
1708 718
1708 718
1708 858
1708 858
1708 858
1708 858
1708 858
1708 858
1708 858
1708 858
1708 858
1708 858
1708 858
1708 858
1708 858
1708 1202
1708 1202
1708 1202
1708 1202
1708 1202
1708 1202
1708 1202
1708 1202
1708 1202
1708 1202
1708 1202
1708 1202
1708 1202
1708 1510
1708 1510
1708 1510
1708 1510
1708 1510
1708 1510
1708 1510
1708 1510
1708 1510
1708 1510
1708 1510
1708 1510
1708 1510
1708 1824
1708 1824
1708 1824
1708 1824
1708 1824
1708 1824
1708 1824
1708 1824
1708 1824
1708 1824
1708 1824
1708 1824
1708 1824
1708 2346
1708 2346
1708 2346
1708 2346
1708 2346
1708 2346
1708 2346
1708 2346
1708 2346
1708 2346
1708 2346
1708 2346
1708 2346
1708 4153
1708 4153
1708 4153
1708 4153
1708 4153
1708 4153
1708 4153
1708 4153
1708 4153
1708 4153
1708 4153
1708 4153
1708 4153
1708 4435
1708 4435
1708 4435
1708 4435
1708 4435
1708 4435
1708 4435
1708 4435
1708 4435
1708 4435
1708 4435
1708 4435
1708 4435
1708 5553
1708 5553
1708 5553
1708 5553
1708 5553
1708 5553
1708 5553
1708 5553
1708 5553
1708 5553
1708 5553
1708 5553
1708 5553
1708 6789
1708 6789
1708 6789
1708 6789
1708 6789
1708 6789
1708 6789
1708 6789
1708 6789
1708 6789
1708 6789
1708 6789
1708 6789
1708 7076
1708 7076
1708 7076
1708 7076
1708 7076
1708 7076
1708 7076
1708 7076
1708 7076
1708 7076
1708 7076
1708 7076
1708 7076
1708 7194
1708 7194
1708 7194
1708 7194
1708 7194
1708 7194
1708 7194
1708 7194
1708 7194
1708 7194
1708 7194
1708 7194
1708 7194
1708 10657
1708 10657
1708 10657
1708 10657
1708 10657
1708 10657
1708 10657
1708 10657
1708 10657
1708 10657
1708 10657
1708 10657
1708 10657
1708 15771
1708 15771
1708 15771
1708 15771
1708 15771
1708 15771
1708 15771
1708 15771
1708 15771
1708 15771
1708 15771
1708 15771
1708 15771
1708 16340
1708 16340
1708 16340
1708 16340
1708 16340
1708 16340
1708 16340
1708 16340
1708 16340
1708 16340
1708 16340
1708 16340
1708 16340
1708 18655
1708 18655
1708 18655
1708 18655
1708 18655
1708 18655
1708 18655
1708 18655
1708 18655
1708 18655
1708 18655
1708 18655
1708 18655
1929 5175
1981 65
1981 190
1981 2544
1981 2544
1981 2544
1981 3104
1981 3753
1981 7187
1981 7187
1981 11910
1981 12303
34 1146
34 1146
34 1154
34 1166
204 549
204 3737
204 3737
204 3737
204 4183
204 4183
204 4183
224 2480
224 2480
224 2480
224 2480
224 2480
224 5918
224 5918
224 6833
224 6833
224 7144
224 7144
224 7144
224 7144
224 8831
224 8831
224 8831
224 15125
224 15125
224 17044
224 18295
359 2856
359 4180
359 5159
359 8743
418 229
418 374
418 984
418 1105
418 1105
418 1947
418 2632
418 3057
418 3258
418 3341
418 3748
418 6680
418 12214
418 14315
430 72
430 72
430 72
935 2
935 2
935 19
978 152
978 188
978 751
978 751
978 920
978 924
978 928
978 930
978 936
978 937
978 942
978 944
978 1113
978 1132
978 1169
978 1263
978 1263
978 1338
978 1339
978 1342
978 1349
978 1374
978 1993
978 1994
978 1995
978 1998
978 2006
978 2009
978 3417
978 3417
978 3779
978 4267
978 4285
978 4285
978 4335
978 4610
978 4613
978 4668
978 4670
978 4681
978 4691
978 4691
978 4949
978 4949
978 7052
978 7052
978 7100
978 7100
978 7100
978 7713
978 7899
978 9530
978 9530
978 10585
978 10675
978 15302
1016 6687
1016 6687
1016 6687
1083 209
1083 209
1195 236
1280 8656
1280 13634
1421 215
1421 428
1421 14457
1421 14470
1421 14470
1431 794
1431 2044
1579 159
1579 199
1579 199
1579 199
1579 211
1579 211
1579 211
1579 211
1579 217
1579 217
1579 225
1579 225
1579 225
1579 226
1579 403
1579 403
1579 433
1579 433
1579 433
1579 433
1579 433
1579 434
1579 434
1579 618
1579 618
1579 1103
1579 1103
1579 1103
1579 1888
1579 1888
1579 1957
1579 1957
1579 1957
1579 2440
1579 3258
1579 3258
1579 3258
1579 3258
1579 3744
1579 4827
1579 5027
1579 5249
1579 5249
1579 5549
1579 5549
1585 53
1585 54
1585 54
1585 65
1585 67
1585 67
1585 161
1585 722
1585 1001
1585 1076
1585 2183
1585 2183
1585 2535
1585 3466
1585 3481
1585 4118
1585 4118
1585 4118
1585 4130
1708 1146
1708 1146
1708 1146
1708 1146
1708 1146
1708 6302
1708 6302
1708 7126
1708 7126
1904 1150
1904 2265
1904 2625
1904 11974
1929 27
1929 55
1929 59
1929 63
1929 65
1929 72
1929 75
1929 152
1929 159
1929 163
1929 172
1929 227
1929 233
1929 245
1929 302
1929 375
1929 396
1929 436
1929 441
1929 515
1929 562
1929 607
1929 701
1929 706
1929 717
1929 724
1929 724
1929 787
1929 788
1929 794
1929 875
1929 900
1929 910
1929 917
1929 920
1929 922
1929 922
1929 959
1929 965
1929 997
1929 998
1929 1014
1929 1027
1929 1071
1929 1073
1929 1110
1929 1213
1929 1230
1929 1233
1929 1249
1929 1249
1929 1343
1929 1343
1929 1358
1929 1369
1929 1369
1929 1381
1929 1412
1929 1413
1929 1425
1929 1464
1929 1468
1929 1513
1929 1534
1929 1707
1929 1707
1929 1716
1929 1804
1929 1810
1929 1892
1929 2003
1929 2013
1929 2030
1929 2031
1929 2227
1929 2227
1929 2236
1929 2236
1929 2247
1929 2247
1929 2251
1929 2342
1929 2342
1929 2347
1929 2444
1929 2463
1929 2469
1929 2472
1929 2477
1929 2531
1929 2531
1929 2569
1929 2698
1929 2698
1929 2792
1929 3269
1929 3438
1929 3451
1929 3481
1929 4124
1929 4183
1929 4620
1929 4784
1929 4920
1929 5020
1929 5254
1929 6324
1929 6324
1929 6452
1929 6776
1929 7156
1929 7347
1929 7871
1929 8042
1929 9093
1929 9322
1929 9598
1929 9738
1929 9821
1929 9821
1929 9919
1929 10174
1929 10222
1929 10662
1929 10662
1929 11219
1929 12228
1929 12228
1929 12733
1929 12733
1929 12742
1929 13604
1929 17331
1929 17616
1929 18142
1981 1151
1981 2051
1981 2051
1981 2051
1981 2404
1981 2404
1981 2572
1981 3493
1981 4731
1981 13748
224 212
224 212
224 630
224 630
224 630
224 1372
224 1372
224 1372
224 1412
224 1412
224 1412
224 1412
224 1414
224 1414
224 1639
224 1639
224 1639
224 2853
224 2853
224 2853
224 4792
224 4792
224 5159
224 5159
224 7411
224 17702
224 17702
694 5260
694 5260
694 9858
1086 51
1086 53
1086 67
1086 82
1086 96
1086 154
1086 182
1086 187
1086 193
1086 204
1086 215
1086 227
1086 229
1086 257
1086 265
1086 289
1086 292
1086 306
1086 310
1086 316
1086 349
1086 355
1086 356
1086 366
1086 429
1086 465
1086 525
1086 562
1086 569
1086 602
1086 615
1086 618
1086 683
1086 730
1086 733
1086 735
1086 786
1086 868
1086 889
1086 891
1086 909
1086 945
1086 959
1086 961
1086 985
1086 986
1086 991
1086 993
1086 1001
1086 1076
1086 1098
1086 1122
1086 1242
1086 1244
1086 1412
1086 1415
1086 1505
1086 1519
1086 1639
1086 1687
1086 1824
1086 1892
1086 2027
1086 2183
1086 2436
1086 2437
1086 2442
1086 2454
1086 2463
1086 2467
1086 2546
1086 2571
1086 2627
1086 2834
1086 2840
1086 2893
1086 3110
1086 3458
1086 3466
1086 3482
1086 3489
1086 3585
1086 3589
1086 3603
1086 3605
1086 3749
1086 4114
1086 4130
1086 4369
1086 4616
1086 4898
1086 5255
1086 5264
1086 5452
1086 5767
1086 6602
1086 6714
1086 7274
1086 7318
1086 7321
1086 7533
1086 8311
1086 8314
1086 8555
1086 8743
1086 9079
1086 9084
1086 9470
1086 10183
1086 10668
1086 10677
1086 12194
1086 12214
1086 12215
1086 13422
1086 14329
1086 15391
1086 15403
1086 15481
1086 16952
1108 6190
1108 8878
1108 12358
1108 12361
1108 12361
1579 417
1579 417
1579 422
1579 422
1579 424
1579 424
1579 424
1579 486
1579 533
1579 533
1579 533
1579 1116
1579 1116
1579 1381
1579 1381
1579 1381
1579 1394
1579 1394
1579 1520
1579 1520
1579 1520
1579 1779
1579 1779
1579 4742
1579 4742
1579 4742
1579 5416
1579 5416
1579 8707
1579 8707
1579 8707
1579 8708
1579 8708
1579 8708
1579 8710
1579 8710
1579 8710
1579 8713
1579 8713
1579 9230
1579 9230
1579 9230
1579 14846
1579 14846
1579 14846
1585 257
1585 316
1585 730
1585 730
1585 730
1585 1000
1585 1016
1585 1795
1585 1795
1585 2500
1585 2934
1585 2934
1585 9255
1708 3299
1708 15839
1904 46
1904 204
1904 355
1904 609
1904 715
1904 1112
1904 1117
1904 1121
1904 1123
1904 1130
1904 1139
1904 1175
1904 1491
1904 1708
1904 2265
1904 2625
1904 3613
1904 5982
1904 7119
1904 7404
1904 8066
1904 8133
1904 8234
1904 9271
1904 9470
1904 9539
1904 10225
1904 12194
1904 12276
1904 13065
1904 13365
1904 13910
1904 15038
1904 16068
1904 16333
1904 17490
1904 17493
1904 17494
1904 17496
1904 17766
1981 511
1981 3866
1981 3866
1981 3866
1981 7725
1981 7725
1981 7725
1981 7725
1981 11253
1981 17894
