24 153 21468454
24 91 21860418
130 165 21905754
135 168 21906281
58 73 20674625
73 45 20768034
73 58 21279632
163 164 19992443
163 123 13157393
163 147 5132770
163 75 18277005
134 145 15320714
68 167 20584281
65 78 20865963
137 82 20160083
137 52 20633602
23 156 21892015
91 24 21913449
91 153 21758403
127 137 20242091
40 30 30620
40 2 14175913
40 142 15934916
40 24 15506939
7 80 20854920
56 135 21930108
68 146 20870931
35 52 21896462
164 163 19485292
147 163 15345181
140 7 19573433
140 155 19573433
140 36 19573433
140 27 19573433
140 156 19573433
140 126 19573433
140 80 19573433
140 46 19573433
140 69 19573433
140 51 19573433
140 152 19573433
140 44 19573433
140 11 19573433
140 71 19573433
86 130 21823757
165 137 20103342
165 52 21901364
165 5 21901364
165 14 21921508
165 60 19028990
165 127 21110170
165 35 21901364
165 130 21901364
111 56 21804080
57 65 19502051
150 37 1854226
37 150 8756932
117 37 21724963
37 117 21726392
57 24 15149539
27 7 20613792
27 46 21377381
27 36 21135302
27 11 19571059
27 71 21292833
27 12 40142
33 130 21385425
7 27 20854972
137 165 20595123
154 66 20774397
146 97 19577139
171 169 21888229
171 144 17843346
2 142 20082928
63 65 21322876
71 27 21283830
66 154 21288059
58 37 21877318
55 117 650006
55 45 650006
55 73 650006
55 58 650006
55 150 650006
55 99 650006
142 2 21725851
46 27 19385963
171 119 21821838
135 56 21905703
168 135 21885850
91 63 20813995
91 76 16622457
76 91 7191486
24 142 21742678
24 157 16024532
127 35 12574558
157 24 16008445
157 63 21741345
10 91 21291067
10 24 21898014
63 153 21894252
97 65 20874294
24 10 21855069
153 63 21934642
142 24 21928039
35 127 15929392
141 39 17579576
78 65 15434402
65 97 21307305
82 137 20153318
82 104 20153318
82 47 20153318
82 3 20599604
127 165 19903036
137 127 19037412
46 71 14134767
137 39 20595123
64 130 21905715
3 82 20864717
3 14 21818364
3 165 21818364
3 130 21818364
71 46 17675105
146 157 20760172
9 168 21889743
9 56 21333464
9 89 20692061
24 2 21748249
94 167 3366038
2 24 21746667
39 127 15176736
2 40 19405776
39 82 21712178
39 47 18189496
39 3 20593695
127 39 15251408
66 52 21710915
63 91 21479392
39 137 21713463
39 165 21813746
165 39 21901364
141 137 17579576
141 104 17579576
141 47 17579576
153 24 21377155
80 156 19998867
80 23 21892344
157 146 20762971
45 73 21817356
86 165 21885479
169 171 21907090
56 111 21827297
167 43 20578862
167 65 18950575
56 9 21335402
56 89 21740683
86 82 20526773
56 168 21930108
91 2 21853700
45 150 19128589
165 86 21554191
63 43 20608212
52 137 17134620
47 137 19920977
47 104 21738765
33 137 4550693
167 68 21804050
167 146 21804050
157 97 18438908
7 140 19569446
73 37 19573142
122 163 19142484
51 80 21903974
130 64 21900574
163 122 18794659
66 33 19040354
80 51 21327197
150 73 20595520
144 169 5214854
146 68 21713696
146 167 21713696
47 165 312505
111 89 19590881
24 63 21647956
33 82 20519234
33 66 20782106
33 5 20519234
33 154 19040186
47 3 19920977
45 55 372120
86 35 21102660
156 7 19660641
153 91 21377155
153 94 20635592
77 7 20700063
63 106 21894252
104 86 21718476
104 35 21889499
145 171 20588755
156 140 19660641
156 126 19652241
156 80 20864367
156 155 19660641
156 46 19981902
156 23 20870256
156 36 19660641
156 51 19660641
156 27 19660641
156 152 19981902
156 44 19660641
156 11 19660641
156 71 19660641
37 73 21839913
146 63 21371471
111 85 18865239
155 80 20847851
155 27 21289384
164 123 19656366
35 72 20761573
60 86 21713318
5 86 20596133
82 86 21793599
39 141 19046693
39 86 21713463
56 85 21144745
24 40 17138790
142 91 21928039
24 59 21658437
24 94 21658437
24 78 21658437
24 57 14660614
72 86 21709129
72 35 21709129
2 18 10837715
146 24 21798313
66 137 629309
66 86 21710915
60 92 4534334
130 86 21826813
47 86 21728065
3 86 21711855
66 127 1775857
64 14 644314
27 156 645541
92 86 21739458
154 52 21712608
154 86 21712608
137 86 20635872
33 86 21385425
55 37 2121664
65 43 21303383
35 86 21716256
14 165 21920274
23 126 21892015
23 7 21892015
23 46 21892015
23 152 21892015
23 44 21892015
2 91 21898823
43 65 21909093
43 63 20080076
43 167 19567326
44 23 21894459
127 66 10222005
147 75 20704534
23 49 720390
153 146 19047805
171 28 21821838
171 145 21821838
171 147 17924259
7 156 20510184
7 126 15407262
7 155 810621
7 46 810621
7 23 17655154
7 36 20844806
7 51 16015655
7 152 13698414
7 44 13164171
7 11 20855020
7 71 810621
78 146 21831849
23 80 21892015
85 56 19910122
142 40 17149693
3 35 21729879
56 121 21159695
86 137 20600039
86 3 21285653
64 137 17915687
76 146 17912934
146 142 21194257
75 147 20768849
45 37 21817356
68 97 21299490
65 167 20529032
142 146 21743858
5 33 14555132
122 147 15691196
37 45 21839913
35 104 21823638
146 91 20704049
3 137 20760417
3 104 21197380
3 47 20760417
3 39 21818364
144 171 5214854
57 146 21808869
57 63 18988964
63 146 21290478
63 57 18442420
63 118 13104862
63 68 21295367
30 24 21912401
40 10 13207490
80 27 18457051
68 63 21908203
127 154 14121062
46 69 891395
137 141 20160083
10 157 21897395
10 40 21847773
157 10 21891464
39 130 21813746
28 147 21380523
86 52 21823697
24 30 21668140
2 30 21205819
91 142 21853570
32 151 1998961
86 5 21823803
86 14 20858207
86 60 19897040
86 127 21211404
36 140 10302769
165 82 21901364
82 127 1949772
127 82 1948630
47 82 19920977
47 39 21301228
51 27 20000912
155 7 19397236
57 91 18988964
82 39 20499793
94 153 21252489
137 104 20160083
137 47 20160083
140 93 8065512
137 3 20160083
63 24 21890222
82 33 20153318
86 79 15251965
10 142 21412956
76 65 18349851
63 76 21488552
63 167 21489313
65 76 20865963
168 56 21898899
63 94 21395438
142 10 21927117
153 40 21161479
24 65 19793989
156 162 1317752
82 141 20679943
146 76 17845112
27 80 20861928
164 122 19485323
154 127 20086073
46 152 19554178
137 64 17915744
130 33 11166416
153 68 4446709
153 76 10480817
153 167 21363226
68 153 4454384
91 30 21913449
94 63 21252489
123 164 21711602
123 163 4007972
123 122 1335109
28 75 21380523
168 9 21737543
97 146 20876401
30 91 21912401
122 28 20605052
94 157 21897487
130 52 21731889
130 60 17824416
46 156 1407785
2 10 15163828
76 97 16535528
76 63 21143735
167 153 20507417
68 76 1421827
76 153 17825498
82 154 19895702
169 144 7280364
63 157 21473116
157 94 21916929
24 146 21827587
65 24 17761663
155 44 21898030
28 134 21380523
28 164 21380523
28 0 21380523
28 123 21380523
141 86 20594806
141 125 20761760
141 35 1497172
40 153 20696659
152 44 18952270
63 113 20532356
73 150 20592984
94 24 20597578
122 164 15424058
94 43 21912030
94 57 20640106
24 43 21859636
142 63 20615925
65 148 21305851
75 164 1756649
148 65 20686759
5 165 17317651
63 2 21297110
63 142 19908046
28 119 20689857
151 65 19493267
151 91 19493235
151 43 19493262
151 76 19493485
151 24 19493515
151 63 19493244
121 56 19345283
68 113 1837030
45 117 20087583
117 45 20087681
171 123 21821838
123 171 7298297
132 111 15782698
141 64 10243807
144 122 5214854
122 144 4963820
52 86 20004725
52 66 14218592
119 28 19475859
28 144 8168638
28 163 21380523
28 122 21380523
14 52 20614839
14 5 20614840
14 60 16030286
5 137 15674329
44 155 15674691
82 165 21887990
52 60 15679777
52 154 17154667
27 155 18867483
155 36 19397236
165 104 15082493
165 141 21901364
28 70 20268322
28 171 21380523
28 161 21380523
28 114 21380523
28 128 13687377
35 39 21366071
39 92 14563011
92 39 4454708
76 78 21367690
97 43 19471669
43 97 19490304
91 10 20897722
36 46 2111590
7 12 5468389
65 63 21279300
80 7 20703541
91 59 20530098
168 89 18271798
71 155 20074366
165 3 21901364
150 45 18515545
28 145 21299468
114 28 12823668
63 97 20608363
122 75 14029412
94 2 2394838
64 82 18268735
64 104 8684496
64 141 9883913
64 47 2439385
64 3 2439385
64 39 2439385
71 36 6863572
35 82 7481010
35 137 2442611
35 141 2442611
35 14 2442611
35 60 2442611
35 3 2442611
35 165 20518881
35 130 21737010
78 76 21810488
37 105 8078585
60 52 12225571
43 57 21906475
57 43 21457810
24 167 19877845
91 167 2546481
150 58 20252868
130 35 21801844
82 52 18883151
58 45 21282712
45 58 21282522
167 59 2620180
148 97 21285301
148 43 21904645
148 146 18185279
148 63 19413063
148 167 19653689
3 52 21818364
167 148 19660299
167 91 2623123
119 147 21276674
44 80 21292927
18 153 2627773
80 44 21716581
91 146 21912304
127 86 20525105
152 27 18361055
146 94 19897245
57 68 17070113
94 91 21290662
94 10 20372318
99 105 9958142
46 23 21822356
119 75 17308175
147 119 21288283
43 91 21825884
57 94 21459076
92 154 21716016
164 28 19485158
33 138 3828349
91 43 20599116
37 99 20246317
152 155 19553296
146 65 20682729
9 87 20690157
146 43 21800486
99 37 18453553
57 153 18637319
36 155 3131436
169 147 15400980
147 169 15345181
155 156 19397236
155 140 19397236
155 126 19397236
155 12 19397236
155 46 19397236
155 93 19397236
155 23 21723190
155 51 19397236
155 152 19397236
155 11 19397236
155 136 19397236
155 71 19397236
127 52 20094882
65 106 21296891
30 2 16643000
119 123 18427003
87 56 21910108
91 106 16530826
87 168 21907511
134 28 16106882
94 65 20637693
102 58 3650675
23 136 5659434
130 82 21729408
73 117 20168871
73 55 5227194
52 3 21915470
130 14 17315430
126 155 13775087
87 9 19654347
111 88 3832787
126 80 3758429
117 73 21714262
89 111 3796527
52 82 17134620
123 134 14130735
123 147 7552815
134 70 15319284
78 68 16013341
82 130 21299307
68 78 19395085
76 68 3842239
23 155 21892015
23 51 21892015
97 63 20608653
87 135 21907511
87 85 18363327
97 76 16534666
137 130 12928886
147 164 20261434
164 147 20262873
146 30 21383657
30 146 21383299
92 72 4454708
92 82 4454708
92 64 4454708
92 137 13177724
92 52 16019243
92 104 4454708
92 115 4454708
92 66 20848089
92 5 4454708
92 141 4454708
92 47 14803801
92 6 4454708
92 14 4454708
92 60 19403786
92 127 4454708
92 3 14115203
92 138 4454708
92 35 4454708
92 33 4454708
92 165 17656415
154 137 4008554
123 28 19971785
58 150 20849256
65 68 20698238
66 115 4263859
71 140 4267501
43 24 21885737
91 57 18989565
43 148 15669347
76 106 5143842
2 63 21283875
43 153 19993524
135 9 21906281
97 10 18264826
9 135 20700522
27 51 19922452
75 119 20077695
154 92 20774397
3 92 4521943
33 92 4455405
82 92 4455495
47 92 4455696
165 92 4455889
72 92 4456085
127 92 4459238
40 91 13989832
115 52 19279373
115 66 4511581
14 92 4523883
33 14 14555633
137 92 4529218
134 119 20888211
75 98 4603016
52 92 4607985
82 64 17929909
171 70 21821838
171 134 21821838
171 164 21821838
171 163 21821838
171 159 4625765
171 122 21821838
171 161 21821838
171 25 4625765
171 114 21821838
171 75 21821838
171 128 4625765
75 171 19402820
146 57 21740673
163 98 4862851
0 134 21804609
80 155 21738747
97 113 19057749
97 148 20874795
10 65 4889356
52 165 19477988
126 71 5488914
122 169 14029412
122 134 17831122
122 171 14029412
122 119 15856706
122 123 17077769
122 145 14029412
130 127 19656926
65 94 21307225
65 57 19984592
132 89 19405653
3 66 20760417
60 165 12567714
94 76 21874447
91 94 20672467
82 6 5032307
71 126 5489253
111 132 18521051
134 123 15319284
11 140 14475408
163 144 5132770
80 152 20252509
144 163 5214854
47 66 20699452
66 47 5063014
46 155 19126897
94 146 21898212
163 169 5132770
163 134 5211772
163 171 5484588
163 119 19403961
163 28 14727386
163 145 5132770
123 119 18431436
44 156 20596657
144 70 5214854
144 134 5214854
144 164 5214854
144 159 5214854
144 119 5214854
144 161 5214854
144 0 5214854
144 98 5214854
144 123 5214854
144 28 8413463
144 147 5214854
144 114 5214854
144 145 5214854
144 75 5214854
144 128 5214854
127 14 7822106
44 7 13164978
137 5 5244866
58 117 20153196
76 157 20521042
85 111 19048432
85 89 5487644
164 134 19485237
141 130 21911156
157 76 20520417
111 135 15779503
60 130 15949095
135 111 19985664
99 45 15846552
99 73 5640472
99 58 5640473
99 117 5640473
117 99 5640915
66 133 5643737
33 133 5644238
153 10 21295001
68 43 19504256
154 82 12464826
58 99 5652162
142 157 15943292
157 142 15840856
23 140 9719024
39 104 18189496
39 35 21888050
56 87 21930108
140 23 9719229
43 157 18354725
43 76 20079801
2 148 6614817
43 68 19507501
0 164 6704612
24 76 21512801
52 35 21896451
14 86 21920031
76 24 21708022
146 10 19060172
10 146 19996625
57 2 6891693
57 142 14800035
40 146 7156946
24 97 21860418
130 141 21879522
123 75 7204589
52 127 20253390
57 76 21372659
14 127 7219507
97 24 13976044
3 141 21818364
117 58 20153100
135 89 19555857
73 61 21117076
82 35 12996911
37 58 19999513
111 9 7301334
153 142 11730791
78 24 15672008
146 2 17666246
68 166 7377484
165 64 7379048
64 165 7385703
86 64 7384623
64 86 7385703
153 43 7392500
46 80 7394291
97 68 16620453
97 167 15157640
43 106 21900925
157 68 7550944
68 157 7551240
57 106 14800035
141 127 21202376
5 39 9723526
127 141 18515226
23 12 7807584
23 36 21892015
23 27 21892015
23 11 21892015
23 71 21896820
11 23 21906030
148 157 20597947
111 103 20791706
103 111 20769004
47 72 14125718
86 39 17822422
97 78 16548979
78 97 21806999
126 12 20514632
132 103 18193317
132 85 7913368
39 52 21813746
127 104 18432236
103 132 18883642
15 10 11188829
52 115 19130332
76 113 8061025
103 87 21884879
14 3 21147922
56 103 20807426
157 148 21220701
10 15 17673544
75 28 21816512
64 138 8407892
51 126 8410363
87 89 12817802
14 130 20697551
164 145 18867268
91 40 21758403
145 164 20588755
141 60 8501890
111 87 20784321
80 140 12829446
9 132 16031352
9 103 20690157
43 146 19040574
119 164 18790844
126 23 16954821
146 153 21887855
91 157 21675887
103 9 21884879
27 140 16986023
157 91 21135550
148 170 21112985
56 132 21145607
10 153 21293764
146 148 21720838
44 152 18951831
170 148 15790449
126 156 9013165
126 46 9013165
126 152 20245168
126 44 9013165
141 165 20096136
146 78 15928329
86 92 21824099
126 7 15407874
132 56 16038211
164 119 18860648
152 23 13506371
86 141 11024456
167 97 15157210
157 65 21713553
39 5 17928546
103 56 21884879
65 157 21210377
61 58 21278668
36 7 20842157
61 73 19907199
61 117 19907199
170 65 21888911
75 134 15140015
167 63 21107933
18 2 9624270
18 24 9624270
119 122 14722610
64 83 21906555
5 64 16982770
24 18 21512592
127 33 9641103
10 94 13689668
10 63 20631399
65 91 17761663
45 99 9790543
5 60 15674329
134 169 15319284
134 164 15319284
134 163 15319284
134 171 15319284
134 122 15319284
134 161 15319284
134 0 21886269
134 98 21809965
134 147 15319284
134 114 15319284
134 75 15319284
134 144 15319284
150 117 19039036
117 150 16960353
63 59 20531626
10 118 9989085
43 78 10223179
97 94 10328960
66 92 21288059
94 97 21247925
167 24 20088263
127 3 18270229
78 157 10483442
97 157 18274727
157 78 10414211
103 168 21884879
142 153 21311651
153 65 19383283
43 10 19980591
152 156 13506371
24 124 21829418
152 46 13506371
141 14 10587248
14 82 20614839
47 141 19140745
87 132 18430756
148 68 20850532
147 28 20704897
94 78 18951745
44 126 11007697
153 2 11730791
98 164 11092866
167 94 11107362
65 153 20869122
43 94 21900614
10 43 19985898
10 167 19978713
103 89 16978197
91 113 20418835
170 157 11618347
72 165 11632651
2 153 11711290
142 124 20082838
167 157 19046864
157 167 14201730
135 87 21906281
47 125 21738765
65 170 21269511
127 130 11798665
5 82 16982803
5 47 16982739
5 3 20872439
5 130 21313196
7 162 11804246
124 24 21918736
122 98 14029412
98 134 21813465
63 78 19645044
63 10 21475717
10 59 11959489
82 83 20679897
91 97 12500294
91 65 19640616
24 54 21855386
2 124 20082359
3 154 20760418
154 3 12233255
27 152 21196877
43 170 21909093
97 91 12294512
28 98 21380523
76 94 21708327
3 64 20760417
148 57 15952318
57 148 16141914
76 170 14194052
91 124 20673752
91 54 21912304
124 142 20553294
124 2 14236372
124 40 12738108
121 85 12522848
121 89 20063749
23 69 12523644
33 64 12548726
130 13 14121178
154 60 12567982
124 91 21731001
124 59 12568340
54 30 21762632
54 124 20802824
54 91 21913667
54 2 21662663
54 142 20691389
54 24 21905075
54 40 14847556
2 54 14034101
142 54 21232523
170 43 21909846
170 76 13810487
124 54 18198679
148 91 13181673
167 10 19398341
146 15 18283090
24 15 21074411
91 148 13171211
157 57 21916724
146 124 21911229
148 30 12926064
148 124 12926064
54 59 12940999
146 59 12986552
146 54 16984156
36 27 21296407
54 146 20642921
30 54 21741366
52 130 19138815
157 166 17224493
82 60 13158268
91 15 13118730
10 97 19474973
60 82 13156364
103 85 21906743
78 170 21310629
114 119 13165035
170 78 21373696
148 76 13181673
142 15 17149693
164 70 13189564
142 30 21118156
15 142 13348551
152 7 13698338
152 126 20244135
5 83 13515689
155 69 13518393
56 67 13721302
66 60 13525933
97 170 13539309
170 97 20698907
124 30 21397772
153 106 21934642
30 124 21458126
122 161 14029412
122 0 14029412
122 114 14029412
75 122 14030720
119 134 20849604
135 103 21906281
103 135 21891299
157 74 18452079
2 167 21283875
74 157 18452462
130 5 21402279
104 82 20508758
87 111 14203524
2 15 17652196
9 111 14207905
165 47 15082493
124 146 21903119
52 14 14475532
39 72 14563011
39 64 14563011
39 66 15417602
39 33 14563011
74 24 18872501
104 3 17063871
24 74 14564046
74 63 21277664
63 74 21280763
142 76 14637459
121 168 19344931
33 104 14652076
24 106 21748403
0 28 14732555
76 43 20082425
77 44 14736204
97 110 14738533
11 80 14739876
80 11 14744526
142 43 14763046
145 28 21114441
57 10 14800035
167 2 14819663
30 142 21144618
33 3 20070768
130 3 21823986
104 52 15174895
51 7 16015829
52 39 20308366
147 70 21717367
147 134 15345181
147 171 17827136
147 122 15345181
147 161 15345181
147 0 15345181
147 98 15345181
147 123 20261434
147 114 15345181
147 145 20239146
147 144 15345181
145 147 20588755
114 147 15407118
39 154 15417602
142 59 15606864
5 52 15674329
5 14 15674329
5 127 15674329
5 35 15674329
157 43 18452079
74 91 20000567
91 74 18989565
35 92 16016087
75 163 16019251
2 59 17843962
94 59 16615186
161 164 16626864
70 145 16967706
68 65 16977229
5 141 16982785
72 104 17057555
11 155 17057806
52 64 17134620
52 104 17134620
52 141 17134620
52 47 17134620
68 148 20023908
145 169 20588755
145 70 20588755
145 163 20588755
145 119 20588755
145 122 20588755
145 161 20588755
145 0 20588755
145 123 20588755
168 85 17158886
30 10 21382498
57 74 20183096
78 94 18952912
63 148 18786998
130 39 21214473
56 1 20197397
57 157 21891673
54 63 17339720
63 54 17483951
124 10 17513042
98 75 17558301
78 63 19633899
50 97 17758600
2 65 17761198
65 2 17761791
87 103 19394969
64 66 17841017
82 66 19895702
168 132 17932232
168 87 21899508
10 30 21412832
132 87 18193317
132 9 18193317
72 47 18193797
72 3 18530291
63 110 18264047
168 121 21909726
170 63 18272456
119 171 21378631
15 146 18282961
3 33 20760418
157 107 18881037
107 157 18864406
137 83 18434226
119 70 18427003
119 0 18427003
135 132 18429137
85 87 18431645
85 135 19048432
0 119 18433946
127 47 18438672
167 107 21217411
70 119 18880773
107 10 19413279
10 107 19671104
72 52 18780980
74 57 20182699
160 56 18873200
56 160 18900409
135 85 19038332
43 113 19044249
33 47 20519234
104 39 19142161
124 15 19164666
10 68 20698222
0 144 19380883
137 35 19383404
137 154 19380970
171 0 21821838
168 103 21737543
68 124 19395085
119 163 19397745
107 167 21209700
15 124 19422714
167 78 19472654
10 78 19474973
107 63 21130608
15 24 20853576
141 5 21911156
63 107 21322112
107 68 19914365
68 107 21303173
74 43 21712676
56 88 19942633
75 145 19991676
74 107 19991943
43 74 20092848
70 171 20003392
71 80 20072463
46 11 20167884
70 134 20245139
107 74 21394608
11 12 20251556
91 18 21892492
78 148 20695315
3 5 21818364
145 75 20597356
86 72 20607519
14 141 20614840
14 39 20614840
44 11 20756050
58 61 20676418
148 78 20695930
14 47 21402364
68 10 20700227
77 23 20701061
89 56 20721917
3 72 20760417
3 6 20760417
3 60 20760417
3 127 20760418
3 138 20760418
11 44 20769119
111 168 20784321
130 47 20850733
47 14 21390601
47 130 20860557
11 7 20866778
74 146 21113861
44 27 21135594
86 66 21290242
36 12 21298165
57 97 21372715
54 10 21733275
10 54 21741351
66 3 21795342
84 44 21821693
24 107 21828043
85 103 21904233
