24 153 11034652
24 91 11396844
130 165 10320880
135 168 6610402
58 73 10578778
73 45 9791819
73 58 10580786
163 164 10582653
163 123 5132770
163 147 5132770
163 75 7565766
134 145 9795198
68 167 11012246
65 78 10936869
137 82 9631881
137 52 7457091
23 156 11100323
91 24 11396956
91 153 11396956
127 137 9900113
40 30 30620
40 2 11031466
40 142 11396348
40 24 11395934
7 80 10833426
56 135 10574338
68 146 10486897
35 52 10485673
164 163 10312426
147 163 32844
140 7 11171509
140 155 11171509
140 36 11171509
140 27 11171509
140 156 11171509
140 126 11171509
140 80 11171509
140 46 11171509
140 69 11171509
140 51 11171509
140 152 11171509
140 44 11171509
140 11 11171509
140 71 11171509
86 130 10485164
165 137 10828203
165 52 11106493
165 5 10997028
165 14 7367988
165 60 10997028
165 127 10826231
165 35 7367988
165 130 10997028
111 56 10944505
57 65 9134978
150 37 1854226
37 150 8756932
117 37 11007137
37 117 11008455
57 24 9963372
27 7 9722964
27 46 10835974
27 36 9722964
27 11 9722964
27 71 10845006
27 12 40142
33 130 11095301
7 27 9728383
137 165 10933381
154 66 11015596
146 97 11368987
171 169 9882059
171 144 5651560
2 142 11218287
63 65 11023931
71 27 10017841
66 154 11106611
58 37 11014022
55 117 650006
55 45 650006
55 73 650006
55 58 650006
55 150 650006
55 99 650006
142 2 11217269
46 27 6698162
171 119 8506453
135 56 9785561
168 135 1775938
91 63 11396956
91 76 6876513
76 91 7191486
24 142 11396385
24 157 9834701
127 35 9181572
157 24 9814415
157 63 11258197
10 91 10332694
10 24 10332694
63 153 11392365
97 65 10921679
24 10 11384366
153 63 11170236
142 24 11377131
35 127 7818993
141 39 7885793
78 65 11094631
65 97 11109235
82 137 10240262
82 104 10240262
82 47 10240262
82 3 11090754
127 165 11181590
137 127 9025591
46 71 7389197
137 39 9631881
64 130 10327256
3 82 10831084
3 14 808212
3 165 808212
3 130 808212
71 46 8430200
146 157 10413023
9 168 11113126
9 56 11192264
9 89 9371901
24 2 11396463
94 167 3366038
2 24 10840256
39 127 4633831
2 40 11035486
39 82 10828976
39 47 10828976
39 3 10828976
127 39 7805008
66 52 11087881
63 91 11388485
39 137 11029459
39 165 10823890
165 39 10768574
141 137 7885793
141 104 7885793
141 47 7885793
153 24 11259291
80 156 10595599
80 23 11165085
157 146 10570543
45 73 11012899
86 165 11171956
169 171 9910431
56 111 11115218
167 43 11107362
167 65 10847807
56 9 10957106
56 89 11115223
86 82 7281848
56 168 9887007
91 2 10962624
45 150 10410207
165 86 11174575
63 43 11023931
52 137 7458640
47 137 5041726
47 104 5041726
33 137 4550693
167 68 10412720
167 146 11003258
157 97 10400424
7 140 11193096
73 37 10403702
122 163 10835745
51 80 4431984
130 64 10402252
163 122 10478010
66 33 10223188
80 51 3167266
150 73 307694
144 169 5214854
146 68 10850934
146 167 9983735
47 165 312505
111 89 11108787
24 63 11034652
33 82 11101362
33 66 11089051
33 5 11102355
33 154 7552849
47 3 10936341
45 55 372120
86 35 11091500
156 7 9279404
153 91 11259291
153 94 10846049
77 7 3938390
63 106 10940444
104 86 11109460
104 35 11109460
145 171 10927190
156 140 8683982
156 126 10571253
156 80 10501686
156 155 5146604
156 46 10571253
156 23 11090261
156 36 384159
156 51 384159
156 27 384159
156 152 10571253
156 44 10571253
156 11 384159
156 71 384159
37 73 11015090
146 63 10939589
111 85 10487190
155 80 11095073
155 27 11009144
164 123 11286673
35 72 8836645
60 86 11095311
5 86 11092649
82 86 11087809
39 141 10404144
39 86 11029459
56 85 11205720
24 40 10540588
142 91 11016949
24 59 11384366
24 94 11396519
24 78 11384366
24 57 8969721
72 86 11076695
72 35 11076695
2 18 10837715
146 24 10330921
66 137 629309
66 86 11087881
60 92 4534334
130 86 11081547
47 86 11088370
3 86 11098206
66 127 1775857
64 14 644314
27 156 645541
92 86 11006247
154 52 11099276
154 86 11099276
137 86 11088934
33 86 11014629
55 37 2121664
65 43 10932702
35 86 11095020
14 165 8431335
23 126 10227670
23 7 10227670
23 46 10227670
23 152 10227670
23 44 10932941
2 91 10432318
43 65 11110043
43 63 11177237
43 167 11177237
44 23 10936100
127 66 10222005
147 75 10243745
23 49 720390
153 146 8769436
171 28 10502779
171 145 8506180
171 147 7463579
7 156 10585010
7 126 9024794
7 155 810621
7 46 810621
7 23 810621
7 36 9372839
7 51 810621
7 152 810621
7 44 810621
7 11 810621
7 71 810621
78 146 9020839
23 80 10921360
85 56 11183220
142 40 11351115
3 35 9791947
56 121 10391856
86 137 8149192
86 3 10928434
64 137 2439385
76 146 8162277
146 142 7374246
75 147 10320711
45 37 11012899
68 97 11012246
65 167 5581053
142 146 8172227
5 33 7460814
122 147 4963820
37 45 11015090
35 104 10577667
146 91 11107689
3 137 10831084
3 104 10831084
3 47 10831084
3 39 10831084
144 171 5214854
57 146 10314554
57 63 10314554
63 146 11382837
63 57 9976358
63 118 11023845
63 68 11391992
30 24 10649974
40 10 11200402
80 27 10837013
68 63 11012019
127 154 10222005
46 69 891395
137 141 10489053
10 157 1355773
10 40 11199400
157 10 5222751
39 130 11029459
28 147 11003155
86 52 9802846
24 30 10767524
2 30 10481107
91 142 10998581
32 151 1998961
86 5 2368974
86 14 10928434
86 60 2368974
86 127 10312103
36 140 10302769
165 82 1154889
82 127 1949772
127 82 1948630
47 82 6944739
47 39 4798122
51 27 9819284
155 7 4863654
57 91 7383745
82 39 10240262
94 153 11040686
137 104 10489053
137 47 10489053
140 93 8065512
137 3 9631881
63 24 11388485
82 33 10240262
86 79 2548286
10 142 5042260
76 65 11095357
63 76 9974548
63 167 7571736
65 76 10930902
168 56 1781235
63 94 11388275
142 10 7304407
153 40 11208038
24 65 11034652
156 162 1317752
82 141 1321843
146 76 10330921
27 80 10837374
164 122 9898303
154 127 2968400
46 152 11172996
137 64 7214252
130 33 11166416
153 68 4446709
153 76 10480817
153 167 4363324
68 153 4454384
91 30 1327854
94 63 11107658
123 164 9974364
123 163 4007972
123 122 1335109
28 75 10830621
168 9 1775938
97 146 11196735
30 91 1347261
122 28 9892931
94 157 10489553
130 52 10822147
130 60 10822147
46 156 1407785
2 10 1412854
76 97 8423260
76 63 10831756
167 153 1421724
68 76 1421827
76 153 3842239
82 154 1430062
169 144 7280364
63 157 11376881
157 94 10399075
24 146 10484713
65 24 9755091
155 44 9382113
28 134 10830621
28 164 10830621
28 0 10830621
28 123 11189447
141 86 9698002
141 125 1855341
141 35 1497172
40 153 11395657
152 44 9101393
63 113 9885804
73 150 10582273
94 24 11396610
122 164 9880507
94 43 3366038
94 57 5231105
24 43 10234387
142 63 6634479
65 148 11106836
75 164 1756649
148 65 11182961
5 165 11197519
63 2 7231835
63 142 9782927
28 119 8516301
151 65 1785954
151 91 1785922
151 43 1785949
151 76 1786170
151 24 1786200
151 63 1785931
121 56 10389595
68 113 1837030
45 117 1844683
117 45 1845550
171 123 4625765
123 171 7298297
132 111 9029373
141 64 10243807
144 122 5214854
122 144 4963820
52 86 6854203
52 66 11014289
119 28 10915709
28 144 8168638
28 163 10830621
28 122 10844332
14 52 1942641
14 5 9201709
14 60 1942641
5 137 1942907
44 155 9179593
82 165 3048145
52 60 11104293
52 154 11014289
27 155 11185868
155 36 4863654
165 104 2026140
165 141 10997028
28 70 3241075
28 171 10916283
28 161 11001203
28 114 10830621
28 128 10830621
35 39 2442611
39 92 4017276
92 39 4454708
76 78 8423260
97 43 2036043
43 97 7468479
91 10 4709046
36 46 2111590
7 12 5468389
65 63 10504683
80 7 2451569
91 59 11195200
168 89 2296463
71 155 7544298
165 3 7313974
150 45 8074476
28 145 11003155
114 28 10493621
63 97 9305804
122 75 7889443
94 2 2394838
64 82 3757307
64 104 8684496
64 141 9883913
64 47 2439385
64 3 2439385
64 39 2439385
71 36 6863572
35 82 7481010
35 137 2442611
35 141 2442611
35 14 2442611
35 60 2442611
35 3 2442611
35 165 8781114
35 130 2442611
78 76 11207466
37 105 8078585
60 52 7399431
43 57 4268470
57 43 4275017
24 167 10503337
91 167 2546481
150 58 9788350
130 35 2548497
82 52 11013294
58 45 10240882
45 58 10321466
167 59 2620180
148 97 9026531
148 43 10942483
148 146 8771458
148 63 2621096
148 167 2623223
3 52 10310932
167 148 2623004
167 91 2623123
119 147 3829413
44 80 11167681
18 153 2627773
80 44 11203528
91 146 11090312
127 86 9359359
152 27 4621614
146 94 10851821
57 68 2642205
94 91 5185295
94 10 10417024
99 105 9958142
46 23 9020677
119 75 9977935
147 119 5138845
43 91 4434489
57 94 11088628
92 154 4960281
164 28 5222725
33 138 3828349
91 43 2975809
37 99 9190738
152 155 10322614
146 65 11107531
9 87 11113126
146 43 11368987
99 37 5640467
57 153 7383745
36 155 3131436
169 147 3139825
147 169 3141023
155 156 4863654
155 140 4863654
155 126 4863654
155 12 4863654
155 46 8682750
155 93 4863654
155 23 4863654
155 51 4863654
155 152 10330411
155 11 4863654
155 136 4863654
155 71 8421237
127 52 10223187
65 106 10928729
30 2 8971985
119 123 8593613
87 56 10840706
91 106 10402259
87 168 3854424
134 28 9795198
94 65 5232596
102 58 3650675
23 136 5659434
130 82 11182537
73 117 9901497
73 55 5227194
52 3 9189764
130 14 3671519
126 155 3673498
87 9 10446420
111 88 3832787
126 80 3758429
117 73 10828150
89 111 3796527
52 82 7458640
123 134 3829836
123 147 7552815
134 70 9795198
78 68 11092650
82 130 8407435
68 78 11092887
76 68 3842239
23 155 7807584
23 51 7807584
97 63 4872588
87 135 3853503
87 85 6705331
97 76 3856034
137 130 3912289
147 164 3918354
164 147 3927735
146 30 3999568
30 146 3951011
92 72 4454708
92 82 4454708
92 64 4454708
92 137 4454708
92 52 11192028
92 104 4454708
92 115 4454708
92 66 4454708
92 5 4454708
92 141 4454708
92 47 4454708
92 6 4454708
92 14 4454708
92 60 4454708
92 127 4454708
92 3 4454708
92 138 4454708
92 35 4454708
92 33 4454708
92 165 4454708
154 137 4008554
123 28 4248459
58 150 11097672
65 68 7472225
66 115 4263859
71 140 4267501
43 24 10220024
91 57 4274546
43 148 9899060
76 106 5143842
2 63 4383814
43 153 7214726
135 9 6610402
97 10 10511449
9 135 4439936
27 51 4440777
75 119 9979082
154 92 4948088
3 92 4521943
33 92 4455405
82 92 4455495
47 92 4455696
165 92 4455889
72 92 4456085
127 92 4459238
40 91 10248649
115 52 8394614
115 66 4511581
14 92 4523883
33 14 9873661
137 92 4529218
134 119 10852253
75 98 4603016
52 92 4607985
82 64 4610296
171 70 4625765
171 134 4625765
171 164 4625765
171 163 4625765
171 159 4625765
171 122 4625765
171 161 4625765
171 25 4625765
171 114 4625765
171 75 4625765
171 128 4625765
75 171 4629283
146 57 10330921
163 98 4862851
0 134 4868742
80 155 8595585
97 113 10318586
97 148 9026259
10 65 4889356
52 165 8783440
126 71 5488914
122 169 7389405
122 134 5211885
122 171 4963820
122 119 10856021
122 123 4963820
122 145 4963820
130 127 7804917
65 94 5231479
65 57 8669466
132 89 4969423
3 66 4970150
60 165 8418078
94 76 5185295
91 94 9387796
82 6 5032307
71 126 5489253
111 132 5037442
134 123 9795198
11 140 6946508
163 144 5132770
80 152 5058949
144 163 5214854
47 66 5060812
66 47 5063014
46 155 7205193
94 146 10922126
163 169 5132770
163 134 5211772
163 171 5484588
163 119 5132770
163 28 5132770
163 145 5132770
123 119 10915510
44 156 10315639
144 70 5214854
144 134 5214854
144 164 5214854
144 159 5214854
144 119 5214854
144 161 5214854
144 0 5214854
144 98 5214854
144 123 5214854
144 28 8413463
144 147 5214854
144 114 5214854
144 145 5214854
144 75 5214854
144 128 5214854
127 14 7822106
44 7 5222072
137 5 5244866
58 117 10831989
76 157 9265122
85 111 10419781
85 89 5487644
164 134 5479456
141 130 9705043
157 76 9207426
111 135 7298342
60 130 5587408
135 111 5638146
99 45 11178219
99 73 5640472
99 58 5640473
99 117 5640473
117 99 5640915
66 133 5643737
33 133 5644238
153 10 10481305
68 43 10489057
154 82 5650990
58 99 5652162
142 157 5742535
157 142 6857102
23 140 9719024
39 104 10828976
39 35 5766101
56 87 10878433
140 23 9719229
43 157 6776856
43 76 6614581
2 148 6614817
43 68 10313633
0 164 6704612
24 76 6869800
52 35 11088889
14 86 8431335
76 24 6869534
146 10 6874194
10 146 6879559
57 2 6891693
57 142 6891693
40 146 7156946
24 97 10434355
130 141 7197162
123 75 7204589
52 127 10223534
57 76 8418245
14 127 7219507
97 24 10399647
3 141 10831084
117 58 7373666
135 89 7283356
73 61 7292018
82 35 7476581
37 58 9185021
111 9 7301334
153 142 11089912
78 24 7368890
146 2 7374246
68 166 7377484
165 64 7379048
64 165 7385703
86 64 7384623
64 86 7385703
153 43 7392500
46 80 7394291
97 68 11012494
97 167 11196564
43 106 8588888
157 68 7550944
68 157 7551240
57 106 7583868
141 127 7800300
5 39 9723526
127 141 11181590
23 12 7807584
23 36 7807584
23 27 7807584
23 11 7807584
23 71 7807584
11 23 7809391
148 157 7813295
111 103 9981962
103 111 11102338
47 72 7885458
86 39 7900590
97 78 10309686
78 97 9638319
126 12 7910242
132 103 7913331
132 85 7913368
39 52 8678326
127 104 7972391
103 132 8674489
15 10 11188829
52 115 7999117
76 113 8061025
103 87 11192753
14 3 8159156
56 103 11192408
157 148 8499665
10 15 8186397
75 28 8406783
64 138 8407892
51 126 8410363
87 89 10831278
14 130 8418793
164 145 8422414
91 40 9897287
145 164 8493097
141 60 8501890
111 87 8523614
80 140 8572489
9 132 9707459
9 103 11197420
43 146 8588232
119 164 8589715
126 23 9013165
146 153 9115392
91 157 8610440
103 9 11196935
27 140 8679076
157 91 8673422
148 170 8759766
56 132 9030003
10 153 10332694
146 148 11368987
44 152 8773084
170 148 8791568
126 156 9013165
126 46 9013165
126 152 9013165
126 44 9013165
141 165 9013706
146 78 9026104
86 92 9023906
126 7 9026373
132 56 9028349
164 119 9056799
152 23 9101259
86 141 11024456
167 97 11198197
157 65 9273340
39 5 9721905
103 56 11192753
65 157 9359126
61 58 9369533
36 7 9374026
61 73 9369533
61 117 9369533
170 65 10826547
75 134 9618601
167 63 11107362
18 2 9624270
18 24 9624270
119 122 10405322
64 83 9626970
5 64 9628029
24 18 9629069
127 33 9641103
10 94 11189323
10 63 11189323
65 91 9755091
45 99 9790543
5 60 9792178
134 169 9795198
134 164 9795198
134 163 9795198
134 171 9795198
134 122 9795198
134 161 9795198
134 0 9795198
134 98 9795198
134 147 9795198
134 114 11185264
134 75 9795198
134 144 9795198
150 117 9965109
117 150 9966696
63 59 9973375
10 118 9989085
43 78 10223179
97 94 10328960
66 92 10232517
94 97 10607235
167 24 10251405
127 3 10308523
78 157 10483442
97 157 10400779
157 78 10414211
103 168 11192753
142 153 10443696
153 65 10962614
43 10 10487677
152 156 10500283
24 124 10511150
152 46 10574470
141 14 10587248
14 82 10594059
47 141 10825616
87 132 10838239
148 68 10918503
147 28 10924595
94 78 10973375
44 126 11007697
153 2 11089912
98 164 11092866
167 94 11107362
65 153 11107899
43 94 11177237
10 43 11189323
10 167 11189323
103 89 11196043
