24 153 33437190
24 91 33395582
130 165 33211773
135 168 33211541
58 73 32872342
73 45 33306973
73 58 32871941
163 164 32176715
163 123 32176715
163 147 33287653
163 75 31577080
134 145 29321017
68 167 32779166
65 78 26816504
137 82 33290716
137 52 33290716
23 156 33395173
91 24 33493303
91 153 33407383
127 137 20242091
40 30 30620
40 2 27784262
40 142 15934916
40 24 31684015
7 80 33317736
56 135 33499146
68 146 32779166
35 52 32794844
164 163 32097685
147 163 33284496
140 7 19573433
140 155 19573433
140 36 19573433
140 27 19573433
140 156 19573433
140 126 19573433
140 80 19573433
140 46 19573433
140 69 19573433
140 51 19573433
140 152 19573433
140 44 19573433
140 11 19573433
140 71 19573433
86 130 33465068
165 137 33479486
165 52 33479486
165 5 33479486
165 14 32083080
165 60 33484772
165 127 33484772
165 35 33479486
165 130 33479486
111 56 32691819
57 65 32953205
150 37 32431186
37 150 32431508
117 37 31830494
37 117 32179718
57 24 32089839
27 7 25685498
27 46 32858034
27 36 30957435
27 11 32439572
27 71 32439572
27 12 40142
33 130 32876459
7 27 30011870
137 165 33402452
154 66 33460211
146 97 33473948
171 169 32861364
171 144 17843346
2 142 29789646
63 65 33492413
71 27 33479281
66 154 33226438
58 37 21877318
55 117 33469299
55 45 33392686
55 73 33392686
55 58 33392686
55 150 33392686
55 99 31492450
142 2 29975184
46 27 32682544
171 119 29228385
135 56 33206298
168 135 32342731
91 63 33489983
91 76 31575164
76 91 7191486
24 142 33393727
24 157 32376830
127 35 23888357
157 24 32376690
157 63 33312402
10 91 32795861
10 24 33473772
63 153 33498299
97 65 31244654
24 10 33441583
153 63 33218083
142 24 32838606
35 127 23886427
141 39 29744307
78 65 26815104
65 97 32882999
82 137 32163555
82 104 33387435
82 47 20153318
82 3 32774285
127 165 33201641
137 127 32172669
46 71 33398369
137 39 32797471
64 130 33463368
3 82 33482156
3 14 30984175
3 165 32970678
3 130 31491113
71 46 33459210
146 157 33375532
9 168 32433041
9 56 32004060
9 89 33309195
24 2 31871436
94 167 32748082
2 24 29789649
39 127 30276607
2 40 28112282
39 82 33382501
39 47 33382501
39 3 33382501
127 39 23888357
66 52 33215372
63 91 33496475
39 137 33382501
39 165 31756577
165 39 33479486
141 137 29744307
141 104 29744307
141 47 29744307
153 24 33421134
80 156 32092374
80 23 33305722
157 146 33379695
45 73 33476088
86 165 33475578
169 171 33317440
56 111 33492002
167 43 33217320
167 65 33492644
56 9 31869789
56 89 33306794
86 82 33377228
56 168 33490977
91 2 33486390
45 150 33387433
165 86 33479486
63 43 33491700
52 137 22666265
47 137 33473999
47 104 33473999
33 137 32271654
167 68 33215747
167 146 33215747
157 97 30353179
7 140 19569446
73 37 32339003
122 163 33294642
51 80 27247426
130 64 33220938
163 122 32949663
66 33 32443900
80 51 27248363
150 73 32872450
144 169 5214854
146 68 33463295
146 167 33463295
47 165 33206792
111 89 26897615
24 63 33150184
33 82 33312064
33 66 33284496
33 5 33308827
33 154 32773690
47 3 33477137
45 55 33394580
86 35 33388106
156 7 25517249
153 91 33408929
153 94 33258979
77 7 31557991
63 106 33494200
104 86 32098557
104 35 32281412
145 171 33218534
156 140 19660641
156 126 30441899
156 80 33483929
156 155 25517249
156 46 33373161
156 23 33387966
156 36 19660641
156 51 25517249
156 27 25517249
156 152 33373161
156 44 33387966
156 11 30624320
156 71 25517249
37 73 33205364
146 63 32428905
111 85 32691819
155 80 32189996
155 27 32182222
164 123 32442963
35 72 33315228
60 86 32086081
5 86 33397687
82 86 32172677
39 141 33478465
39 86 32166394
56 85 33406963
24 40 33437190
142 91 33409277
24 59 27491933
24 94 25091870
24 78 33223543
24 57 31615704
72 86 32092902
72 35 32092902
2 18 10837715
146 24 33462794
66 137 629309
66 86 32105265
60 92 4534334
130 86 33484789
47 86 32104463
3 86 33480586
66 127 1775857
64 14 644314
27 156 645541
92 86 32252464
154 52 33304215
154 86 32087530
137 86 32171228
33 86 32866659
55 37 33392686
65 43 32088824
35 86 33392077
14 165 30991781
23 126 29659087
23 7 29316372
23 46 29316372
23 152 29316372
23 44 33296558
2 91 28376757
43 65 33009155
43 63 32416914
43 167 33009155
44 23 33300126
127 66 10222005
147 75 33284496
23 49 33455762
153 146 29159354
171 28 32441000
171 145 33372910
171 147 32768432
7 156 27943700
7 126 27943700
7 155 32712014
7 46 27943700
7 23 29321056
7 36 27943700
7 51 31220458
7 152 27943700
7 44 32970927
7 11 32695530
7 71 28729894
78 146 32950433
23 80 33298092
85 56 33467277
142 40 30121461
3 35 33480586
56 121 33490922
86 137 33213105
86 3 32957744
64 137 33390085
76 146 28466132
146 142 28395349
75 147 25692290
45 37 33463182
68 97 31563903
65 167 32174098
142 146 30753950
5 33 31836203
122 147 24304294
37 45 33462905
35 104 33315228
146 91 33402617
3 137 33480586
3 104 33482156
3 47 33482156
3 39 33482156
144 171 5214854
57 146 33312734
57 63 33321892
63 146 33498730
63 57 33486784
63 118 32452041
63 68 32442312
30 24 33487507
40 10 28373399
80 27 31564032
68 63 32444362
127 154 14121062
46 69 891395
137 141 32797471
10 157 32884142
10 40 30691120
157 10 32883362
39 130 32166394
28 147 33487316
86 52 33213105
24 30 33405803
2 30 28896762
91 142 33409059
32 151 1998961
86 5 33397126
86 14 33213105
86 60 33213105
86 127 33303462
36 140 10302769
165 82 32855522
82 127 1949772
127 82 32693961
47 82 31758667
47 39 31758667
51 27 31740074
155 7 32182222
57 91 32343789
82 39 32188939
94 153 33082397
137 104 32797471
137 47 32797471
140 93 8065512
137 3 33293945
63 24 33492648
82 33 32430362
86 79 15251965
10 142 23099704
76 65 32358697
63 76 33473621
63 167 33487833
65 76 27515388
168 56 33416699
63 94 32439313
142 10 23100830
153 40 31689121
24 65 32291188
156 162 1317752
82 141 27429489
146 76 30464300
27 80 33399390
164 122 19485323
154 127 20086073
46 152 30019371
137 64 17915744
130 33 33227051
153 68 4446709
153 76 10480817
153 167 32439063
68 153 4454384
91 30 33487983
94 63 32702171
123 164 33364771
123 163 31648517
123 122 1335109
28 75 33487316
168 9 31666370
97 146 33481892
30 91 33472659
122 28 33379377
94 157 33221884
130 52 33380465
130 60 17824416
46 156 23874175
2 10 22710121
76 97 29154722
76 63 33375702
167 153 33206966
68 76 28548610
76 153 17825498
82 154 27254717
169 144 7280364
63 157 33492413
157 94 33491322
24 146 33421714
65 24 28721473
155 44 33396478
28 134 33487316
28 164 33487316
28 0 33487316
28 123 33487316
141 86 20594806
141 125 20761760
141 35 1497172
40 153 31686000
152 44 30529821
63 113 20532356
73 150 32871941
94 24 30362659
122 164 32772587
94 43 21912030
94 57 33159762
24 43 32291188
142 63 20615925
65 148 32702013
75 164 1756649
148 65 32698050
5 165 17317651
63 2 27323140
63 142 19908046
28 119 29832752
151 65 19493267
151 91 19493235
151 43 19493262
151 76 19493485
151 24 19493515
151 63 19493244
121 56 33343116
68 113 1837030
45 117 33387433
117 45 29583172
171 123 28363119
123 171 7298297
132 111 32953773
141 64 10243807
144 122 5214854
122 144 4963820
52 86 33479081
52 66 33484265
119 28 32080580
28 144 8168638
28 163 33487316
28 122 33487316
14 52 28571820
14 5 20614840
14 60 16030286
5 137 33386539
44 155 22172804
82 165 32773731
52 60 32867666
52 154 33304268
27 155 29690069
155 36 32182222
165 104 28046946
165 141 33484772
28 70 33487316
28 171 33487316
28 161 33487316
28 114 32430782
28 128 13687377
35 39 26302014
39 92 26659819
92 39 26634895
76 78 33463690
97 43 23634108
43 97 23648263
91 10 32773057
36 46 2111590
7 12 27943700
65 63 32703752
80 7 33288340
91 59 20530098
168 89 24828241
71 155 22409481
165 3 29656330
150 45 32252433
28 145 32340434
114 28 12823668
63 97 33492413
122 75 14029412
94 2 2394838
64 82 32785566
64 104 33301786
64 141 9883913
64 47 32168107
64 3 2439385
64 39 2439385
71 36 27763152
35 82 26302014
35 137 22748246
35 141 2442611
35 14 2442611
35 60 2442611
35 3 2442611
35 165 23888338
35 130 32172770
78 76 32949809
37 105 8078585
60 52 12225571
43 57 21906475
57 43 32349404
24 167 30613775
91 167 32776197
150 58 33382047
130 35 32078441
82 52 29743980
58 45 29583050
45 58 33387433
167 59 2620180
148 97 30612149
148 43 31649050
148 146 28987873
148 63 25631179
148 167 33216436
3 52 33475025
167 148 27955504
167 91 32432930
119 147 32947134
44 80 23276065
18 153 2627773
80 44 31835730
91 146 33402336
127 86 33481815
152 27 22065036
146 94 32427028
57 68 17070113
94 91 33150114
94 10 32751916
99 105 9958142
46 23 30349941
119 75 17308175
147 119 33284496
43 91 23737240
57 94 32952074
92 154 33218053
164 28 28493179
33 138 3828349
91 43 33489983
37 99 20246317
152 155 19553296
146 65 32278009
9 87 33295622
146 43 21800486
99 37 18453553
57 153 18637319
36 155 28704923
169 147 15400980
147 169 33284496
155 156 32182222
155 140 32182222
155 126 32182222
155 12 32182222
155 46 32182222
155 93 32182222
155 23 32795423
155 51 32182222
155 152 32182222
155 11 32182222
155 136 32182222
155 71 32182222
127 52 29234542
65 106 26050395
30 2 32716226
119 123 32866137
87 56 33491188
91 106 28566179
87 168 28540483
134 28 22583531
94 65 28383688
102 58 3650675
23 136 29316372
130 82 28111461
73 117 33373490
73 55 30531460
52 3 32356889
130 14 30288712
126 155 22070603
87 9 33401831
111 88 3832787
126 80 3758429
117 73 31046504
89 111 3796527
52 82 26562221
123 134 14130735
123 147 7552815
134 70 22583531
78 68 32429241
82 130 27526771
68 78 19395085
76 68 28547233
23 155 30282745
23 51 28117145
97 63 33481557
87 135 29323564
87 85 31157125
97 76 29144870
137 130 31472514
147 164 33284496
164 147 23010814
146 30 31665738
30 146 32701269
92 72 26986284
92 82 27249820
92 64 26634895
92 137 30871521
92 52 26634895
92 104 30612402
92 115 26634895
92 66 32869487
92 5 26634895
92 141 26634895
92 47 26634895
92 6 26634895
92 14 26634895
92 60 29318334
92 127 26634895
92 3 26634895
92 138 26634895
92 35 26634895
92 33 32338477
92 165 26634895
154 137 32869419
123 28 19971785
58 150 33382801
65 68 20698238
66 115 4263859
71 140 4267501
43 24 23737240
91 57 31838539
43 148 31601607
76 106 5143842
2 63 21283875
43 153 23737240
135 9 33211541
97 10 26121768
9 135 32950250
27 51 31740844
75 119 31143157
154 92 33460211
3 92 4521943
33 92 32338634
82 92 27247467
47 92 4455696
165 92 4455889
72 92 27237303
127 92 4459238
40 91 31684015
115 52 33448972
115 66 4511581
14 92 4523883
33 14 22438560
137 92 4529218
134 119 32265729
75 98 4603016
52 92 4607985
82 64 32785886
171 70 30021086
171 134 33302846
171 164 30021086
171 163 30021086
171 159 4625765
171 122 33225823
171 161 21821838
171 25 4625765
171 114 21821838
171 75 21821838
171 128 4625765
75 171 27600447
146 57 30612804
163 98 32095985
0 134 32436441
80 155 32352651
97 113 19057749
97 148 29231067
10 65 31234210
52 165 30554507
126 71 5488914
122 169 32772587
122 134 17831122
122 171 33382373
122 119 32867608
122 123 32772587
122 145 32772587
130 127 33219744
65 94 28099437
65 57 33467210
132 89 24422028
3 66 20760417
60 165 12567714
94 76 21874447
91 94 33117083
82 6 5032307
71 126 5489253
111 132 32876947
134 123 22583531
11 140 14475408
163 144 5132770
80 152 20252509
144 163 5214854
47 66 20699452
66 47 5063014
46 155 31658951
94 146 33092225
163 169 28473504
163 134 28473504
163 171 28473504
163 119 29756481
163 28 31489625
163 145 28473504
123 119 18431436
44 156 27262257
144 70 5214854
144 134 5214854
144 164 5214854
144 159 5214854
144 119 5214854
144 161 5214854
144 0 5214854
144 98 5214854
144 123 5214854
144 28 8413463
144 147 5214854
144 114 5214854
144 145 5214854
144 75 5214854
144 128 5214854
127 14 7822106
44 7 30011883
137 5 5244866
58 117 31047544
76 157 30454480
85 111 31233273
85 89 5487644
164 134 30441727
141 130 31474744
157 76 30621731
111 135 32968102
60 130 15949095
135 111 32976240
99 45 15846552
99 73 5640472
99 58 5640473
99 117 5640473
117 99 5640915
66 133 5643737
33 133 5644238
153 10 33344336
68 43 22420284
154 82 32961582
58 99 5652162
142 157 15943292
157 142 15840856
23 140 9719024
39 104 33382501
39 35 27429939
56 87 33492015
140 23 9719229
43 157 23391787
43 76 22675042
2 148 6614817
43 68 19507501
0 164 6704612
24 76 21512801
52 35 32949937
14 86 21920031
76 24 21708022
146 10 31665862
10 146 31667021
57 2 6891693
57 142 30357110
40 146 7156946
24 97 29076288
130 141 28553837
123 75 7204589
52 127 23787296
57 76 32343595
14 127 7219507
97 24 33478491
3 141 31563766
117 58 31046504
135 89 32794152
73 61 24496577
82 35 12996911
37 58 32351535
111 9 29588724
153 142 24966557
78 24 33221788
146 2 30293092
68 166 7377484
165 64 7379048
64 165 7385703
86 64 33221166
64 86 7385703
153 43 7392500
46 80 26215646
97 68 30344798
97 167 26121768
43 106 21900925
157 68 27452564
68 157 27455108
57 106 28581567
141 127 30540858
5 39 33387609
127 141 31473814
23 12 7807584
23 36 25000332
23 27 32950453
23 11 32790614
23 71 25000332
11 23 32790794
148 157 33296835
111 103 33403516
103 111 33407020
47 72 30864505
86 39 33377228
97 78 25531641
78 97 29149179
126 12 28019981
132 103 29834106
132 85 7913368
39 52 22752498
127 104 29830675
103 132 29835162
15 10 11188829
52 115 33387394
76 113 8061025
103 87 32347417
14 3 30991781
56 103 33391539
157 148 33293977
10 15 17673544
75 28 31575650
64 138 31578255
51 126 8410363
87 89 32260454
14 130 20697551
164 145 31752127
91 40 32441500
145 164 26304870
141 60 8501890
111 87 20784321
80 140 12829446
9 132 33478393
9 103 33164199
43 146 30511913
119 164 32865983
126 23 32687955
146 153 32368388
91 157 33396395
103 9 33403606
27 140 16986023
157 91 33395952
148 170 32859197
56 132 29590723
10 153 33473772
146 148 28988126
44 152 30634866
170 148 30365228
126 156 27756659
126 46 27756659
126 152 27756659
126 44 27756659
141 165 29666681
146 78 32955758
86 92 21824099
126 7 15407874
132 56 29588092
164 119 18860648
152 23 25001062
86 141 11024456
167 97 24741457
157 65 21713553
39 5 23295902
103 56 33406352
65 157 21210377
61 58 27843616
36 7 28704923
61 73 26809412
61 117 26809444
170 65 30873509
75 134 15140015
167 63 33492644
18 2 9624270
18 24 29974576
119 122 33463836
64 83 30448238
5 64 32450107
24 18 29975065
127 33 9641103
10 94 31747815
10 63 32623530
65 91 32879063
45 99 9790543
5 60 15674329
134 169 22583531
134 164 30457914
134 163 27168416
134 171 22583531
134 122 22583531
134 161 22583531
134 0 33477327
134 98 22583531
134 147 22583531
134 114 22583531
134 75 22583531
134 144 22583531
150 117 24609814
117 150 24578793
63 59 20531626
10 118 9989085
43 78 10223179
97 94 30886647
66 92 31660771
94 97 30892090
167 24 30613170
127 3 32689412
78 157 31648386
97 157 30353917
157 78 10414211
103 168 32347417
142 153 24936822
153 65 31329464
43 10 19980591
152 156 30451550
24 124 33421779
152 46 13506371
141 14 22258743
14 82 32450648
47 141 19140745
87 132 18430756
148 68 27425422
147 28 33284496
94 78 18951745
44 126 11007697
153 2 11730791
98 164 11092866
167 94 32697250
65 153 32703752
43 94 21900614
10 43 19985898
10 167 33482308
103 89 16978197
91 113 31674381
170 157 11618347
72 165 11632651
2 153 11711290
142 124 32279608
167 157 28975785
157 167 14201730
135 87 33211541
47 125 33473999
65 170 30959382
127 130 33311646
5 82 32450107
5 47 32450107
5 3 20872439
5 130 32450107
7 162 11804246
124 24 33411335
122 98 14029412
98 134 24820311
63 78 26060608
63 10 33493119
10 59 11959489
82 83 31827375
91 97 33486955
91 65 33489983
24 54 33484435
2 124 28542408
3 154 23272125
154 3 12233255
27 152 27949724
43 170 28142752
97 91 33487218
28 98 33487316
76 94 21708327
3 64 20760417
148 57 15952318
57 148 16141914
76 170 23801444
91 124 33486602
91 54 33487983
124 142 32268043
124 2 28543522
124 40 12738108
121 85 28540268
121 89 33342203
23 69 12523644
33 64 12548726
130 13 30368212
154 60 12567982
124 91 32865562
124 59 12568340
54 30 31921481
54 124 32184063
54 91 33499755
54 2 24932932
54 142 28063964
54 24 33498498
54 40 14847556
2 54 14034101
142 54 28073102
170 43 28108226
170 76 23801648
124 54 32485530
148 91 13181673
167 10 33478985
146 15 18283090
24 15 28737851
91 148 13171211
157 57 33391347
146 124 28639114
148 30 12926064
148 124 12926064
54 59 12940999
146 59 12986552
146 54 32970618
36 27 31499909
54 146 32969814
30 54 32716226
52 130 32867666
157 166 33293657
82 60 32078184
91 15 32431828
10 97 19474973
60 82 32361244
103 85 33483682
78 170 21310629
114 119 13165035
170 78 21373696
148 76 13181673
142 15 22084888
164 70 13189564
142 30 24944620
15 142 13348551
152 7 13698338
152 126 25689069
5 83 13515689
155 69 13518393
56 67 28581896
66 60 13525933
97 170 13539309
170 97 29602811
124 30 33298743
153 106 21934642
30 124 33301647
122 161 14029412
122 0 14029412
122 114 14029412
75 122 14030720
119 134 32866251
135 103 33211541
103 135 32877995
157 74 26812388
2 167 21283875
74 157 26809899
130 5 31211543
104 82 33387567
87 111 32260446
2 15 17652196
9 111 29588856
165 47 33479486
124 146 32864907
52 14 14475532
39 72 14563011
39 64 14563011
39 66 26659819
39 33 23798823
74 24 30268428
104 3 32092412
24 74 32292024
74 63 33481671
63 74 33480886
142 76 14637459
121 168 25008232
33 104 14652076
24 106 29076288
0 28 14732555
76 43 22592158
77 44 14736204
97 110 14738533
11 80 33483011
80 11 33499216
142 43 14763046
145 28 25349609
57 10 14800035
167 2 14819663
30 142 32716226
33 3 20070768
130 3 31491960
104 52 24401881
51 7 31220875
52 39 23709313
147 70 33284496
147 134 33284496
147 171 33284496
147 122 33284496
147 161 33284496
147 0 33284496
147 98 33284496
147 123 33284496
147 114 22880268
147 145 33284496
147 144 22880268
145 147 33387258
114 147 31469895
39 154 26659819
142 59 15606864
5 52 15674329
5 14 15674329
5 127 15674329
5 35 15674329
157 43 23357910
74 91 33481671
91 74 33486642
35 92 16016087
75 163 31576325
2 59 23790378
94 59 16615186
161 164 16626864
70 145 16967706
68 65 16977229
5 141 32450107
72 104 30885165
11 155 33483011
52 64 17134620
52 104 17134620
52 141 22433797
52 47 17134620
68 148 28718167
145 169 26304870
145 70 25349609
145 163 26304870
145 119 20588755
145 122 26304870
145 161 26304870
145 0 25349609
145 123 26304870
168 85 30627788
30 10 24311865
57 74 32946096
78 94 18952912
63 148 18786998
130 39 28553837
56 1 20197397
57 157 33469913
54 63 17339720
63 54 32554501
124 10 17513042
98 75 29756430
78 63 19633899
50 97 17758600
2 65 17761198
65 2 17761791
87 103 31740349
64 66 17841017
82 66 22071479
168 132 24933392
168 87 31746759
10 30 23099366
132 87 24422981
132 9 30020566
72 47 18193797
72 3 18530291
63 110 18264047
168 121 24828259
170 63 18272456
119 171 29666065
15 146 18282961
3 33 27765473
157 107 18881037
107 157 18864406
137 83 18434226
119 70 29666065
119 0 32866244
135 132 32181977
85 87 31235699
85 135 32267242
0 119 29752315
127 47 18438672
167 107 24317780
70 119 18880773
107 10 19413279
10 107 22522451
72 52 18780980
74 57 32877542
160 56 18873200
56 160 18900409
135 85 28645392
43 113 19044249
33 47 29683776
104 39 33466509
124 15 19164666
10 68 26210628
0 144 19380883
137 35 22683040
137 154 19380970
171 0 21821838
168 103 31666370
68 124 19395085
119 163 32866782
107 167 24328704
15 124 19422714
167 78 19472654
10 78 19474973
107 63 23646182
15 24 20853576
141 5 28042302
63 107 23651058
107 68 19914365
68 107 21303173
74 43 21712676
56 88 32356520
75 145 19991676
74 107 19991943
43 74 20092848
70 171 22416762
71 80 20072463
46 11 33483151
70 134 20245139
107 74 22409794
11 12 23030253
91 18 29753770
78 148 30542059
3 5 22485186
145 75 25349609
86 72 20607519
14 141 32953732
14 39 20614840
44 11 32427262
58 61 24489589
148 78 30469522
14 47 21402364
68 10 26213805
77 23 20701061
89 56 20721917
3 72 30529536
3 6 20760417
3 60 20760417
3 127 32875250
3 138 20760418
11 44 33483011
111 168 23640625
130 47 30439496
47 14 21390601
47 130 30280911
11 7 33483011
74 146 21113861
44 27 21135594
86 66 21290242
36 12 28704923
57 97 29145101
54 10 33178489
10 54 33172450
66 3 21795342
84 44 21821693
24 107 22452225
85 103 29772874
141 82 32948115
18 91 29769737
152 80 22065036
148 116 33217377
15 2 22084851
71 23 25324373
165 33 29319830
116 76 33203922
116 63 32449150
152 71 22149370
107 24 22441187
116 148 33461308
130 66 22410097
63 116 32452041
141 66 22427283
33 125 31475846
52 33 22436516
98 123 22396090
141 33 22431463
11 27 33483011
148 94 22408932
94 148 22426498
33 52 22430613
33 141 22430613
33 39 28364121
141 52 22431496
146 116 28628986
161 28 22512681
116 146 28621447
71 11 32443373
126 11 30873021
2 146 28895428
66 39 22600881
2 107 22671129
107 2 22672230
97 2 22688758
10 2 22688801
2 157 26042178
157 2 26042573
71 7 28966544
65 116 32789681
47 5 31216367
170 2 24746860
2 170 24745646
10 29 23307082
116 65 32944670
54 18 25439188
132 121 23632778
76 116 33230026
127 5 23888357
46 7 23874175
46 44 29233105
35 5 23886427
121 132 23914747
153 97 28559627
98 147 33283429
107 146 24236750
97 153 28559869
167 40 24393460
40 167 24359264
36 71 28704923
132 168 24918504
132 135 32181820
170 116 29139165
70 98 24586379
57 166 32791187
49 23 33455771
24 116 24768097
97 116 25452233
68 116 25362003
18 54 25386750
142 97 25439099
97 142 25439888
51 23 30537661
169 75 25609546
116 170 28040044
44 46 29228484
70 28 27368802
86 6 26810285
11 36 33483011
11 71 33483011
163 70 28473504
163 161 28473504
163 0 28473504
163 114 28473504
117 55 33388091
0 163 27166068
148 74 27248590
74 148 27239370
51 44 27247426
68 2 27254292
2 68 27266462
94 106 27338997
141 72 28533836
10 18 27455003
44 51 27757249
7 93 27943700
7 136 27943700
63 166 27943419
24 120 28001894
37 55 31836643
98 28 28021821
147 159 33322131
11 156 33483011
11 126 33483103
11 46 33483011
11 69 33483011
11 51 33483011
11 152 33483011
116 97 28560412
104 47 30278108
104 72 32281412
97 57 29144835
85 121 28467669
9 85 28645902
104 137 30278108
58 55 28555227
18 146 28646856
104 130 28642579
100 65 28644800
146 18 28645022
36 156 28704923
36 80 30957753
36 23 28704923
36 51 28704923
36 44 28704923
142 167 30333957
167 142 28969076
124 167 28737134
30 167 28747939
54 167 28843221
47 33 29061846
78 167 28984896
74 167 29058509
27 23 32952695
86 104 29232641
14 6 29252504
70 147 29446978
64 33 30005913
114 122 29755450
164 171 30021337
74 94 30029407
153 54 32359952
54 153 32360483
104 92 30278108
104 64 30278108
104 66 30278108
104 141 30278108
104 154 30278108
51 152 30357262
65 146 30381770
127 138 30527167
143 9 30548843
82 14 32679383
168 111 30628007
85 168 30630443
138 86 30963003
80 36 30970602
14 35 30991901
64 5 31135864
150 55 31148561
152 51 31224330
91 118 31575164
91 68 31575164
15 167 31583347
15 91 31595889
30 63 31662558
94 54 32712440
63 30 31688399
54 94 32714657
148 153 32178772
153 148 32176150
36 11 32336593
63 96 32555106
94 124 32712254
124 94 32712757
64 92 32771961
0 147 32786808
55 90 33392686
86 33 32867498
28 169 33487316
42 158 32866141
158 42 32877804
127 53 33288163
26 139 33294050
139 26 32953636
26 46 33469601
158 156 32879643
158 126 32879643
158 80 32879643
158 155 32879643
158 23 32879643
158 44 33467242
139 23 33467729
46 26 33469731
23 139 33298092
53 82 32956746
82 53 32959296
139 156 33467729
156 139 33481229
94 118 33082397
94 116 33082397
24 68 33428421
94 40 33150252
94 18 33150252
98 145 33199999
39 22 33231046
53 127 33288769
53 154 33295455
154 53 33296477
23 158 33298092
23 26 33400836
64 35 33301786
68 24 33307127
86 22 33384054
86 53 33384054
45 90 33387433
5 72 33387609
10 96 33388556
76 10 33461273
98 62 33391762
167 76 33492644
26 23 33397494
86 47 33465448
10 76 33466059
139 42 33467380
139 158 33467380
