24 153 22253327
24 91 22454541
130 165 22276339
135 168 22495752
58 73 20674625
73 45 22423286
73 58 21279632
163 164 22407199
163 123 13157393
163 147 5132770
163 75 18277005
134 145 15320714
68 167 22418159
65 78 20865963
137 82 20160083
137 52 20633602
23 156 22428580
91 24 22497977
91 153 22498868
127 137 20242091
40 30 30620
40 2 14175913
40 142 15934916
40 24 15506939
7 80 22486387
56 135 22498257
68 146 22418159
35 52 21896462
164 163 22404051
147 163 15345181
140 7 19573433
140 155 19573433
140 36 19573433
140 27 19573433
140 156 19573433
140 126 19573433
140 80 19573433
140 46 19573433
140 69 19573433
140 51 19573433
140 152 19573433
140 44 19573433
140 11 19573433
140 71 19573433
86 130 21823757
165 137 22073040
165 52 22325815
165 5 22492562
165 14 22492001
165 60 19028990
165 127 22168056
165 35 22177053
165 130 22492562
111 56 21804080
57 65 19502051
150 37 22149122
37 150 22152762
117 37 22063949
37 117 22499364
57 24 15149539
27 7 20613792
27 46 21377381
27 36 21135302
27 11 22447777
27 71 21292833
27 12 40142
33 130 22430613
7 27 20854972
137 165 20595123
154 66 20774397
146 97 19577139
171 169 21888229
171 144 17843346
2 142 20082928
63 65 21322876
71 27 21283830
66 154 21288059
58 37 21877318
55 117 650006
55 45 650006
55 73 650006
55 58 650006
55 150 650006
55 99 650006
142 2 22270017
46 27 22415997
171 119 21821838
135 56 22417671
168 135 22414655
91 63 22154960
91 76 16622457
76 91 7191486
24 142 22335301
24 157 16024532
127 35 12574558
157 24 16008445
157 63 21741345
10 91 21291067
10 24 22428616
63 153 22169922
97 65 20874294
24 10 22451398
153 63 22027411
142 24 22333687
35 127 15929392
141 39 22431496
78 65 15434402
65 97 21307305
82 137 20153318
82 104 20153318
82 47 20153318
82 3 20599604
127 165 19903036
137 127 19037412
46 71 14134767
137 39 20595123
64 130 22160339
3 82 22485186
3 14 22321425
3 165 22322292
3 130 22485186
71 46 17675105
146 157 20760172
9 168 21889743
9 56 21333464
9 89 20692061
24 2 22296627
94 167 3366038
2 24 21746667
39 127 15176736
2 40 19405776
39 82 22490802
39 47 22490802
39 3 22405302
127 39 15251408
66 52 22410541
63 91 22167516
39 137 22405860
39 165 22244270
165 39 22341613
141 137 17579576
141 104 17579576
141 47 17579576
153 24 22326315
80 156 22348542
80 23 22485413
157 146 22063100
45 73 22487324
86 165 21885479
169 171 21907090
56 111 21827297
167 43 22151199
167 65 18950575
56 9 22403598
56 89 22416057
86 82 20526773
56 168 22062572
91 2 22497977
45 150 22071805
165 86 21554191
63 43 22173387
52 137 17134620
47 137 19920977
47 104 21738765
33 137 4550693
167 68 22408184
167 146 22409615
157 97 18438908
7 140 19569446
73 37 19573142
122 163 19142484
51 80 21903974
130 64 22148851
163 122 18794659
66 33 22410421
80 51 22348175
150 73 20595520
144 169 5214854
146 68 22414567
146 167 22414567
47 165 312505
111 89 19590881
24 63 22092420
33 82 22430870
33 66 20782106
33 5 22430613
33 154 19040186
47 3 19920977
45 55 372120
86 35 21102660
156 7 19660641
153 91 22326315
153 94 22026687
77 7 20700063
63 106 22166197
104 86 21718476
104 35 21889499
145 171 20588755
156 140 19660641
156 126 19652241
156 80 20864367
156 155 19660641
156 46 22490829
156 23 22418370
156 36 19660641
156 51 19660641
156 27 19660641
156 152 19981902
156 44 19660641
156 11 19660641
156 71 19660641
37 73 22499364
146 63 21371471
111 85 18865239
155 80 22402637
155 27 21289384
164 123 19656366
35 72 22487005
60 86 21713318
5 86 22494590
82 86 21793599
39 141 22490802
39 86 21713463
56 85 21144745
24 40 22082401
142 91 22153451
24 59 22155078
24 94 21658437
24 78 21658437
24 57 14660614
72 86 21709129
72 35 21709129
2 18 10837715
146 24 21798313
66 137 629309
66 86 21710915
60 92 4534334
130 86 21826813
47 86 21728065
3 86 21711855
66 127 1775857
64 14 644314
27 156 645541
92 86 22406733
154 52 22494718
154 86 21712608
137 86 20635872
33 86 21385425
55 37 2121664
65 43 21303383
35 86 21716256
14 165 22255064
23 126 22424141
23 7 22424141
23 46 22424141
23 152 22424141
23 44 22424141
2 91 22499355
43 65 22162222
43 63 22167623
43 167 22162222
44 23 22425148
127 66 10222005
147 75 20704534
23 49 720390
153 146 22146594
171 28 21821838
171 145 22406417
171 147 17924259
7 156 20510184
7 126 15407262
7 155 810621
7 46 810621
7 23 17655154
7 36 20844806
7 51 16015655
7 152 13698414
7 44 13164171
7 11 20855020
7 71 810621
78 146 22421482
23 80 22428580
85 56 19910122
142 40 17149693
3 35 21729879
56 121 21159695
86 137 20600039
86 3 21285653
64 137 17915687
76 146 17912934
146 142 22146296
75 147 20768849
45 37 22071519
68 97 21299490
65 167 20529032
142 146 22153451
5 33 22434211
122 147 15691196
37 45 22499364
35 104 21823638
146 91 22146296
3 137 22418244
3 104 21197380
3 47 20760417
3 39 22495420
144 171 5214854
57 146 22497007
57 63 18988964
63 146 21290478
63 57 18442420
63 118 13104862
63 68 21295367
30 24 22492270
40 10 13207490
80 27 18457051
68 63 21908203
127 154 14121062
46 69 891395
137 141 20160083
10 157 21897395
10 40 21847773
157 10 22498318
39 130 22409775
28 147 21380523
86 52 21823697
24 30 22454333
2 30 21205819
91 142 21853570
32 151 1998961
86 5 21823803
86 14 20858207
86 60 19897040
86 127 21211404
36 140 10302769
165 82 22492562
82 127 1949772
127 82 1948630
47 82 19920977
47 39 21301228
51 27 20000912
155 7 19397236
57 91 18988964
82 39 22335788
94 153 22055833
137 104 20160083
137 47 20160083
140 93 8065512
137 3 20160083
63 24 21890222
82 33 22495920
86 79 15251965
10 142 22079404
76 65 18349851
63 76 22167346
63 167 22173578
65 76 20865963
168 56 22062426
63 94 21395438
142 10 21927117
153 40 21161479
24 65 19793989
156 162 1317752
82 141 22321444
146 76 17845112
27 80 20861928
164 122 19485323
154 127 20086073
46 152 22065481
137 64 17915744
130 33 22438705
153 68 4446709
153 76 10480817
153 167 21363226
68 153 4454384
91 30 21913449
94 63 21252489
123 164 22135423
123 163 4007972
123 122 1335109
28 75 21380523
168 9 21737543
97 146 22426938
30 91 22174595
122 28 22412204
94 157 22055569
130 52 22250146
130 60 17824416
46 156 22492031
2 10 15163828
76 97 16535528
76 63 21143735
167 153 22067723
68 76 1421827
76 153 17825498
82 154 19895702
169 144 7280364
63 157 21473116
157 94 22061638
24 146 21827587
65 24 17761663
155 44 22401703
28 134 21380523
28 164 21380523
28 0 21380523
28 123 22400415
141 86 20594806
141 125 20761760
141 35 1497172
40 153 20696659
152 44 18952270
63 113 20532356
73 150 20592984
94 24 20597578
122 164 15424058
94 43 21912030
94 57 20640106
24 43 21859636
142 63 20615925
65 148 21305851
75 164 1756649
148 65 22070699
5 165 17317651
63 2 21297110
63 142 19908046
28 119 20689857
151 65 19493267
151 91 19493235
151 43 19493262
151 76 19493485
151 24 19493515
151 63 19493244
121 56 19345283
68 113 1837030
45 117 20087583
117 45 20087681
171 123 21821838
123 171 7298297
132 111 15782698
141 64 10243807
144 122 5214854
122 144 4963820
52 86 20004725
52 66 22415534
119 28 19475859
28 144 8168638
28 163 21380523
28 122 21380523
14 52 20614839
14 5 20614840
14 60 16030286
5 137 15674329
44 155 22172804
82 165 22493665
52 60 15679777
52 154 22490945
27 155 18867483
155 36 19397236
165 104 15082493
165 141 22492562
28 70 20268322
28 171 21380523
28 161 21380523
28 114 21380523
28 128 13687377
35 39 21366071
39 92 22077821
92 39 4454708
76 78 21367690
97 43 19471669
43 97 19490304
91 10 20897722
36 46 2111590
7 12 5468389
65 63 21279300
80 7 20703541
91 59 20530098
168 89 18271798
71 155 22409481
165 3 22351566
150 45 22071827
28 145 22494571
114 28 12823668
63 97 20608363
122 75 14029412
94 2 2394838
64 82 18268735
64 104 8684496
64 141 9883913
64 47 2439385
64 3 2439385
64 39 2439385
71 36 6863572
35 82 7481010
35 137 2442611
35 141 2442611
35 14 2442611
35 60 2442611
35 3 2442611
35 165 20518881
35 130 22169412
78 76 21810488
37 105 8078585
60 52 12225571
43 57 21906475
57 43 21457810
24 167 19877845
91 167 2546481
150 58 22066550
130 35 22395665
82 52 22335788
58 45 22072099
45 58 22072031
167 59 2620180
148 97 21285301
148 43 21904645
148 146 22409334
148 63 19413063
148 167 19653689
3 52 22485186
167 148 19660299
167 91 2623123
119 147 21276674
44 80 22172804
18 153 2627773
80 44 22346228
91 146 22426143
127 86 20525105
152 27 22065036
146 94 19897245
57 68 17070113
94 91 21290662
94 10 20372318
99 105 9958142
46 23 22112696
119 75 17308175
147 119 21288283
43 91 21825884
57 94 21459076
92 154 21716016
164 28 19485158
33 138 3828349
91 43 20599116
37 99 20246317
152 155 19553296
146 65 20682729
9 87 20690157
146 43 21800486
99 37 18453553
57 153 18637319
36 155 3131436
169 147 15400980
147 169 15345181
155 156 19397236
155 140 19397236
155 126 19397236
155 12 19397236
155 46 19397236
155 93 19397236
155 23 22160484
155 51 19397236
155 152 19397236
155 11 19397236
155 136 19397236
155 71 22401683
127 52 20094882
65 106 21296891
30 2 16643000
119 123 18427003
87 56 22423113
91 106 16530826
87 168 22406659
134 28 16106882
94 65 20637693
102 58 3650675
23 136 5659434
130 82 22063735
73 117 20168871
73 55 5227194
52 3 22172565
130 14 22420803
126 155 22070603
87 9 19654347
111 88 3832787
126 80 3758429
117 73 22399006
89 111 3796527
52 82 17134620
123 134 14130735
123 147 7552815
134 70 15319284
78 68 16013341
82 130 22335788
68 78 19395085
76 68 3842239
23 155 22424141
23 51 22424141
97 63 20608653
87 135 22426233
87 85 18363327
97 76 16534666
137 130 12928886
147 164 20261434
164 147 20262873
146 30 22146296
30 146 22174595
92 72 4454708
92 82 4454708
92 64 4454708
92 137 13177724
92 52 16019243
92 104 4454708
92 115 4454708
92 66 20848089
92 5 4454708
92 141 4454708
92 47 14803801
92 6 4454708
92 14 4454708
92 60 19403786
92 127 4454708
92 3 14115203
92 138 4454708
92 35 4454708
92 33 4454708
92 165 17656415
154 137 4008554
123 28 19971785
58 150 22094181
65 68 20698238
66 115 4263859
71 140 4267501
43 24 21885737
91 57 18989565
43 148 15669347
76 106 5143842
2 63 21283875
43 153 19993524
135 9 22489380
97 10 18264826
9 135 22080132
27 51 19922452
75 119 20077695
154 92 20774397
3 92 4521943
33 92 4455405
82 92 4455495
47 92 4455696
165 92 4455889
72 92 4456085
127 92 4459238
40 91 13989832
115 52 19279373
115 66 4511581
14 92 4523883
33 14 22438560
137 92 4529218
134 119 20888211
75 98 4603016
52 92 4607985
82 64 17929909
171 70 22409810
171 134 21821838
171 164 21821838
171 163 21821838
171 159 4625765
171 122 21821838
171 161 21821838
171 25 4625765
171 114 21821838
171 75 21821838
171 128 4625765
75 171 19402820
146 57 22496013
163 98 4862851
0 134 21804609
80 155 22346446
97 113 19057749
97 148 20874795
10 65 4889356
52 165 22342578
126 71 5488914
122 169 14029412
122 134 17831122
122 171 14029412
122 119 15856706
122 123 17077769
122 145 14029412
130 127 19656926
65 94 21307225
65 57 19984592
132 89 19405653
3 66 20760417
60 165 12567714
94 76 21874447
91 94 20672467
82 6 5032307
71 126 5489253
111 132 18521051
134 123 15319284
11 140 14475408
163 144 5132770
80 152 20252509
144 163 5214854
47 66 20699452
66 47 5063014
46 155 19126897
94 146 22063161
163 169 5132770
163 134 5211772
163 171 5484588
163 119 19403961
163 28 14727386
163 145 5132770
123 119 18431436
44 156 20596657
144 70 5214854
144 134 5214854
144 164 5214854
144 159 5214854
144 119 5214854
144 161 5214854
144 0 5214854
144 98 5214854
144 123 5214854
144 28 8413463
144 147 5214854
144 114 5214854
144 145 5214854
144 75 5214854
144 128 5214854
127 14 7822106
44 7 13164978
137 5 5244866
58 117 20153196
76 157 20521042
85 111 19048432
85 89 5487644
164 134 19485237
141 130 22431496
157 76 20520417
111 135 15779503
60 130 15949095
135 111 19985664
99 45 15846552
99 73 5640472
99 58 5640473
99 117 5640473
117 99 5640915
66 133 5643737
33 133 5644238
153 10 21295001
68 43 22420284
154 82 12464826
58 99 5652162
142 157 15943292
157 142 15840856
23 140 9719024
39 104 22490802
39 35 22490802
56 87 22498257
140 23 9719229
43 157 18354725
43 76 20079801
2 148 6614817
43 68 19507501
0 164 6704612
24 76 21512801
52 35 21896451
14 86 21920031
76 24 21708022
146 10 22160984
10 146 22162125
57 2 6891693
57 142 14800035
40 146 7156946
24 97 21860418
130 141 22171502
123 75 7204589
52 127 20253390
57 76 21372659
14 127 7219507
97 24 13976044
3 141 22485186
117 58 20153100
135 89 19555857
73 61 21117076
82 35 12996911
37 58 19999513
111 9 7301334
153 142 22146606
78 24 15672008
146 2 17666246
68 166 7377484
165 64 7379048
64 165 7385703
86 64 7384623
64 86 7385703
153 43 7392500
46 80 7394291
97 68 22416889
97 167 15157640
43 106 21900925
157 68 7550944
68 157 7551240
57 106 14800035
141 127 21202376
5 39 9723526
127 141 18515226
23 12 7807584
23 36 22424141
23 27 22424141
23 11 22424141
23 71 22424141
11 23 22428798
148 157 22149841
111 103 22165943
103 111 22488404
47 72 14125718
86 39 17822422
97 78 16548979
78 97 21806999
126 12 20514632
132 103 18193317
132 85 7913368
39 52 22409775
127 104 18432236
103 132 18883642
15 10 11188829
52 115 19130332
76 113 8061025
103 87 22418101
14 3 22253527
56 103 20807426
157 148 22153131
10 15 17673544
75 28 21816512
64 138 8407892
51 126 8410363
87 89 12817802
14 130 20697551
164 145 18867268
91 40 22498868
145 164 20588755
141 60 8501890
111 87 20784321
80 140 12829446
9 132 16031352
9 103 22411501
43 146 19040574
119 164 18790844
126 23 22416225
146 153 22088082
91 157 21675887
103 9 22418101
27 140 16986023
157 91 22067711
148 170 22423259
56 132 22087002
10 153 22165948
146 148 21720838
44 152 18951831
170 148 22414942
126 156 9013165
126 46 9013165
126 152 20245168
126 44 9013165
141 165 22251738
146 78 15928329
86 92 21824099
126 7 15407874
132 56 16038211
164 119 18860648
152 23 13506371
86 141 11024456
167 97 15157210
157 65 21713553
39 5 17928546
103 56 22418101
65 157 21210377
61 58 21278668
36 7 20842157
61 73 19907199
61 117 19907199
170 65 21888911
75 134 15140015
167 63 22403179
18 2 9624270
18 24 9624270
119 122 14722610
64 83 21906555
5 64 16982770
24 18 22467480
127 33 9641103
10 94 13689668
10 63 20631399
65 91 17761663
45 99 9790543
5 60 15674329
134 169 15319284
134 164 15319284
134 163 15319284
134 171 15319284
134 122 15319284
134 161 15319284
134 0 22489054
134 98 21809965
134 147 15319284
134 114 15319284
134 75 15319284
134 144 15319284
150 117 22066494
117 150 22057935
63 59 20531626
10 118 9989085
43 78 10223179
97 94 10328960
66 92 22403831
94 97 21247925
167 24 20088263
127 3 18270229
78 157 10483442
97 157 18274727
157 78 10414211
103 168 22418101
142 153 22108045
153 65 19383283
43 10 19980591
152 156 13506371
24 124 22256318
152 46 13506371
141 14 22258743
14 82 20614839
47 141 19140745
87 132 18430756
148 68 22416825
147 28 20704897
94 78 18951745
44 126 11007697
153 2 11730791
98 164 11092866
167 94 11107362
65 153 20869122
43 94 21900614
10 43 19985898
10 167 22165644
103 89 16978197
91 113 20418835
170 157 11618347
72 165 11632651
2 153 11711290
142 124 20082838
167 157 19046864
157 167 14201730
135 87 22489380
47 125 21738765
65 170 21269511
127 130 11798665
5 82 22063941
5 47 16982739
5 3 20872439
5 130 21313196
7 162 11804246
124 24 22203338
122 98 14029412
98 134 21813465
63 78 19645044
63 10 21475717
10 59 11959489
82 83 22312300
91 97 12500294
91 65 19640616
24 54 22265523
2 124 20082359
3 154 20760418
154 3 12233255
27 152 21196877
43 170 21909093
97 91 12294512
28 98 21380523
76 94 21708327
3 64 20760417
148 57 15952318
57 148 16141914
76 170 14194052
91 124 20673752
91 54 21912304
124 142 20553294
124 2 22453551
124 40 12738108
121 85 12522848
121 89 20063749
23 69 12523644
33 64 12548726
130 13 14121178
154 60 12567982
124 91 21731001
124 59 12568340
54 30 21762632
54 124 20802824
54 91 22068155
54 2 21662663
54 142 20691389
54 24 22265251
54 40 14847556
2 54 14034101
142 54 21232523
170 43 21909846
170 76 13810487
124 54 18198679
148 91 13181673
167 10 19398341
146 15 18283090
24 15 21074411
91 148 13171211
157 57 22163836
146 124 21911229
148 30 12926064
148 124 12926064
54 59 12940999
146 59 12986552
146 54 22146296
36 27 21296407
54 146 22161754
30 54 21741366
52 130 22432114
157 166 17224493
82 60 13158268
91 15 13118730
10 97 19474973
60 82 13156364
103 85 21906743
78 170 21310629
114 119 13165035
170 78 21373696
148 76 13181673
142 15 22084888
164 70 13189564
142 30 22070602
15 142 13348551
152 7 13698338
152 126 20244135
5 83 13515689
155 69 13518393
56 67 13721302
66 60 13525933
97 170 13539309
170 97 20698907
124 30 21397772
153 106 21934642
30 124 21458126
122 161 14029412
122 0 14029412
122 114 14029412
75 122 14030720
119 134 20849604
135 103 22489380
103 135 21891299
157 74 18452079
2 167 21283875
74 157 18452462
130 5 22171502
104 82 20508758
87 111 14203524
2 15 17652196
9 111 14207905
165 47 15082493
124 146 21903119
52 14 14475532
39 72 14563011
39 64 14563011
39 66 22077821
39 33 22434651
74 24 18872501
104 3 17063871
24 74 14564046
74 63 21277664
63 74 21280763
142 76 14637459
121 168 22492009
33 104 14652076
24 106 21748403
0 28 14732555
76 43 20082425
77 44 14736204
97 110 14738533
11 80 14739876
80 11 14744526
142 43 14763046
145 28 22492437
57 10 14800035
167 2 14819663
30 142 22071165
33 3 20070768
130 3 22408598
104 52 15174895
51 7 16015829
52 39 20308366
147 70 21717367
147 134 15345181
147 171 17827136
147 122 15345181
147 161 15345181
147 0 15345181
147 98 15345181
147 123 20261434
147 114 15345181
147 145 20239146
147 144 15345181
145 147 20588755
114 147 15407118
39 154 15417602
142 59 15606864
5 52 15674329
5 14 15674329
5 127 15674329
5 35 15674329
157 43 18452079
74 91 20000567
91 74 18989565
35 92 16016087
75 163 16019251
2 59 17843962
94 59 16615186
161 164 16626864
70 145 16967706
68 65 16977229
5 141 22438520
72 104 17057555
11 155 17057806
52 64 17134620
52 104 17134620
52 141 22433797
52 47 17134620
68 148 22418124
145 169 20588755
145 70 20588755
145 163 20588755
145 119 20588755
145 122 20588755
145 161 20588755
145 0 20588755
145 123 20588755
168 85 17158886
30 10 21382498
57 74 22159748
78 94 18952912
63 148 18786998
130 39 22171502
56 1 20197397
57 157 22164196
54 63 17339720
63 54 17483951
124 10 17513042
98 75 17558301
78 63 19633899
50 97 17758600
2 65 17761198
65 2 17761791
87 103 19394969
64 66 17841017
82 66 22071479
168 132 17932232
168 87 22495457
10 30 21412832
132 87 18193317
132 9 18193317
72 47 18193797
72 3 18530291
63 110 18264047
168 121 21909726
170 63 18272456
119 171 21378631
15 146 18282961
3 33 20760418
157 107 18881037
107 157 18864406
137 83 18434226
119 70 18427003
119 0 18427003
135 132 18429137
85 87 18431645
85 135 19048432
0 119 18433946
127 47 18438672
167 107 22498241
70 119 18880773
107 10 19413279
10 107 19671104
72 52 18780980
74 57 22160441
160 56 18873200
56 160 18900409
135 85 19038332
43 113 19044249
33 47 20519234
104 39 19142161
124 15 19164666
10 68 20698222
0 144 19380883
137 35 19383404
137 154 19380970
171 0 21821838
168 103 21737543
68 124 19395085
119 163 19397745
107 167 22497885
15 124 19422714
167 78 19472654
10 78 19474973
107 63 21130608
15 24 20853576
141 5 22431496
63 107 21322112
107 68 19914365
68 107 21303173
74 43 21712676
56 88 19942633
75 145 19991676
74 107 19991943
43 74 20092848
70 171 22416762
71 80 20072463
46 11 20167884
70 134 20245139
107 74 22409794
11 12 20251556
91 18 22092078
78 148 20695315
3 5 22485186
145 75 20597356
86 72 20607519
14 141 20614840
14 39 20614840
44 11 20756050
58 61 20676418
148 78 20695930
14 47 21402364
68 10 20700227
77 23 20701061
89 56 20721917
3 72 20760417
3 6 20760417
3 60 20760417
3 127 22418244
3 138 20760418
11 44 20769119
111 168 20784321
130 47 20850733
47 14 21390601
47 130 20860557
11 7 20866778
74 146 21113861
44 27 21135594
86 66 21290242
36 12 21298165
57 97 21372715
54 10 22073909
10 54 22079774
66 3 21795342
84 44 21821693
24 107 22452225
85 103 22070951
141 82 22164420
18 91 22061562
152 80 22065036
148 116 22160303
15 2 22084851
71 23 22138598
165 33 22165675
116 76 22147290
116 63 22147290
152 71 22149370
107 24 22441187
116 148 22157539
130 66 22410097
63 116 22167346
141 66 22427283
33 125 22488566
52 33 22436516
98 123 22396090
141 33 22431463
11 27 22405192
148 94 22408932
94 148 22426498
33 52 22430613
33 141 22430613
33 39 22431712
141 52 22431496
146 116 22491111
