24 153 2981523
24 91 2991251
130 165 1859620
135 168 1415426
58 73 720702
73 45 2713902
73 58 1857018
163 164 1321324
163 123 1246649
163 147 33872
163 75 24892
134 145 2612537
68 167 2989292
65 78 1259773
137 82 2362083
137 52 1763340
23 156 2709044
91 24 2757080
91 153 2105845
127 137 2984319
40 30 30620
40 2 1973163
40 142 30620
40 24 2912499
7 80 2449326
56 135 2296724
68 146 2358981
35 52 2442611
164 163 1323896
147 163 32844
140 7 2982655
140 155 2982655
140 36 2982655
140 27 2982655
140 156 2982655
140 126 2982655
140 80 2982655
140 46 2982655
140 69 2982655
140 51 2982655
140 152 2982655
140 44 2982655
140 11 2982655
140 71 2982655
86 130 2368974
165 137 2456744
165 52 2636902
165 5 2026140
165 14 2742441
165 60 2026140
165 127 1942541
165 35 2026140
165 130 1428497
111 56 2449422
57 65 2971257
150 37 1854226
37 150 1854816
117 37 38840
37 117 1164226
57 24 2972432
27 7 2730004
27 46 2730004
27 36 2730004
27 11 2730004
27 71 2966596
27 12 40142
33 130 2964831
7 27 2104770
137 165 2663087
154 66 2967986
146 97 2040562
171 169 1948964
171 144 1776171
2 142 2724599
63 65 2996863
71 27 2723997
66 154 2966990
58 37 45404
55 117 650006
55 45 650006
55 73 650006
55 58 650006
55 150 650006
55 99 650006
142 2 2732240
46 27 1342861
171 119 2617027
135 56 1882136
168 135 1775938
91 63 2109560
91 76 200299
76 91 54507
24 142 2667945
24 157 224042
127 35 2634987
157 24 207430
157 63 2980017
10 91 2472979
10 24 2631739
63 153 2997747
97 65 2636958
24 10 2992455
153 63 2965609
142 24 2627684
35 127 2634722
141 39 1855219
78 65 2449405
65 97 2548081
82 137 116751
82 104 116751
82 47 2035378
82 3 2472400
127 165 2371592
137 127 2983645
46 71 123453
137 39 2975288
64 130 2979827
3 82 2027872
3 14 808212
3 165 808212
3 130 808212
71 46 126175
146 157 2450713
9 168 1154396
9 56 2473003
9 89 805855
24 2 2997470
94 167 138983
2 24 2452656
39 127 829071
2 40 1888355
39 82 1175961
39 47 142714
39 3 1247992
127 39 829338
66 52 2988899
63 91 2725021
39 137 1247992
39 165 2966561
165 39 2026577
141 137 1855219
141 104 1855219
141 47 1855219
153 24 2965417
80 156 2620170
80 23 2717999
157 146 2988662
45 73 2549433
86 165 2735831
169 171 2103530
56 111 2888673
167 43 2726992
167 65 2726992
56 9 2296724
56 89 1963927
86 82 1923919
56 168 1850311
91 2 2730534
45 150 2374514
165 86 1412976
63 43 2304403
52 137 1337692
47 137 1923452
47 104 1923452
33 137 291292
167 68 2628003
167 146 2628003
157 97 297855
7 140 2038490
73 37 372234
122 163 1148433
51 80 2370893
130 64 2961403
163 122 897068
66 33 304534
80 51 2438757
150 73 307694
144 169 2716116
146 68 2372603
146 167 2040562
47 165 312505
111 89 1510482
24 63 2732881
33 82 2964831
33 66 1837826
33 5 2973898
33 154 329967
47 3 2034820
45 55 372120
86 35 2368974
156 7 725094
153 91 2283733
153 94 376445
77 7 376448
63 106 2373698
104 86 382154
104 35 2471442
145 171 383980
156 140 384159
156 126 1490095
156 80 2620965
156 155 384159
156 46 1941654
156 23 2448564
156 36 384159
156 51 384159
156 27 384159
156 152 1490095
156 44 1490095
156 11 384159
156 71 384159
37 73 812598
146 63 2641076
111 85 1155073
155 80 388366
155 27 388366
164 123 2360677
35 72 906855
60 86 393489
5 86 838360
82 86 2031380
39 141 2966561
39 86 637978
56 85 2888673
24 40 2981523
142 91 2732240
24 59 2992455
24 94 2992455
24 78 2992455
24 57 2981824
72 86 625866
72 35 625866
2 18 2304819
146 24 2385622
66 137 629309
66 86 629740
60 92 632311
130 86 634645
47 86 2632479
3 86 1867222
66 127 1775857
64 14 644314
27 156 645541
92 86 646829
154 52 2982145
154 86 647434
137 86 647763
33 86 648340
55 37 2121664
65 43 2974762
35 86 1492234
14 165 1942641
23 126 2546335
23 7 2546335
23 46 2546335
23 152 2546335
23 44 2546335
2 91 2981957
43 65 2452017
43 63 2733914
43 167 959154
44 23 895413
127 66 1925036
147 75 2707575
23 49 720390
153 146 720591
171 28 2614435
171 145 2381384
171 147 897995
7 156 810621
7 126 810621
7 155 810621
7 46 810621
7 23 810621
7 36 2622481
7 51 810621
7 152 810621
7 44 810621
7 11 810621
7 71 810621
78 146 724245
23 80 2976453
85 56 1850304
142 40 913839
3 35 822154
56 121 751937
86 137 2368974
86 3 1923919
64 137 2439385
76 146 2550148
146 142 807841
75 147 2637027
45 37 824434
68 97 2550829
65 167 2372674
142 146 807290
5 33 2023279
122 147 808095
37 45 825522
35 104 2634634
146 91 2556544
3 137 822154
3 104 1939828
3 47 2034910
3 39 2034390
144 171 2361921
57 146 2637639
57 63 2635786
63 146 2641955
63 57 2998336
63 118 1494066
63 68 2723817
30 24 2623647
40 10 847136
80 27 888262
68 63 2965285
127 154 2981226
46 69 891395
137 141 2098555
10 157 1355773
10 40 901063
157 10 1417254
39 130 2966561
28 147 2619753
86 52 2368974
24 30 2668160
2 30 977547
91 142 2730534
32 151 1998961
86 5 2368974
86 14 2368974
86 60 2368974
86 127 2368974
36 140 2964776
165 82 1154889
82 127 1949772
127 82 1948630
47 82 2034820
47 39 1159710
51 27 1160061
155 7 1170891
57 91 1182852
82 39 1185391
94 153 2656985
137 104 2098555
137 47 2098555
140 93 1249612
137 3 2098555
63 24 2998219
82 33 1254533
86 79 2548286
10 142 1268654
76 65 2636683
63 76 2099539
63 167 2106498
65 76 2641978
168 56 1781235
63 94 2304403
142 10 1267864
153 40 2965417
24 65 2142412
156 162 1317752
82 141 1321843
146 76 2551648
27 80 2730004
164 122 1325585
154 127 2968400
46 152 1330258
137 64 1326688
130 33 1328707
153 68 2971750
153 76 2965609
153 167 2965609
68 153 2979140
91 30 1327854
94 63 2656985
123 164 1335109
123 163 1335109
123 122 1335109
28 75 2029551
168 9 1775938
97 146 1435961
30 91 1347261
122 28 2634801
94 157 2106030
130 52 1403908
130 60 1403908
46 156 1407785
2 10 1412854
76 97 1421173
76 63 1421695
167 153 1421724
68 76 1421827
76 153 1421835
82 154 1430062
169 144 1506421
63 157 2724213
157 94 1441537
24 146 2385042
65 24 2124177
155 44 2009644
28 134 2443715
28 164 2974414
28 0 2029551
28 123 2029551
141 86 1497172
141 125 1855341
141 35 1497172
40 153 2912499
152 44 2963905
63 113 2636674
73 150 1855488
94 24 2656985
122 164 2636197
94 43 1527435
94 57 2754173
24 43 2305840
142 63 1751383
65 148 2980246
75 164 1756649
148 65 2621096
5 165 1762344
63 2 2636674
63 142 1778462
28 119 1771741
151 65 1785954
151 91 1785922
151 43 1785949
151 76 1786170
151 24 1786200
151 63 1785931
121 56 1799564
68 113 1837030
45 117 1844683
117 45 1845550
171 123 2117295
123 171 1852676
132 111 1852959
141 64 1855341
144 122 1858765
122 144 1858888
52 86 1859380
52 66 2268905
119 28 1934910
28 144 2029551
28 163 2029551
28 122 2029551
14 52 1942641
14 5 1942641
14 60 1942641
5 137 1942907
44 155 1945245
82 165 1949772
52 60 2268905
52 154 2268905
27 155 2017576
155 36 2020907
165 104 2026140
165 141 2026140
28 70 2029551
28 171 2029551
28 161 2029551
28 114 2029551
28 128 2029551
35 39 2442611
39 92 2031131
92 39 2034540
76 78 2035588
97 43 2036043
43 97 2046684
91 10 2059502
36 46 2111590
7 12 2119644
65 63 2120101
80 7 2451569
91 59 2453967
168 89 2296463
71 155 2357210
165 3 2367777
150 45 2374908
28 145 2372026
114 28 2976300
63 97 2375498
122 75 2388010
94 2 2394838
64 82 2439385
64 104 2439385
64 141 2439385
64 47 2439385
64 3 2439385
64 39 2439385
71 36 2442193
35 82 2442611
35 137 2442611
35 141 2442611
35 14 2442611
35 60 2442611
35 3 2442611
35 165 2442611
35 130 2442611
78 76 2449405
37 105 2465161
60 52 2718369
43 57 2476562
57 43 2478986
24 167 2484466
91 167 2546481
150 58 2547211
130 35 2548497
82 52 2548762
58 45 2978298
45 58 2978802
167 59 2620180
148 97 2621096
148 43 2621096
148 146 2621096
148 63 2621096
148 167 2623223
3 52 2976682
167 148 2623004
167 91 2623123
119 147 2624006
44 80 2628348
18 153 2627773
80 44 2630370
91 146 2632539
127 86 2635239
152 27 2637131
146 94 2639257
57 68 2642205
94 91 2656985
94 10 2672186
99 105 2706926
46 23 2711087
119 75 2711612
147 119 2718847
43 91 2979953
57 94 2847952
92 154 2967725
164 28 2975690
33 138 2973898
91 43 2975809
37 99 2977546
152 155 2977563
146 65 2982114
