24 153 5343731
24 91 5343732
130 165 4969865
135 168 1415426
58 73 5472073
73 45 5227194
73 58 5227194
163 164 5132770
163 123 5132770
163 147 5132770
163 75 3935592
134 145 3325862
68 167 5037371
65 78 4629861
137 82 5244997
137 52 4618933
23 156 5475837
91 24 5233264
91 153 4709046
127 137 3057475
40 30 30620
40 2 5472607
40 142 4481098
40 24 4830533
7 80 3656741
56 135 5158883
68 146 4001172
35 52 2442611
164 163 1323896
147 163 32844
140 7 5223426
140 155 5223426
140 36 5223803
140 27 5223426
140 156 5223426
140 126 5223426
140 80 5223426
140 46 5223426
140 69 5223426
140 51 5223426
140 152 5223426
140 44 5223426
140 11 5223426
140 71 5223426
86 130 3309713
165 137 5149666
165 52 5034731
165 5 3767216
165 14 3767216
165 60 4621992
165 127 4884077
165 35 4621992
165 130 4621992
111 56 4866420
57 65 4970206
150 37 1854226
37 150 1854816
117 37 4261267
37 117 4351685
57 24 5222191
27 7 2730004
27 46 2730004
27 36 2730004
27 11 2730004
27 71 3336681
27 12 40142
33 130 5493670
7 27 2104770
137 165 5244866
154 66 5203378
146 97 3681513
171 169 4625765
171 144 4625765
2 142 5489960
63 65 5229297
71 27 4280270
66 154 5058579
58 37 45404
55 117 650006
55 45 650006
55 73 650006
55 58 650006
55 150 650006
55 99 650006
142 2 5392184
46 27 4609187
171 119 5131804
135 56 3737158
168 135 1775938
91 63 5338883
91 76 200299
76 91 54507
24 142 4989642
24 157 224042
127 35 2634987
157 24 207430
157 63 5228543
10 91 2472979
10 24 2631739
63 153 5491001
97 65 4006683
24 10 4993066
153 63 5409282
142 24 5392184
35 127 2634722
141 39 3057867
78 65 2449405
65 97 4629861
82 137 4519126
82 104 116751
82 47 2035378
82 3 3737159
127 165 4964401
137 127 4262832
46 71 4611821
137 39 5244997
64 130 4869406
3 82 4540395
3 14 808212
3 165 808212
3 130 808212
71 46 4605261
146 157 2450713
9 168 1154396
9 56 5057461
9 89 805855
24 2 4562770
94 167 3366038
2 24 4873580
39 127 4633831
2 40 4873501
39 82 1175961
39 47 4791710
39 3 1247992
127 39 4437785
66 52 5470992
63 91 5488484
39 137 4633897
39 165 4633831
165 39 4613802
141 137 4967714
141 104 4967714
141 47 4967714
153 24 4952121
80 156 2620170
80 23 5485739
157 146 5146222
45 73 4002170
86 165 5142373
169 171 2103530
56 111 4457431
167 43 5494657
167 65 5494657
56 9 5077551
56 89 5497680
86 82 3841129
56 168 1850311
91 2 4875846
45 150 2374514
165 86 5142020
63 43 5153610
52 137 1337692
47 137 5041726
47 104 5041726
33 137 4550693
167 68 5046506
167 146 2628003
157 97 297855
7 140 2038490
73 37 5227194
122 163 5057773
51 80 4431984
130 64 4864037
163 122 5132770
66 33 3153983
80 51 3167266
150 73 307694
144 169 5214854
146 68 5132108
146 167 4630359
47 165 312505
111 89 4261940
24 63 5343731
33 82 4974348
33 66 4974348
33 5 5133717
33 154 4951705
47 3 5041726
45 55 372120
86 35 3826304
156 7 5142239
153 91 3782808
153 94 5219736
77 7 3938390
63 106 5489571
104 86 5483191
104 35 5483191
145 171 383980
156 140 384159
156 126 5142239
156 80 5235227
156 155 5146604
156 46 5142239
156 23 5304006
156 36 384159
156 51 384159
156 27 384159
156 152 5142239
156 44 5142239
156 11 384159
156 71 384159
37 73 3833519
146 63 5217584
111 85 5043041
155 80 4863654
155 27 5485927
164 123 5219646
35 72 906855
60 86 5478832
5 86 3141050
82 86 5493936
39 141 4365162
39 86 4633897
56 85 5498294
24 40 4991438
142 91 5392184
24 59 5346361
24 94 4552604
24 78 4552604
24 57 5343731
72 86 5482049
72 35 5482049
2 18 4873595
146 24 5473972
66 137 629309
66 86 5470992
60 92 4534334
130 86 5481663
47 86 5472467
3 86 5485261
66 127 1775857
64 14 644314
27 156 645541
92 86 4454708
154 52 5484743
154 86 5484743
137 86 3060584
33 86 5493649
55 37 2121664
65 43 4969241
35 86 5492323
14 165 1942641
23 126 3652467
23 7 3652467
23 46 3652467
23 152 3925116
23 44 5470853
2 91 4873569
43 65 4365454
43 63 4434489
43 167 5487078
44 23 5230673
127 66 1925036
147 75 2707575
23 49 720390
153 146 720591
171 28 4625765
171 145 5131804
171 147 4625765
7 156 810621
7 126 810621
7 155 810621
7 46 810621
7 23 810621
7 36 2622481
7 51 810621
7 152 810621
7 44 810621
7 11 810621
7 71 810621
78 146 3662839
23 80 5491765
85 56 5487640
142 40 4718360
3 35 3831116
56 121 751937
86 137 3060792
86 3 3054473
64 137 2439385
76 146 4945058
146 142 807841
75 147 3834410
45 37 824434
68 97 3057955
65 167 4969294
142 146 807290
5 33 3039240
122 147 4963820
37 45 825522
35 104 5485392
146 91 4625998
3 137 4540395
3 104 4540395
3 47 4275688
3 39 4275688
144 171 5214854
57 146 3853216
57 63 5235069
63 146 5152984
63 57 4633542
63 118 1494066
63 68 4635977
30 24 2623647
40 10 4978266
80 27 5488464
68 63 4021662
127 154 2981226
46 69 891395
137 141 5244997
10 157 1355773
10 40 4602125
157 10 5222751
39 130 3676173
28 147 5129462
86 52 4529509
24 30 2668160
2 30 4947065
91 142 4452138
32 151 1998961
86 5 2368974
86 14 2368974
86 60 2368974
86 127 3758969
36 140 4617923
165 82 1154889
82 127 1949772
127 82 1948630
47 82 5041726
47 39 4798122
51 27 1160061
155 7 4863654
57 91 5222191
82 39 1185391
94 153 5218400
137 104 5244997
137 47 5244997
140 93 4871819
137 3 5244997
63 24 5488484
82 33 1254533
86 79 2548286
10 142 5042260
76 65 2636683
63 76 5487622
63 167 4635977
65 76 4884642
168 56 1781235
63 94 5081686
142 10 5173014
153 40 4952121
24 65 3071714
156 162 1317752
82 141 1321843
146 76 5146397
27 80 4549471
164 122 4524851
154 127 2968400
46 152 1330258
137 64 3912289
130 33 4967826
153 68 4446709
153 76 4363324
153 167 4363324
68 153 4454384
91 30 1327854
94 63 5233483
123 164 5466340
123 163 4007972
123 122 1335109
28 75 5129462
168 9 1775938
97 146 3682399
30 91 1347261
122 28 4963820
94 157 4360615
130 52 1403908
130 60 1403908
46 156 1407785
2 10 1412854
76 97 3926960
76 63 1421695
167 153 1421724
68 76 1421827
76 153 3842239
82 154 1430062
169 144 1506421
63 157 5489571
157 94 3678593
24 146 5473831
65 24 2124177
155 44 4863654
28 134 5129462
28 164 5129462
28 0 5129462
28 123 5129462
141 86 1497172
141 125 1855341
141 35 1497172
40 153 4830533
152 44 3666148
63 113 5473202
73 150 5227194
94 24 5185295
122 164 4963820
94 43 3366038
94 57 5231105
24 43 4450337
142 63 1751383
65 148 5236020
75 164 1756649
148 65 4277362
5 165 1762344
63 2 4384900
63 142 1778462
28 119 5473259
151 65 1785954
151 91 1785922
151 43 1785949
151 76 1786170
151 24 1786200
151 63 1785931
121 56 1799564
68 113 1837030
45 117 1844683
117 45 1845550
171 123 4625765
123 171 1852676
132 111 4972407
141 64 1855341
144 122 5214854
122 144 4963820
52 86 4957189
52 66 5482362
119 28 1934910
28 144 5129462
28 163 5129462
28 122 5129462
14 52 1942641
14 5 1942641
14 60 1942641
5 137 1942907
44 155 1945245
82 165 3048145
52 60 5482362
52 154 5482362
27 155 4453128
155 36 4863654
165 104 2026140
165 141 4544353
28 70 3241075
28 171 5129462
28 161 5129462
28 114 5129462
28 128 5129462
35 39 2442611
39 92 4017276
92 39 4454708
76 78 5129543
97 43 2036043
43 97 2046684
91 10 4709046
36 46 2111590
7 12 5468389
65 63 5231479
80 7 2451569
91 59 4710017
168 89 2296463
71 155 4879284
165 3 2367777
150 45 2374908
28 145 2372026
114 28 2976300
63 97 5229297
122 75 2388010
94 2 2394838
64 82 3757307
64 104 2439385
64 141 2439385
64 47 2439385
64 3 2439385
64 39 2439385
71 36 2442193
35 82 3757465
35 137 2442611
35 141 2442611
35 14 2442611
35 60 2442611
35 3 2442611
35 165 5035857
35 130 2442611
78 76 5131747
37 105 2465161
60 52 3939779
43 57 4268470
57 43 4275017
24 167 2484466
91 167 2546481
150 58 5038098
130 35 2548497
82 52 3829258
58 45 3326740
45 58 4447167
167 59 2620180
148 97 4882601
148 43 4451631
148 146 2621096
148 63 2621096
148 167 2623223
3 52 4532157
167 148 2623004
167 91 2623123
119 147 3829413
44 80 2628348
18 153 2627773
80 44 5469994
91 146 3761084
127 86 4964401
152 27 4621614
146 94 5050540
57 68 2642205
94 91 5185295
94 10 3366038
99 105 5034343
46 23 2711087
119 75 4453932
147 119 5138845
43 91 4434489
57 94 5230928
92 154 4960281
164 28 5222725
33 138 3828349
91 43 2975809
37 99 3833980
152 155 4627120
146 65 3654072
9 87 5236207
146 43 3058594
99 37 3743729
57 153 3674801
36 155 3131436
169 147 3139825
147 169 3141023
155 156 4863654
155 140 4863654
155 126 4863654
155 12 4863654
155 46 4863654
155 93 4863654
155 23 4863654
155 51 4863654
155 152 5125210
155 11 4863654
155 136 4863654
155 71 4863654
127 52 3153557
65 106 4948958
30 2 4946312
119 123 3318754
87 56 3854424
91 106 3324098
87 168 3854424
134 28 3332582
94 65 5232596
102 58 3650675
23 136 3652467
130 82 3843597
73 117 5227194
73 55 5227194
52 3 5230921
130 14 3671519
126 155 3673498
87 9 5146581
111 88 3832787
126 80 3758429
117 73 4263375
89 111 3796527
52 82 3827961
123 134 3829836
123 147 3829099
134 70 3833863
78 68 3835778
82 130 3911025
68 78 3842180
76 68 3842239
23 155 3842270
23 51 3842270
97 63 4872588
87 135 3853503
87 85 3853503
97 76 3856034
137 130 3912289
147 164 3918354
164 147 3927735
146 30 3999568
30 146 3951011
92 72 4454708
92 82 4454708
92 64 4454708
92 137 4454708
92 52 4454708
92 104 4454708
92 115 4454708
92 66 4454708
92 5 4454708
92 141 4454708
92 47 4454708
92 6 4454708
92 14 4454708
92 60 4454708
92 127 4454708
92 3 4454708
92 138 4454708
92 35 4454708
92 33 4454708
92 165 4454708
154 137 4008554
123 28 4248459
58 150 5472073
65 68 4261101
66 115 4263859
71 140 4267501
43 24 4434489
91 57 4274546
43 148 4356544
76 106 5143842
2 63 4383814
43 153 4434489
135 9 4436266
97 10 4436473
9 135 4439936
27 51 4440777
75 119 4453717
154 92 4948088
3 92 4521943
33 92 4455405
82 92 4455495
47 92 4455696
165 92 4455889
72 92 4456085
127 92 4459238
40 91 4481949
115 52 4511352
115 66 4511581
14 92 4523883
33 14 4951705
137 92 4529218
134 119 5231590
75 98 4603016
52 92 4607985
82 64 4610296
171 70 4625765
171 134 4625765
171 164 4625765
171 163 4625765
171 159 4625765
171 122 4625765
171 161 4625765
171 25 4625765
171 114 4625765
171 75 4625765
171 128 4625765
75 171 4629283
146 57 4630359
163 98 4862851
0 134 4868742
80 155 4869254
97 113 4872588
97 148 4876731
10 65 4889356
52 165 5046245
126 71 5488914
122 169 4963820
122 134 5211885
122 171 4963820
122 119 4963820
122 123 4963820
122 145 4963820
130 127 5472746
65 94 5231479
65 57 4969294
132 89 4969423
3 66 4970150
60 165 4973460
94 76 5185295
91 94 5140099
82 6 5032307
71 126 5489253
111 132 5037442
134 123 5039376
11 140 5055645
163 144 5132770
80 152 5058949
144 163 5214854
47 66 5060812
66 47 5063014
46 155 5120340
94 146 5131255
163 169 5132770
163 134 5211772
163 171 5484588
163 119 5132770
163 28 5132770
163 145 5132770
123 119 5133403
44 156 5141731
144 70 5214854
144 134 5214854
144 164 5214854
144 159 5214854
144 119 5214854
144 161 5214854
144 0 5214854
144 98 5214854
144 123 5214854
144 28 5214854
144 147 5214854
144 114 5214854
144 145 5214854
144 75 5214854
144 128 5214854
127 14 5219746
44 7 5222072
137 5 5244866
58 117 5472073
76 157 5474810
85 111 5487640
85 89 5487644
164 134 5479456
