24 153 31838584
24 91 31851737
130 165 31844950
135 168 31752782
58 73 31817719
73 45 31645123
73 58 31493091
163 164 31226168
163 123 28473504
163 147 28473504
163 75 31577080
134 145 29321017
68 167 29757001
65 78 26816504
137 82 30627829
137 52 31671734
23 156 31659433
91 24 31838539
91 153 31742273
127 137 20242091
40 30 30620
40 2 27784262
40 142 15934916
40 24 31684015
7 80 30038542
56 135 31242292
68 146 29664548
35 52 28966693
164 163 29074607
147 163 28473829
140 7 19573433
140 155 19573433
140 36 19573433
140 27 19573433
140 156 19573433
140 126 19573433
140 80 19573433
140 46 19573433
140 69 19573433
140 51 19573433
140 152 19573433
140 44 19573433
140 11 19573433
140 71 19573433
86 130 30288216
165 137 30883029
165 52 30563623
165 5 30469863
165 14 30538096
165 60 29237025
165 127 31664241
165 35 30538096
165 130 30563623
111 56 31837694
57 65 31743225
150 37 22502470
37 150 22505178
117 37 31830494
37 117 31830889
57 24 31824838
27 7 25685498
27 46 31487427
27 36 30957435
27 11 30967621
27 71 31849493
27 12 40142
33 130 31475471
7 27 30011870
137 165 29590452
154 66 30627548
146 97 30529051
171 169 31738054
171 144 17843346
2 142 29789646
63 65 31689493
71 27 31489387
66 154 31819941
58 37 21877318
55 117 31557253
55 45 31492450
55 73 31237906
55 58 31492450
55 150 31237906
55 99 31492450
142 2 29975184
46 27 30023678
171 119 29228385
135 56 31498100
168 135 31666370
91 63 31838539
91 76 31575164
76 91 7191486
24 142 31871436
24 157 25548062
127 35 23888357
157 24 23097141
157 63 28379763
10 91 31501772
10 24 31751098
63 153 31690816
97 65 31244654
24 10 31786699
153 63 31692582
142 24 31852039
35 127 23886427
141 39 29744307
78 65 26815104
65 97 31231907
82 137 31827375
82 104 30634751
82 47 20153318
82 3 31827375
127 165 30959310
137 127 24421591
46 71 14134767
137 39 29843396
64 130 30974281
3 82 31667913
3 14 30984175
3 165 28120224
3 130 31491113
71 46 28707932
146 157 31578283
9 168 30548178
9 56 31617444
9 89 31476030
24 2 31871436
94 167 31686333
2 24 29789649
39 127 30276607
2 40 28112282
39 82 31233665
39 47 30373935
39 3 31162565
127 39 23888357
66 52 31578161
63 91 31688841
39 137 30373935
39 165 31756577
165 39 29237025
141 137 29744307
141 104 29744307
141 47 29744307
153 24 31689597
80 156 30456031
80 23 30555783
157 146 31841062
45 73 31564159
86 165 29833024
169 171 29869959
56 111 31845783
167 43 29662375
167 65 28128683
56 9 31869789
56 89 31241864
86 82 24222466
56 168 31592130
91 2 31754050
45 150 31142653
165 86 31044230
63 43 31689493
52 137 22666265
47 137 31758667
47 104 31758667
33 137 4550693
167 68 30369751
167 146 31669364
157 97 30353179
7 140 19569446
73 37 31832946
122 163 31577796
51 80 27247426
130 64 31036968
163 122 30542605
66 33 29670210
80 51 27248363
150 73 26313360
144 169 5214854
146 68 31667088
146 167 31649717
47 165 312505
111 89 26897615
24 63 31838383
33 82 31047839
33 66 31837939
33 5 31656408
33 154 31047839
47 3 31758667
45 55 26917525
86 35 31563371
156 7 25517249
153 91 31689597
153 94 22026687
77 7 31557991
63 106 31426416
104 86 29579800
104 35 31760685
145 171 30019419
156 140 19660641
156 126 30441899
156 80 31586254
156 155 25517249
156 46 30955033
156 23 31671005
156 36 19660641
156 51 25517249
156 27 25517249
156 152 30955033
156 44 31652413
156 11 30624320
156 71 25517249
37 73 31831590
146 63 29254783
111 85 31587107
155 80 27335854
155 27 27335854
164 123 28448682
35 72 22487005
60 86 29591099
5 86 23988636
82 86 29596546
39 141 30276607
39 86 29576843
56 85 31763752
24 40 31955575
142 91 31850608
24 59 27491933
24 94 25091870
24 78 31615620
24 57 31615704
72 86 29577075
72 35 29577075
2 18 10837715
146 24 31659656
66 137 629309
66 86 29597196
60 92 4534334
130 86 30368209
47 86 29697186
3 86 31667913
66 127 1775857
64 14 644314
27 156 645541
92 86 29581870
154 52 31587804
154 86 29594154
137 86 31060890
33 86 31211763
55 37 31827713
65 43 31669809
35 86 31561280
14 165 30991781
23 126 29659087
23 7 29316372
23 46 29316372
23 152 29316372
23 44 30031980
2 91 28376757
43 65 30511913
43 63 23737240
43 167 29607968
44 23 30442483
127 66 10222005
147 75 31572139
23 49 25553240
153 146 29159354
171 28 30021086
171 145 31738054
171 147 31576272
7 156 27943700
7 126 27943700
7 155 27943700
7 46 27943700
7 23 29321056
7 36 27943700
7 51 31220458
7 152 27943700
7 44 29743961
7 11 29171035
7 71 28729894
78 146 24584512
23 80 30624029
85 56 29076650
142 40 30121461
3 35 31667913
56 121 31822570
86 137 27158284
86 3 31563371
64 137 17915687
76 146 28466132
146 142 28395349
75 147 25692290
45 37 31564159
68 97 31563903
65 167 28970111
142 146 30753950
5 33 31836203
122 147 24304294
37 45 31496106
35 104 30452723
146 91 31060977
3 137 31563766
3 104 31667913
3 47 31667913
3 39 31579709
144 171 5214854
57 146 31736634
57 63 31824838
63 146 31688399
63 57 31689493
63 118 27848272
63 68 30723062
30 24 31958881
40 10 28373399
80 27 31564032
68 63 30979174
127 154 14121062
46 69 891395
137 141 29843396
10 157 31667854
10 40 30691120
157 10 31651295
39 130 31756577
28 147 31215363
86 52 21823697
24 30 31871436
2 30 28896762
91 142 31837897
32 151 1998961
86 5 21823803
86 14 28126737
86 60 19897040
86 127 31127938
36 140 10302769
165 82 28128720
82 127 1949772
127 82 1948630
47 82 31758667
47 39 31758667
51 27 31740074
155 7 27941866
57 91 31824838
82 39 28541052
94 153 27338997
137 104 29843396
137 47 31847843
140 93 8065512
137 3 30277272
63 24 31688399
82 33 29253988
86 79 15251965
10 142 23099704
76 65 31836506
63 76 30448453
63 167 31136193
65 76 27515388
168 56 30628007
63 94 30299354
142 10 23100830
153 40 31689121
24 65 31271506
156 162 1317752
82 141 27429489
146 76 30464300
27 80 30033519
164 122 19485323
154 127 20086073
46 152 30019371
137 64 17915744
130 33 31231796
153 68 4446709
153 76 10480817
153 167 31670139
68 153 4454384
91 30 31687793
94 63 30362659
123 164 31521569
123 163 31648517
123 122 1335109
28 75 30887127
168 9 31666370
97 146 30540679
30 91 31958881
122 28 31580461
94 157 31790286
130 52 31137939
130 60 17824416
46 156 23874175
2 10 22710121
76 97 29154722
76 63 30452986
167 153 31669126
68 76 28548610
76 153 17825498
82 154 27254717
169 144 7280364
63 157 28378662
157 94 31750361
24 146 31653678
65 24 28721473
155 44 29846310
28 134 31841978
28 164 30887127
28 0 30887127
28 123 30887127
141 86 20594806
141 125 20761760
141 35 1497172
40 153 31686000
152 44 30529821
63 113 20532356
73 150 31664818
94 24 30362659
122 164 28970861
94 43 21912030
94 57 31854708
24 43 21859636
142 63 20615925
65 148 31217415
75 164 1756649
148 65 31667656
5 165 17317651
63 2 27323140
63 142 19908046
28 119 29832752
151 65 19493267
151 91 19493235
151 43 19493262
151 76 19493485
151 24 19493515
151 63 19493244
121 56 31819974
68 113 1837030
45 117 22769924
117 45 29583172
171 123 28363119
123 171 7298297
132 111 31670584
141 64 10243807
144 122 5214854
122 144 4963820
52 86 20004725
52 66 31583053
119 28 26214272
28 144 8168638
28 163 31490966
28 122 31582124
14 52 28571820
14 5 20614840
14 60 16030286
5 137 15674329
44 155 22172804
82 165 30549418
52 60 30294900
52 154 31758435
27 155 29690069
155 36 27335854
165 104 28046946
165 141 28974662
28 70 30891788
28 171 31844332
28 161 30887127
28 114 30887127
28 128 13687377
35 39 26302014
39 92 26659819
92 39 26634895
76 78 31836506
97 43 23634108
43 97 23648263
91 10 31261788
36 46 2111590
7 12 27943700
65 63 31673910
80 7 27933939
91 59 20530098
168 89 24828241
71 155 22409481
165 3 29656330
150 45 26573536
28 145 31138555
114 28 12823668
63 97 30999595
122 75 14029412
94 2 2394838
64 82 18268735
64 104 8684496
64 141 9883913
64 47 2439385
64 3 2439385
64 39 2439385
71 36 27763152
35 82 26302014
35 137 22748246
35 141 2442611
35 14 2442611
35 60 2442611
35 3 2442611
35 165 23888338
35 130 23886427
78 76 31830725
37 105 8078585
60 52 12225571
43 57 21906475
57 43 31743225
24 167 30613775
91 167 31273607
150 58 31217685
130 35 23283744
82 52 29743980
58 45 29583050
45 58 29230334
167 59 2620180
148 97 30612149
148 43 31649050
148 146 28987873
148 63 25631179
148 167 19653689
3 52 30022090
167 148 27955504
167 91 31577676
119 147 29666065
44 80 23276065
18 153 2627773
80 44 31835730
91 146 31673661
127 86 30368602
152 27 22065036
146 94 28723497
57 68 17070113
94 91 31502853
94 10 31686333
99 105 9958142
46 23 30349941
119 75 17308175
147 119 31499291
43 91 23737240
57 94 30366301
92 154 31653028
164 28 28493179
33 138 3828349
91 43 31575164
37 99 20246317
152 155 19553296
146 65 31581635
9 87 30548178
146 43 21800486
99 37 18453553
57 153 18637319
36 155 28704923
169 147 15400980
147 169 26313976
155 156 27335854
155 140 27335854
155 126 27335854
155 12 27335854
155 46 29765831
155 93 27335854
155 23 31571913
155 51 27335854
155 152 27335854
155 11 28465726
155 136 27335854
155 71 27335854
127 52 29234542
65 106 26050395
30 2 28977380
119 123 29666065
87 56 31844106
91 106 28566179
87 168 28540483
134 28 22583531
94 65 28383688
102 58 3650675
23 136 29316372
130 82 28111461
73 117 31132955
73 55 30531460
52 3 30887204
130 14 30288712
126 155 22070603
87 9 31754319
111 88 3832787
126 80 3758429
117 73 31046504
89 111 3796527
52 82 26562221
123 134 14130735
123 147 7552815
134 70 22583531
78 68 16013341
82 130 27526771
68 78 19395085
76 68 28547233
23 155 30282745
23 51 28117145
97 63 30963294
87 135 29323564
87 85 31157125
97 76 29144870
137 130 31472514
147 164 26313976
164 147 23010814
146 30 31665738
30 146 31662558
92 72 26986284
92 82 27249820
92 64 26634895
92 137 30871521
92 52 26634895
92 104 30612402
92 115 26634895
92 66 31653028
92 5 26634895
92 141 26634895
92 47 26634895
92 6 26634895
92 14 26634895
92 60 29318334
92 127 26634895
92 3 26634895
92 138 26634895
92 35 26634895
92 33 26634895
92 165 26634895
154 137 30272097
123 28 19971785
58 150 31218050
65 68 20698238
66 115 4263859
71 140 4267501
43 24 23737240
91 57 31838539
43 148 31601607
76 106 5143842
2 63 21283875
43 153 23737240
135 9 30548838
97 10 26121768
9 135 30548927
27 51 31740844
75 119 31143157
154 92 31757685
3 92 4521943
33 92 28364121
82 92 27247467
47 92 4455696
165 92 4455889
72 92 27237303
127 92 4459238
40 91 31684015
115 52 28021516
115 66 4511581
14 92 4523883
33 14 22438560
137 92 4529218
134 119 30459362
75 98 4603016
52 92 4607985
82 64 29229118
171 70 30021086
171 134 21821838
171 164 30021086
171 163 30021086
171 159 4625765
171 122 30021086
171 161 21821838
171 25 4625765
171 114 21821838
171 75 21821838
171 128 4625765
75 171 27600447
146 57 30612804
163 98 28473504
0 134 23621687
80 155 30471396
97 113 19057749
97 148 29231067
10 65 31234210
52 165 30554507
126 71 5488914
122 169 14029412
122 134 17831122
122 171 14029412
122 119 29755961
122 123 17077769
122 145 14029412
130 127 19656926
65 94 28099437
65 57 31669809
132 89 24422028
3 66 20760417
60 165 12567714
94 76 21874447
91 94 31575164
82 6 5032307
71 126 5489253
111 132 31822394
134 123 22583531
11 140 14475408
163 144 5132770
80 152 20252509
144 163 5214854
47 66 20699452
66 47 5063014
46 155 31658951
94 146 29875927
163 169 28473504
163 134 28473504
163 171 28473504
163 119 29756481
163 28 31489625
163 145 28473504
123 119 18431436
44 156 27262257
144 70 5214854
144 134 5214854
144 164 5214854
144 159 5214854
144 119 5214854
144 161 5214854
144 0 5214854
144 98 5214854
144 123 5214854
144 28 8413463
144 147 5214854
144 114 5214854
144 145 5214854
144 75 5214854
144 128 5214854
127 14 7822106
44 7 30011883
137 5 5244866
58 117 31047544
76 157 30454480
85 111 31233273
85 89 5487644
164 134 30441727
141 130 31474744
157 76 30621731
111 135 23387512
60 130 15949095
135 111 19985664
99 45 15846552
99 73 5640472
99 58 5640473
99 117 5640473
117 99 5640915
66 133 5643737
33 133 5644238
153 10 31826411
68 43 22420284
154 82 12464826
58 99 5652162
142 157 15943292
157 142 15840856
23 140 9719024
39 104 31157341
39 35 27429939
56 87 31501082
140 23 9719229
43 157 23391787
43 76 22675042
2 148 6614817
43 68 19507501
0 164 6704612
24 76 21512801
52 35 31640381
14 86 21920031
76 24 21708022
146 10 31665862
10 146 31667021
57 2 6891693
57 142 30357110
40 146 7156946
24 97 29076288
130 141 28553837
123 75 7204589
52 127 23787296
57 76 24738551
14 127 7219507
97 24 29334975
3 141 31563766
117 58 31046504
135 89 31471696
73 61 24496577
82 35 12996911
37 58 31841338
111 9 29588724
153 142 24966557
78 24 15672008
146 2 30293092
68 166 7377484
165 64 7379048
64 165 7385703
86 64 7384623
64 86 7385703
153 43 7392500
46 80 26215646
97 68 30344798
97 167 26121768
43 106 21900925
157 68 27452564
68 157 27455108
57 106 28581567
141 127 30540858
5 39 9723526
127 141 31473814
23 12 7807584
23 36 25000332
23 27 30960814
23 11 30960814
23 71 25000332
11 23 30968584
148 157 29240588
111 103 31652147
103 111 31575796
47 72 30864505
86 39 26290145
97 78 25531641
78 97 29149179
126 12 28019981
132 103 29834106
132 85 7913368
39 52 22752498
127 104 29830675
103 132 29835162
15 10 11188829
52 115 28027931
76 113 8061025
103 87 31739538
14 3 30991781
56 103 31233546
157 148 31839893
10 15 17673544
75 28 31575650
64 138 31578255
51 126 8410363
87 89 12817802
14 130 20697551
164 145 31752127
91 40 31742273
145 164 26304870
141 60 8501890
111 87 20784321
80 140 12829446
9 132 30020712
9 103 30548178
43 146 30511913
119 164 29666065
126 23 29244022
146 153 31758719
91 157 21675887
103 9 29586596
27 140 16986023
157 91 22067711
148 170 28650711
56 132 29590723
10 153 31839540
146 148 28988126
44 152 30634866
170 148 30365228
126 156 27756659
126 46 27756659
126 152 27756659
126 44 27756659
141 165 29666681
146 78 24327986
86 92 21824099
126 7 15407874
132 56 29588092
164 119 18860648
152 23 25001062
86 141 11024456
167 97 24741457
157 65 21713553
39 5 23295902
103 56 29761443
65 157 21210377
61 58 27843616
36 7 28704923
61 73 26809412
61 117 26809444
170 65 30873509
75 134 15140015
167 63 31669126
18 2 9624270
18 24 29974576
119 122 29666065
64 83 30448238
5 64 31075857
24 18 29975065
127 33 9641103
10 94 31747815
10 63 28596871
65 91 27507192
45 99 9790543
5 60 15674329
134 169 22583531
134 164 30457914
134 163 27168416
134 171 22583531
134 122 22583531
134 161 22583531
134 0 23700463
134 98 22583531
134 147 22583531
134 114 22583531
134 75 22583531
134 144 22583531
150 117 24609814
117 150 24578793
63 59 20531626
10 118 9989085
43 78 10223179
97 94 30886647
66 92 31660771
94 97 30892090
167 24 30613170
127 3 18270229
78 157 31648386
97 157 30353917
157 78 10414211
103 168 27848970
142 153 24936822
153 65 31329464
43 10 19980591
152 156 30451550
24 124 31922300
152 46 13506371
141 14 22258743
14 82 30876501
47 141 19140745
87 132 18430756
148 68 27425422
147 28 31148244
94 78 18951745
44 126 11007697
153 2 11730791
98 164 11092866
167 94 31577875
65 153 31239907
43 94 21900614
10 43 19985898
10 167 31835669
103 89 16978197
91 113 31674381
170 157 11618347
72 165 11632651
2 153 11711290
142 124 31243348
167 157 28975785
157 167 14201730
135 87 31752782
47 125 31645641
65 170 30959382
127 130 29234542
5 82 31051822
5 47 31075609
5 3 20872439
5 130 31559767
7 162 11804246
124 24 31876348
122 98 14029412
98 134 24820311
63 78 26060608
63 10 29532645
10 59 11959489
82 83 31827375
91 97 31575164
91 65 31575164
24 54 31969424
2 124 28542408
3 154 23272125
154 3 12233255
27 152 27949724
43 170 28142752
97 91 12294512
28 98 30887127
76 94 21708327
3 64 20760417
148 57 15952318
57 148 16141914
76 170 23801444
91 124 31687793
91 54 31687793
124 142 31245987
124 2 28543522
124 40 12738108
121 85 28540268
121 89 31916450
23 69 12523644
33 64 12548726
130 13 30368212
154 60 12567982
124 91 24662205
124 59 12568340
54 30 31921481
54 124 31482025
54 91 31658561
54 2 24932932
54 142 28063964
54 24 31947942
54 40 14847556
2 54 14034101
142 54 28073102
170 43 28108226
170 76 23801648
124 54 26515878
148 91 13181673
167 10 31841615
146 15 18283090
24 15 28737851
91 148 13171211
157 57 26817819
146 124 28639114
148 30 12926064
148 124 12926064
54 59 12940999
146 59 12986552
146 54 30009575
36 27 31499909
54 146 29872884
30 54 31875353
52 130 31831812
157 166 31656480
82 60 27426933
91 15 31674698
10 97 19474973
60 82 27509586
103 85 28544488
78 170 21310629
114 119 13165035
170 78 21373696
148 76 13181673
142 15 22084888
164 70 13189564
142 30 24944620
15 142 13348551
152 7 13698338
152 126 25689069
5 83 13515689
155 69 13518393
56 67 28581896
66 60 13525933
97 170 13539309
170 97 29602811
124 30 30642060
153 106 21934642
30 124 31259510
122 161 14029412
122 0 14029412
122 114 14029412
75 122 14030720
119 134 29666065
135 103 31847782
103 135 31831446
157 74 26812388
2 167 21283875
74 157 26809899
130 5 31211543
104 82 31048631
87 111 14203524
2 15 17652196
9 111 29588856
165 47 30469863
124 146 24662205
52 14 14475532
39 72 14563011
39 64 14563011
39 66 26659819
39 33 23798823
74 24 30268428
104 3 31653472
24 74 28563963
74 63 31043222
63 74 31056334
142 76 14637459
121 168 25008232
33 104 14652076
24 106 29076288
0 28 14732555
76 43 22592158
77 44 14736204
97 110 14738533
11 80 30543411
80 11 30544347
142 43 14763046
145 28 25349609
57 10 14800035
167 2 14819663
30 142 31870890
33 3 20070768
130 3 31491960
104 52 24401881
51 7 31220875
52 39 23709313
147 70 22880268
147 134 22880268
147 171 26313976
147 122 26313976
147 161 26313976
147 0 22880268
147 98 26738190
147 123 26313976
147 114 22880268
147 145 26313976
147 144 22880268
145 147 31494275
114 147 31469895
39 154 26659819
142 59 15606864
5 52 15674329
5 14 15674329
5 127 15674329
5 35 15674329
157 43 23357910
74 91 29253788
91 74 31838539
35 92 16016087
75 163 31576325
2 59 23790378
94 59 16615186
161 164 16626864
70 145 16967706
68 65 16977229
5 141 30107887
72 104 30885165
11 155 30543411
52 64 17134620
52 104 17134620
52 141 22433797
52 47 17134620
68 148 28718167
145 169 26304870
145 70 25349609
145 163 26304870
145 119 20588755
145 122 26304870
145 161 26304870
145 0 25349609
145 123 26304870
168 85 30627788
30 10 24311865
57 74 31824838
78 94 18952912
63 148 18786998
130 39 28553837
56 1 20197397
57 157 27277804
54 63 17339720
63 54 17483951
124 10 17513042
98 75 29756430
78 63 19633899
50 97 17758600
2 65 17761198
65 2 17761791
87 103 31740349
64 66 17841017
82 66 22071479
168 132 24933392
168 87 31746759
10 30 23099366
132 87 24422981
132 9 30020566
72 47 18193797
72 3 18530291
63 110 18264047
168 121 24828259
170 63 18272456
119 171 29666065
15 146 18282961
3 33 27765473
157 107 18881037
107 157 18864406
137 83 18434226
119 70 29666065
119 0 29753701
135 132 24480189
85 87 31235699
85 135 19048432
0 119 29752315
127 47 18438672
167 107 24317780
70 119 18880773
107 10 19413279
10 107 22522451
72 52 18780980
74 57 31818480
160 56 18873200
56 160 18900409
135 85 28645392
43 113 19044249
33 47 29683776
104 39 31843401
124 15 19164666
10 68 26210628
0 144 19380883
137 35 22683040
137 154 19380970
171 0 21821838
168 103 31666370
68 124 19395085
119 163 29758873
107 167 24328704
15 124 19422714
167 78 19472654
10 78 19474973
107 63 23646182
15 24 20853576
141 5 28042302
63 107 23651058
107 68 19914365
68 107 21303173
74 43 21712676
56 88 19942633
75 145 19991676
74 107 19991943
43 74 20092848
70 171 22416762
71 80 20072463
46 11 31601045
70 134 20245139
107 74 22409794
11 12 23030253
91 18 29753770
78 148 30542059
3 5 22485186
145 75 25349609
86 72 20607519
14 141 20614840
14 39 20614840
44 11 30607247
58 61 24489589
148 78 30469522
14 47 21402364
68 10 26213805
77 23 20701061
89 56 20721917
3 72 30529536
3 6 20760417
3 60 20760417
3 127 22418244
3 138 20760418
11 44 30543411
111 168 23640625
130 47 30439496
47 14 21390601
47 130 30280911
11 7 30543411
74 146 21113861
44 27 21135594
86 66 21290242
36 12 28704923
57 97 29145101
54 10 31776149
10 54 31762402
66 3 21795342
84 44 21821693
24 107 22452225
85 103 29772874
141 82 27509584
18 91 29769737
152 80 22065036
148 116 31830938
15 2 22084851
71 23 25324373
165 33 29319830
116 76 30876932
116 63 30876932
152 71 22149370
107 24 22441187
116 148 31841040
130 66 22410097
63 116 30360901
141 66 22427283
33 125 31475846
52 33 22436516
98 123 22396090
141 33 22431463
11 27 30543411
148 94 22408932
94 148 22426498
33 52 22430613
33 141 22430613
33 39 28364121
141 52 22431496
146 116 28628986
161 28 22512681
116 146 28621447
71 11 22582015
126 11 30873021
2 146 28895428
66 39 22600881
2 107 22671129
107 2 22672230
97 2 22688758
10 2 22688801
2 157 26042178
157 2 26042573
71 7 28966544
65 116 31226816
47 5 31216367
170 2 24746860
2 170 24745646
10 29 23307082
116 65 31827786
54 18 25439188
132 121 23632778
76 116 29743393
127 5 23888357
46 7 23874175
46 44 29233105
35 5 23886427
121 132 23914747
153 97 28559627
98 147 24208558
107 146 24236750
97 153 28559869
167 40 24393460
40 167 24359264
36 71 28704923
132 168 24918504
132 135 26650575
170 116 29139165
70 98 24586379
57 166 27848193
49 23 30613612
24 116 24768097
97 116 25452233
68 116 25362003
18 54 25386750
142 97 25439099
97 142 25439888
51 23 30537661
169 75 25609546
116 170 28040044
44 46 29228484
70 28 27368802
86 6 26810285
11 36 30543411
11 71 30543411
163 70 28473504
163 161 28473504
163 0 28473504
163 114 28473504
117 55 28620281
0 163 27166068
148 74 27248590
74 148 27239370
51 44 27247426
68 2 27254292
2 68 27266462
94 106 27338997
141 72 28533836
10 18 27455003
44 51 27757249
7 93 27943700
7 136 27943700
63 166 27943419
24 120 28001894
37 55 31836643
98 28 28021821
147 159 28110823
11 156 30543411
11 126 30543411
11 46 31231275
11 69 30543411
11 51 30543411
11 152 30543411
116 97 28560412
104 47 30278108
104 72 31760685
97 57 29144835
85 121 28467669
9 85 28645902
104 137 30278108
58 55 28555227
18 146 28646856
104 130 28642579
100 65 28644800
146 18 28645022
36 156 28704923
36 80 30957753
36 23 28704923
36 51 28704923
36 44 28704923
142 167 30333957
167 142 28969076
124 167 28737134
30 167 28747939
54 167 28843221
47 33 29061846
78 167 28984896
74 167 29058509
27 23 30958307
86 104 29232641
14 6 29252504
70 147 29446978
64 33 30005913
114 122 29755450
164 171 30021337
74 94 30029407
153 54 30222820
54 153 31827927
104 92 30278108
104 64 30278108
104 66 30278108
104 141 30278108
104 154 30278108
51 152 30357262
65 146 30381770
127 138 30527167
143 9 30548843
82 14 30627490
168 111 30628007
85 168 30630443
138 86 30963003
80 36 30970602
14 35 30991901
64 5 31135864
150 55 31148561
152 51 31224330
91 118 31575164
91 68 31575164
15 167 31583347
15 91 31595889
30 63 31662558
94 54 31682179
63 30 31688399
54 94 31857355
