24 153 960511
24 91 998103
130 165 730055
135 168 47985
58 73 720702
73 45 375850
73 58 107751
163 164 899897
163 123 24892
163 147 33872
163 75 24892
134 145 26648
68 167 39495
65 78 27201
137 82 27212
137 52 28135
23 156 895060
91 24 933521
91 153 376860
127 137 123856
40 30 30620
40 2 30620
40 142 30620
40 24 30620
7 80 810621
56 135 410315
68 146 818098
35 52 32226
164 163 129018
147 163 32844
140 7 735596
140 155 735596
140 36 735596
140 27 735596
140 156 735596
140 126 735596
140 80 735596
140 46 735596
140 69 735596
140 51 735596
140 152 735596
140 44 735596
140 11 735596
140 71 735596
86 130 806283
165 137 896140
165 52 209491
165 5 35752
165 14 209491
165 60 579000
165 127 832046
165 35 209491
165 130 209491
111 56 640543
57 65 38056
150 37 305465
37 150 307072
117 37 38840
37 117 39057
57 24 379626
27 7 39563
27 46 39563
27 36 39563
27 11 39563
27 71 46572
27 12 40142
33 130 911809
7 27 810621
137 165 836073
154 66 41984
146 97 42284
171 169 283804
171 144 283804
2 142 977212
63 65 829215
71 27 44620
66 154 387388
58 37 45404
55 117 650006
55 45 650006
55 73 650006
55 58 650006
55 150 650006
55 99 650006
142 2 908825
46 27 47166
171 119 47201
135 56 47810
168 135 50267
91 63 982933
91 76 200299
76 91 54507
24 142 998103
24 157 224042
127 35 814684
157 24 207430
157 63 648696
10 91 58742
10 24 725607
63 153 656452
97 65 387602
24 10 954378
153 63 899857
142 24 990457
35 127 813073
141 39 740438
78 65 114717
65 97 730735
82 137 116751
82 104 116751
82 47 116751
82 3 116751
127 165 817696
137 127 123122
46 71 123453
137 39 647201
64 130 124276
3 82 822154
3 14 808212
3 165 808212
3 130 808212
71 46 126175
146 157 128077
9 168 133122
9 56 805825
9 89 805855
24 2 998103
94 167 138983
2 24 660315
39 127 829071
2 40 142643
39 82 142714
39 47 142714
39 3 142714
127 39 829338
66 52 722511
63 91 303004
39 137 660951
39 165 660951
165 39 209491
141 137 201310
141 104 201310
141 47 201310
153 24 819426
80 156 628740
80 23 984416
157 146 645199
45 73 818772
86 165 822402
169 171 219059
56 111 900760
167 43 894889
167 65 725088
56 9 811838
56 89 899102
86 82 802359
56 168 750872
91 2 932459
45 150 372070
165 86 893422
63 43 831586
52 137 290558
47 137 290815
47 104 290815
33 137 291292
167 68 816751
167 146 297134
157 97 297855
7 140 300791
73 37 372234
122 163 896645
51 80 301750
130 64 891712
163 122 897068
66 33 304534
80 51 305386
150 73 307694
144 169 819638
146 68 309343
146 167 309343
47 165 312505
111 89 320184
24 63 953735
33 82 721552
33 66 329967
33 5 721552
33 154 329967
47 3 370953
45 55 372120
86 35 802359
156 7 725094
153 91 378655
153 94 376445
77 7 376448
63 106 827429
104 86 382154
104 35 382154
145 171 383980
156 140 384159
156 126 384159
156 80 384159
156 155 384159
156 46 384159
156 23 384159
156 36 384159
156 51 384159
156 27 384159
156 152 384159
156 44 384159
156 11 384159
156 71 384159
37 73 812598
146 63 831043
111 85 386270
155 80 388366
155 27 388366
164 123 391356
35 72 906855
60 86 393489
5 86 838360
82 86 395502
39 141 910713
39 86 637978
56 85 897124
24 40 475188
142 91 983786
24 59 945304
24 94 945304
24 78 945304
24 57 960476
72 86 625866
72 35 625866
2 18 976097
146 24 819938
66 137 629309
66 86 629740
60 92 632311
130 86 634645
47 86 635614
3 86 822154
66 127 896185
64 14 644314
27 156 645541
92 86 646829
154 52 647434
154 86 647434
137 86 647763
33 86 648340
55 37 650006
65 43 809632
35 86 654552
14 165 654570
23 126 895060
23 7 895060
23 46 895060
23 152 895060
23 44 895060
2 91 659743
43 65 691890
43 63 783868
43 167 959154
44 23 895413
127 66 896529
147 75 854957
23 49 720390
153 146 720591
171 28 721092
171 145 897995
171 147 897995
7 156 810621
7 126 810621
7 155 810621
7 46 810621
7 23 810621
7 36 810621
7 51 810621
7 152 810621
7 44 810621
7 11 810621
7 71 810621
78 146 724245
23 80 911336
85 56 739083
142 40 913839
3 35 822154
56 121 751937
86 137 802359
86 3 802359
64 137 803457
76 146 804467
146 142 807841
75 147 828079
45 37 824434
68 97 902263
65 167 808849
142 146 807290
5 33 807356
122 147 808095
37 45 825522
35 104 815581
146 91 819938
3 137 822154
3 104 822154
3 47 822154
3 39 822154
144 171 823062
57 146 828204
57 63 894944
63 146 830302
63 57 829215
63 118 831879
63 68 834073
30 24 843304
40 10 847136
80 27 888262
68 63 889925
127 154 891086
46 69 891395
137 141 891767
10 157 897923
10 40 901063
157 10 908586
39 130 910713
28 147 912832
86 52 915194
24 30 952441
2 30 977547
91 142 978927
