24 153 12530472
24 91 12908227
130 165 12921938
135 168 6610402
58 73 12830691
73 45 12563433
73 58 10580786
163 164 11705534
163 123 5132770
163 147 5132770
163 75 7565766
134 145 9795198
68 167 12900898
65 78 12835130
137 82 12991409
137 52 7457091
23 156 11692048
91 24 12905786
91 153 12522790
127 137 12815083
40 30 30620
40 2 11031466
40 142 11396348
40 24 12052218
7 80 12209391
56 135 12572144
68 146 12900898
35 52 12991460
164 163 12835083
147 163 32844
140 7 12901349
140 155 12901349
140 36 12901349
140 27 12901349
140 156 12901349
140 126 12901349
140 80 12901349
140 46 12901349
140 69 12901349
140 51 12901349
140 152 12901349
140 44 12901349
140 11 12901349
140 71 12901349
86 130 11773364
165 137 12495339
165 52 12386708
165 5 12837931
165 14 12386708
165 60 12386708
165 127 12495339
165 35 12495339
165 130 12386708
111 56 12563743
57 65 9134978
150 37 1854226
37 150 8756932
117 37 11007137
37 117 11008455
57 24 9963372
27 7 12920681
27 46 12920681
27 36 12920681
27 11 9722964
27 71 12920681
27 12 40142
33 130 11774075
7 27 12926227
137 165 11616985
154 66 12820249
146 97 12386494
171 169 9882059
171 144 5651560
2 142 12772735
63 65 12393056
71 27 12492294
66 154 12824935
58 37 11014022
55 117 650006
55 45 650006
55 73 650006
55 58 650006
55 150 650006
55 99 650006
142 2 12766401
46 27 12932867
171 119 8506453
135 56 12904902
168 135 1775938
91 63 12905786
91 76 12500294
76 91 7191486
24 142 12751795
24 157 9834701
127 35 12574558
157 24 9814415
157 63 11983787
10 91 10332694
10 24 12750644
63 153 12998350
97 65 12836372
24 10 12823862
153 63 12392408
142 24 12999721
35 127 12572409
141 39 7885793
78 65 12830512
65 97 12835130
82 137 12991434
82 104 12487721
82 47 10240262
82 3 12910906
127 165 12574558
137 127 12310834
46 71 7389197
137 39 12991409
64 130 10327256
3 82 12817010
3 14 808212
3 165 808212
3 130 808212
71 46 8430200
146 157 11618991
9 168 11113126
9 56 12923876
9 89 9371901
24 2 12526118
94 167 3366038
2 24 12594304
39 127 12898001
2 40 12745236
39 82 12810562
39 47 12810562
39 3 12810562
127 39 7805008
66 52 11885191
63 91 12393056
39 137 12898001
39 165 12917091
165 39 12495339
141 137 7885793
141 104 7885793
141 47 7885793
153 24 12947387
80 156 12461674
80 23 11686332
157 146 12901886
45 73 12481826
86 165 12836738
169 171 12398937
56 111 12407064
167 43 12837359
167 65 12399146
56 9 12396472
56 89 12563248
86 82 7281848
56 168 9887007
91 2 12905011
45 150 11867290
165 86 12569437
63 43 11023931
52 137 7458640
47 137 12472088
47 104 12472088
33 137 4550693
167 68 12570147
167 146 12486659
157 97 10400424
7 140 11193096
73 37 10403702
122 163 12489735
51 80 12831624
130 64 12918315
163 122 12901736
66 33 10223188
80 51 11597335
150 73 307694
144 169 5214854
146 68 12493298
146 167 12493298
47 165 312505
111 89 11860117
24 63 12230614
33 82 12232190
33 66 11961429
33 5 11102355
33 154 7552849
47 3 12472088
45 55 372120
86 35 12291391
156 7 12918974
153 91 12553068
153 94 11734012
77 7 12230678
63 106 12931455
104 86 11109460
104 35 11109460
145 171 10927190
156 140 8683982
156 126 10571253
156 80 11711383
156 155 12304418
156 46 10571253
156 23 11944677
156 36 384159
156 51 384159
156 27 384159
156 152 10571253
156 44 10571253
156 11 384159
156 71 384159
37 73 12401295
146 63 11954134
111 85 11860109
155 80 12833445
155 27 12391351
164 123 12137347
35 72 12572409
60 86 11095311
5 86 11092649
82 86 12917028
39 141 12898001
39 86 11861608
56 85 12487963
24 40 12526118
142 91 12916906
24 59 12751911
24 94 12908027
24 78 12830181
24 57 8969721
72 86 11076695
72 35 11854399
2 18 10837715
146 24 12916693
66 137 629309
66 86 11087881
60 92 4534334
130 86 11081547
47 86 11088370
3 86 12817010
66 127 1775857
64 14 644314
27 156 645541
92 86 11006247
154 52 11885162
154 86 11099276
137 86 11088934
33 86 11014629
55 37 2121664
65 43 12989624
35 86 12576766
14 165 12834655
23 126 10227670
23 7 10227670
23 46 10227670
23 152 10227670
23 44 10932941
2 91 12322484
43 65 12917389
43 63 11177237
43 167 12851520
44 23 10936100
127 66 10222005
147 75 10243745
23 49 720390
153 146 12382249
171 28 10502779
171 145 8506180
171 147 7463579
7 156 10585010
7 126 9024794
7 155 810621
7 46 810621
7 23 810621
7 36 9372839
7 51 810621
7 152 810621
7 44 810621
7 11 810621
7 71 810621
78 146 12917460
23 80 11630001
85 56 12475736
142 40 12482327
3 35 9791947
56 121 12563169
86 137 12465486
86 3 12291391
64 137 2439385
76 146 8162277
146 142 12915408
75 147 12929753
45 37 12398930
68 97 12401577
65 167 11616630
142 146 12324026
5 33 12233930
122 147 11603138
37 45 12401307
35 104 12577145
146 91 12986552
3 137 12817010
3 104 12817010
3 47 12817010
3 39 12817010
144 171 5214854
57 146 12907273
57 63 12907273
63 146 12327662
63 57 9976358
63 118 11023845
63 68 11391992
30 24 12933855
40 10 11200402
80 27 12845090
68 63 11905751
127 154 10222005
46 69 891395
137 141 12991409
10 157 12294510
10 40 12862684
157 10 12387404
39 130 11029459
28 147 12393598
86 52 12401929
24 30 12903235
2 30 10481107
91 142 12905011
32 151 1998961
86 5 11773364
86 14 12291391
86 60 11773364
86 127 11773364
36 140 10302769
165 82 1154889
82 127 1949772
127 82 1948630
47 82 12291685
47 39 12291685
51 27 12399812
155 7 4863654
57 91 7383745
82 39 10240262
94 153 11040686
137 104 12991409
137 47 12991409
140 93 8065512
137 3 12991409
63 24 12228133
82 33 12312135
86 79 2548286
10 142 5042260
76 65 12814927
63 76 12998350
63 167 7571736
65 76 12999909
168 56 1781235
63 94 11980594
142 10 7304407
153 40 12828192
24 65 11890953
156 162 1317752
82 141 1321843
146 76 12562291
27 80 12995045
164 122 12835988
154 127 12205265
46 152 12387791
137 64 11707234
130 33 11166416
153 68 4446709
153 76 10480817
153 167 4363324
68 153 4454384
91 30 12995672
94 63 11984205
123 164 12468502
123 163 4007972
123 122 1335109
28 75 12926035
168 9 1775938
97 146 12322726
30 91 12550764
122 28 12991123
94 157 10489553
130 52 12907660
130 60 10822147
46 156 1407785
2 10 12306616
76 97 8423260
76 63 12555243
167 153 1421724
68 76 1421827
76 153 3842239
82 154 1430062
169 144 7280364
63 157 11376881
157 94 10399075
24 146 12916338
65 24 9755091
155 44 12833445
28 134 11958011
28 164 12836414
28 0 11958011
28 123 11958011
141 86 11882366
141 125 1855341
141 35 1497172
40 153 11395657
152 44 9101393
63 113 9885804
73 150 10582273
94 24 12874083
122 164 12821391
94 43 3366038
94 57 5231105
24 43 12227409
142 63 6634479
65 148 12920291
75 164 1756649
148 65 12923759
5 165 12835567
63 2 11797835
63 142 9782927
28 119 11784043
151 65 1785954
151 91 1785922
151 43 1785949
151 76 1786170
151 24 1786200
151 63 1785931
121 56 12522848
68 113 1837030
45 117 1844683
117 45 1845550
171 123 4625765
123 171 7298297
132 111 9029373
141 64 10243807
144 122 5214854
122 144 4963820
52 86 6854203
52 66 11960829
119 28 10915709
28 144 8168638
28 163 11958011
28 122 12991608
14 52 1942641
14 5 9201709
14 60 1942641
5 137 1942907
44 155 9179593
82 165 3048145
52 60 11711261
52 154 11960829
27 155 12387879
155 36 4863654
165 104 2026140
165 141 12495339
28 70 3241075
28 171 11958011
28 161 11958011
28 114 11958011
28 128 11958011
35 39 2442611
39 92 4017276
92 39 4454708
76 78 12814927
97 43 2036043
43 97 7468479
91 10 4709046
36 46 2111590
7 12 5468389
65 63 12382176
80 7 12157719
91 59 12473453
168 89 2296463
71 155 7544298
165 3 7313974
150 45 11867460
28 145 11794575
114 28 12823668
63 97 9305804
122 75 7889443
94 2 2394838
64 82 3757307
64 104 8684496
64 141 9883913
64 47 2439385
64 3 2439385
64 39 2439385
71 36 6863572
35 82 7481010
35 137 2442611
35 141 2442611
35 14 2442611
35 60 2442611
35 3 2442611
35 165 12576766
35 130 2442611
78 76 11207466
37 105 8078585
60 52 12225571
43 57 12394933
57 43 12927921
24 167 10503337
91 167 2546481
150 58 12909826
130 35 2548497
82 52 12996911
58 45 12904479
45 58 11621004
167 59 2620180
148 97 11629383
148 43 12988413
148 146 12817078
148 63 2621096
148 167 2623223
3 52 10310932
167 148 2623004
167 91 2623123
119 147 3829413
44 80 12204492
18 153 2627773
80 44 12906377
91 146 12995672
127 86 12212469
152 27 12379186
146 94 12559826
57 68 2642205
94 91 12854507
94 10 12909136
99 105 9958142
46 23 9020677
119 75 9977935
147 119 11697076
43 91 12739959
57 94 11088628
92 154 4960281
164 28 12905667
33 138 3828349
91 43 2975809
37 99 9190738
152 155 12379186
146 65 11613755
9 87 11113126
146 43 12295711
99 37 5640467
57 153 7383745
36 155 3131436
169 147 3139825
147 169 3141023
155 156 11777212
155 140 4863654
155 126 11793005
155 12 4863654
155 46 8682750
155 93 4863654
155 23 4863654
155 51 4863654
155 152 11613059
155 11 4863654
155 136 4863654
155 71 8421237
127 52 11787518
65 106 12988645
30 2 8971985
119 123 8593613
87 56 12838502
91 106 10402259
87 168 3854424
134 28 9795198
94 65 5232596
102 58 3650675
23 136 5659434
130 82 11182537
73 117 9901497
73 55 5227194
52 3 9189764
130 14 3671519
126 155 3673498
87 9 10446420
111 88 3832787
126 80 3758429
117 73 12471023
89 111 3796527
52 82 12483396
123 134 3829836
123 147 7552815
134 70 9795198
78 68 11092650
82 130 8407435
68 78 11092887
76 68 3842239
23 155 7807584
23 51 7807584
97 63 12294512
87 135 11792075
87 85 6705331
97 76 12294512
137 130 12928886
147 164 3918354
164 147 3927735
146 30 12915408
30 146 12573267
92 72 4454708
92 82 4454708
92 64 4454708
92 137 4454708
92 52 11192028
92 104 4454708
92 115 4454708
92 66 4454708
92 5 4454708
92 141 4454708
92 47 4454708
92 6 4454708
92 14 4454708
92 60 4454708
92 127 4454708
92 3 4454708
92 138 4454708
92 35 4454708
92 33 4454708
92 165 4454708
154 137 4008554
123 28 4248459
58 150 12563260
65 68 7472225
66 115 4263859
71 140 4267501
43 24 12206244
91 57 4274546
43 148 12739959
76 106 5143842
2 63 4383814
43 153 7214726
135 9 6610402
97 10 10511449
9 135 12475381
27 51 4440777
75 119 9979082
154 92 4948088
3 92 4521943
33 92 4455405
82 92 4455495
47 92 4455696
165 92 4455889
72 92 4456085
127 92 4459238
40 91 12152408
115 52 12939093
115 66 4511581
14 92 4523883
33 14 12233998
137 92 4529218
134 119 10852253
75 98 4603016
52 92 4607985
82 64 4610296
171 70 4625765
171 134 4625765
171 164 4625765
171 163 4625765
171 159 4625765
171 122 4625765
171 161 4625765
171 25 4625765
171 114 4625765
171 75 4625765
171 128 4625765
75 171 4629283
146 57 11963762
163 98 4862851
0 134 4868742
80 155 8595585
97 113 10318586
97 148 11951183
10 65 4889356
52 165 12576607
126 71 5488914
122 169 7389405
122 134 12216383
122 171 4963820
122 119 12473307
122 123 4963820
122 145 4963820
130 127 7804917
65 94 5231479
65 57 11714778
132 89 4969423
3 66 4970150
60 165 12567714
94 76 12305943
91 94 12518913
82 6 5032307
71 126 5489253
111 132 11596587
134 123 9795198
11 140 6946508
163 144 5132770
80 152 5058949
144 163 5214854
47 66 5060812
66 47 5063014
46 155 7205193
94 146 11980409
163 169 5132770
163 134 5211772
163 171 5484588
163 119 5132770
163 28 5132770
163 145 5132770
123 119 10915510
44 156 10315639
144 70 5214854
144 134 5214854
144 164 5214854
144 159 5214854
144 119 5214854
144 161 5214854
144 0 5214854
144 98 5214854
144 123 5214854
144 28 8413463
144 147 5214854
144 114 5214854
144 145 5214854
144 75 5214854
144 128 5214854
127 14 7822106
44 7 5222072
137 5 5244866
58 117 10831989
76 157 9265122
85 111 12214891
85 89 5487644
164 134 12836018
141 130 9705043
157 76 9207426
111 135 7298342
60 130 5587408
135 111 5638146
99 45 11178219
99 73 5640472
99 58 5640473
99 117 5640473
117 99 5640915
66 133 5643737
33 133 5644238
153 10 10481305
68 43 10489057
154 82 12464826
58 99 5652162
142 157 5742535
157 142 6857102
23 140 9719024
39 104 11960484
39 35 12810562
56 87 12840990
140 23 9719229
43 157 11973216
43 76 6614581
2 148 6614817
43 68 10313633
0 164 6704612
24 76 6869800
52 35 12561289
14 86 8431335
76 24 6869534
146 10 11966628
10 146 12901893
57 2 6891693
57 142 6891693
40 146 7156946
24 97 10434355
130 141 12216522
123 75 7204589
52 127 10223534
57 76 8418245
14 127 7219507
97 24 10399647
3 141 12817010
117 58 7373666
135 89 12904927
73 61 7292018
82 35 12996911
37 58 9185021
111 9 7301334
153 142 11730791
78 24 12830611
146 2 7374246
68 166 7377484
165 64 7379048
64 165 7385703
86 64 7384623
64 86 7385703
153 43 7392500
46 80 7394291
97 68 12399171
97 167 12399171
43 106 12898432
157 68 7550944
68 157 7551240
57 106 7583868
141 127 12307692
5 39 9723526
127 141 12924615
23 12 7807584
23 36 7807584
23 27 7807584
23 11 7807584
23 71 7807584
11 23 7809391
148 157 12303021
111 103 12313920
103 111 12379050
47 72 7885458
86 39 7900590
97 78 12837770
78 97 12837603
126 12 7910242
132 103 7913331
132 85 7913368
39 52 8678326
127 104 7972391
103 132 11692969
15 10 11188829
52 115 12995734
76 113 8061025
103 87 11192753
14 3 8159156
56 103 11606263
157 148 12304461
10 15 8186397
75 28 12922659
64 138 8407892
51 126 8410363
87 89 12817802
14 130 8418793
164 145 8422414
91 40 12905011
145 164 8493097
141 60 8501890
111 87 8523614
80 140 12829446
9 132 9707459
9 103 11197420
43 146 12330277
119 164 8589715
126 23 9013165
146 153 9115392
91 157 12499052
103 9 12484545
27 140 12995045
157 91 8673422
148 170 8759766
56 132 9030003
10 153 10332694
146 148 12816414
44 152 8773084
170 148 12245479
126 156 9013165
126 46 9013165
126 152 9013165
126 44 9013165
141 165 9013706
146 78 12918106
86 92 9023906
126 7 9026373
132 56 9028349
164 119 9056799
152 23 9101259
86 141 11024456
167 97 12402732
157 65 12839744
39 5 12898001
103 56 11604796
65 157 11625699
61 58 9369533
36 7 9374026
61 73 9369533
61 117 9369533
170 65 12840586
75 134 9618601
167 63 11107362
18 2 9624270
18 24 9624270
119 122 12476146
64 83 9626970
5 64 9628029
24 18 9629069
127 33 9641103
10 94 12905415
10 63 11189323
65 91 11969965
45 99 9790543
5 60 9792178
134 169 9795198
134 164 9795198
134 163 9795198
134 171 9795198
134 122 9795198
134 161 9795198
134 0 9795198
134 98 9795198
134 147 9795198
134 114 11185264
134 75 9795198
134 144 9795198
150 117 9965109
117 150 9966696
63 59 11958072
10 118 9989085
43 78 10223179
97 94 10328960
66 92 10232517
94 97 10607235
167 24 10251405
127 3 10308523
78 157 10483442
97 157 10400779
157 78 10414211
103 168 11192753
142 153 11710146
153 65 10962614
43 10 10487677
152 156 10500283
24 124 12752534
152 46 10574470
141 14 10587248
14 82 10594059
47 141 10825616
87 132 10838239
148 68 10918503
147 28 10924595
94 78 10973375
44 126 11007697
153 2 11730791
98 164 11092866
167 94 11107362
65 153 11107899
43 94 11177237
10 43 11189323
10 167 12920539
103 89 11196043
91 113 11615619
170 157 11618347
72 165 11632651
2 153 11711290
142 124 12766399
167 157 11700683
157 167 11704285
135 87 11791228
47 125 12311872
65 170 11794026
127 130 11798665
5 82 11798843
5 47 11798843
5 3 11798843
5 130 11798843
7 162 11804246
124 24 12940571
122 98 11951774
98 134 11952292
63 78 11958072
63 10 11958072
10 59 11959489
82 83 12221899
91 97 12500294
91 65 12004789
24 54 12673695
2 124 12919140
3 154 12817010
154 3 12233255
27 152 12387879
43 170 12824479
97 91 12294512
28 98 12299481
76 94 12303906
3 64 12311737
148 57 12312844
57 148 12313406
76 170 12465975
91 124 12995672
91 54 12905011
124 142 12940571
124 2 12940571
124 40 12738108
121 85 12522848
121 89 12522911
23 69 12523644
33 64 12548726
130 13 12550190
154 60 12567982
124 91 12940571
124 59 12568340
54 30 12995395
54 124 12995395
54 91 12995395
54 2 12940377
54 142 12995395
54 24 12995395
54 40 12995395
2 54 12721138
142 54 12766399
170 43 12589538
170 76 12589538
124 54 12940571
148 91 12911044
167 10 12904571
146 15 12836931
24 15 12836975
91 148 12906600
157 57 12908048
146 124 12915408
148 30 12926064
148 124 12926064
54 59 12940999
146 59 12986552
146 54 12996885
36 27 12988212
54 146 12995261
