24 153 6742168
24 91 6885040
130 165 6594662
135 168 6610402
58 73 6593484
73 45 5227194
73 58 5227194
163 164 5132770
163 123 5132770
163 147 5132770
163 75 3935592
134 145 3325862
68 167 6946771
65 78 4629861
137 82 5244997
137 52 4618933
23 156 6589379
91 24 6881207
91 153 6956656
127 137 3057475
40 30 30620
40 2 5472607
40 142 4481098
40 24 6901810
7 80 3656741
56 135 6882328
68 146 6870896
35 52 2442611
164 163 1323896
147 163 32844
140 7 6940169
140 155 6940169
140 36 6592927
140 27 6592927
140 156 6592927
140 126 6592927
140 80 6959907
140 46 6940169
140 69 6592927
140 51 6592927
140 152 6940169
140 44 6940169
140 11 6940169
140 71 6940169
86 130 3309713
165 137 6958965
165 52 5733808
165 5 3767216
165 14 3767216
165 60 4621992
165 127 6682098
165 35 4621992
165 130 4621992
111 56 5585973
57 65 6608727
150 37 1854226
37 150 1854816
117 37 4261267
37 117 4351685
57 24 6975109
27 7 2730004
27 46 6853091
27 36 2730004
27 11 2730004
27 71 3336681
27 12 40142
33 130 6851848
7 27 2104770
137 165 6692716
154 66 5203378
146 97 3681513
171 169 4625765
171 144 5651560
2 142 5489960
63 65 6961234
71 27 6865290
66 154 5058579
58 37 45404
55 117 650006
55 45 650006
55 73 650006
55 58 650006
55 150 650006
55 99 650006
142 2 6634479
46 27 6698162
171 119 5131804
135 56 6610402
168 135 1775938
91 63 6876513
91 76 6876513
76 91 54507
24 142 6819718
24 157 224042
127 35 2634987
157 24 6959515
157 63 6689440
10 91 2472979
10 24 6712059
63 153 6706309
97 65 4006683
24 10 6962845
153 63 6719988
142 24 6799627
35 127 2634722
141 39 3057867
78 65 2449405
65 97 6963639
82 137 6695689
82 104 6695689
82 47 2035378
82 3 6695689
127 165 4964401
137 127 4262832
46 71 4611821
137 39 5244997
64 130 4869406
3 82 4540395
3 14 808212
3 165 808212
3 130 808212
71 46 4605261
146 157 6786806
9 168 1154396
9 56 6957663
9 89 805855
24 2 6962777
94 167 3366038
2 24 6768653
39 127 4633831
2 40 5648466
39 82 1175961
39 47 5766101
39 3 5766101
127 39 4437785
66 52 6943607
63 91 6956538
39 137 5766101
39 165 4633831
165 39 4613802
141 137 4967714
141 104 4967714
141 47 4967714
153 24 6652695
80 156 6940050
80 23 6870641
157 146 6789244
45 73 4002170
86 165 6958113
169 171 6785596
56 111 5848192
167 43 5657806
167 65 5657806
56 9 6952520
56 89 5848200
86 82 3841129
56 168 1850311
91 2 6769326
45 150 2374514
165 86 5142020
63 43 6888208
52 137 1337692
47 137 5041726
47 104 5041726
33 137 4550693
167 68 5046506
167 146 5574084
157 97 297855
7 140 2038490
73 37 5227194
122 163 6772217
51 80 4431984
130 64 4864037
163 122 5132770
66 33 3153983
80 51 3167266
150 73 307694
144 169 5214854
146 68 6938262
146 167 5556417
47 165 312505
111 89 4261940
24 63 6788596
33 82 6946979
33 66 4974348
33 5 6946979
33 154 4951705
47 3 5041726
45 55 372120
86 35 3826304
156 7 5142239
153 91 6950707
153 94 5219736
77 7 3938390
63 106 6966780
104 86 5483191
104 35 5483191
145 171 383980
156 140 384159
156 126 5142239
156 80 5235227
156 155 5146604
156 46 5142239
156 23 5304006
156 36 384159
156 51 384159
156 27 384159
156 152 5142239
156 44 5142239
156 11 384159
156 71 384159
37 73 3833519
146 63 6860968
111 85 5043041
155 80 4863654
155 27 5485927
164 123 5219646
35 72 906855
60 86 5478832
5 86 6771896
82 86 5493936
39 141 5766101
39 86 4633897
56 85 5848192
24 40 6783420
142 91 6799417
24 59 6739334
24 94 6962805
24 78 6739334
24 57 6903032
72 86 5482049
72 35 5482049
2 18 5822628
146 24 5473972
66 137 629309
66 86 5470992
60 92 4534334
130 86 6761646
47 86 5472467
3 86 6853628
66 127 1775857
64 14 644314
27 156 645541
92 86 6592634
154 52 5484743
154 86 5484743
137 86 5557757
33 86 5493649
55 37 2121664
65 43 6599430
35 86 6772021
14 165 6874350
23 126 3652467
23 7 3652467
23 46 3652467
23 152 3925116
23 44 6862083
2 91 6599478
43 65 4365454
43 63 6863403
43 167 5583094
44 23 6862103
127 66 1925036
147 75 2707575
23 49 720390
153 146 720591
171 28 4625765
171 145 5131804
171 147 4625765
7 156 810621
7 126 810621
7 155 810621
7 46 810621
7 23 810621
7 36 2622481
7 51 810621
7 152 810621
7 44 810621
7 11 810621
7 71 810621
78 146 3662839
23 80 6862083
85 56 5487640
142 40 5581323
3 35 3831116
56 121 751937
86 137 3060792
86 3 6852062
64 137 2439385
76 146 6943264
146 142 807841
75 147 3834410
45 37 824434
68 97 3057955
65 167 5581053
142 146 807290
5 33 3039240
122 147 4963820
37 45 825522
35 104 6687368
146 91 4625998
3 137 4540395
3 104 4540395
3 47 4275688
3 39 6679171
144 171 5214854
57 146 6612038
57 63 6975109
63 146 6862242
63 57 6967393
63 118 1494066
63 68 6888208
30 24 2623647
40 10 4978266
80 27 5488464
68 63 6941292
127 154 2981226
46 69 891395
137 141 5244997
10 157 1355773
10 40 4602125
157 10 5222751
39 130 3676173
28 147 6605843
86 52 6853772
24 30 2668160
2 30 6808152
91 142 4452138
32 151 1998961
86 5 2368974
86 14 2368974
86 60 2368974
86 127 3758969
36 140 4617923
165 82 1154889
82 127 1949772
127 82 1948630
47 82 6944739
47 39 4798122
51 27 1160061
155 7 4863654
57 91 6891693
82 39 1185391
94 153 5218400
137 104 5244997
137 47 5244997
140 93 4871819
137 3 6603726
63 24 6967393
82 33 1254533
86 79 2548286
10 142 5042260
76 65 2636683
63 76 6798702
63 167 4635977
65 76 4884642
168 56 1781235
63 94 5081686
142 10 5173014
153 40 6814461
24 65 3071714
156 162 1317752
82 141 1321843
146 76 5146397
27 80 5560518
164 122 4524851
154 127 2968400
46 152 1330258
137 64 3912289
130 33 4967826
153 68 4446709
153 76 4363324
153 167 4363324
68 153 4454384
91 30 1327854
94 63 5233483
123 164 6866546
123 163 4007972
123 122 1335109
28 75 6605843
168 9 1775938
97 146 3682399
30 91 1347261
122 28 4963820
94 157 6684265
130 52 1403908
130 60 5571421
46 156 1407785
2 10 1412854
76 97 3926960
76 63 1421695
167 153 1421724
68 76 1421827
76 153 3842239
82 154 1430062
169 144 1506421
63 157 5661847
157 94 6965003
24 146 5531461
65 24 2124177
155 44 4863654
28 134 6605843
28 164 6605843
28 0 6605843
28 123 6605843
141 86 1497172
141 125 1855341
141 35 1497172
40 153 6901810
152 44 3666148
63 113 5473202
73 150 5227194
94 24 5185295
122 164 4963820
94 43 3366038
94 57 5231105
24 43 4450337
142 63 6634479
65 148 6776348
75 164 1756649
148 65 6961974
5 165 1762344
63 2 4384900
63 142 1778462
28 119 5473259
151 65 1785954
151 91 1785922
151 43 1785949
151 76 1786170
151 24 1786200
151 63 1785931
121 56 1799564
68 113 1837030
45 117 1844683
117 45 1845550
171 123 4625765
123 171 1852676
132 111 4972407
141 64 1855341
144 122 5214854
122 144 4963820
52 86 6854203
52 66 6789661
119 28 5558130
28 144 6605843
28 163 6605843
28 122 6605843
14 52 1942641
14 5 1942641
14 60 1942641
5 137 1942907
44 155 1945245
82 165 3048145
52 60 5482362
52 154 5482362
27 155 4453128
155 36 4863654
165 104 2026140
165 141 4544353
28 70 3241075
28 171 6605843
28 161 6605843
28 114 6605843
28 128 6605843
35 39 2442611
39 92 4017276
92 39 4454708
76 78 6943264
97 43 2036043
43 97 6614581
91 10 4709046
36 46 2111590
7 12 5468389
65 63 5231479
80 7 2451569
91 59 4710017
168 89 2296463
71 155 4879284
165 3 2367777
150 45 2374908
28 145 2372026
114 28 2976300
63 97 5229297
122 75 2388010
94 2 2394838
64 82 3757307
64 104 2439385
64 141 2439385
64 47 2439385
64 3 2439385
64 39 2439385
71 36 6863572
35 82 3757465
35 137 2442611
35 141 2442611
35 14 2442611
35 60 2442611
35 3 2442611
35 165 5035857
35 130 2442611
78 76 6698707
37 105 2465161
60 52 3939779
43 57 4268470
57 43 4275017
24 167 2484466
91 167 2546481
150 58 5038098
130 35 2548497
82 52 3829258
58 45 3326740
45 58 4447167
167 59 2620180
148 97 4882601
148 43 6691229
148 146 2621096
148 63 2621096
148 167 2623223
3 52 4532157
167 148 2623004
167 91 2623123
119 147 3829413
44 80 2628348
18 153 2627773
80 44 6615423
91 146 3761084
127 86 4964401
152 27 4621614
146 94 6786502
57 68 2642205
94 91 5185295
94 10 3366038
99 105 5034343
46 23 2711087
119 75 4453932
147 119 5138845
43 91 4434489
57 94 5230928
92 154 4960281
164 28 5222725
33 138 3828349
91 43 2975809
37 99 3833980
152 155 4627120
146 65 3654072
9 87 6952453
146 43 6777142
99 37 5640467
57 153 3674801
36 155 3131436
169 147 3139825
147 169 3141023
155 156 4863654
155 140 4863654
155 126 4863654
155 12 4863654
155 46 4863654
155 93 4863654
155 23 4863654
155 51 4863654
155 152 5553937
155 11 4863654
155 136 4863654
155 71 4863654
127 52 3153557
65 106 6855204
30 2 6988343
119 123 3318754
87 56 6705331
91 106 3324098
87 168 3854424
134 28 3332582
94 65 5232596
102 58 3650675
23 136 5659434
130 82 6774002
73 117 6858616
73 55 5227194
52 3 5230921
130 14 3671519
126 155 3673498
87 9 6705331
111 88 3832787
126 80 3758429
117 73 6940107
89 111 3796527
52 82 3827961
123 134 3829836
123 147 3829099
134 70 3833863
78 68 6951435
82 130 6775580
68 78 6951899
76 68 3842239
23 155 3842270
23 51 3842270
97 63 4872588
87 135 3853503
87 85 6705331
97 76 3856034
137 130 3912289
147 164 3918354
164 147 3927735
146 30 3999568
30 146 3951011
92 72 4454708
92 82 4454708
92 64 4454708
92 137 4454708
92 52 4454708
92 104 4454708
92 115 4454708
92 66 4454708
92 5 4454708
92 141 4454708
92 47 4454708
92 6 4454708
92 14 4454708
92 60 4454708
92 127 4454708
92 3 4454708
92 138 4454708
92 35 4454708
92 33 4454708
92 165 4454708
154 137 4008554
123 28 4248459
58 150 5472073
65 68 4261101
66 115 4263859
71 140 4267501
43 24 6614581
91 57 4274546
43 148 4356544
76 106 5143842
2 63 4383814
43 153 6614581
135 9 6610402
97 10 4436473
9 135 4439936
27 51 4440777
75 119 4453717
154 92 4948088
3 92 4521943
33 92 4455405
82 92 4455495
47 92 4455696
165 92 4455889
72 92 4456085
127 92 4459238
40 91 4481949
115 52 4511352
115 66 4511581
14 92 4523883
33 14 6864745
137 92 4529218
134 119 5231590
75 98 4603016
52 92 4607985
82 64 4610296
171 70 4625765
171 134 4625765
171 164 4625765
171 163 4625765
171 159 4625765
171 122 4625765
171 161 4625765
171 25 4625765
171 114 4625765
171 75 4625765
171 128 4625765
75 171 4629283
146 57 6872110
163 98 4862851
0 134 4868742
80 155 4869254
97 113 4872588
97 148 4876731
10 65 4889356
52 165 5673967
126 71 5488914
122 169 4963820
122 134 5211885
122 171 4963820
122 119 4963820
122 123 4963820
122 145 4963820
130 127 5472746
65 94 5231479
65 57 6606992
132 89 4969423
3 66 4970150
60 165 4973460
94 76 5185295
91 94 5140099
82 6 5032307
71 126 5489253
111 132 5037442
134 123 5039376
11 140 6946508
163 144 5132770
80 152 5058949
144 163 5214854
47 66 5060812
66 47 5063014
46 155 5120340
94 146 5131255
163 169 5132770
163 134 5211772
163 171 5484588
163 119 5132770
163 28 5132770
163 145 5132770
123 119 5133403
44 156 5141731
144 70 5214854
144 134 5214854
144 164 5214854
144 159 5214854
144 119 5214854
144 161 5214854
144 0 5214854
144 98 5214854
144 123 5214854
144 28 5214854
144 147 5214854
144 114 5214854
144 145 5214854
144 75 5214854
144 128 5214854
127 14 6854683
44 7 5222072
137 5 5244866
58 117 5472073
76 157 5650240
85 111 5487640
85 89 5487644
164 134 5479456
141 130 5553770
157 76 5577506
111 135 5585973
60 130 5587408
135 111 5638146
99 45 5640468
99 73 5640472
99 58 5640473
99 117 5640473
117 99 5640915
66 133 5643737
33 133 5644238
153 10 5647392
68 43 6941292
154 82 5650990
58 99 5652162
142 157 5742535
157 142 6857102
23 140 5659434
39 104 5766101
39 35 5766101
56 87 6811123
140 23 6592933
43 157 6776856
43 76 6614581
2 148 6614817
43 68 6863403
0 164 6704612
24 76 6869800
52 35 6779097
14 86 6863577
76 24 6869534
146 10 6874194
10 146 6879559
57 2 6891693
57 142 6891693
