24 153 22253327
24 91 23390611
130 165 23283744
135 168 24480189
58 73 23196064
73 45 24302923
73 58 24476006
163 164 22407199
163 123 13157393
163 147 23005125
163 75 18277005
134 145 22583531
68 167 22762611
65 78 23887940
137 82 23446553
137 52 20633602
23 156 23782921
91 24 23379234
91 153 23280678
127 137 20242091
40 30 30620
40 2 24180939
40 142 15934916
40 24 15506939
7 80 23184081
56 135 23322540
68 146 23815426
35 52 23886427
164 163 23963977
147 163 22880268
140 7 19573433
140 155 19573433
140 36 19573433
140 27 19573433
140 156 19573433
140 126 19573433
140 80 19573433
140 46 19573433
140 69 19573433
140 51 19573433
140 152 19573433
140 44 19573433
140 11 19573433
140 71 19573433
86 130 24222466
165 137 24221522
165 52 24221522
165 5 24221522
165 14 24221522
165 60 24301010
165 127 24221522
165 35 24221522
165 130 24492920
111 56 24498679
57 65 23637671
150 37 22502470
37 150 22505178
117 37 22063949
37 117 24176263
57 24 15149539
27 7 20613792
27 46 21377381
27 36 21135302
27 11 23625957
27 71 21292833
27 12 40142
33 130 23805524
7 27 23963873
137 165 24391527
154 66 23270038
146 97 23623574
171 169 23812664
171 144 17843346
2 142 23109256
63 65 23690230
71 27 23200852
66 154 23202133
58 37 21877318
55 117 650006
55 45 650006
55 73 650006
55 58 650006
55 150 650006
55 99 650006
142 2 23311564
46 27 24316492
171 119 21821838
135 56 23371775
168 135 24327650
91 63 23355225
91 76 16622457
76 91 7191486
24 142 23391539
24 157 23069540
127 35 23888357
157 24 23097141
157 63 21741345
10 91 21291067
10 24 23119283
63 153 23736639
97 65 23634295
24 10 23159410
153 63 24179659
142 24 23391603
35 127 23886427
141 39 22431496
78 65 23881380
65 97 22930462
82 137 20153318
82 104 20153318
82 47 20153318
82 3 20599604
127 165 24322088
137 127 24421591
46 71 14134767
137 39 23115570
64 130 24391336
3 82 23962543
3 14 23040666
3 165 23193737
3 130 23889902
71 46 17675105
146 157 24328119
9 168 23111986
9 56 23873510
9 89 20692061
24 2 23111286
94 167 3366038
2 24 23380363
39 127 15176736
2 40 19405776
39 82 24422792
39 47 23798823
39 3 22405302
127 39 23888357
66 52 23372808
63 91 23736639
39 137 23735539
39 165 23735539
165 39 24477025
141 137 22584669
141 104 17579576
141 47 17579576
153 24 24398522
80 156 23621637
80 23 23040883
157 146 24392307
45 73 23272285
86 165 24480032
169 171 22670179
56 111 23798418
167 43 22151199
167 65 24487301
56 9 23881609
56 89 23798425
86 82 24222466
56 168 23811740
91 2 23021419
45 150 24328140
165 86 24498254
63 43 23737095
52 137 22666265
47 137 22592172
47 104 23978112
33 137 4550693
167 68 23724626
167 146 24477408
157 97 24413133
7 140 19569446
73 37 19573142
122 163 23184645
51 80 23186545
130 64 22148851
163 122 18794659
66 33 23287986
80 51 23621698
150 73 23885510
144 169 5214854
146 68 22663504
146 167 24478432
47 165 312505
111 89 22533769
24 63 22092420
33 82 22430870
33 66 23005977
33 5 23005977
33 154 19040186
47 3 23963542
45 55 372120
86 35 23964178
156 7 19660641
153 91 24398522
153 94 22026687
77 7 20700063
63 106 23720766
104 86 24234354
104 35 24234354
145 171 22504726
156 140 19660641
156 126 19652241
156 80 23623333
156 155 22677734
156 46 24388226
156 23 24405769
156 36 19660641
156 51 19660641
156 27 19660641
156 152 23178899
156 44 24405769
156 11 23980308
156 71 19660641
37 73 24176263
146 63 24419823
111 85 18865239
155 80 22402637
155 27 21289384
164 123 19656366
35 72 22487005
60 86 23954331
5 86 23988636
82 86 23368410
39 141 22490802
39 86 24230301
56 85 23282209
24 40 22082401
142 91 23101522
24 59 23374191
24 94 21658437
24 78 21658437
24 57 14660614
72 86 23963889
72 35 23963889
2 18 10837715
146 24 23878942
66 137 629309
66 86 23372811
60 92 4534334
130 86 24223677
47 86 24241410
3 86 23963473
66 127 1775857
64 14 644314
27 156 645541
92 86 22406733
154 52 23607434
154 86 23607811
137 86 24233366
33 86 23805524
55 37 2121664
65 43 23302796
35 86 24396395
14 165 22255064
23 126 23782921
23 7 23782921
23 46 23782921
23 152 23782921
23 44 23813457
2 91 23380363
43 65 23225326
43 63 23737240
43 167 23737240
44 23 23869644
127 66 10222005
147 75 22880268
23 49 720390
153 146 22146594
171 28 24497467
171 145 23869512
171 147 23812664
7 156 20510184
7 126 15407262
7 155 810621
7 46 810621
7 23 17655154
7 36 22686942
7 51 23869891
7 152 13698414
7 44 13164171
7 11 23725925
7 71 810621
78 146 24326435
23 80 23782921
85 56 22513901
142 40 17149693
3 35 23963473
56 121 23661951
86 137 20600039
86 3 23964178
64 137 17915687
76 146 23610593
146 142 22852282
75 147 20768849
45 37 23288984
68 97 23283117
65 167 24306087
142 146 22860271
5 33 22434211
122 147 24304294
37 45 24171161
35 104 24392757
146 91 23878908
3 137 23963285
3 104 23963285
3 47 23963285
3 39 23963285
144 171 5214854
57 146 24327630
57 63 23637671
63 146 23551865
63 57 23552380
63 118 23701979
63 68 23729119
30 24 24342363
40 10 13207490
80 27 18457051
68 63 23906330
127 154 14121062
46 69 891395
137 141 23115570
10 157 22686013
10 40 21847773
157 10 22576026
39 130 23295902
28 147 23612345
86 52 21823697
24 30 22454333
2 30 24234777
91 142 23101370
32 151 1998961
86 5 21823803
86 14 20858207
86 60 19897040
86 127 21211404
36 140 10302769
165 82 24492920
82 127 1949772
127 82 1948630
47 82 19920977
47 39 23202743
51 27 20000912
155 7 24389866
57 91 18988964
82 39 24421711
94 153 22055833
137 104 24318208
137 47 24499932
140 93 8065512
137 3 23446553
63 24 23736639
82 33 23100207
86 79 15251965
10 142 23099704
76 65 23708566
63 76 23727867
63 167 23736639
65 76 23712341
168 56 23629572
63 94 23548695
142 10 23100830
153 40 22537777
24 65 19793989
156 162 1317752
82 141 22575192
146 76 17845112
27 80 20861928
164 122 19485323
154 127 20086073
46 152 22065481
137 64 17915744
130 33 22438705
153 68 4446709
153 76 10480817
153 167 23877182
68 153 4454384
91 30 23366026
94 63 21252489
123 164 22664159
123 163 4007972
123 122 1335109
28 75 22769051
168 9 23006845
97 146 23805537
30 91 24073262
122 28 23963967
94 157 24255067
130 52 22250146
130 60 17824416
46 156 23874175
2 10 22710121
76 97 23710893
76 63 23713746
167 153 22067723
68 76 1421827
76 153 17825498
82 154 19895702
169 144 7280364
63 157 21473116
157 94 24314558
24 146 23064763
65 24 17761663
155 44 22754303
28 134 22769051
28 164 23801452
28 0 22769051
28 123 22769051
141 86 20594806
141 125 20761760
141 35 1497172
40 153 20696659
152 44 23096716
63 113 20532356
73 150 24488359
94 24 20597578
122 164 22665115
94 43 21912030
94 57 20640106
24 43 21859636
142 63 20615925
65 148 24399579
75 164 1756649
148 65 24397737
5 165 17317651
63 2 21297110
63 142 19908046
28 119 24407948
151 65 19493267
151 91 19493235
151 43 19493262
151 76 19493485
151 24 19493515
151 63 19493244
121 56 19345283
68 113 1837030
45 117 22769924
117 45 22770611
171 123 23812664
123 171 7298297
132 111 23026990
141 64 10243807
144 122 5214854
122 144 4963820
52 86 20004725
52 66 22601787
119 28 19475859
28 144 8168638
28 163 22769051
28 122 23964657
14 52 20614839
14 5 20614840
14 60 16030286
5 137 15674329
44 155 22172804
82 165 23198976
52 60 15679777
52 154 23128989
27 155 18867483
155 36 19397236
165 104 24221522
165 141 24301010
28 70 24318577
28 171 22769051
28 161 22769051
28 114 22769051
28 128 13687377
35 39 23886427
39 92 23798823
92 39 4454708
76 78 23708566
97 43 23634108
43 97 23648263
91 10 23129308
36 46 2111590
7 12 5468389
65 63 23638063
80 7 23215141
91 59 20530098
168 89 18271798
71 155 22409481
165 3 24221522
150 45 24327996
28 145 22494571
114 28 12823668
63 97 20608363
122 75 14029412
94 2 2394838
64 82 18268735
64 104 8684496
64 141 9883913
64 47 2439385
64 3 2439385
64 39 2439385
71 36 6863572
35 82 7481010
35 137 22748246
35 141 2442611
35 14 2442611
35 60 2442611
35 3 2442611
35 165 23888338
35 130 23886427
78 76 23641470
37 105 8078585
60 52 12225571
43 57 21906475
57 43 21457810
24 167 19877845
91 167 2546481
150 58 22066550
130 35 23283744
82 52 22335788
58 45 22072099
45 58 22072031
167 59 2620180
148 97 23812042
148 43 23729334
148 146 22409334
148 63 19413063
148 167 19653689
3 52 22575035
167 148 19660299
167 91 2623123
119 147 22589121
44 80 23276065
18 153 2627773
80 44 23215492
91 146 22426143
127 86 22750110
152 27 22065036
146 94 23725498
57 68 17070113
94 91 21290662
94 10 20372318
99 105 9958142
46 23 22112696
119 75 17308175
147 119 22880268
43 91 23737240
57 94 21459076
92 154 21716016
164 28 19485158
33 138 3828349
91 43 20599116
37 99 20246317
152 155 19553296
146 65 23964845
9 87 23111986
146 43 21800486
99 37 18453553
57 153 18637319
36 155 24384807
169 147 15400980
147 169 22880268
155 156 19397236
155 140 19397236
155 126 19397236
155 12 19397236
155 46 24320766
155 93 19397236
155 23 23964927
155 51 22506265
155 152 19397236
155 11 19397236
155 136 19397236
155 71 22401683
127 52 23888357
65 106 24219685
30 2 24234615
119 123 18427003
87 56 23624327
91 106 16530826
87 168 23711812
134 28 22583531
94 65 20637693
102 58 3650675
23 136 5659434
130 82 24221198
73 117 24476006
73 55 5227194
52 3 22680098
130 14 22567186
126 155 22070603
87 9 19654347
111 88 3832787
126 80 3758429
117 73 24410553
89 111 3796527
52 82 23194189
123 134 14130735
123 147 7552815
134 70 22583531
78 68 16013341
82 130 24235931
68 78 19395085
76 68 3842239
23 155 23960562
23 51 23782921
97 63 20608653
87 135 22515610
87 85 18363327
97 76 23616478
137 130 24215539
147 164 22880268
164 147 23010814
146 30 23875203
30 146 23972555
92 72 4454708
92 82 4454708
92 64 4454708
92 137 13177724
92 52 16019243
92 104 4454708
92 115 4454708
92 66 20848089
92 5 4454708
92 141 4454708
92 47 14803801
92 6 4454708
92 14 4454708
92 60 19403786
92 127 4454708
92 3 14115203
92 138 4454708
92 35 4454708
92 33 4454708
92 165 17656415
154 137 4008554
123 28 19971785
58 150 22094181
65 68 20698238
66 115 4263859
71 140 4267501
43 24 23737240
91 57 18989565
43 148 23736718
76 106 5143842
2 63 21283875
43 153 23737240
135 9 24480189
97 10 18264826
9 135 24390777
27 51 23895043
75 119 20077695
154 92 20774397
3 92 4521943
33 92 4455405
82 92 4455495
47 92 4455696
165 92 4455889
72 92 4456085
127 92 4459238
40 91 13989832
115 52 23610789
115 66 4511581
14 92 4523883
33 14 22438560
137 92 4529218
134 119 22583531
75 98 4603016
52 92 4607985
82 64 17929909
171 70 22409810
171 134 21821838
171 164 23812664
171 163 21821838
171 159 4625765
171 122 21821838
171 161 21821838
171 25 4625765
171 114 21821838
171 75 21821838
171 128 4625765
75 171 22681894
146 57 24328025
163 98 4862851
0 134 23621687
80 155 22749713
97 113 19057749
97 148 23811458
10 65 4889356
52 165 22850458
126 71 5488914
122 169 14029412
122 134 17831122
122 171 14029412
122 119 15856706
122 123 17077769
122 145 14029412
130 127 19656926
65 94 21307225
65 57 23638063
132 89 24422028
3 66 20760417
60 165 12567714
94 76 21874447
91 94 20672467
82 6 5032307
71 126 5489253
111 132 23101324
134 123 22583531
11 140 14475408
163 144 5132770
80 152 20252509
144 163 5214854
47 66 20699452
66 47 5063014
46 155 24316492
94 146 24254983
163 169 5132770
163 134 5211772
163 171 5484588
163 119 19403961
163 28 22510914
163 145 5132770
123 119 18431436
44 156 20596657
144 70 5214854
144 134 5214854
144 164 5214854
144 159 5214854
144 119 5214854
144 161 5214854
144 0 5214854
144 98 5214854
144 123 5214854
144 28 8413463
144 147 5214854
144 114 5214854
144 145 5214854
144 75 5214854
144 128 5214854
127 14 7822106
44 7 13164978
137 5 5244866
58 117 20153196
76 157 20521042
85 111 19048432
85 89 5487644
164 134 19485237
141 130 22431496
157 76 20520417
111 135 23387512
60 130 15949095
135 111 19985664
99 45 15846552
99 73 5640472
99 58 5640473
99 117 5640473
117 99 5640915
66 133 5643737
33 133 5644238
153 10 21295001
68 43 22420284
154 82 12464826
58 99 5652162
142 157 15943292
157 142 15840856
23 140 9719024
39 104 22490802
39 35 22490802
56 87 23624457
140 23 9719229
43 157 23391787
43 76 22675042
2 148 6614817
43 68 19507501
0 164 6704612
24 76 21512801
52 35 23028375
14 86 21920031
76 24 21708022
146 10 24404214
10 146 24401171
57 2 6891693
57 142 14800035
40 146 7156946
24 97 21860418
130 141 22567569
123 75 7204589
52 127 23787296
57 76 21372659
14 127 7219507
97 24 13976044
3 141 22485186
117 58 22576158
135 89 24306478
73 61 24496577
82 35 12996911
37 58 19999513
111 9 7301334
153 142 23097483
78 24 15672008
146 2 23794210
68 166 7377484
165 64 7379048
64 165 7385703
86 64 7384623
64 86 7385703
153 43 7392500
46 80 7394291
97 68 22416889
97 167 22688758
43 106 21900925
157 68 7550944
68 157 7551240
57 106 14800035
141 127 24487300
5 39 9723526
127 141 18515226
23 12 7807584
23 36 23782921
23 27 23782921
23 11 23782921
23 71 23782921
11 23 23805847
148 157 23971842
111 103 24498365
103 111 23900551
47 72 14125718
86 39 23785062
97 78 16548979
78 97 23709485
126 12 20514632
132 103 24422981
132 85 7913368
39 52 22752498
127 104 18432236
103 132 23371028
15 10 11188829
52 115 19130332
76 113 8061025
103 87 23112026
14 3 23024934
56 103 23811092
157 148 23977805
10 15 17673544
75 28 21816512
64 138 8407892
51 126 8410363
87 89 12817802
14 130 20697551
164 145 18867268
91 40 23188033
145 164 20588755
141 60 8501890
111 87 20784321
80 140 12829446
9 132 16031352
9 103 23111986
43 146 23224145
119 164 18790844
126 23 23808241
146 153 24317029
91 157 21675887
103 9 23112026
27 140 16986023
157 91 22067711
148 170 22423259
56 132 22087002
10 153 22165948
146 148 21720838
44 152 23610821
170 148 23211037
126 156 23808241
126 46 23808241
126 152 23808241
126 44 23808241
141 165 24487300
146 78 24327986
86 92 21824099
126 7 15407874
132 56 16038211
164 119 18860648
152 23 13506371
86 141 11024456
167 97 23718984
157 65 21713553
39 5 23295902
103 56 23808843
65 157 21210377
61 58 24489938
36 7 24383904
61 73 22580396
61 117 23286337
170 65 23893440
75 134 15140015
167 63 23282289
18 2 9624270
18 24 23307245
119 122 14722610
64 83 21906555
5 64 23017894
24 18 23374191
127 33 9641103
10 94 13689668
10 63 20631399
65 91 17761663
45 99 9790543
5 60 15674329
134 169 22583531
134 164 22583531
134 163 22583531
134 171 22583531
134 122 22583531
134 161 22583531
134 0 23700463
134 98 22583531
134 147 22583531
134 114 22583531
134 75 22583531
134 144 22583531
150 117 22066494
117 150 22057935
63 59 20531626
10 118 9989085
43 78 10223179
97 94 10328960
66 92 22403831
94 97 21247925
167 24 20088263
127 3 18270229
78 157 10483442
97 157 24412638
157 78 10414211
103 168 23800166
142 153 23100920
153 65 19383283
43 10 19980591
152 156 13506371
24 124 23390611
152 46 13506371
141 14 22258743
14 82 22511185
47 141 19140745
87 132 18430756
148 68 23618018
147 28 22880268
94 78 18951745
44 126 11007697
153 2 11730791
98 164 11092866
167 94 11107362
65 153 20869122
43 94 21900614
10 43 19985898
10 167 24315873
103 89 16978197
91 113 20418835
170 157 11618347
72 165 11632651
2 153 11711290
142 124 23311564
167 157 19046864
157 167 14201730
135 87 24480189
47 125 23978112
65 170 23983993
127 130 23888357
5 82 23017767
5 47 23019371
5 3 20872439
5 130 23020180
7 162 11804246
124 24 23983984
122 98 14029412
98 134 21813465
63 78 19645044
63 10 21475717
10 59 11959489
82 83 23100145
91 97 12500294
91 65 23283918
24 54 23372905
2 124 23991149
3 154 23272125
154 3 12233255
27 152 21196877
43 170 23245708
97 91 12294512
28 98 22769051
76 94 21708327
3 64 20760417
148 57 15952318
57 148 16141914
76 170 23801444
91 124 23032422
91 54 23366138
124 142 24224900
124 2 23997536
124 40 12738108
121 85 12522848
121 89 20063749
23 69 12523644
33 64 12548726
130 13 24224671
154 60 12567982
124 91 23027274
124 59 12568340
54 30 21762632
54 124 23615555
54 91 23380239
54 2 21662663
54 142 20691389
54 24 23380239
54 40 14847556
2 54 14034101
142 54 21232523
170 43 23270124
170 76 23801648
124 54 23718002
148 91 13181673
167 10 22576342
146 15 18283090
24 15 21074411
91 148 13171211
157 57 22163836
146 124 23875203
148 30 12926064
148 124 12926064
54 59 12940999
146 59 12986552
146 54 23875203
36 27 21296407
54 146 24255162
30 54 21741366
52 130 22432114
157 166 17224493
82 60 13158268
91 15 23021419
10 97 19474973
60 82 13156364
103 85 23641834
78 170 21310629
114 119 13165035
170 78 21373696
148 76 13181673
142 15 22084888
164 70 13189564
142 30 23213822
15 142 13348551
152 7 13698338
152 126 20244135
5 83 13515689
155 69 13518393
56 67 13721302
66 60 13525933
97 170 13539309
170 97 20698907
124 30 21397772
153 106 21934642
30 124 21458126
122 161 14029412
122 0 14029412
122 114 14029412
75 122 14030720
119 134 20849604
135 103 24480189
103 135 22595155
157 74 18452079
2 167 21283875
74 157 18452462
130 5 23787098
104 82 20508758
87 111 14203524
2 15 17652196
9 111 14207905
165 47 24221522
124 146 23878004
52 14 14475532
39 72 14563011
39 64 14563011
39 66 23798823
39 33 23798823
74 24 18872501
104 3 17063871
24 74 14564046
74 63 23024341
63 74 23024105
142 76 14637459
121 168 22492009
33 104 14652076
24 106 21748403
0 28 14732555
76 43 22592158
77 44 14736204
97 110 14738533
11 80 14739876
80 11 23040883
142 43 14763046
145 28 22492437
57 10 14800035
167 2 14819663
30 142 22937713
33 3 20070768
130 3 23952258
104 52 24401881
51 7 16015829
52 39 23709313
147 70 22880268
147 134 22880268
147 171 22880268
147 122 22880268
147 161 22880268
147 0 22880268
147 98 22880268
147 123 22880268
147 114 22880268
147 145 22880268
147 144 22880268
145 147 20588755
114 147 15407118
39 154 23798823
142 59 15606864
5 52 15674329
5 14 15674329
5 127 15674329
5 35 15674329
157 43 23357910
74 91 23024341
91 74 23032529
35 92 16016087
75 163 16019251
2 59 23790378
94 59 16615186
161 164 16626864
70 145 16967706
68 65 16977229
5 141 23019303
72 104 17057555
11 155 17057806
52 64 17134620
52 104 17134620
52 141 22433797
52 47 17134620
68 148 23619328
145 169 20588755
145 70 20588755
145 163 20588755
145 119 20588755
145 122 20588755
145 161 20588755
145 0 20588755
145 123 20588755
168 85 17158886
30 10 24311865
57 74 23371374
78 94 18952912
63 148 18786998
130 39 22171502
56 1 20197397
57 157 23012468
54 63 17339720
63 54 17483951
124 10 17513042
98 75 17558301
78 63 19633899
50 97 17758600
2 65 17761198
65 2 17761791
87 103 19394969
64 66 17841017
82 66 22071479
168 132 17932232
168 87 23815159
10 30 23099366
132 87 24422981
132 9 24422981
72 47 18193797
72 3 18530291
63 110 18264047
168 121 21909726
170 63 18272456
119 171 21378631
15 146 18282961
3 33 20760418
157 107 18881037
107 157 18864406
137 83 18434226
119 70 18427003
119 0 18427003
135 132 24480189
85 87 22513901
85 135 19048432
0 119 18433946
127 47 18438672
167 107 24317780
70 119 18880773
107 10 19413279
10 107 22522451
72 52 18780980
74 57 23371231
160 56 18873200
56 160 18900409
135 85 19038332
43 113 19044249
33 47 20519234
104 39 19142161
124 15 19164666
10 68 20698222
0 144 19380883
137 35 22683040
137 154 19380970
171 0 21821838
168 103 23810299
68 124 19395085
119 163 19397745
107 167 24328704
15 124 19422714
167 78 19472654
10 78 19474973
107 63 23646182
15 24 20853576
141 5 22678975
63 107 23651058
107 68 19914365
68 107 21303173
74 43 21712676
56 88 19942633
75 145 19991676
74 107 19991943
43 74 20092848
70 171 22416762
71 80 20072463
46 11 20167884
70 134 20245139
107 74 22409794
11 12 23030253
91 18 23379234
78 148 20695315
3 5 22485186
145 75 20597356
86 72 20607519
14 141 20614840
14 39 20614840
44 11 20756050
58 61 24489589
148 78 20695930
14 47 21402364
68 10 20700227
77 23 20701061
89 56 20721917
3 72 20760417
3 6 20760417
3 60 20760417
3 127 22418244
3 138 20760418
11 44 20769119
111 168 23640625
130 47 20850733
47 14 21390601
47 130 20860557
11 7 20866778
74 146 21113861
44 27 21135594
86 66 21290242
36 12 21298165
57 97 21372715
54 10 22073909
10 54 22079774
66 3 21795342
84 44 21821693
24 107 22452225
85 103 23201194
141 82 22164420
18 91 23307245
152 80 22065036
148 116 24489365
15 2 22084851
71 23 22138598
165 33 22165675
116 76 24299944
116 63 23372428
152 71 22149370
107 24 22441187
116 148 24498615
130 66 22410097
63 116 23723325
141 66 22427283
33 125 22488566
52 33 22436516
98 123 22396090
141 33 22431463
11 27 23980623
148 94 22408932
94 148 22426498
33 52 22430613
33 141 22430613
33 39 23801928
141 52 22431496
146 116 22491111
161 28 22512681
116 146 22575450
71 11 22582015
126 11 23352282
2 146 22598532
66 39 22600881
2 107 22671129
107 2 22672230
97 2 22688758
10 2 22688801
2 157 22751459
157 2 22751368
71 7 22754851
65 116 24495071
47 5 23187269
170 2 23620629
2 170 23789243
10 29 23307082
116 65 24484777
54 18 23380239
132 121 23632778
76 116 23713746
127 5 23888357
46 7 23874175
46 44 23874175
35 5 23886427
121 132 23914747
153 97 24393364
98 147 24208558
107 146 24236750
97 153 24306475
167 40 24393460
40 167 24359264
36 71 24383904
132 168 24422981
132 135 24422981
170 116 24491525
