24 153 4450337
24 91 4481478
130 165 3923852
135 168 1415426
58 73 720702
73 45 4446144
73 58 4447710
163 164 1321324
163 123 1246649
163 147 33872
163 75 3935592
134 145 3325862
68 167 2989292
65 78 4452743
137 82 3912738
137 52 1763340
23 156 4273707
91 24 4456679
91 153 4455999
127 137 3057475
40 30 30620
40 2 3052893
40 142 4481098
40 24 4481098
7 80 3656741
56 135 4447302
68 146 4001172
35 52 2442611
164 163 1323896
147 163 32844
140 7 4362803
140 155 4362803
140 36 4454463
140 27 4020698
140 156 4020698
140 126 4020698
140 80 4020698
140 46 4020698
140 69 4020698
140 51 4020698
140 152 4020698
140 44 4020698
140 11 4454463
140 71 4454463
86 130 3309713
165 137 4341514
165 52 3767216
165 5 3767216
165 14 3767216
165 60 3767216
165 127 3923920
165 35 3767216
165 130 4368155
111 56 4375540
57 65 4365399
150 37 1854226
37 150 1854816
117 37 4261267
37 117 4351685
57 24 4027209
27 7 2730004
27 46 2730004
27 36 2730004
27 11 2730004
27 71 3336681
27 12 40142
33 130 3995565
7 27 2104770
137 165 4369320
154 66 4426774
146 97 3681513
171 169 1948964
171 144 4005318
2 142 4352922
63 65 4216767
71 27 4280270
66 154 4286411
58 37 45404
55 117 650006
55 45 650006
55 73 650006
55 58 650006
55 150 650006
55 99 650006
142 2 4452460
46 27 4349198
171 119 4004636
135 56 3737158
168 135 1775938
91 63 4456401
91 76 200299
76 91 54507
24 142 4481478
24 157 224042
127 35 2634987
157 24 207430
157 63 4290334
10 91 2472979
10 24 2631739
63 153 4463022
97 65 4006683
24 10 4366820
153 63 4446709
142 24 4449774
35 127 2634722
141 39 3057867
78 65 2449405
65 97 4452743
82 137 116751
82 104 116751
82 47 2035378
82 3 3737159
127 165 3922603
137 127 4262832
46 71 3997330
137 39 4369320
64 130 4350634
3 82 4275688
3 14 808212
3 165 808212
3 130 808212
71 46 4007355
146 157 2450713
9 168 1154396
9 56 4439936
9 89 805855
24 2 4451065
94 167 3366038
2 24 4450948
39 127 4365162
2 40 1888355
39 82 1175961
39 47 142714
39 3 1247992
127 39 4437785
66 52 4025506
63 91 4463769
39 137 4365162
39 165 4365162
165 39 4341514
141 137 1855219
141 104 1855219
141 47 1855219
153 24 4017187
80 156 2620170
80 23 4354232
157 146 4267247
45 73 4002170
86 165 3245301
169 171 2103530
56 111 4457431
167 43 4451461
167 65 2726992
56 9 4456908
56 89 4220015
86 82 3841129
56 168 1850311
91 2 4452138
45 150 2374514
165 86 4368155
63 43 4378191
52 137 1337692
47 137 1923452
47 104 1923452
33 137 291292
167 68 4453554
167 146 2628003
157 97 297855
7 140 2038490
73 37 4256497
122 163 4259603
51 80 4431984
130 64 4017560
163 122 897068
66 33 3153983
80 51 3167266
150 73 307694
144 169 2716116
146 68 3323946
146 167 3323757
47 165 312505
111 89 4261940
24 63 4459996
33 82 4262194
33 66 4262194
33 5 3316101
33 154 329967
47 3 2034820
45 55 372120
86 35 3826304
156 7 725094
153 91 3782808
153 94 3668705
77 7 3938390
63 106 2373698
104 86 3061684
104 35 3667017
145 171 383980
156 140 384159
156 126 3909993
156 80 4254035
156 155 3320050
156 46 3909993
156 23 4365688
156 36 384159
156 51 384159
156 27 384159
156 152 3909993
156 44 4365688
156 11 384159
156 71 384159
37 73 3833519
146 63 4454818
111 85 4028393
155 80 3662419
155 27 4433132
164 123 2360677
35 72 906855
60 86 3063234
5 86 3141050
82 86 3842322
39 141 4365162
39 86 3085432
56 85 3706359
24 40 4481478
142 91 4449774
24 59 4369953
24 94 3668981
24 78 3668981
24 57 3090490
72 86 3062075
72 35 3062075
2 18 4038831
146 24 4451107
66 137 629309
66 86 3059434
60 92 632311
130 86 3066550
47 86 3072921
3 86 3831116
66 127 1775857
64 14 644314
27 156 645541
92 86 4454708
154 52 4260900
154 86 3068217
137 86 3060584
33 86 3246984
55 37 2121664
65 43 4436462
35 86 3825389
14 165 1942641
23 126 3652467
23 7 3652467
23 46 3652467
23 152 3925116
23 44 3842270
2 91 4436533
43 65 4365454
43 63 4434489
43 167 959154
44 23 3908537
127 66 1925036
147 75 2707575
23 49 720390
153 146 720591
171 28 4271182
171 145 2381384
171 147 897995
7 156 810621
7 126 810621
7 155 810621
7 46 810621
7 23 810621
7 36 2622481
7 51 810621
7 152 810621
7 44 810621
7 11 810621
7 71 810621
78 146 3662839
23 80 4351943
85 56 4004478
142 40 4449080
3 35 3831116
56 121 751937
86 137 3060792
86 3 3054473
64 137 2439385
76 146 4428454
146 142 807841
75 147 3834410
45 37 824434
68 97 3057955
65 167 4436462
142 146 807290
5 33 3039240
122 147 808095
37 45 825522
35 104 4360424
146 91 3657000
3 137 4275688
3 104 1939828
3 47 4275688
3 39 4275688
144 171 4456721
57 146 3853216
57 63 4027209
63 146 4462525
63 57 4028723
63 118 1494066
63 68 4386234
30 24 2623647
40 10 847136
80 27 888262
68 63 4021662
127 154 2981226
46 69 891395
137 141 3912738
10 157 1355773
10 40 4273551
157 10 1417254
39 130 3676173
28 147 3321958
86 52 3850470
24 30 2668160
2 30 3260608
91 142 4452138
32 151 1998961
86 5 2368974
86 14 2368974
86 60 2368974
86 127 3758969
36 140 4348544
165 82 1154889
82 127 1949772
127 82 1948630
47 82 2034820
47 39 1159710
51 27 1160061
155 7 3662419
57 91 4027209
82 39 1185391
94 153 3689983
137 104 3912738
137 47 3912738
140 93 4454463
137 3 4277361
63 24 4463769
82 33 1254533
86 79 2548286
10 142 1268654
76 65 2636683
63 76 3921124
63 167 2106498
65 76 4283666
168 56 1781235
63 94 3935568
142 10 4350573
153 40 4017187
24 65 3071714
156 162 1317752
82 141 1321843
146 76 4431269
27 80 2730004
164 122 4450887
154 127 2968400
46 152 1330258
137 64 3912289
130 33 4000998
153 68 4446709
153 76 4363324
153 167 4363324
68 153 4454384
91 30 1327854
94 63 3934890
123 164 4425899
123 163 4007972
123 122 1335109
28 75 3241075
168 9 1775938
97 146 3682399
30 91 1347261
122 28 2634801
94 157 4360615
130 52 1403908
130 60 1403908
46 156 1407785
2 10 1412854
76 97 3926960
76 63 1421695
167 153 1421724
68 76 1421827
76 153 3842239
82 154 1430062
169 144 1506421
63 157 3921124
157 94 3678593
24 146 4451362
65 24 2124177
155 44 3662419
28 134 4104831
28 164 3241075
28 0 3241075
28 123 4104831
141 86 1497172
141 125 1855341
141 35 1497172
40 153 3155388
152 44 3666148
63 113 3077532
73 150 3657595
94 24 3366038
122 164 3054963
94 43 3366038
94 57 3636241
24 43 4450337
142 63 1751383
65 148 3932398
75 164 1756649
148 65 4277362
5 165 1762344
63 2 4384900
63 142 1778462
28 119 1771741
151 65 1785954
151 91 1785922
151 43 1785949
151 76 1786170
151 24 1786200
151 63 1785931
121 56 1799564
68 113 1837030
45 117 1844683
117 45 1845550
171 123 2117295
123 171 1852676
132 111 1852959
141 64 1855341
144 122 1858765
122 144 1858888
52 86 3853242
52 66 4020569
119 28 1934910
28 144 3241075
28 163 3241075
28 122 3241075
14 52 1942641
14 5 1942641
14 60 1942641
5 137 1942907
44 155 1945245
82 165 3048145
52 60 3938999
52 154 4261577
27 155 4453128
155 36 3662419
165 104 2026140
165 141 2026140
28 70 3241075
28 171 4272004
28 161 3241075
28 114 3752093
28 128 3241075
35 39 2442611
39 92 4017276
92 39 4454708
76 78 3316572
97 43 2036043
43 97 2046684
91 10 2059502
36 46 2111590
7 12 2119644
65 63 4024679
80 7 2451569
91 59 3879796
168 89 2296463
71 155 2357210
165 3 2367777
150 45 2374908
28 145 2372026
114 28 2976300
63 97 3921124
122 75 2388010
94 2 2394838
64 82 3757307
64 104 2439385
64 141 2439385
64 47 2439385
64 3 2439385
64 39 2439385
71 36 2442193
35 82 3757465
35 137 2442611
35 141 2442611
35 14 2442611
35 60 2442611
35 3 2442611
35 165 2442611
35 130 2442611
78 76 3316443
37 105 2465161
60 52 3939779
43 57 4268470
57 43 4275017
24 167 2484466
91 167 2546481
150 58 3666750
130 35 2548497
82 52 3829258
58 45 3326740
45 58 4447167
167 59 2620180
148 97 2621096
148 43 4451631
148 146 2621096
148 63 2621096
148 167 2623223
3 52 4351205
167 148 2623004
167 91 2623123
119 147 3829413
44 80 2628348
18 153 2627773
80 44 2630370
91 146 3761084
127 86 3759120
152 27 2637131
146 94 2639257
57 68 2642205
94 91 2656985
94 10 3366038
99 105 2706926
46 23 2711087
119 75 4453932
147 119 2718847
43 91 4434489
57 94 4009068
92 154 4454708
164 28 2975690
33 138 3828349
91 43 2975809
37 99 3833980
152 155 2977563
146 65 3654072
9 87 4447347
146 43 3058594
99 37 3743729
57 153 3674801
36 155 3131436
169 147 3139825
147 169 3141023
155 156 3662419
155 140 4456535
155 126 3675126
155 12 3662419
155 46 3662419
155 93 3662419
155 23 3842844
155 51 3662419
155 152 3669101
155 11 3662419
155 136 3662419
155 71 3662419
127 52 3153557
65 106 3157735
30 2 3339871
119 123 3318754
87 56 3854424
91 106 3324098
87 168 3854424
134 28 3332582
94 65 3934890
102 58 3650675
23 136 3652467
130 82 3843597
73 117 4261918
73 55 3657595
52 3 4357809
130 14 3671519
126 155 3673498
87 9 3854424
111 88 3832787
126 80 3758429
117 73 4263375
89 111 3796527
52 82 3827961
123 134 3829836
123 147 3829099
134 70 3833863
78 68 3835778
82 130 3911025
68 78 3842180
76 68 3842239
23 155 3842270
23 51 3842270
97 63 3850634
87 135 3853503
87 85 3853503
97 76 3856034
137 130 3912289
147 164 3918354
164 147 3927735
146 30 3999568
30 146 3951011
92 72 4454708
92 82 4454708
92 64 4454708
92 137 4454708
92 52 4454708
92 104 4454708
92 115 4454708
92 66 4454708
92 5 4454708
92 141 4454708
92 47 4454708
92 6 4454708
92 14 4454708
92 60 4454708
92 127 4454708
92 3 4454708
92 138 4454708
92 35 4454708
92 33 4454708
92 165 4454708
154 137 4008554
123 28 4248459
58 150 4254931
65 68 4261101
66 115 4263859
71 140 4267501
43 24 4434489
91 57 4274546
43 148 4356544
76 106 4356682
2 63 4383814
43 153 4434489
135 9 4436266
97 10 4436473
9 135 4439936
27 51 4440777
75 119 4453717
154 92 4455230
3 92 4455335
33 92 4455405
82 92 4455495
47 92 4455696
165 92 4455889
72 92 4456085
127 92 4459238
40 91 4481949
