1157 1232
1157 1191
1157 1159
1157 1159
1159 1191
1159 1191
1159 1191
1159 1191
1159 1191
1144 1159
1144 1191
1144 1191
1144 1191
1144 1191
1144 1191
1144 1191
1144 1191
1144 1191
1144 1191
1144 1191
1144 1191
1157 1159
1144 1191
1144 1159
1157 1159
1144 1159
1157 1159
1144 1159
1144 1159
1152 1191
1152 1191
1152 1191
1105 1295
1105 1295
1157 1191
1157 1191
1157 1191
1105 1295
1105 1295
1109 1295
1105 1295
1105 1114
1105 1295
1109 1115
1109 1115
1109 1295
1098 1181
1105 1109
1105 1295
1098 1164
1105 1295
1116 1164
1164 1295
1232 1295
1105 1295
1109 1164
1116 1164
1116 1295
1109 1232
1116 1164
1109 1232
1114 1295
1193 1232
1109 1232
1116 1164
1109 1193
1193 1295
1142 1149
1109 1232
1098 1114
1116 1164
1109 1295
1193 1295
1116 1193
1164 1193
1116 1164
1193 1295
1116 1193
1164 1295
1164 1193
1105 1164
1193 1295
1116 1295
1164 1295
1114 1116
1105 1179
1105 1232
1098 1114
1179 1232
1114 1116
1193 1232
1105 1232
1098 1114
1181 1232
1105 1232
1164 1232
1098 1114
1105 1164
1114 1116
1181 1295
1098 1114
1232 1295
1105 1295
1105 1164
1098 1114
1232 1295
1105 1232
1105 1295
1105 1109
1098 1193
1105 1232
1105 1193
1105 1295
1109 1193
1109 1295
1105 1109
1105 1232
1105 1193
1109 1193
1193 1295
1116 1193
1105 1193
1105 1295
1105 1116
1193 1295
1105 1109
1105 1193
1157 1191
1105 1295
1109 1193
1193 1295
1116 1193
1105 1109
1105 1193
1157 1191
1105 1295
1105 1116
1109 1295
1193 1295
1105 1109
1157 1191
1109 1193
1109 1295
1105 1232
1157 1191
1109 1149
1149 1232
1157 1191
1105 1109
1149 1232
1157 1191
1157 1191
1157 1191
1149 1232
1157 1191
1142 1149
1157 1191
1098 1114
1157 1191
1157 1191
1114 1142
1157 1191
1157 1191
1157 1191
1157 1191
1157 1191
1142 1193
1193 1295
1157 1191
1105 1114
1157 1191
1114 1193
1157 1191
1157 1191
1157 1191
1157 1191
1157 1191
1149 1232
1157 1191
1157 1191
1157 1191
1109 1193
1157 1191
1157 1191
1149 1232
1157 1191
1109 1295
1193 1295
1157 1191
1193 1295
1149 1232
1157 1191
1149 1232
1157 1191
1157 1191
1109 1193
1157 1191
1109 1193
1157 1191
1109 1193
1157 1191
1109 1193
1157 1191
1109 1193
1098 1114
1157 1191
1109 1193
1149 1232
1157 1191
1157 1191
1157 1191
1157 1191
1193 1295
1157 1191
1193 1295
1157 1191
1105 1114
1105 1193
1157 1191
1193 1295
1157 1191
1105 1295
1105 1116
1109 1295
1193 1295
1109 1142
1157 1191
1109 1295
1193 1295
1149 1232
1105 1193
1157 1191
1142 1295
1149 1232
1157 1191
1105 1295
1149 1232
1157 1191
1142 1295
1149 1232
1116 1142
1105 1142
1157 1191
1142 1295
1157 1191
1105 1295
1157 1191
1232 1295
1109 1164
1105 1116
1157 1191
1157 1191
1232 1295
1105 1164
1105 1116
1157 1191
1232 1295
1105 1295
1157 1191
1232 1295
1157 1191
1157 1191
1157 1191
1157 1191
1157 1191
1157 1191
1157 1191
1157 1191
1157 1191
1157 1191
1157 1191
1157 1191
1157 1191
1157 1191
1157 1191
1157 1191
1157 1191
1157 1191
1157 1191
1157 1191
1157 1191
1157 1191
1157 1191
1157 1191
1152 1168
1157 1191
1157 1191
1157 1191
1152 1193
1157 1191
1157 1191
1157 1191
1152 1168
1157 1191
1098 1152
1157 1191
1157 1191
1157 1191
1114 1144
1157 1191
1157 1191
1142 1193
1114 1116
1157 1191
1157 1191
1157 1191
1157 1191
1157 1191
1157 1191
1114 1152
1157 1191
1157 1191
1157 1191
1157 1191
1157 1191
1157 1191
1157 1191
1157 1191
1157 1191
1179 1196
1157 1191
1157 1191
1157 1191
1157 1191
1157 1191
1157 1191
1157 1191
1157 1191
1157 1191
1157 1191
1157 1191
1157 1191
1157 1191
1157 1191
1157 1191
1157 1191
1157 1191
1157 1191
1157 1191
1157 1191
1157 1191
1157 1191
1157 1191
1157 1191
1157 1191
1157 1191
1157 1191
1157 1191
1157 1191
1157 1191
1157 1191
1157 1191
1157 1191
1157 1191
1157 1191
1157 1191
1157 1191
1157 1191
1157 1191
1157 1191
1157 1191
1157 1191
1157 1191
1157 1191
1157 1191
1157 1191
1157 1191
1157 1191
1157 1191
1157 1191
1157 1191
1157 1191
1157 1191
1157 1191
1157 1191
1157 1191
1157 1191
1157 1191
1157 1191
1157 1191
1098 1191
1098 1191
1157 1191
1098 1157
1114 1191
1114 1191
1114 1191
1179 1191
1157 1168
1098 1191
1098 1196
1114 1191
1157 1168
1152 1191
1157 1191
1152 1191
1157 1191
1152 1191
1157 1191
1152 1157
1157 1191
1152 1191
1114 1152
1157 1191
1152 1157
1157 1191
1157 1191
1157 1191
1157 1191
1152 1191
1193 1196
1193 1196
1193 1196
1193 1196
1114 1179
1116 1179
1114 1179
1114 1179
1179 1365
1144 1157
1152 1157
1193 1196
1152 1191
1144 1191
1144 1157
1193 1196
1152 1191
1144 1191
1144 1157
1157 1191
1152 1191
1144 1157
1193 1196
1157 1191
1152 1191
1193 1365
1144 1157
1179 1320
1152 1191
1144 1157
1179 1365
1193 1365
1114 1116
1144 1157
1193 1196
1114 1191
1179 1191
1114 1191
1114 1191
1144 1157
1179 1193
1144 1157
1144 1157
1114 1191
1193 1196
1179 1365
1144 1157
1193 1196
1179 1365
1144 1157
1179 1365
1179 1365
1179 1365
1144 1157
1179 1365
1179 1365
1144 1157
1152 1157
1179 1365
1144 1157
1152 1157
1179 1365
1179 1365
1179 1365
1179 1365
1179 1365
1144 1157
1193 1196
1152 1191
1179 1365
1144 1157
1193 1196
1152 1191
1179 1365
1144 1157
1152 1191
1179 1365
1144 1157
1152 1191
1179 1365
1152 1191
1179 1365
1152 1191
1152 1191
1193 1196
1152 1191
1098 1191
1193 1196
1152 1191
1193 1196
1152 1191
1152 1191
1179 1365
1193 1196
1179 1365
1193 1196
1152 1191
