1157 1232
1157 1191
1157 1159
1157 1159
1159 1191
1159 1191
1159 1191
1159 1191
1159 1191
1144 1159
1144 1191
1144 1191
1144 1191
1144 1191
1144 1191
1144 1191
1144 1191
1144 1191
1144 1191
1144 1191
1144 1191
1157 1159
1144 1191
1144 1159
1157 1159
1144 1159
1157 1159
1144 1159
1144 1159
1152 1191
1152 1191
1152 1191
1105 1295
1105 1295
1157 1191
1157 1191
1157 1191
1105 1295
1105 1295
1109 1295
1105 1295
1105 1114
1105 1295
1109 1115
1109 1115
1109 1295
1098 1181
1105 1109
1105 1295
1098 1164
1105 1295
1116 1164
1164 1295
1232 1295
1105 1295
1109 1164
1116 1164
1116 1295
1109 1232
1116 1164
1109 1232
1114 1295
1193 1232
1109 1232
1116 1164
1109 1193
1193 1295
1142 1149
1109 1232
1098 1114
1116 1164
1109 1295
1193 1295
1116 1193
1164 1193
1116 1164
1193 1295
1116 1193
1164 1295
1164 1193
1105 1164
1193 1295
1116 1295
1164 1295
1114 1116
1105 1179
1105 1232
1098 1114
1179 1232
1114 1116
1193 1232
1105 1232
1098 1114
1181 1232
1105 1232
1164 1232
1098 1114
1105 1164
1114 1116
1181 1295
1098 1114
1232 1295
1105 1295
1105 1164
1098 1114
1232 1295
1105 1232
1105 1295
1105 1109
1098 1193
1105 1232
1105 1193
1105 1295
1109 1193
1109 1295
1105 1109
1105 1232
1105 1193
1109 1193
1193 1295
1116 1193
1105 1193
1105 1295
1105 1116
1193 1295
1105 1109
1105 1193
1157 1191
1105 1295
1109 1193
1193 1295
1116 1193
1105 1109
1105 1193
1157 1191
1105 1295
1105 1116
1109 1295
1193 1295
1105 1109
1157 1191
1109 1193
1109 1295
1105 1232
1157 1191
1109 1149
1149 1232
1157 1191
1105 1109
1149 1232
1157 1191
1157 1191
1157 1191
1149 1232
1157 1191
1142 1149
1157 1191
1098 1114
1157 1191
1157 1191
1114 1142
1157 1191
1157 1191
1157 1191
1157 1191
1157 1191
1142 1193
1193 1295
1157 1191
1105 1114
1157 1191
1114 1193
1157 1191
1157 1191
1157 1191
1157 1191
1157 1191
1149 1232
1157 1191
1157 1191
1157 1191
1109 1193
1157 1191
1157 1191
1149 1232
1157 1191
1109 1295
1193 1295
1157 1191
1193 1295
1149 1232
1157 1191
1149 1232
1157 1191
1157 1191
1109 1193
1157 1191
1109 1193
1157 1191
1109 1193
1157 1191
1109 1193
1157 1191
1109 1193
1098 1114
1157 1191
1109 1193
1149 1232
1157 1191
1157 1191
1157 1191
1157 1191
1193 1295
1157 1191
1193 1295
1157 1191
1105 1114
1105 1193
1157 1191
1193 1295
1157 1191
1105 1295
1105 1116
1109 1295
1193 1295
1109 1142
1157 1191
1109 1295
1193 1295
1149 1232
1105 1193
1157 1191
1142 1295
1149 1232
1157 1191
1105 1295
1149 1232
1157 1191
1142 1295
1149 1232
1116 1142
1105 1142
1157 1191
1142 1295
1157 1191
1105 1295
1157 1191
1232 1295
1109 1164
1105 1116
1157 1191
1157 1191
1232 1295
1105 1164
1105 1116
1157 1191
1232 1295
1105 1295
1157 1191
1232 1295
1157 1191
1157 1191
1157 1191
1157 1191
1157 1191
1157 1191
1157 1191
1157 1191
1157 1191
1157 1191
1157 1191
1157 1191
1157 1191
1157 1191
1157 1191
1157 1191
1157 1191
1157 1191
1157 1191
1157 1191
1157 1191
1157 1191
1157 1191
1157 1191
1152 1168
1157 1191
1157 1191
1157 1191
1152 1193
1157 1191
1157 1191
1157 1191
1152 1168
1157 1191
1098 1152
1157 1191
1157 1191
1157 1191
1114 1144
1157 1191
1157 1191
1142 1193
1114 1116
1157 1191
1157 1191
1157 1191
1157 1191
1157 1191
1157 1191
1114 1152
1157 1191
1157 1191
1157 1191
1157 1191
1157 1191
1157 1191
1157 1191
1157 1191
1157 1191
1179 1196
1157 1191
1157 1191
1157 1191
1157 1191
1157 1191
1157 1191
1157 1191
1157 1191
1157 1191
1157 1191
1157 1191
1157 1191
1157 1191
1157 1191
1157 1191
1157 1191
1157 1191
1157 1191
1157 1191
1157 1191
1157 1191
1157 1191
1157 1191
1157 1191
1157 1191
1157 1191
1157 1191
1157 1191
1157 1191
1157 1191
1157 1191
1157 1191
1157 1191
1157 1191
1157 1191
1157 1191
1157 1191
1157 1191
1157 1191
1157 1191
1157 1191
1157 1191
1157 1191
1157 1191
1157 1191
1157 1191
1157 1191
1157 1191
1157 1191
1157 1191
1157 1191
1157 1191
1157 1191
1157 1191
1157 1191
1157 1191
1157 1191
1157 1191
1157 1191
1157 1191
1098 1191
1098 1191
1157 1191
1098 1157
1114 1191
1114 1191
1114 1191
1179 1191
1157 1168
1098 1191
1098 1196
1114 1191
1157 1168
1152 1191
1157 1191
1152 1191
1157 1191
1152 1191
1157 1191
1152 1157
1157 1191
1152 1191
1114 1152
1157 1191
1152 1157
1157 1191
1157 1191
1157 1191
1157 1191
1152 1191
1193 1196
1193 1196
1193 1196
1193 1196
1114 1179
1116 1179
1114 1179
1114 1179
1179 1365
1144 1157
1152 1157
1193 1196
1152 1191
1144 1191
1144 1157
1193 1196
1152 1191
1144 1191
1144 1157
1157 1191
1152 1191
1144 1157
1193 1196
1157 1191
1152 1191
1193 1365
1144 1157
1179 1320
1152 1191
1144 1157
1179 1365
1193 1365
1114 1116
1144 1157
1193 1196
1114 1191
1179 1191
1114 1191
1114 1191
1144 1157
1179 1193
1144 1157
1144 1157
1114 1191
1193 1196
1179 1365
1144 1157
1193 1196
1179 1365
1144 1157
1179 1365
1179 1365
1179 1365
1144 1157
1179 1365
1179 1365
1144 1157
1152 1157
1179 1365
1144 1157
1152 1157
1179 1365
1179 1365
1179 1365
1179 1365
1179 1365
1144 1157
1193 1196
1152 1191
1179 1365
1144 1157
1193 1196
1152 1191
1179 1365
1144 1157
1152 1191
1179 1365
1144 1157
1152 1191
1179 1365
1152 1191
1179 1365
1152 1191
1152 1191
1193 1196
1152 1191
1098 1191
1193 1196
1152 1191
1193 1196
1152 1191
1152 1191
1179 1365
1193 1196
1179 1365
1193 1196
1152 1191
1193 1196
1152 1191
1193 1196
1152 1191
1193 1196
1193 1196
1168 1191
1193 1196
1168 1191
1193 1196
1193 1196
1157 1191
1193 1196
1193 1196
1157 1191
1193 1196
1098 1114
1157 1191
1144 1191
1144 1157
1193 1196
1144 1191
1144 1191
1144 1157
1193 1196
1144 1191
1193 1196
1157 1191
1144 1191
1193 1196
1098 1114
1144 1191
1193 1196
1144 1191
1144 1191
1144 1191
1144 1157
1144 1157
1144 1191
1144 1191
1098 1193
1144 1191
1114 1193
1098 1193
1098 1114
1114 1193
1098 1157
1098 1193
1193 1196
1157 1191
1157 1191
1157 1191
1157 1191
1157 1191
1157 1191
1157 1191
1157 1191
1157 1191
1157 1191
1157 1191
1157 1191
1157 1191
1193 1365
1157 1191
1157 1191
1157 1191
1157 1191
1157 1193
1098 1191
1157 1363
1191 1193
1157 1374
1191 1193
1193 1196
1157 1363
1168 1191
1157 1363
1157 1363
1157 1363
1157 1363
1152 1191
1152 1191
1152 1191
1152 1191
1152 1191
1157 1363
1152 1191
1157 1363
1152 1191
1152 1191
1152 1191
1152 1191
1168 1191
1152 1365
1152 1365
1157 1363
1152 1365
1157 1363
1152 1365
1152 1365
1157 1363
1152 1374
1152 1374
1157 1363
1152 1374
1152 1157
1152 1374
1157 1363
1152 1374
1152 1374
1157 1363
1152 1374
1157 1363
1157 1363
1152 1374
1157 1363
1152 1374
1157 1363
1152 1374
1152 1374
1152 1374
1152 1374
1144 1159
1152 1374
1144 1159
1152 1374
1157 1363
1144 1191
1152 1374
1157 1363
1144 1191
1144 1191
1152 1374
1144 1191
1152 1374
1152 1374
1157 1363
1152 1374
1152 1374
1157 1363
1144 1191
1152 1374
1152 1374
1152 1374
1157 1363
1152 1374
1157 1363
1152 1374
1157 1363
1152 1374
1157 1363
1152 1374
1144 1159
1152 1374
1144 1191
1193 1196
1152 1374
1159 1191
1144 1159
1144 1191
1152 1374
1144 1159
1152 1374
1144 1159
1152 1374
1116 1393
1144 1159
1152 1374
1116 1393
1144 1159
1179 1196
1152 1374
1152 1374
1152 1374
1144 1365
1144 1157
1152 1374
1144 1157
1157 1363
1157 1374
1157 1363
1152 1374
1152 1374
1152 1374
1157 1159
1152 1374
1157 1159
1152 1374
1157 1159
1157 1159
1152 1374
1144 1168
1157 1159
1152 1374
1157 1159
1152 1374
1152 1374
1152 1374
1190 1193
1152 1374
1152 1374
1152 1374
1190 1193
1144 1157
1152 1374
1152 1374
1152 1374
1152 1374
1152 1374
1152 1374
1152 1374
1144 1159
1179 1193
1179 1193
1152 1374
1179 1193
1152 1374
1179 1193
1152 1374
1179 1193
1152 1374
1179 1193
1157 1159
1152 1365
1179 1190
1152 1365
1193 1196
1144 1159
1193 1196
1179 1190
1179 1193
1179 1193
1116 1393
1179 1193
1179 1196
1179 1196
1116 1393
1179 1196
1179 1193
1179 1196
1098 1144
1179 1196
1098 1159
1179 1193
1098 1144
1179 1193
1179 1196
1179 1193
1144 1159
1179 1193
1179 1193
1179 1193
1144 1159
1179 1196
1179 1193
1116 1365
1179 1196
1116 1365
1116 1365
1152 1159
1179 1193
1116 1365
1159 1191
1179 1193
1116 1365
1179 1193
1116 1365
1179 1190
1144 1159
1179 1193
1116 1365
1144 1159
1152 1191
1179 1193
1116 1365
1179 1190
1144 1159
1152 1191
1179 1193
1179 1190
1152 1191
1179 1193
1116 1365
1152 1191
1179 1193
1152 1191
1179 1193
1179 1196
1152 1191
1152 1191
1152 1191
1152 1191
1152 1159
1159 1191
1152 1157
1152 1191
1144 1152
1159 1191
1152 1157
1157 1191
1152 1191
1159 1191
1144 1191
1152 1157
1152 1191
1144 1152
1144 1191
1152 1157
1152 1191
1144 1152
1144 1191
1144 1152
1144 1191
1152 1157
1152 1191
1144 1152
1144 1191
1152 1191
1144 1191
1152 1157
1193 1196
1152 1191
1144 1191
1144 1191
1152 1157
1152 1191
1159 1191
1152 1191
1159 1191
1159 1191
1159 1191
1144 1159
1144 1152
1152 1159
1179 1190
1144 1159
1144 1191
1144 1157
1190 1191
1179 1196
1157 1191
1144 1152
1152 1159
1179 1193
1159 1191
1144 1191
1144 1157
1157 1191
1152 1191
1159 1191
1157 1191
1159 1191
1144 1191
1157 1191
1159 1191
1144 1191
1157 1191
1144 1191
1157 1191
1144 1159
1144 1191
1157 1191
1159 1191
1144 1159
1144 1191
1157 1191
1159 1191
1144 1157
1159 1191
1144 1157
1193 1196
1159 1191
1144 1157
1144 1191
1157 1191
1159 1191
1144 1191
1157 1191
1144 1191
1144 1191
1168 1191
1144 1191
1144 1191
1144 1191
1144 1191
1144 1191
1168 1191
1144 1191
1168 1191
1168 1191
1144 1179
1168 1191
1168 1191
1159 1191
1159 1191
1159 1191
1159 1168
1193 1196
1098 1196
1098 1193
1193 1196
1098 1261
1098 1193
1193 1196
1098 1196
1098 1193
1098 1193
1116 1378
1144 1157
1144 1157
1157 1159
1116 1378
1157 1159
1157 1191
1157 1191
1157 1159
1157 1191
1191 1193
1159 1191
1157 1191
1159 1191
1157 1159
1157 1191
1159 1191
1159 1191
1159 1191
1159 1191
1159 1191
1190 1196
1159 1191
1159 1191
1159 1191
1179 1261
1159 1191
1196 1393
1159 1191
1190 1196
1159 1191
1196 1393
1159 1191
1190 1196
1159 1191
1159 1191
1196 1393
1190 1196
1116 1378
1179 1193
1159 1191
1196 1393
1098 1179
1159 1191
1190 1393
1159 1191
1190 1193
1159 1191
1193 1196
1159 1191
1159 1191
1193 1305
1190 1193
1159 1191
1193 1305
1157 1179
1159 1179
1098 1116
1157 1191
1190 1193
1159 1191
1190 1196
1190 1193
1159 1191
1190 1196
1190 1193
1196 1305
1159 1191
1190 1196
1190 1193
1159 1191
1190 1196
1179 1261
1190 1193
1098 1159
1144 1365
1190 1196
1196 1305
1098 1159
1190 1196
1190 1196
1098 1144
1190 1305
1190 1193
1196 1305
1098 1144
1190 1305
1193 1196
1098 1144
1098 1144
1159 1191
1193 1352
1193 1196
1190 1193
1159 1191
1144 1157
1179 1393
1159 1191
1144 1157
1193 1196
1179 1393
1159 1191
1144 1157
1159 1191
1144 1191
1144 1157
1193 1196
1159 1191
1144 1157
1193 1196
1190 1193
1159 1191
1144 1157
1193 1196
1159 1191
1193 1196
1159 1191
1144 1157
1193 1196
1159 1191
1144 1159
1193 1196
1261 1363
1190 1193
1159 1191
1193 1196
1261 1363
1190 1193
1159 1191
1190 1196
1193 1196
1159 1191
1193 1196
1159 1191
1144 1191
1193 1196
1159 1191
1144 1191
1190 1196
1193 1196
1190 1193
1159 1191
1144 1159
1144 1191
1190 1196
1193 1196
1190 1193
1159 1191
1144 1191
1193 1196
1144 1191
1193 1196
1159 1191
1144 1377
1193 1196
1190 1193
1159 1191
1193 1196
1190 1193
1190 1196
1193 1196
1193 1196
1190 1193
1193 1196
1168 1378
1193 1196
1261 1363
1193 1196
1159 1191
1193 1196
1159 1191
1159 1191
1190 1193
1168 1191
1193 1378
1193 1196
1196 1378
1193 1378
1193 1196
1190 1193
1193 1378
1190 1193
1190 1193
1190 1193
1190 1193
1159 1168
1190 1193
1159 1168
1190 1193
1261 1363
1190 1193
1190 1193
1190 1193
1130 1191
1190 1193
1148 1168
1130 1191
1190 1193
1148 1168
1130 1191
1190 1193
1148 1168
1130 1191
1190 1193
1148 1168
1130 1191
1190 1193
1130 1191
1190 1193
1190 1193
1148 1168
1190 1193
1130 1191
1190 1193
1130 1191
1190 1193
1261 1363
1130 1191
1190 1193
1261 1363
1130 1191
1190 1193
1190 1193
1193 1196
1193 1378
1190 1378
1193 1196
1190 1193
1193 1378
1261 1363
1190 1193
1193 1378
1144 1191
1261 1363
1130 1191
1190 1193
1193 1378
1144 1191
1193 1196
1148 1168
1130 1191
1190 1193
1148 1191
1130 1191
1148 1191
1144 1191
1196 1378
1144 1191
1193 1196
1196 1378
1148 1168
1190 1193
1144 1191
1148 1168
1144 1191
1148 1168
1144 1191
1130 1191
1144 1191
1130 1191
1144 1191
1193 1196
1130 1191
1144 1191
1130 1191
1148 1191
1144 1191
1130 1191
1144 1168
1144 1191
1144 1191
1144 1191
1190 1196
1193 1196
1193 1196
1144 1191
1179 1193
1193 1196
1179 1193
1193 1196
1179 1193
1193 1196
1193 1196
1130 1191
1179 1193
1148 1157
1157 1191
1130 1157
1130 1191
1130 1191
1130 1191
1193 1365
1157 1191
1130 1157
1130 1191
1130 1191
1196 1383
1157 1191
1130 1191
1190 1193
1196 1383
1157 1191
1116 1190
1190 1193
1196 1305
1144 1157
1159 1191
1116 1196
1157 1191
1193 1365
1190 1365
1157 1191
1193 1374
1144 1191
1196 1383
1157 1191
1196 1383
1190 1365
1196 1383
1144 1157
1157 1191
1196 1383
1144 1157
1157 1191
1196 1383
1144 1157
1144 1157
1196 1383
1144 1157
1190 1365
1157 1191
1193 1365
1144 1157
1193 1365
1157 1191
1157 1191
1193 1365
1157 1191
1157 1191
1157 1191
1261 1327
1159 1191
1144 1157
1157 1191
1168 1191
1144 1191
1144 1157
1193 1196
1193 1383
1157 1191
1261 1327
1144 1157
1157 1191
1144 1157
1144 1157
1144 1157
1144 1157
1144 1157
1157 1191
1144 1168
1144 1157
1157 1191
1144 1168
1157 1191
1144 1168
1157 1191
1144 1168
1144 1157
1144 1168
1144 1157
1261 1327
1179 1193
1144 1168
1196 1383
1144 1157
1190 1365
1157 1191
1144 1168
1190 1365
1144 1168
1144 1157
1190 1365
1157 1191
1144 1168
1190 1365
1157 1191
1144 1168
1190 1365
1157 1191
1144 1191
1190 1365
1157 1191
1179 1193
1144 1191
1190 1365
1157 1191
1144 1191
1157 1191
1157 1191
1157 1191
1190 1193
1157 1159
1190 1193
1144 1191
1144 1157
1144 1191
1144 1157
1159 1191
1144 1159
1144 1191
1157 1191
1144 1191
1144 1157
1144 1191
1144 1157
1157 1191
1144 1191
1196 1383
1144 1191
1196 1383
1144 1191
1144 1191
1144 1191
1144 1191
1193 1383
1157 1365
1144 1191
1157 1191
1144 1191
1157 1191
1157 1191
1157 1191
1157 1191
1179 1193
1157 1191
1196 1383
1144 1157
1157 1191
1168 1191
1144 1168
1196 1383
1157 1191
1168 1191
1144 1191
1168 1191
1157 1168
1144 1191
1144 1157
1157 1191
1168 1191
1157 1191
1193 1323
1144 1191
1144 1157
1193 1323
1190 1196
1157 1191
1193 1323
1179 1378
1261 1391
1193 1323
1179 1378
1157 1191
1179 1193
1144 1191
1144 1157
1157 1191
1144 1191
1144 1157
1144 1191
1144 1157
1190 1196
1179 1196
1157 1191
1179 1193
1193 1365
1144 1191
1144 1157
1193 1196
1179 1196
1179 1193
1190 1193
1144 1157
1179 1193
1179 1365
1190 1193
1144 1191
1144 1157
1144 1191
1179 1365
1193 1365
1193 1196
1193 1365
1261 1391
1190 1196
1116 1320
1196 1365
1190 1196
1179 1393
1196 1365
1190 1196
1179 1365
1159 1191
1179 1196
1179 1365
1144 1159
1157 1191
1190 1391
1179 1190
1179 1193
1190 1193
1179 1193
1190 1193
1193 1399
1193 1399
1193 1399
1116 1305
1190 1193
1193 1196
1179 1196
1191 1261
1193 1196
1190 1193
1179 1190
1179 1190
1179 1196
1193 1196
1179 1196
1190 1196
1193 1196
1193 1196
1116 1378
1179 1193
1193 1196
1179 1196
1179 1193
1190 1193
1193 1196
1179 1193
1179 1190
1193 1196
1179 1193
1190 1193
1179 1196
1179 1193
1193 1261
1179 1193
1193 1196
1116 1383
1193 1196
1179 1193
1193 1261
1190 1193
1179 1196
1193 1261
1193 1261
1190 1193
1190 1193
1179 1196
1193 1261
1190 1193
1193 1261
1179 1196
1190 1193
1193 1261
1179 1196
1193 1261
1179 1196
1179 1193
1179 1190
1116 1193
1193 1196
1190 1193
1193 1261
1116 1190
1193 1261
1190 1193
1190 1193
1179 1190
1179 1196
1179 1196
1179 1196
1179 1196
1190 1196
1193 1261
1179 1196
1179 1196
1179 1196
1179 1196
1179 1190
1179 1196
1179 1190
1179 1196
1179 1196
1179 1196
1179 1190
1179 1190
1179 1193
1179 1196
1179 1196
1179 1196
1179 1196
1179 1196
1179 1196
1179 1190
1179 1196
1179 1190
1179 1190
1179 1196
1179 1193
1179 1196
1179 1193
1179 1190
1179 1193
1179 1193
1179 1190
1179 1193
1179 1190
1190 1196
1179 1196
1179 1190
1179 1190
1179 1190
1179 1190
1179 1190
1190 1196
1179 1190
1179 1193
1179 1190
1179 1193
1179 1190
1179 1193
1179 1190
1179 1190
1179 1190
1179 1193
1193 1261
1193 1261
1190 1193
1193 1261
1179 1196
1190 1193
1179 1193
1190 1193
1190 1193
1179 1190
1190 1193
1179 1193
1190 1193
1190 1193
1179 1190
1193 1196
1190 1193
1179 1196
1179 1193
1190 1193
1190 1193
1193 1196
1116 1196
1193 1196
1190 1193
1116 1190
1179 1365
1190 1193
1190 1261
1193 1196
1179 1365
1193 1196
1193 1261
1190 1193
1190 1193
1190 1196
1190 1193
1190 1374
1196 1374
1179 1327
1190 1196
1190 1374
1196 1374
1179 1327
1190 1196
1190 1374
1196 1374
1190 1374
1196 1374
1190 1196
1190 1374
1190 1196
1116 1193
1179 1378
1190 1196
1179 1378
1196 1363
1261 1391
1190 1196
1261 1391
1190 1196
1193 1365
1190 1196
1193 1365
1190 1196
1193 1365
1190 1196
1190 1196
1179 1193
1193 1365
1190 1391
1190 1391
1193 1365
1193 1365
1190 1196
1193 1365
1190 1196
1116 1193
1193 1365
1196 1391
1190 1196
1116 1193
1196 1391
1190 1196
1190 1196
1190 1391
1116 1193
1190 1196
1190 1391
1190 1196
1190 1196
1190 1391
1116 1193
1193 1365
1193 1365
1116 1193
1116 1193
1116 1193
1116 1193
1193 1365
1116 1193
1193 1365
1193 1365
1193 1365
1193 1365
1190 1196
1116 1365
1193 1365
1116 1365
1116 1365
1179 1190
1193 1393
1116 1261
1179 1196
1193 1393
1193 1393
1190 1196
1190 1196
1193 1305
1190 1196
1193 1305
1190 1196
1193 1305
1190 1196
1193 1305
1190 1196
1193 1305
1190 1196
1261 1352
1193 1305
1193 1305
1116 1193
1193 1305
1190 1395
1193 1305
1190 1395
1193 1305
1196 1395
1190 1395
1196 1395
1193 1305
1196 1395
1196 1395
1193 1305
1261 1352
1196 1395
1190 1196
1196 1395
1190 1196
1196 1395
1190 1196
1196 1395
1261 1352
1190 1196
1196 1395
1190 1196
1193 1383
1196 1395
1190 1395
1196 1395
1116 1193
1196 1395
1116 1193
1190 1196
1196 1395
1116 1383
1190 1196
1193 1383
1196 1395
1190 1196
1193 1383
1196 1395
1116 1383
1196 1395
1193 1383
1196 1395
1116 1193
1193 1383
1261 1352
1261 1352
1190 1196
1261 1352
1190 1377
1190 1196
1261 1352
1116 1352
1116 1352
1190 1193
1193 1196
1261 1352
1261 1352
1116 1352
1261 1352
1190 1378
1261 1352
1190 1323
1116 1352
1196 1323
1190 1196
1196 1323
1190 1196
1196 1323
1193 1399
1190 1196
1116 1193
1193 1399
1190 1196
1261 1352
1116 1193
1190 1196
1261 1352
1193 1399
1190 1196
1190 1323
1196 1323
1261 1352
1116 1193
1193 1399
1196 1323
1261 1352
1190 1196
1196 1323
1261 1352
1261 1352
1116 1193
1193 1399
1261 1352
1116 1193
1193 1399
1190 1196
1116 1193
1193 1399
1261 1352
1116 1193
1261 1352
1116 1193
1196 1352
1261 1352
1116 1193
1193 1399
1196 1261
1116 1399
1196 1352
1261 1352
1196 1261
1196 1352
1261 1352
1193 1399
1196 1261
1116 1399
1196 1352
1261 1352
1196 1261
1196 1352
1261 1352
1116 1193
1193 1399
1196 1261
1261 1352
1196 1261
1196 1352
1261 1352
1261 1352
1196 1352
1196 1352
1196 1352
1193 1196
1190 1193
1190 1193
1196 1352
1261 1352
1196 1261
1196 1352
1261 1352
1196 1261
1190 1193
1261 1352
1196 1261
1196 1352
1261 1352
1116 1193
1261 1352
1196 1261
1261 1352
1196 1261
1196 1352
1196 1352
1261 1352
1116 1399
1193 1196
1193 1327
1193 1327
1193 1327
1193 1327
1116 1193
1193 1327
1193 1196
1365 1393
1190 1193
1193 1327
1193 1327
1193 1327
1193 1196
1193 1196
1261 1391
1193 1196
1193 1196
1193 1196
1193 1196
1193 1196
1193 1196
1116 1399
1261 1395
1261 1395
1116 1193
1193 1196
1261 1374
1116 1193
1193 1196
1193 1196
1193 1196
1193 1196
1193 1196
1193 1196
1190 1193
1190 1193
1190 1193
1190 1193
1190 1193
1190 1193
1238 1246
1238 1246
1238 1246
1238 1246
1238 1246
1238 1246
1238 1246
1238 1246
1238 1246
1238 1246
1238 1246
1238 1246
1238 1246
1238 1246
1238 1246
1238 1246
1238 1246
1238 1246
1238 1246
1238 1246
1238 1246
1238 1246
1238 1246
1238 1246
1246 1323
1246 1323
1246 1323
1246 1323
1246 1378
1238 1246
1238 1246
1238 1395
1238 1246
1246 1395
1246 1327
1246 1327
1246 1391
1246 1391
1246 1391
1246 1391
1238 1246
1246 1391
1246 1391
1238 1246
1246 1391
1238 1246
1246 1391
1238 1246
1238 1391
1238 1391
1238 1246
1246 1399
1246 1399
1238 1246
1246 1399
1238 1399
1238 1399
1238 1246
1238 1246
1246 1399
1238 1246
1246 1383
1246 1383
1246 1383
1246 1383
1246 1383
1238 1383
1246 1383
1238 1246
1238 1246
1238 1246
1238 1246
1246 1383
1238 1246
1238 1246
1238 1246
1238 1383
1238 1246
1238 1383
1246 1383
1238 1383
1238 1383
1238 1246
1238 1246
1238 1383
1246 1383
1246 1305
1305 1383
1238 1383
1238 1383
1238 1246
1238 1246
1246 1352
1246 1352
1246 1352
1246 1352
1246 1352
1246 1352
1246 1352
1246 1352
1238 1246
1246 1352
1238 1246
1238 1246
1246 1352
1238 1246
1246 1352
1246 1352
1246 1352
1238 1246
1246 1352
1238 1246
1246 1352
1246 1352
1238 1246
1246 1393
1238 1246
1246 1393
1238 1246
1238 1246
1246 1332
1238 1246
1246 1305
1246 1305
1246 1305
1238 1246
1246 1305
1238 1246
1246 1305
1246 1305
1246 1393
1246 1393
1238 1246
1246 1393
1238 1246
1246 1393
1246 1393
1238 1393
1246 1363
1238 1363
1246 1363
1246 1365
1238 1365
1238 1365
1246 1365
1238 1246
1238 1365
1246 1365
1238 1365
1246 1365
1238 1246
1238 1365
1246 1365
1238 1246
1238 1365
1246 1365
1238 1365
1238 1365
1238 1365
1238 1365
1246 1374
1246 1374
1246 1374
1246 1374
1246 1374
1246 1374
1246 1374
1246 1374
1238 1246
1246 1374
1246 1374
1238 1246
1238 1246
1238 1246
1238 1246
1238 1246
1238 1327
1238 1327
1238 1352
1238 1374
1238 1374
1238 1305
1246 1374
1246 1374
1246 1374
1246 1374
1238 1374
1238 1246
1238 1246
1246 1365
1246 1393
1238 1246
1246 1393
1238 1246
1246 1393
1238 1393
1246 1393
1238 1393
1238 1246
1246 1393
1238 1246
1246 1305
1238 1246
1238 1246
1246 1352
1238 1246
1246 1352
1246 1352
1246 1352
1246 1352
1246 1352
1246 1352
1246 1352
1238 1246
1246 1352
1238 1246
1246 1352
1238 1352
1246 1352
1238 1352
1246 1399
1246 1391
1246 1391
1238 1391
1238 1391
1238 1246
1238 1246
1238 1246
1246 1395
1246 1395
1246 1395
1246 1395
1246 1395
1246 1395
1238 1246
1246 1395
1246 1378
1246 1378
1246 1378
1246 1378
1238 1246
1246 1378
1246 1378
1246 1378
1238 1246
1246 1378
1246 1378
1246 1378
1246 1378
1246 1378
1246 1378
1246 1378
1246 1378
1246 1378
1238 1246
1246 1378
1238 1246
1246 1378
1246 1378
1246 1378
1246 1378
1246 1378
1238 1246
1246 1378
1238 1246
1238 1378
1109 1246
1109 1246
1114 1181
1114 1164
1109 1114
1109 1114
1109 1114
1109 1114
1109 1114
1109 1114
1109 1114
1109 1114
1109 1114
1109 1114
1109 1114
1164 1181
1109 1114
1109 1114
1109 1114
1164 1181
1109 1114
1164 1181
1109 1114
1164 1181
1109 1114
1164 1181
1109 1114
1164 1181
1109 1114
1164 1181
1109 1114
1109 1114
1164 1181
1115 1295
1109 1114
1115 1295
1109 1114
1115 1295
1114 1164
1109 1114
1115 1295
1109 1114
1164 1181
1109 1114
1114 1295
1114 1295
1109 1114
1181 1295
1114 1295
1114 1295
1115 1295
1114 1115
1114 1295
1115 1295
1114 1295
1109 1374
1114 1115
1114 1295
1114 1295
1114 1295
1114 1295
1114 1115
1114 1295
1114 1115
1114 1295
1114 1295
1114 1295
1114 1295
1114 1295
1114 1295
1109 1378
1109 1378
1114 1295
1115 1181
1115 1181
1181 1295
1115 1181
1114 1295
1109 1164
1109 1164
1109 1164
1114 1295
1109 1164
1114 1295
1109 1164
1114 1295
1109 1164
1114 1295
1115 1295
1109 1115
1114 1295
1109 1115
1109 1115
1115 1207
1114 1295
1109 1115
1109 1115
1115 1207
1109 1115
1115 1207
1109 1115
1115 1207
1114 1295
1109 1207
1109 1115
1114 1295
1114 1207
1114 1295
1207 1295
1114 1295
1115 1207
1114 1295
1114 1295
1115 1320
1164 1181
1114 1295
1115 1320
1115 1374
1109 1114
1109 1114
1109 1114
1109 1114
1109 1114
1207 1393
1114 1295
1207 1393
1164 1181
1109 1207
1207 1393
1109 1207
1109 1207
1207 1393
1164 1181
1207 1393
1114 1295
1109 1207
1207 1393
1164 1181
1114 1295
1109 1115
1164 1181
1114 1295
1207 1393
1114 1295
1207 1393
1115 1391
1114 1207
1114 1295
1109 1207
1207 1393
1115 1391
1114 1207
1114 1295
1207 1295
1207 1393
1109 1295
1114 1207
1114 1295
1109 1207
1207 1295
1207 1393
1115 1327
1109 1295
1114 1207
1114 1295
1115 1383
1207 1295
1207 1393
1109 1295
1114 1207
1114 1295
1207 1295
1115 1399
1114 1115
1207 1393
1207 1393
1164 1295
1181 1238
1207 1393
1164 1181
1109 1207
1207 1393
1114 1295
1207 1393
1295 1378
1207 1393
1115 1377
1295 1323
1207 1393
1207 1393
1164 1181
1109 1207
1114 1115
1115 1378
1164 1181
1114 1115
1164 1181
1115 1295
1295 1323
1207 1393
1164 1181
1114 1295
1207 1393
1207 1365
1164 1181
1114 1295
1114 1295
1207 1393
1114 1295
1109 1207
1207 1393
1164 1181
1114 1295
1114 1378
1207 1393
1115 1164
1207 1393
1207 1365
1207 1393
1114 1295
1115 1207
1207 1393
1114 1295
1207 1393
1114 1295
1207 1393
1114 1295
1207 1393
1207 1365
1114 1295
1114 1378
1207 1393
1114 1295
1207 1393
1207 1365
1114 1295
1207 1393
1207 1393
1114 1295
1115 1164
1207 1393
1207 1393
1114 1295
1207 1393
1114 1295
1207 1393
1207 1393
1114 1295
1181 1352
1207 1393
1207 1365
1114 1295
1181 1352
1207 1393
1181 1352
1207 1393
1114 1295
1181 1352
1207 1393
1114 1295
1207 1393
1114 1295
1181 1352
1164 1377
1207 1393
1114 1295
1181 1352
1295 1323
1207 1393
1207 1365
1181 1352
1114 1378
1207 1393
1295 1323
1207 1393
1114 1295
1114 1295
1164 1377
1114 1295
1109 1207
1164 1377
1164 1377
1114 1295
1164 1377
1295 1378
1164 1377
1114 1115
1295 1378
1207 1352
1295 1378
1181 1352
1207 1352
1295 1378
1181 1352
1114 1115
1181 1207
1295 1378
1181 1352
1295 1378
1181 1352
1207 1352
1181 1352
1207 1352
1181 1352
1207 1352
1109 1207
1181 1352
1109 1207
1181 1352
1114 1115
1295 1378
1114 1115
1207 1352
1295 1378
1109 1352
1114 1323
1114 1295
1109 1207
1295 1378
1114 1378
1114 1295
1295 1378
1114 1378
1295 1378
1109 1207
1295 1378
1114 1323
1295 1378
1114 1295
1295 1378
1114 1378
1181 1391
1114 1295
1114 1378
1114 1295
1114 1378
1181 1391
1114 1295
1114 1378
1114 1295
1109 1207
1181 1391
1114 1295
1114 1378
1181 1391
1114 1295
1114 1295
1207 1352
1164 1295
1114 1164
1114 1295
1207 1352
1109 1207
1114 1164
1114 1295
1114 1295
1207 1352
1114 1378
1109 1352
1207 1352
1114 1295
1114 1295
1114 1295
1114 1378
1114 1295
1207 1352
1114 1378
1207 1391
1114 1295
1207 1352
1114 1378
1109 1352
1114 1295
1207 1352
1109 1207
1114 1378
1181 1391
1114 1295
1207 1352
1109 1352
1114 1378
1114 1378
1181 1391
1114 1295
1114 1295
1295 1378
1164 1395
1207 1352
1295 1378
1181 1391
1207 1352
1181 1391
1207 1352
1295 1378
1114 1295
1207 1352
1109 1207
1295 1378
1114 1378
1114 1295
1114 1378
1181 1391
1181 1391
1109 1207
1181 1391
1109 1207
1114 1378
1109 1207
1114 1378
1114 1295
1295 1378
1164 1377
1114 1378
1295 1378
1164 1377
1115 1207
1164 1377
1115 1207
1109 1114
1114 1295
1115 1207
1114 1295
1109 1207
1114 1378
1181 1327
1109 1164
1164 1207
1114 1295
1109 1207
1114 1378
1115 1207
1115 1164
1109 1164
1164 1207
1114 1295
1207 1395
1109 1207
1114 1378
1109 1115
1115 1207
1115 1164
1109 1164
1164 1207
1114 1295
1109 1207
1114 1378
1115 1207
1114 1295
1115 1395
1115 1207
1114 1295
1295 1378
1115 1395
1207 1395
1295 1378
1114 1378
1115 1395
1115 1207
1114 1295
1207 1395
1114 1378
1115 1395
1115 1207
1164 1332
1114 1295
1114 1378
1115 1395
1114 1295
1114 1378
1115 1207
1114 1295
1114 1378
1115 1207
1114 1295
1109 1207
1295 1378
1114 1378
1109 1115
1115 1207
1181 1327
1114 1295
1109 1207
1114 1378
1109 1115
1115 1207
1114 1295
1109 1207
1114 1378
1109 1115
1115 1207
1181 1327
1114 1295
1114 1378
1207 1377
1109 1115
1115 1207
1114 1295
1114 1378
1207 1377
1109 1115
1114 1295
1295 1378
1109 1115
1114 1295
1295 1378
1114 1378
1115 1395
1207 1377
1115 1207
1114 1295
1295 1378
1114 1378
1115 1395
1207 1377
1115 1207
1207 1378
1114 1207
1114 1295
1295 1378
1115 1207
1114 1295
1295 1378
1115 1207
1181 1327
1114 1378
1115 1207
1114 1378
1115 1207
1114 1207
1114 1378
1207 1295
1114 1295
1114 1378
1207 1378
1114 1295
1207 1378
1114 1295
1207 1323
1207 1378
1114 1295
1115 1365
1114 1295
1109 1365
1365 1393
1115 1365
1114 1295
1109 1115
1207 1373
1365 1393
1115 1365
1207 1373
1164 1207
1114 1295
1114 1399
1115 1207
1114 1295
1115 1207
1115 1164
1164 1207
1109 1207
1115 1207
1114 1295
1114 1399
1115 1207
1115 1164
1164 1207
1114 1295
1115 1207
1164 1207
1115 1207
1115 1365
1109 1295
1114 1295
1109 1114
1115 1365
1109 1295
1164 1207
1114 1295
1115 1365
1164 1207
1114 1295
1207 1374
1115 1365
1164 1207
1114 1295
1207 1374
1109 1399
1207 1363
1115 1365
1114 1383
1114 1295
1164 1363
1109 1399
1207 1363
1115 1365
1114 1383
1164 1207
1114 1295
1115 1365
1164 1207
1115 1365
1115 1365
1114 1207
1115 1365
1109 1164
1295 1320
1115 1207
1115 1365
1164 1207
1109 1207
1115 1207
1115 1365
1114 1295
1164 1363
1115 1207
1181 1327
1164 1207
1114 1295
1207 1363
1164 1207
1164 1207
1115 1207
1181 1295
1181 1327
1164 1207
1181 1295
1115 1207
1181 1327
1164 1207
1164 1363
1109 1115
1181 1327
1207 1391
1109 1115
1114 1115
1109 1114
1181 1327
1109 1207
1164 1363
1181 1327
1109 1207
1207 1383
1295 1320
1207 1305
1115 1207
1181 1327
1115 1207
1115 1207
1181 1327
1114 1295
1164 1363
1115 1207
1181 1327
1114 1295
1115 1207
1181 1327
1115 1207
1115 1207
1109 1295
1164 1207
1207 1391
1295 1320
1207 1391
1115 1383
1181 1207
1114 1164
1181 1207
1207 1327
1114 1207
1109 1207
1109 1115
1115 1207
1114 1115
1164 1181
1109 1207
1109 1115
1115 1207
1114 1115
1181 1207
1109 1207
1109 1115
1115 1207
1114 1320
1114 1295
1109 1207
1109 1115
1115 1207
1181 1207
1114 1320
1109 1207
1109 1115
1115 1207
1181 1207
1109 1115
1295 1320
1115 1207
1109 1164
1115 1164
1114 1320
1109 1207
1181 1207
1109 1207
1295 1320
1109 1164
1164 1373
1114 1320
1109 1207
1115 1181
1109 1207
1114 1295
1109 1207
1114 1295
1164 1374
1114 1320
1207 1377
1114 1320
1114 1295
1207 1323
1109 1115
1207 1378
1114 1295
1207 1323
1109 1115
1207 1378
1114 1295
1109 1115
1114 1295
1114 1164
1207 1378
1114 1295
1109 1115
1109 1115
1114 1320
1114 1295
1164 1295
1114 1295
1164 1295
1109 1207
1109 1114
1109 1164
1109 1295
1164 1207
1109 1295
1109 1295
1295 1393
1109 1295
1164 1207
1114 1393
1114 1295
1109 1114
1109 1295
1114 1393
1114 1295
1115 1383
1109 1393
1115 1207
1109 1114
1114 1393
1109 1295
1115 1391
1114 1393
1114 1295
1115 1207
1114 1295
1115 1207
1114 1115
1114 1393
1114 1295
1109 1115
1114 1115
1114 1295
1164 1374
1109 1207
1115 1207
1114 1393
1109 1207
1115 1207
1295 1393
1114 1393
1114 1295
1109 1207
1115 1207
1295 1393
1114 1393
1114 1295
1109 1207
1109 1115
1115 1207
1295 1393
1114 1393
1109 1207
1109 1115
1115 1207
1164 1374
1295 1393
1164 1374
1295 1393
1109 1393
1164 1320
1109 1295
1114 1295
1109 1393
1164 1320
1109 1393
1109 1393
1109 1295
1109 1393
1114 1295
1109 1393
1109 1393
1115 1207
1109 1393
1115 1207
1109 1393
1115 1207
1114 1207
1114 1295
1109 1393
1115 1295
1115 1207
1114 1393
1114 1207
1114 1295
1109 1393
1109 1114
1114 1393
1109 1393
1115 1207
1109 1114
1109 1393
1098 1207
1109 1393
1098 1207
1109 1393
1098 1207
1109 1393
1098 1207
1109 1393
1098 1207
1115 1207
1098 1115
1114 1295
1109 1393
1098 1207
1115 1207
1098 1115
1109 1393
1365 1393
1114 1295
1109 1365
1109 1393
1115 1207
1365 1393
1164 1327
1114 1295
1115 1207
1157 1164
1114 1295
1109 1207
1109 1115
1115 1207
1114 1295
1115 1207
1114 1157
1098 1181
1365 1393
1098 1164
1115 1207
1295 1365
1098 1164
1114 1157
1295 1365
1098 1164
1114 1157
1295 1365
1098 1109
1115 1207
1114 1157
1098 1109
1115 1207
1114 1157
1098 1109
1295 1365
1365 1393
1098 1109
1115 1207
1114 1157
1295 1365
1109 1207
1098 1114
1115 1207
1295 1365
1365 1393
1109 1207
1098 1114
1114 1157
1295 1365
1365 1393
1098 1157
1109 1207
1098 1114
1115 1207
1114 1157
1295 1365
1109 1207
1109 1115
1098 1114
1115 1207
1295 1365
1365 1393
1114 1295
1109 1207
1098 1114
1115 1207
1295 1365
1098 1157
1114 1295
1109 1115
1115 1207
1114 1295
1109 1115
1115 1207
1114 1295
1114 1365
1109 1115
1115 1207
1295 1365
1114 1295
1114 1365
1144 1157
1109 1115
1115 1207
1295 1365
1114 1295
1144 1157
1115 1207
1114 1295
1115 1207
1114 1295
1115 1207
1295 1365
1164 1181
1114 1295
1114 1365
1115 1207
1295 1365
1114 1295
1114 1365
1098 1207
1109 1115
1115 1207
1295 1365
1114 1295
1114 1365
1295 1365
1114 1295
1114 1365
1098 1207
1114 1295
1114 1365
1098 1207
1115 1207
1295 1365
1164 1295
1098 1207
1115 1207
1114 1164
1114 1295
1164 1295
1098 1207
1115 1207
1114 1164
1114 1295
1109 1207
1098 1207
1115 1207
1114 1295
1114 1295
1144 1191
1115 1207
1157 1191
1114 1295
1157 1191
1114 1393
1114 1295
1144 1148
1148 1157
1144 1157
1114 1295
1144 1148
1148 1157
1144 1157
1098 1207
1115 1207
1114 1295
1210 1245
1144 1148
1148 1157
1144 1157
1098 1207
1115 1207
1114 1295
1210 1245
1295 1305
1144 1164
1098 1207
1109 1115
1115 1207
1098 1115
1114 1295
1295 1305
1098 1207
1109 1115
1115 1207
1114 1295
1210 1245
1295 1305
1164 1191
1181 1191
1109 1115
1114 1295
1210 1245
1164 1191
1181 1191
1115 1207
1114 1305
1114 1295
1210 1245
1164 1191
1144 1157
1109 1115
1115 1207
1098 1115
1114 1305
1114 1295
1210 1245
1164 1191
1144 1157
1109 1115
1210 1245
1191 1210
1164 1191
1144 1157
1109 1115
1114 1305
1210 1245
1191 1210
1164 1191
1144 1157
1191 1245
1109 1115
1115 1207
1295 1393
1164 1181
1144 1157
1157 1191
1295 1393
1164 1181
1144 1191
1144 1157
1157 1191
1109 1207
1144 1191
1144 1157
1115 1207
1157 1191
1114 1305
1109 1207
1144 1191
1115 1207
1157 1191
1164 1181
1114 1295
1144 1148
1109 1207
1144 1191
1207 1210
1109 1115
1157 1191
1114 1295
1144 1191
1207 1210
1109 1115
1114 1295
1144 1191
1109 1115
1098 1115
1114 1295
1144 1191
1144 1157
1109 1115
1114 1383
1109 1210
1114 1295
1109 1207
1144 1191
1207 1210
1157 1191
1114 1383
1114 1295
1109 1207
1144 1191
1115 1207
1114 1383
1164 1181
1114 1295
1144 1191
1109 1115
1115 1207
1157 1191
1114 1383
1164 1181
1114 1295
1207 1395
1109 1207
1144 1191
1109 1115
1114 1383
1295 1383
1109 1207
1109 1115
1115 1207
1157 1191
1114 1383
1295 1383
1114 1295
1144 1191
1115 1207
1114 1383
1295 1383
1114 1295
1109 1207
1098 1164
1144 1191
1098 1245
1114 1383
1164 1181
1295 1383
1114 1295
1115 1323
1144 1191
1098 1245
1157 1191
1115 1378
1114 1383
1115 1323
1098 1164
1144 1191
1098 1245
1157 1191
1114 1383
1114 1295
1207 1395
1098 1245
1109 1115
1114 1383
1114 1295
1098 1164
1144 1191
1098 1245
1157 1191
1114 1383
1164 1181
1207 1395
1144 1191
1098 1210
1157 1191
1295 1383
1207 1395
1144 1191
1098 1210
1295 1383
1144 1191
1098 1210
1109 1115
1144 1207
1207 1395
1115 1323
1144 1191
1098 1210
1114 1295
1207 1395
1115 1323
1144 1191
1114 1295
1207 1395
1144 1191
1207 1395
1115 1323
1144 1191
1098 1157
1207 1395
1115 1323
1144 1191
1114 1383
1207 1395
1115 1323
1144 1191
1114 1383
1207 1395
1144 1245
1115 1323
1144 1191
1098 1157
1114 1383
1207 1395
1144 1245
1144 1191
1114 1383
1207 1395
1144 1191
1144 1245
1144 1191
1207 1395
1144 1245
1144 1191
1115 1323
1144 1191
1207 1395
1115 1323
1144 1191
1115 1323
1144 1191
1114 1383
1207 1395
1144 1191
1114 1295
1207 1395
1115 1323
1144 1191
1164 1181
1207 1395
1098 1159
1115 1323
1144 1191
1159 1191
1144 1159
1114 1295
1207 1395
1115 1323
1157 1159
1144 1191
1098 1157
1114 1383
1207 1395
1144 1245
1115 1323
1157 1159
1098 1157
1114 1383
1207 1395
1144 1245
1115 1323
1207 1377
1168 1191
1098 1157
1114 1383
1144 1168
1207 1395
1115 1323
1144 1191
1098 1157
1114 1383
1114 1295
1207 1395
1115 1323
1144 1191
1098 1157
1114 1295
1207 1395
1115 1323
1144 1191
1098 1157
1114 1295
1207 1395
1115 1323
1144 1191
1114 1295
1207 1395
1115 1323
1144 1191
1109 1115
1114 1295
1207 1395
1157 1159
1144 1191
1115 1378
1098 1157
1114 1295
1207 1395
1144 1191
1098 1157
1144 1191
1109 1115
1098 1157
1114 1295
1207 1395
1098 1157
1114 1295
1100 1108
1109 1115
1098 1157
1114 1295
1114 1295
1144 1191
1109 1115
1115 1378
1114 1295
1207 1395
1144 1191
1109 1115
1207 1395
1144 1191
1207 1210
1114 1295
1207 1395
1144 1191
1207 1210
1295 1399
1114 1295
1207 1395
1210 1395
1144 1191
1207 1210
1114 1295
1207 1395
1098 1157
1114 1295
1207 1395
1114 1399
1144 1191
1109 1115
1115 1378
1207 1395
1114 1399
1157 1159
1144 1191
1109 1115
1115 1378
1114 1295
1207 1395
1098 1159
1157 1159
1144 1191
1207 1395
1109 1115
1115 1378
1207 1395
1144 1191
1115 1378
1098 1157
1114 1295
1207 1395
1144 1245
1114 1399
1210 1395
1295 1399
1115 1378
1114 1295
1114 1399
1115 1378
1114 1295
1207 1395
1144 1191
1109 1115
1115 1378
1207 1395
1109 1115
1115 1378
1115 1323
1115 1323
1115 1378
1109 1115
1115 1207
1115 1378
1207 1395
1207 1395
1157 1159
1115 1378
1207 1395
1144 1191
1109 1378
1207 1395
1115 1323
1144 1191
1109 1378
1115 1323
1144 1191
1109 1378
1164 1207
1115 1323
1144 1191
1207 1295
1164 1207
1115 1323
1164 1207
1115 1323
1144 1191
1109 1115
1098 1157
1115 1323
1144 1191
1109 1115
1098 1157
1157 1159
1144 1191
1098 1157
1164 1207
1144 1191
1144 1191
1164 1207
1115 1323
1144 1191
1207 1363
1098 1157
1164 1207
1144 1191
1207 1363
1098 1157
1164 1207
1114 1295
1144 1191
1207 1363
1164 1207
1114 1295
1144 1191
1114 1295
1109 1207
1115 1323
1164 1363
1144 1191
1207 1210
1098 1157
1109 1207
1115 1323
1164 1210
1164 1363
1144 1191
1207 1210
1164 1207
1114 1295
1115 1323
1164 1210
1144 1191
1207 1210
1109 1164
1164 1207
1114 1295
1115 1323
1144 1191
1207 1210
1109 1164
1164 1207
1114 1295
1109 1207
1164 1210
1144 1191
1164 1207
1114 1295
1164 1363
1144 1191
1207 1363
1098 1157
1164 1207
1114 1295
1115 1323
1144 1191
1207 1363
1164 1207
1114 1295
1144 1191
1164 1207
1109 1210
1114 1295
1144 1191
1164 1207
1109 1210
1114 1295
1144 1191
1210 1399
1164 1207
1114 1295
1144 1191
1164 1207
1114 1295
1144 1191
1164 1207
1115 1323
1144 1191
1164 1207
1109 1210
1114 1295
1115 1323
1164 1363
1144 1191
1210 1399
1207 1363
1164 1207
1109 1210
1114 1295
1144 1191
1207 1363
1164 1207
1114 1295
1164 1363
1144 1191
1207 1363
1114 1295
1164 1363
1144 1191
1207 1363
1164 1207
1114 1295
1144 1191
1207 1363
1164 1181
1164 1207
1114 1295
1157 1159
1164 1363
1144 1191
1207 1363
1164 1207
1144 1191
1207 1363
1115 1181
1164 1207
1114 1295
1144 1191
1210 1399
1207 1363
1164 1207
1114 1295
1207 1374
1144 1191
1210 1399
1207 1363
1181 1393
1164 1207
1144 1191
1207 1363
1181 1393
1164 1207
1157 1159
1144 1191
1207 1363
1181 1393
1164 1207
1144 1191
1207 1363
1181 1393
1164 1207
1114 1295
1144 1191
1207 1363
1181 1393
1164 1207
1114 1295
1181 1393
1164 1207
1207 1374
1144 1191
1210 1399
1207 1363
1164 1207
1114 1295
1207 1374
1144 1191
1181 1391
1210 1399
1207 1363
1164 1207
1114 1295
1144 1191
1210 1399
1207 1363
1164 1207
1109 1210
1207 1374
1144 1191
1207 1363
1207 1374
1144 1191
1210 1399
1114 1295
1144 1191
1210 1399
1164 1207
1114 1295
1144 1191
1114 1295
1144 1191
1109 1399
1148 1159
1144 1191
1210 1399
1144 1191
1210 1399
1144 1191
1207 1352
1144 1191
1295 1365
1207 1352
1144 1191
1207 1352
1144 1191
1207 1352
1144 1191
1098 1157
1210 1295
1157 1159
1144 1191
1098 1157
1164 1207
1210 1295
1098 1159
1144 1191
1098 1157
1164 1207
1210 1295
1164 1207
1210 1295
1144 1191
1098 1157
1164 1207
1144 1245
1098 1159
1157 1159
1098 1157
1159 1191
1164 1207
1098 1159
1157 1159
1098 1157
1164 1207
1098 1144
1114 1210
1181 1327
1164 1207
1295 1327
1098 1245
1181 1295
1098 1144
1114 1210
1181 1327
1159 1191
1164 1207
1295 1327
1181 1295
1098 1144
1207 1363
1181 1327
1164 1207
1098 1144
1159 1191
1164 1207
1144 1245
1098 1144
1159 1191
1164 1207
1114 1393
1098 1144
1207 1363
1159 1191
1164 1207
