262 74 21814730
90 281 20864062
160 249 18167209
120 78 24710
306 230 22748181
273 276 22151366
273 233 22151366
160 63 18167209
184 267 22771422
249 160 5565295
90 99 20864062
151 280 22700934
310 184 22950274
176 225 30899
83 228 22161663
69 223 21852362
28 285 21887817
38 231 32901
279 7 22674338
26 225 21204538
160 103 18167209
160 60 18167209
160 317 18167209
160 159 18167209
18 28 22408447
230 74 8585256
230 150 20079646
230 169 8585256
230 274 22773081
230 88 13604388
230 183 22598796
230 33 22778382
230 82 20255129
230 281 20156107
230 23 8585256
230 264 8585256
230 143 22690068
230 32 8585256
230 90 22773081
230 15 8585256
97 230 21706910
184 295 19402976
33 230 22752722
90 150 21899364
7 144 17150197
279 118 21306676
253 271 38609
299 118 21803578
299 228 21803578
299 83 22160060
299 252 21803578
299 301 21803578
299 108 21803578
299 101 21803578
299 279 21917840
299 304 21803578
279 117 20506341
132 284 22666146
230 97 22773081
230 59 22773081
230 306 22773081
90 77 21194818
90 167 18769788
90 74 20864061
90 258 20864061
90 230 20864061
90 93 20864061
90 274 22763565
90 97 20864062
90 88 13412147
90 48 20864062
90 186 20864062
90 75 20864062
90 183 20864062
90 98 21189078
90 33 20864062
90 39 20864062
90 82 21214966
90 262 20864062
90 23 20864062
90 199 22505114
90 264 20864062
90 43 8596681
90 143 21896466
90 306 20864062
90 300 20864062
90 220 22139838
90 15 20864062
83 52 43089
83 158 17134511
283 79 20161624
88 258 43455
79 283 22673910
306 97 22748181
306 59 22748181
306 90 22748181
80 291 22403729
269 230 22681734
269 93 22681734
269 274 22681734
269 75 22681734
269 33 22681734
269 300 22681734
26 127 21288669
26 174 21892796
26 280 21204538
26 81 21204538
26 4 21204538
26 152 21204538
26 208 21204538
26 9 21204538
26 18 21204538
26 121 21204538
26 64 21204538
26 30 22100712
26 191 21204538
26 53 21204538
26 307 21204538
26 298 21204538
26 12 21909826
26 285 21204538
26 180 21204538
26 69 21204538
26 223 21204538
26 256 21204538
88 82 20528309
21 145 22166922
28 4 21887817
108 252 20024404
112 161 22754133
132 240 22758935
132 6 18801874
132 184 22758935
132 238 22598895
132 71 19051264
132 261 10570212
132 112 19051264
132 38 20611897
132 203 10570212
132 311 20174104
132 16 19051264
132 110 10570212
132 2 22766613
132 257 22508445
132 133 22758935
132 134 22508445
132 78 20611897
132 266 22511597
132 27 20611897
132 3 22078438
132 50 19051264
132 295 22758935
132 85 22758935
132 218 19051264
132 314 22598828
132 17 10570212
132 161 22758935
132 145 20611897
132 267 20174104
132 79 21390631
132 120 22666481
132 310 19051264
132 283 19051264
158 162 20265725
158 83 20265725
158 25 20265726
158 202 22580276
158 101 20265726
158 45 20265726
158 315 20265726
184 240 12518708
184 161 22084047
184 79 22766296
78 238 20780170
161 112 22741974
161 184 22742158
7 279 22697234
225 26 19425299
242 173 22526856
161 78 22948765
280 151 22763148
0 106 22174381
78 161 22538223
18 208 22514099
18 307 20847966
94 252 19653626
277 135 20595386
118 279 8427561
223 225 22768294
116 173 22758598
116 253 22682407
50 267 22503364
186 90 18277450
79 267 22403565
0 259 16032610
295 310 22681687
230 258 8585256
57 130 19903795
306 274 19140836
13 279 22608869
82 232 129953
253 242 3241533
305 299 20521569
78 132 130597
307 28 21386034
199 90 22503971
3 240 22160642
3 6 22160642
3 184 22160642
3 71 22160642
3 112 22160642
3 38 22684231
3 16 22160642
3 257 22080828
3 134 22160642
3 78 22160642
3 27 4967947
3 50 22160642
3 284 22160642
3 295 22160642
3 85 22160642
3 314 22160642
3 161 22160642
3 145 22160642
3 267 22160642
3 79 22160642
3 120 22160642
3 310 22160642
3 283 22160642
3 132 22160642
299 305 5125735
178 304 21212881
71 283 5241014
283 71 5475604
304 178 21381727
40 80 21375908
307 180 12581370
300 74 19556531
242 253 16531962
2 284 21489664
2 132 22689899
180 152 22675416
242 250 21380607
83 299 22169926
310 3 144014
252 86 22152575
93 274 20174603
93 33 20009127
284 3 168974
267 184 22956903
199 186 21113724
75 232 200085
200 52 20682461
150 230 3157650
75 274 22767472
58 193 19994150
58 270 19994150
58 83 19994150
58 301 19994150
58 45 20161222
58 200 20072005
58 254 19994150
58 52 19994150
9 225 15927820
278 116 22402115
278 253 20860920
278 13 22512067
79 184 22767199
234 117 22495948
116 278 22183293
93 230 20594747
93 82 8590399
251 12 207507
228 279 21126856
144 7 22488660
72 276 208815
38 50 22849380
38 295 21902181
38 161 22713526
38 267 21902181
12 251 210621
279 228 22430665
26 92 19425084
180 307 21284129
228 47 22428273
11 175 22804936
79 50 22755342
47 228 22428287
208 28 22597321
50 79 22755569
194 80 22760455
194 291 22602305
131 113 9191732
161 240 21340551
161 295 22654928
161 145 22742158
161 267 22742158
161 310 22694806
116 228 19475216
33 274 22752722
159 317 22754170
267 50 22688681
267 79 18213957
310 161 22162884
278 122 298386
310 145 295954
310 267 286831
103 160 8429849
28 251 21887817
316 122 290994
52 104 16620975
53 280 20790315
228 116 19475699
89 276 7380016
80 194 22755964
236 7 11626446
236 162 643907
236 173 11625941
236 228 1514671
236 263 643907
236 122 643907
236 94 643907
236 116 643907
236 309 643907
236 253 11626638
236 13 643907
236 315 643907
253 236 11631185
116 236 653361
158 299 13540252
258 90 18268833
316 309 299169
299 158 300143
38 284 22645275
240 161 21296799
295 38 21135700
295 50 19390138
295 161 21135700
295 267 2623480
78 283 21169379
295 184 20789352
316 116 3931169
309 236 303258
280 174 14238394
280 53 22585118
51 190 308397
51 80 21806931
278 200 8680439
13 236 654969
108 299 21887712
274 33 22678656
202 128 22071331
161 38 22948705
161 284 22423640
284 161 1852314
284 38 316411
16 284 20272093
7 263 20849362
284 132 1869161
284 16 335321
94 236 646480
223 28 21834338
200 254 22684786
38 310 20608978
310 38 376745
24 252 21825400
202 158 21743532
291 51 22147254
291 40 21207662
291 194 22163110
103 159 5218623
278 173 17758571
278 242 8680439
12 28 22600748
252 154 5653761
279 278 21306676
252 189 16618746
283 50 21583292
50 283 19397784
161 120 20519559
278 279 22400812
161 50 20096130
263 7 21284795
78 50 21845441
299 170 389903
251 28 21910930
234 279 22600997
180 292 390998
120 161 14743442
279 242 22669529
202 209 21389917
279 234 22601119
242 279 21287571
230 75 22773081
230 269 22059030
86 24 21131681
194 247 2372245
194 40 21379490
266 145 741940
209 299 15355803
161 132 10920193
284 2 1869161
86 252 22418649
53 307 552856
278 236 17734987
80 40 22071432
173 236 11626865
150 232 639115
307 53 634267
173 242 21378542
228 299 18529017
200 58 20682461
200 270 19988730
200 83 19988730
200 45 19988730
200 250 19988730
318 249 20278330
104 7 639030
299 209 6938932
279 122 21306294
279 104 18522255
199 220 14717274
262 300 22685145
104 279 1434750
7 104 643959
143 232 13439023
38 79 22672571
108 241 22487986
108 209 22487986
108 315 22487986
108 104 22487986
176 223 22685012
28 9 21887817
28 18 21887817
28 151 17842675
28 307 22490433
94 278 22664118
300 262 22341434
103 60 3244153
79 38 22673910
28 12 21887817
116 270 21799277
116 35 19907723
116 13 21125401
116 57 22595021
258 82 655857
225 176 664334
52 254 18953592
161 79 20871054
79 161 22673910
291 255 721430
288 111 21567013
228 241 12316447
238 79 1258186
241 228 12317187
40 291 21363286
79 238 1254895
103 249 8429740
103 63 723903
279 13 22585393
279 211 19043521
180 18 22416139
159 249 22498644
159 160 14225956
52 158 16461357
151 54 20178951
0 76 18703145
158 52 16464435
0 227 5158718
30 54 737681
53 174 21230035
80 51 22097884
291 80 20694374
199 143 20804774
306 75 19379083
288 233 20686949
152 280 20003734
9 28 20006711
279 308 19660807
18 180 22147865
134 284 16982269
134 85 12488098
134 132 21895678
145 21 22241755
194 190 11004271
253 47 9299541
279 10 12992488
130 25 22676986
190 194 11007246
279 173 827946
173 279 11619733
38 78 22677229
38 283 22843022
117 45 22058586
25 130 22754703
157 185 20507497
50 38 22849933
99 90 15288942
267 161 22696782
79 145 22489743
78 3 890329
85 134 17145454
85 132 18178030
180 298 22157551
283 115 895004
267 145 22696782
223 69 21740892
253 173 21307344
253 116 22514909
104 52 21195240
120 310 18352744
120 284 9119985
78 79 22164110
78 231 20780170
25 277 22443105
112 184 905817
53 298 19907851
160 318 18167209
66 300 908679
30 28 21809892
6 218 11020214
231 78 19570899
307 127 17743433
128 202 22066371
307 18 21221891
16 132 21037355
151 152 22700922
281 82 9819558
184 284 20452522
152 151 22771697
152 28 6681437
241 315 12559965
9 127 20002043
186 143 20078695
28 195 21887817
28 141 21887817
28 127 21887817
28 280 21887817
28 208 21887817
28 26 21887817
28 223 21887817
6 133 11633264
283 6 9659014
28 81 22516886
28 152 21887817
28 176 21887817
28 64 21887817
28 30 21887817
28 69 14023475
158 57 1169378
184 132 19382402
279 189 21306676
13 211 16988942
35 116 1336982
314 112 22147360
50 115 1187392
16 238 19581171
16 2 19581171
50 161 20084458
294 274 1236306
83 209 1237762
69 121 21854228
241 252 16039514
6 314 22592098
57 173 19385345
57 270 20501629
57 116 22594993
57 253 19385345
57 35 20009593
40 194 21284718
158 189 13540252
279 252 21803685
63 160 7462735
30 26 22099366
314 134 1249596
60 160 1250126
112 314 22082576
310 120 18358143
81 226 19666106
264 75 21902392
82 230 20169295
4 12 20795609
249 318 20259641
12 4 21209147
82 281 9718117
274 294 1320962
233 288 20679186
173 116 21310143
173 253 21310176
253 35 1325415
238 284 22437498
238 132 19389748
277 188 20595386
50 78 21834205
7 228 19917264
7 25 16963843
253 278 19585286
190 291 6874979
63 60 17256790
159 318 18783263
9 26 20761379
209 202 17857750
225 127 13452762
225 208 17600021
225 9 13452762
225 18 13452762
225 191 13452762
225 307 13452762
225 163 13526422
225 256 13452762
208 18 22067171
161 283 18184901
78 38 22674419
35 57 21807308
234 25 21716779
279 25 17928936
83 301 22601064
269 97 1426137
252 10 22073298
252 20 13021247
274 75 17322979
38 134 20608978
38 120 22032098
133 132 22509322
112 284 17327323
112 120 1436461
10 252 18894462
252 144 1445662
279 250 19923165
183 300 20778603
300 183 22071645
4 26 17575298
236 279 2366705
279 236 2370781
256 191 2654746
223 26 19579150
238 78 15758331
298 26 11964770
300 33 22071645
1 196 1523985
33 300 22752722
13 278 22516039
307 208 22596987
307 69 1767995
228 101 5420907
228 236 1706487
228 278 19641500
250 158 18372752
278 228 20860920
208 307 22515284
164 104 22752910
189 279 21725573
238 266 13438119
93 183 1763173
69 307 13516812
28 53 22490698
133 50 12507728
104 13 1765787
252 215 22402591
263 172 1768205
263 260 1768281
134 38 22489049
307 26 14724326
13 116 21305039
26 1 21913992
26 196 21125803
281 90 21898432
234 299 21716779
298 109 11893687
258 66 1776935
263 236 1777499
314 132 22600014
263 304 12302964
304 263 1849798
134 133 22692809
59 217 19045696
2 16 17218624
0 214 8439572
314 284 22587481
143 186 21308445
143 220 15695466
269 59 20075912
93 59 1849453
33 232 22752722
189 25 1854011
284 6 1854170
307 223 22156135
284 314 1854616
6 284 21907405
223 127 22112471
223 307 22112349
98 186 19123199
267 283 6952299
120 184 8076829
283 267 1858619
225 223 21745885
189 252 22685100
93 300 10939384
307 225 7749820
57 242 1925253
254 52 19644176
291 190 11879861
300 93 11001811
13 253 22608869
152 180 22497305
150 90 21799478
80 255 22498795
80 190 8601094
252 319 5477169
135 277 4537897
184 3 11798186
314 283 2103486
189 57 15950372
48 74 2024795
194 255 8583700
194 51 2372245
202 108 19989266
33 183 9720412
173 278 19577576
255 80 2031262
26 151 6997181
1 225 2040513
60 63 8066413
158 234 8754810
225 1 13452762
283 133 2092305
283 3 19121670
283 314 2145559
234 158 18778566
120 38 21914886
81 28 22524758
279 299 21909928
279 241 19050862
279 135 19667016
279 209 17763808
279 158 22673837
279 202 10934098
279 116 19923165
279 108 3060239
279 315 17928936
279 304 22751786
315 279 2123400
241 279 21828857
108 279 21798868
209 279 17857718
85 133 17145454
85 6 14219769
283 38 22694621
6 85 22438488
25 234 22755301
314 219 11103189
262 183 22156813
305 234 22282809
264 90 15755678
263 228 3053584
236 278 17666280
241 272 2373659
25 242 20162832
220 186 14806795
220 98 14806795
108 202 22090938
3 238 22160642
3 311 4017097
3 110 7812606
3 2 4967947
3 133 22160642
3 266 22160642
81 54 2393832
174 53 21207770
234 173 2448927
234 47 13785974
234 228 21717666
234 242 21716779
234 278 18778566
234 116 21198534
234 253 14820078
234 250 21717657
234 13 18778566
234 305 22413563
13 234 18779015
173 234 11617858
253 234 14830646
190 40 9279209
40 190 9610670
274 82 20521118
279 101 3060239
240 3 3750586
278 234 18786017
184 145 19656292
186 199 20607025
267 78 2517775
50 16 19397784
50 295 19397784
97 59 2550643
230 220 20255129
113 131 2551615
240 184 2551648
57 135 19903795
97 217 2552480
26 28 22148607
128 305 14197136
267 38 11370558
267 295 2554823
150 74 13592220
305 128 2556735
254 200 22683140
298 69 6601911
307 191 22609223
191 256 5070700
50 6 22170898
161 134 22144858
120 112 5559827
250 200 10392340
134 161 2625362
116 47 19383577
242 278 2631459
105 305 22674387
151 26 6881553
6 50 22170568
300 232 9789210
242 25 17332748
13 189 2709940
91 123 2714012
91 185 2710802
278 189 16439936
223 176 22681909
280 28 21883549
91 14 2717019
281 183 17848446
314 6 22589762
223 18 11177349
189 13 2737978
133 6 22674483
79 78 22673910
16 161 13159564
318 159 21219765
25 241 22514111
150 281 21888606
158 122 2972195
178 47 6605964
274 74 2973627
274 230 20868675
274 93 20251144
274 97 2973627
274 39 18886514
274 59 2973627
274 32 2973627
274 306 10332488
274 90 4260824
274 269 2973627
47 178 5568395
48 90 20605810
86 10 22972680
230 93 20082203
281 150 21898432
3 218 4017097
50 184 19640009
202 299 21213557
79 3 22067935
234 162 11609885
234 118 18778566
234 252 21822835
234 189 21716779
176 26 18263625
189 234 21725572
26 176 18265010
223 208 9205957
299 234 21890718
138 11 22682723
138 175 22682740
106 214 3083140
11 138 22774855
161 16 13473733
47 13 3150500
178 104 18796608
28 1 21887817
150 77 3157650
150 167 3157650
150 258 19039155
150 93 3157650
150 274 3157650
150 97 3157650
150 99 3157650
150 88 3157650
150 48 3157650
150 186 14028665
150 75 3157650
150 183 15669799
150 98 3157650
150 33 3157650
150 39 3157650
150 82 3157650
150 262 3157650
150 23 3157650
150 199 19895447
150 264 3157650
150 43 3157650
150 143 12377212
150 306 3157650
150 300 3157650
150 220 3157650
150 15 3739302
108 234 22487901
253 13 19488289
234 277 11609885
234 315 11609885
193 52 22169914
202 116 22070890
116 202 22758598
108 301 19857563
283 161 22662843
162 234 11786891
262 281 17318681
262 197 3231970
94 234 3241389
197 262 3234554
250 242 20755765
7 114 16452719
281 262 3240267
234 94 3240387
176 127 5129113
223 280 3257520
223 53 3745486
59 97 14561958
134 16 3942299
143 90 21906385
241 162 19559020
216 276 11620045
216 70 13164405
250 279 20689084
268 314 6451802
314 268 15611521
16 134 11713570
16 85 11713570
286 126 16473919
286 14 16298089
85 16 11608972
85 284 14121750
104 304 3661234
93 90 19036332
155 157 3665526
112 3 7979273
118 299 3667993
279 139 22584849
249 159 20608685
133 284 22064857
13 228 20251728
186 98 18527201
174 298 19999407
180 225 21220442
139 279 22591450
242 234 17681609
242 305 3762697
242 193 15247849
250 7 17127327
161 6 20179606
161 238 6797569
161 71 22921715
161 261 6797569
161 203 6797569
161 311 6797569
161 110 6797569
161 2 6797569
161 257 7380858
161 133 11796080
161 266 18184901
161 27 6797569
161 3 22921844
161 85 22144858
161 218 6797569
161 314 20506038
161 17 6797569
117 301 3777643
225 180 20513075
313 214 8116266
299 202 18194356
151 81 3833065
162 7 3834093
159 103 22498644
238 6 3848298
238 218 3848298
10 86 22062583
38 184 20608978
238 112 3930140
238 314 3850799
112 238 14801286
7 250 17083364
53 28 22452442
122 277 3919218
51 291 8507345
314 3 16916699
69 26 3924540
241 47 3925255
208 9 3932537
208 1 3932537
208 256 13007147
9 208 20006353
47 202 9648598
208 127 12344520
1 208 3947190
1 28 22511688
242 315 3941228
242 308 3941228
242 104 3941228
242 304 3941228
242 57 14020051
28 256 21887817
256 28 18534926
13 239 8517897
208 4 10230971
4 208 10231374
28 298 21887817
298 28 20085163
228 162 4014463
228 315 4014463
7 242 15426273
7 299 20160478
7 241 19917264
7 301 4016669
7 101 4016669
7 189 19917264
7 139 14197336
7 278 19917264
3 261 4017097
3 168 4017097
6 112 21749689
6 132 11020214
108 118 4263470
108 228 21805643
108 83 22087625
108 101 4263470
108 304 19857563
50 133 22756582
314 238 4266440
234 7 18346764
164 304 20679361
118 164 21197460
249 317 4277003
174 195 8511496
270 116 20246311
256 208 13018701
317 159 4281666
2 238 18439646
262 232 21379336
238 16 19389748
238 2 18522816
234 122 21121054
16 3 20272093
13 299 4367308
3 219 22080828
1 256 22417700
57 58 10322538
220 48 14806795
58 57 12476811
28 121 21887817
162 228 4438393
213 80 4439362
28 174 21887817
184 310 22513912
183 143 17859046
71 120 4457305
120 71 4515318
120 132 20005946
143 183 20798524
75 90 18169109
135 25 4537897
242 299 21821305
242 114 21821305
135 189 18176917
116 234 21203445
12 285 13102080
91 95 6616148
38 240 20608978
38 311 20608978
38 257 20608978
38 132 20608978
69 28 14680839
305 105 19137814
28 180 21887817
28 191 21887817
278 299 16620256
284 238 4699072
262 274 4873504
12 18 9287326
160 222 18167209
264 74 8001453
241 25 19153590
231 6 15928200
283 132 22662843
315 228 11882780
64 28 20080367
304 164 10938913
85 218 4963981
98 90 21129912
7 122 20793806
112 6 20986873
52 58 19992537
278 94 22596562
63 159 15757375
233 216 14110374
231 219 5127131
257 311 5129086
314 71 5142767
71 314 5142672
184 120 20158944
228 83 22079332
27 267 20771172
309 279 5216298
298 174 14480601
81 26 22173199
239 279 6683556
233 72 14110374
120 283 5238243
25 135 21136805
25 7 9106971
228 104 13339751
228 290 5420450
178 272 5471889
117 234 22496523
228 13 17072671
278 178 5473760
283 120 5475204
72 233 5482682
256 307 18273201
24 10 5483926
153 309 5485671
65 234 5488159
230 300 13703928
70 288 11004272
295 85 5562062
161 44 5563197
183 262 22708130
83 171 5580725
114 7 14716511
114 299 21809056
159 63 15756162
156 165 5652884
156 5 5652900
33 32 5663860
135 130 5667025
265 227 5759181
127 256 21733361
256 127 22519149
91 68 6592586
79 132 19049222
52 200 18953592
228 242 21381257
69 298 10404109
45 117 22060186
278 7 11875376
52 193 14657252
279 239 12926581
31 242 6617647
31 122 6617647
31 279 22602616
152 30 6681248
158 279 22667304
69 285 10404190
241 58 9813259
242 113 6703261
58 241 9816538
186 74 9286250
120 257 14743442
120 50 6712392
18 225 12390337
113 242 6774897
71 161 22775497
1 4 6783646
279 253 18269813
4 1 6783790
253 279 18436384
35 135 21111290
135 299 21130804
98 264 15347396
298 53 19148375
1 191 22615514
35 130 21807681
299 242 21731531
82 274 20268474
81 69 6953139
199 264 9543399
190 80 9272143
274 300 22678361
279 263 20849918
263 272 7217927
278 263 7224157
135 158 7291753
233 276 7393774
127 26 21287402
263 278 7294719
113 305 7294882
305 113 7296780
234 241 21716779
234 304 21716779
241 234 21720725
256 121 7307638
270 57 20246311
25 139 22514111
257 267 7379374
208 285 7804475
35 25 17165240
267 257 7397934
24 108 7456619
242 241 11010324
47 173 7418928
33 90 10836406
234 135 21716779
133 16 7460502
133 134 17833439
314 38 12833858
57 234 7462834
241 242 9014462
242 139 14813667
69 226 7466091
252 299 20472421
24 86 7468688
295 284 7473020
295 120 7473020
191 127 22763784
117 241 7479967
16 133 11713570
241 117 7484820
25 35 21734372
234 57 18346393
53 251 8097046
180 191 7561955
280 225 22624627
158 228 13540252
25 122 22514111
25 279 22514111
256 18 22430757
111 288 16525888
303 249 7809074
274 183 20782368
262 306 15670125
222 160 18788013
173 47 7891171
273 288 22151366
273 111 18517911
273 70 22151366
273 72 22151366
273 216 7891879
273 302 18517911
273 89 22151366
48 220 10835333
222 63 20180933
230 232 19407964
197 258 8496956
38 6 22849707
38 238 20608978
38 112 20771673
38 16 20608978
38 110 20608978
38 133 20608978
38 85 20608978
38 314 20608978
38 145 20608978
20 252 18721927
300 90 11616875
298 141 22094748
18 26 10942084
70 111 7982393
28 225 21887817
104 164 22681283
252 182 7998503
141 12 7999426
45 301 22769631
35 270 14739817
143 39 8166721
251 53 8088025
7 234 16995140
242 228 22419694
279 178 20097412
230 186 14042257
230 77 8585256
83 45 22161663
130 35 21292847
77 230 8165575
279 144 8167011
189 122 15154463
199 183 20524457
270 35 11885158
1 127 9041613
268 219 8338569
310 314 8422047
264 183 8593261
52 270 14657252
270 52 18280061
136 278 20862278
228 135 19999018
278 136 22769080
23 42 8508004
39 90 12988774
47 304 8675023
228 271 8518532
208 225 17598660
250 228 20274006
183 274 12999576
230 56 8585256
230 167 8585256
230 48 8585256
230 98 8585256
230 39 20255129
230 262 11185586
230 42 8585256
186 230 8586084
6 238 11020214
6 71 11020214
6 78 22405946
6 27 11020214
6 3 15858229
6 283 11020214
6 240 11020214
6 184 11020214
6 261 11020214
6 38 22851694
6 203 11020214
6 16 11020214
6 110 11020214
6 2 11020214
6 257 11020214
6 134 11020214
6 266 11020214
6 295 11020214
6 17 11020214
6 161 11020214
6 145 11020214
6 267 11020214
6 79 11020214
6 120 11020214
6 310 11020214
236 241 11625866
2 240 8596625
279 47 18261649
47 279 14560578
281 265 13190631
265 281 13191437
18 1 11093455
317 318 8679613
278 305 16620256
278 164 14020050
278 241 12405290
278 316 8680439
278 309 13438806
278 139 8680439
139 278 8684687
199 98 20432598
98 183 17136906
256 1 22417358
48 183 14132232
136 239 17147657
47 234 13796372
25 189 20780136
82 183 12580666
241 236 11626465
145 79 21382445
25 57 20780133
298 195 9190896
298 251 9190896
186 183 9035447
234 8 9029617
183 199 12394133
228 7 14020065
77 90 21194283
274 199 12229547
88 90 9103037
82 90 16822599
308 234 22060962
216 233 18197715
127 174 9121095
127 18 22752745
127 307 9121095
127 298 19922016
127 69 9121095
127 223 22155793
127 292 18287378
145 184 22069782
167 90 9127917
50 314 22684978
280 26 15235717
314 50 22685427
234 308 22064760
145 161 22193274
278 47 17758571
145 267 22070084
83 108 22161663
223 12 9196850
12 223 15673280
280 152 9293832
183 48 9197671
255 194 22159531
241 130 21829105
208 223 9205600
141 298 22094633
23 74 9235644
23 183 9235644
251 298 9269633
183 23 9271590
183 42 9723627
50 120 9282034
242 13 19055505
12 307 15673280
318 222 9290083
53 26 15691945
9 18 20003326
47 86 13072859
97 306 14561189
33 150 9360044
33 169 9360044
33 48 9360044
33 186 9360044
33 98 9360044
33 82 20094154
33 281 10239726
33 199 9360044
33 264 9360044
33 143 9360044
199 33 9543399
199 274 9699208
82 199 9366112
112 132 9394560
60 249 9395930
199 150 20524457
199 169 20524457
199 82 9543399
299 278 11972639
97 262 9625141
1 26 9625849
234 164 9626152
234 202 9626891
234 108 22502540
183 230 22708496
183 82 17228091
75 230 9628254
136 299 9635221
202 47 10572532
57 189 19903795
252 122 18518105
63 222 15949259
144 279 9700933
85 267 9709975
1 18 9717332
53 225 22369658
234 104 21716779
120 134 20697950
98 75 9726926
45 83 22168125
234 182 12402014
83 58 15692194
145 283 9791586
142 121 9794229
45 299 21801640
204 160 22598613
257 6 9801393
257 112 9802634
204 159 22752411
204 318 22598613
281 33 9989950
299 45 21803578
183 281 17228091
295 283 9887413
283 295 9874881
204 60 22598613
204 63 22598613
85 38 14812680
160 204 21101480
130 116 9960676
116 130 9962449
6 219 17737660
158 7 17136823
183 90 14114045
204 103 22598613
204 249 22598613
204 222 22598613
204 317 22598613
2 145 9975164
7 158 20160478
145 2 9980133
12 26 22077952
242 254 21741038
254 242 10244256
252 234 21816228
234 10 12402014
274 232 13181087
250 162 10227144
162 250 10231851
221 10 18804492
10 221 21370221
79 295 21732462
298 127 19922387
298 81 11894265
298 292 11894280
0 129 10244910
81 298 10245166
114 242 21827881
26 237 11879070
0 313 10315117
178 164 10316654
228 304 10323726
220 143 15762030
238 231 19567640
45 228 20171625
189 135 10404443
228 45 19911148
63 204 18356908
262 143 10414962
145 3 22197145
307 12 10489554
24 131 15331041
314 133 17921423
40 51 18793902
283 78 21104289
208 26 17831024
159 204 22756597
133 266 17767311
133 85 17833439
133 231 11205687
228 250 20286263
101 45 10776062
193 57 10832612
48 39 22173652
300 82 10837742
302 216 10846319
149 301 11169822
133 120 21908486
262 150 10921456
120 133 21909455
152 298 10923947
81 223 19495071
143 150 10925675
86 47 13003954
279 164 14804254
262 90 20530166
262 230 21226468
279 290 10936732
47 278 10976511
258 262 14120981
262 258 14121880
279 182 11013594
221 252 22174915
51 40 20167698
135 35 21120533
99 150 11020035
252 221 22529817
45 193 20702835
45 144 20702835
45 58 20702835
45 270 20702835
45 52 20702836
45 207 20702836
45 200 20702836
45 254 20702836
145 50 11321186
113 299 11092884
113 149 11107217
18 127 22514360
18 4 11093455
18 9 11093455
18 12 11093455
18 256 22423355
50 145 19640009
131 24 11097321
130 113 11098029
30 280 21732035
30 81 21732035
30 152 21732035
30 64 21732035
30 151 21732035
30 69 21732035
30 223 21732035
81 30 21816252
112 38 20769747
279 305 20004353
123 165 11112682
123 5 11112709
52 250 11386606
305 279 22278699
109 298 11131896
250 52 11167845
231 133 15928200
173 178 11184497
82 264 11188803
281 186 20764200
281 220 15156804
281 217 11380823
52 83 14657252
52 301 14657252
52 45 14667626
109 285 11391354
134 266 21808894
234 131 12233736
234 24 12993370
308 309 11611610
143 217 11614828
241 278 11615016
131 234 12236545
236 242 14222178
236 25 11711801
16 112 11626391
250 299 18372752
25 236 11641092
59 306 18868445
183 33 17228091
139 277 11701142
307 256 11703140
303 159 17667331
4 28 19487340
16 240 11713570
16 184 11794018
83 200 19989519
182 279 11742508
184 16 11798186
133 161 11881724
133 267 11893009
262 97 19660945
191 1 22618113
184 78 21702980
78 184 21724325
135 241 16983233
228 113 11883411
267 133 11888003
231 112 15928200
249 204 13525080
145 314 12192809
188 250 12208704
188 47 12209605
111 70 12219183
183 74 20694276
58 162 19139679
314 145 12220261
145 6 12222882
233 111 14110374
270 58 12231468
250 173 21304070
307 292 12307277
299 114 20070146
133 3 13179003
241 116 12935432
257 120 12321261
162 58 19394230
252 24 17770674
295 44 12403604
234 210 12402014
113 46 16546216
191 225 16450693
59 90 13588190
255 291 12480640
71 38 20196859
133 112 12507728
133 314 12507728
90 59 20864062
38 71 12556831
50 112 21738591
71 310 19049906
112 133 12570365
112 50 12570365
250 47 20274006
34 26 12597313
101 299 19390268
101 301 12748959
7 304 15924912
132 231 22508445
221 86 17338126
53 12 19903199
63 318 17134933
318 204 16013506
237 26 12902583
283 231 12984258
12 53 14649306
222 204 19566742
318 317 14461815
184 283 14546727
116 241 19383577
231 283 15928200
182 234 12952977
279 49 12992488
279 130 12992488
264 232 13000743
184 27 20772794
241 189 20097482
158 242 13540252
158 250 13009998
242 7 13015767
242 158 21741038
38 3 22684920
283 266 19123196
252 279 15435718
250 234 21294670
232 274 13675539
33 75 19666312
104 228 13206143
158 305 13797455
158 304 13797455
81 12 13428181
53 127 15691544
255 51 13436466
225 152 13452762
225 298 13452762
309 136 17846701
304 299 18782320
310 295 22950370
30 176 21732035
176 28 20614163
176 30 13589805
304 158 13597040
27 284 15327224
231 134 20520905
231 266 15943676
231 284 15928200
231 85 15928200
231 132 18951784
300 274 17319764
174 18 13766610
112 219 17327418
277 25 20595386
37 278 14020024
57 104 14020024
207 239 14020027
158 309 14020037
8 47 14020038
241 108 14020038
182 319 14020039
135 315 14020043
239 65 14020050
319 299 14020052
210 253 14020052
309 189 14020052
263 8 14020053
315 101 14020054
104 139 14020054
36 252 14020054
114 13 14020055
13 242 19055926
116 209 19474257
162 241 14020056
94 290 14020057
290 210 14020057
47 118 14020058
7 173 14020058
202 37 14020058
304 113 14020059
113 263 14020059
24 305 14020060
35 207 14020061
277 154 14020061
154 36 14020061
108 122 14020062
188 182 14020063
211 25 14020063
25 162 19129643
289 158 14020064
308 228 14020064
271 135 14020065
263 279 21398189
136 309 22502023
225 280 14029973
278 239 14030353
86 221 22972680
183 186 14042561
98 220 14044332
88 274 17586950
233 302 14110374
233 273 14110374
233 89 20004149
233 70 20772919
254 58 17328587
141 28 22432983
108 158 14118449
257 284 18547185
250 139 14204398
317 204 14124696
283 284 14124732
283 184 14549429
309 7 20600586
158 108 14127545
78 284 14128147
142 81 21281151
139 25 22417735
266 231 14140660
96 227 14145325
53 141 14226636
97 90 14197683
81 142 22768982
166 112 18456712
112 166 17763888
242 236 14831523
260 144 14223891
299 136 14457892
77 143 16030462
257 240 14465698
44 295 14472149
306 39 15751657
39 306 18431506
274 262 20762482
59 269 20082066
94 114 15666282
97 232 14546700
266 283 14565634
94 7 21226176
7 309 22785665
7 94 21230083
135 278 19861346
135 234 19861521
77 281 15770266
52 144 14657252
52 207 14657252
144 94 14676950
108 113 14714751
108 319 18439441
113 108 14717214
262 93 22770797
58 246 19994150
120 240 14743442
120 267 14743442
12 208 14806394
220 199 14806795
258 232 14815479
304 234 14818791
299 200 18952930
228 253 14825473
253 228 14830246
57 278 15145420
232 258 15145787
278 57 15152327
279 162 18261649
162 279 15166684
50 3 22153601
30 121 16458367
21 184 17783233
114 94 15665176
221 24 15255759
71 78 15256949
78 71 15257033
183 150 15325485
46 113 16546121
193 200 18345012
200 193 18345822
299 135 19910940
293 26 21388544
250 241 15423304
250 13 15423304
7 13 22519998
7 252 15426273
7 135 19757482
26 293 21391642
183 97 15666346
183 39 15666346
183 306 15666346
183 220 17655201
174 28 15671593
12 141 15673280
220 230 20512496
90 232 15675795
134 231 20520777
266 132 15840027
78 218 15682371
231 238 19570865
306 183 15751657
306 82 15751657
306 220 15751657
306 262 15751657
220 97 15762030
220 183 17594658
220 39 19990144
220 82 17067839
220 281 15762030
220 306 15762030
240 284 15763377
264 281 15935665
53 1 16974659
27 2 15844291
1 53 16975115
116 45 17742483
77 48 15859753
77 220 15859753
264 230 15863606
281 264 16621461
7 118 19917264
7 164 15924912
85 3 15926434
231 71 15928200
231 27 15928200
231 3 15928200
231 50 15928200
231 314 15928200
231 240 15928200
231 184 15928200
231 38 15928200
231 311 15928200
231 16 15928200
231 2 15928200
231 257 15928200
231 295 15928200
231 218 15928200
231 161 15928200
231 145 15928200
231 267 15928200
231 79 15928200
231 120 15928200
231 310 15928200
57 25 19903795
47 116 17134229
134 184 22146817
232 230 19378013
189 278 16020068
180 28 19854403
112 283 16290016
263 277 16443251
189 241 16481169
117 279 16531304
90 269 20864062
186 48 22601418
252 57 16618746
57 252 16619220
278 158 16620256
278 211 16625665
220 90 22077017
191 208 16981770
70 235 17054531
217 230 17057841
151 30 17061512
82 220 17061915
241 135 17072182
280 292 17102870
13 47 17139395
241 299 17138016
286 179 17146140
136 162 17147657
136 173 17147657
136 47 17147657
136 8 17147657
136 228 17147657
136 242 17147657
136 46 17147657
136 263 17147657
136 241 17147657
136 316 17147657
136 211 17147657
136 116 17147657
136 139 17147657
136 253 17147657
136 250 17147657
136 279 17147657
136 13 19384344
136 315 17147657
136 308 17147657
98 230 17153011
12 1 17157670
298 4 17164912
152 142 17233602
251 285 21911119
178 116 17311130
279 309 18361620
143 32 17335573
242 130 17566525
149 228 17583982
200 299 17584530
127 28 18773532
219 6 17595985
274 88 17600888
228 301 19390444
199 48 20804774
293 292 18269225
104 188 17658274
189 228 17660635
228 108 20075789
103 204 17699031
258 88 17741586
45 116 17747963
33 93 20174638
143 230 20798524
151 28 18866775
118 104 17915149
191 4 17923300
39 274 17928139
82 33 20099187
75 93 18175137
135 118 18176917
135 228 19935993
135 242 19861346
135 279 21130804
135 104 18176917
135 304 18176917
135 7 19675751
242 135 19935506
104 135 18182079
184 134 22084047
45 108 21804043
108 45 19860307
263 234 18289573
152 26 20693520
304 135 18280456
234 263 18778566
79 266 19043692
83 114 20110418
234 35 18346393
234 211 18346764
35 234 18360644
252 94 18810425
252 228 22168849
228 252 22171822
58 209 18452212
225 53 22403219
223 81 19919245
223 30 18462419
253 136 18972898
278 135 18524473
277 57 20595385
114 83 20021858
225 285 18785608
113 319 18796088
319 46 18796889
144 193 18863517
144 58 18863517
144 270 18863517
144 83 18863517
144 52 18863517
144 207 18863517
144 301 18863517
144 45 18863517
144 200 18863517
144 254 18863517
258 281 18864632
116 162 18865615
116 242 19383577
116 108 18865615
242 116 18868225
281 258 18870575
208 180 20512614
202 57 18951164
48 281 18951740
45 252 18964850
217 59 19051679
252 45 18970941
217 90 19034640
277 189 20595386
82 39 19040498
211 279 19044740
262 59 19050685
93 75 21818529
300 59 19056709
2 161 19122085
307 285 19125199
98 15 19139789
134 238 19143438
283 62 19144299
241 114 19145742
178 279 19149969
241 139 19153590
238 134 19166779
135 252 20760601
119 38 19320719
119 314 19321419
38 119 19324509
252 135 20517078
57 49 19903795
57 277 19903795
57 139 19903795
53 18 19394224
24 234 19384816
13 136 19385299
57 241 19385345
45 101 19385713
78 133 20780170
78 27 20780170
78 266 22424352
78 145 21297448
78 267 20780170
33 74 19386226
314 119 19386513
204 303 22598613
93 262 19389329
101 228 19390268
173 270 19400307
209 116 19411944
135 250 19471043
25 263 21310887
25 188 20780136
25 210 20780136
250 135 19926237
228 234 19488213
241 263 19559020
135 116 19577500
78 21 21297448
270 173 19573943
116 135 19917803
202 135 19643582
122 37 20168729
75 33 19644492
219 314 19926520
255 40 19646390
117 299 19659203
288 216 19660296
45 47 19907747
45 202 19660817
45 304 19660817
308 279 19660958
299 117 19663688
108 47 19857563
47 45 19862804
94 108 20587845
108 94 20616130
263 25 19913605
7 305 19917264
252 108 19936167
135 10 19935993
298 22 19985478
319 252 22177620
180 208 20880148
127 225 20090443
94 118 20159796
94 58 20159796
94 228 20159796
94 242 20159796
94 122 20587845
94 241 20159894
281 230 20170106
239 164 20180589
2 133 22689899
94 279 22682789
279 94 20279203
191 307 22780054
199 281 20432598
199 15 20432598
199 56 20432598
108 135 20504307
94 299 20513148
83 241 20698176
304 228 20535028
222 60 20594188
61 186 21122144
277 130 20595385
277 117 20595386
277 177 20595386
277 37 20595386
277 263 20595386
277 241 20595386
277 210 20595386
277 139 20595386
277 170 20595386
277 279 20595386
277 65 20595386
277 35 20595386
277 315 20595386
298 226 20598285
314 184 20603307
38 203 20608978
38 115 20608978
241 83 20697699
250 272 20689084
278 250 20691112
173 250 21306373
25 117 20780136
25 177 20780136
25 37 20780136
25 170 20780136
25 65 20780136
256 226 20781751
267 3 21380285
139 173 20860770
83 193 20864426
266 133 20879219
133 2 20992864
211 308 21107261
130 189 21292847
130 49 21292847
130 135 21292847
130 277 21292847
164 118 21197512
130 241 21288063
49 35 21824290
166 314 22173809
314 166 22176476
83 202 22161663
83 47 22161663
47 83 21398488
63 317 21730445
60 318 21749062
250 263 21794374
280 30 21802288
266 134 21809252
299 10 21811225
299 47 21811225
83 252 22161663
83 304 22161663
262 39 21823638
262 82 21823638
202 83 21886868
82 262 21890128
21 78 21928650
304 47 22082500
184 85 22084047
159 60 22097186
9 92 22589858
180 1 22157551
254 193 22170097
193 254 22170014
78 6 22363262
263 250 22421089
266 78 22424960
6 115 22438488
151 223 22672512
127 293 22668552
256 180 22513281
13 7 22516257
280 141 22602471
7 37 22604254
310 71 22681835
280 121 22630122
141 280 22665582
280 223 22665661
314 240 22675947
191 28 22684887
310 44 22950274
127 191 22763872
238 3 22776891
