262 74 18444449
90 281 19982263
160 249 18167209
120 78 24710
306 230 19562826
273 276 7891879
273 233 18517911
160 63 18167209
184 267 19665644
249 160 5565295
90 99 19982263
151 280 18781195
310 184 6513772
176 225 30899
83 228 9117691
69 223 19948482
28 285 19909809
38 231 32901
279 7 19910199
26 225 19563126
160 103 18167209
160 60 18167209
160 317 18167209
160 159 18167209
18 28 17832386
230 74 8585256
230 150 8585256
230 169 8585256
230 274 18894825
230 88 13604388
230 183 19394600
230 33 16558597
230 82 19394600
230 281 14042919
230 23 8585256
230 264 8585256
230 143 8585256
230 32 8585256
230 90 19577715
230 15 8585256
97 230 3318064
184 295 19402976
33 230 18005702
90 150 19982263
7 144 17150197
279 118 18522255
253 271 38609
299 118 17828108
299 228 19033261
299 83 17828108
299 252 19480760
299 301 19388361
299 108 19918046
299 101 19129937
299 279 19148339
299 304 17828108
279 117 17763808
132 284 19389479
230 97 19394600
230 59 15316735
230 306 19926368
90 77 19982263
90 167 18769788
90 74 19982263
90 258 19982263
90 230 19982417
90 93 19985235
90 274 19982263
90 97 19982263
90 88 13412147
90 48 19982263
90 186 19982263
90 75 19982263
90 183 19982263
90 98 19982263
90 33 19982263
90 39 19982263
90 82 19982263
90 262 19982263
90 23 19982263
90 199 19982263
90 264 19982263
90 43 8596681
90 143 19982263
90 306 19982263
90 300 19982263
90 220 19982263
90 15 19982263
83 52 43089
83 158 17134511
283 79 19041992
88 258 43455
79 283 19040756
306 97 19562826
306 59 19562826
306 90 19562826
80 291 18814322
269 230 19921303
269 93 19921303
269 274 19921303
269 75 19921303
269 33 19921303
269 300 19921303
26 127 18280716
26 174 17672521
26 280 19075517
26 81 19498476
26 4 17575912
26 152 19657208
26 208 17844057
26 9 19075517
26 18 17844057
26 121 19042655
26 64 15836741
26 30 19140434
26 191 15836741
26 53 15836741
26 307 17844057
26 298 17844057
26 12 17846230
26 285 18959071
26 180 15836741
26 69 17844057
26 223 19578975
26 256 15836741
88 82 48963
21 145 19522749
28 4 19909809
108 252 19929666
112 161 11037227
132 240 19051264
132 6 18801874
132 184 19401366
132 238 19051264
132 71 19051264
132 261 10570212
132 112 19051264
132 38 19051264
132 203 10570212
132 311 19051264
132 16 19051264
132 110 10570212
132 2 19397981
132 257 19051264
132 133 19051264
132 134 19051264
132 78 19051264
132 266 19051264
132 27 19051264
132 3 19051264
132 50 19051264
132 295 19051264
132 85 19051264
132 218 19051264
132 314 19051264
132 17 10570212
132 161 19051264
132 145 19051264
132 267 19051264
132 79 19389479
132 120 19389479
132 310 19051264
132 283 19051264
158 162 12408597
158 83 17136733
158 25 12408597
158 202 19403523
158 101 12408597
158 45 12408597
158 315 12408597
184 240 12518708
184 161 19656292
184 79 19656292
78 238 19654414
161 112 19997472
161 184 19997472
7 279 19992338
225 26 19425299
242 173 19062819
161 78 19066389
280 151 18302926
0 106 17314115
78 161 19994829
18 208 19484213
18 307 19915576
94 252 19653626
277 135 18530931
118 279 8427561
223 225 19396607
116 173 19912729
116 253 19912729
50 267 19999258
186 90 18277450
79 267 19667436
0 259 16032610
295 310 13537654
230 258 8585256
57 130 19903795
306 274 19140836
13 279 19758748
82 232 129953
253 242 3241533
305 299 4873261
78 132 130597
307 28 18954089
199 90 19472277
3 240 7812606
3 6 18192589
3 184 18192589
3 71 7812606
3 112 19656968
3 38 7812606
3 16 17586557
3 257 4017097
3 134 7812606
3 78 7812606
3 27 4967947
3 50 15168608
3 284 17661015
3 295 18192589
3 85 12474011
3 314 7812606
3 161 8410598
3 145 7812606
3 267 19991828
3 79 7812606
3 120 7812606
3 310 7812606
3 283 7812606
3 132 18532349
299 305 5125735
178 304 19153701
71 283 5241014
283 71 5475604
304 178 19910471
40 80 19574062
307 180 12581370
300 74 19556531
242 253 16531962
2 284 19646306
2 132 19122085
180 152 19667665
242 250 18371909
83 299 14139680
310 3 144014
252 86 18565843
93 274 19908098
93 33 19908108
284 3 168974
267 184 15862322
199 186 19493561
75 232 200085
200 52 19901310
150 230 3157650
75 274 18518248
58 193 19994150
58 270 19994150
58 83 19994150
58 301 19994150
58 45 19994150
58 200 19994150
58 254 19994150
58 52 19994150
9 225 15927820
278 116 19494368
278 253 19644336
278 13 19494368
79 184 18946802
234 117 9722851
116 278 17741235
93 230 17844555
93 82 8590399
251 12 207507
228 279 19141637
144 7 19169004
72 276 208815
38 50 19898154
38 295 19405867
38 161 19920707
38 267 19768264
12 251 210621
279 228 19663880
26 92 19425084
180 307 19389266
228 47 19489221
11 175 19882814
79 50 19982678
47 228 19489618
208 28 16555343
50 79 19982929
194 80 19656377
194 291 19578010
131 113 9191732
161 240 19493677
161 295 19556139
161 145 19470420
161 267 19470420
161 310 10049236
116 228 19475216
33 274 19936590
159 317 235842
267 50 19985642
267 79 18213957
310 161 11617570
278 122 298386
310 145 295954
310 267 286831
103 160 8429849
28 251 17659151
316 122 290994
52 104 16620975
53 280 19476740
228 116 19475699
89 276 7380016
80 194 19572899
236 7 11626446
236 162 643907
236 173 11625941
236 228 1514671
236 263 643907
236 122 643907
236 94 643907
236 116 643907
236 309 643907
236 253 11626638
236 13 643907
236 315 643907
253 236 11631185
116 236 653361
158 299 13540252
258 90 18268833
316 309 299169
299 158 300143
38 284 17139200
240 161 15763377
295 38 19128326
295 50 19390138
295 161 19569235
295 267 2623480
78 283 19654414
295 184 17945914
316 116 3931169
309 236 303258
280 174 14238394
280 53 19129542
51 190 308397
51 80 12925581
278 200 8680439
13 236 654969
108 299 19865270
274 33 19406379
202 128 19910337
161 38 19997472
161 284 19997472
284 161 1852314
284 38 316411
16 284 19581171
7 263 18959144
284 132 1869161
284 16 335321
94 236 646480
223 28 19913929
200 254 19988730
38 310 7918684
310 38 376745
24 252 19908234
202 158 16989741
291 51 19575750
291 40 18948717
291 194 19987517
103 159 5218623
278 173 17758571
278 242 8680439
12 28 19906895
252 154 5653761
279 278 19923165
252 189 16618746
283 50 9279085
50 283 19397784
161 120 19997472
278 279 19144782
161 50 19642743
263 7 18289304
78 50 19654414
299 170 389903
251 28 19646955
234 279 19997017
180 292 390998
120 161 14743442
279 242 19902751
202 209 16451187
279 234 19663701
242 279 19055505
230 75 17005837
230 269 15316735
86 24 18518105
194 247 2372245
194 40 19578010
266 145 741940
209 299 15355803
161 132 10920193
284 2 1869161
86 252 19579403
53 307 552856
278 236 17734987
80 40 19551724
173 236 11626865
150 232 639115
307 53 634267
173 242 19578864
228 299 18529017
200 58 19988730
200 270 19988730
200 83 19988730
200 45 19988730
200 250 19988730
318 249 15328067
104 7 639030
299 209 6938932
279 122 17664401
279 104 18522255
199 220 14717274
262 300 19660917
104 279 1434750
7 104 643959
143 232 13439023
38 79 19768264
108 241 19986576
108 209 19986576
108 315 19986576
108 104 19986576
176 223 19923015
28 9 19909809
28 18 19909809
28 151 17842675
28 307 19909809
94 278 12209694
300 262 16534242
103 60 3244153
79 38 19667436
28 12 17659151
116 270 19907723
116 35 19907723
116 13 19383577
116 57 19383577
258 82 655857
225 176 664334
52 254 18953592
161 79 18864771
79 161 19909391
291 255 721430
288 111 18786785
228 241 12316447
238 79 1258186
241 228 12317187
40 291 19572134
79 238 1254895
103 249 8429740
103 63 723903
279 13 19043222
279 211 19043521
180 18 19995760
159 249 19984573
159 160 14225956
52 158 16461357
151 54 18792416
0 76 18703145
158 52 16464435
0 227 5158718
30 54 737681
53 174 17308376
80 51 19572899
291 80 19921881
199 143 17605875
306 75 19379083
288 233 19901021
152 280 9196914
9 28 8764592
279 308 19660807
18 180 15239356
134 284 16982269
134 85 12488098
134 132 15683304
145 21 19986714
194 190 11004271
253 47 9299541
279 10 12992488
130 25 19383080
190 194 11007246
279 173 827946
173 279 11619733
38 78 19405867
38 283 19567584
117 45 19485424
25 130 19655873
157 185 18036605
50 38 19915353
99 90 15288942
267 161 13515506
79 145 13516922
78 3 890329
85 134 17145454
85 132 18178030
180 298 17913718
283 115 895004
267 145 12050109
223 69 19501610
253 173 19641103
253 116 18438542
104 52 15426946
120 310 18352744
120 284 9119985
78 79 19654414
78 231 19654414
25 277 19478805
112 184 905817
53 298 19907851
160 318 18167209
66 300 908679
30 28 19920112
6 218 11020214
231 78 19570899
307 127 17743433
128 202 16975938
307 18 15421791
16 132 19581171
151 152 18780749
281 82 9819558
184 284 11668481
152 151 18807720
152 28 6681437
241 315 12559965
9 127 1321363
186 143 16539366
28 195 19909809
28 141 19043618
28 127 19909809
28 280 19922624
28 208 19909809
28 26 19909809
28 223 19909809
6 133 11633264
283 6 9659014
28 81 19909809
28 152 19909809
28 176 17581767
28 64 19909809
28 30 19909809
28 69 14023475
158 57 1169378
184 132 19382402
279 189 18522255
13 211 16988942
35 116 1336982
314 112 19663499
50 115 1187392
16 238 19581171
16 2 19581171
50 161 19915353
294 274 1236306
83 209 1237762
69 121 1239404
241 252 16039514
6 314 19577884
57 173 19385345
57 270 19383704
57 116 19385345
57 253 19385345
57 35 19903795
40 194 19568833
158 189 13540252
279 252 19050862
63 160 7462735
30 26 19139219
314 134 1249596
60 160 1250126
112 314 17855583
310 120 18358143
81 226 19666106
264 75 17153791
82 230 19330444
4 12 16555131
249 318 1260025
12 4 14202540
82 281 9718117
274 294 1320962
233 288 16537220
173 116 19912269
173 253 19912269
253 35 1325415
238 284 19389748
238 132 19389748
277 188 1333058
50 78 19397784
7 228 19917264
7 25 16963843
253 278 19585286
190 291 6874979
63 60 17256790
159 318 18783263
9 26 16032323
209 202 17857750
225 127 13452762
225 208 17600021
225 9 13452762
225 18 13452762
225 191 13452762
225 307 13452762
225 163 13526422
225 256 13452762
208 18 19996715
161 283 18184901
78 38 19925695
35 57 14727323
234 25 18346764
279 25 17928936
83 301 18346890
269 97 1426137
252 10 19935949
252 20 13021247
274 75 17322979
38 134 18277813
38 120 18277813
133 132 17833439
112 284 17327323
112 120 1436461
10 252 18894462
252 144 1445662
279 250 19923165
183 300 19245403
300 183 13775989
4 26 17575298
236 279 2366705
279 236 2370781
256 191 2654746
223 26 19579150
238 78 15758331
298 26 11964770
300 33 11694101
1 196 1523985
33 300 19916119
13 278 19405577
307 208 19580489
307 69 1767995
228 101 5420907
228 236 1706487
228 278 19641500
250 158 18372752
278 228 19641037
208 307 18440642
164 104 1758236
189 279 18349497
238 266 13438119
93 183 1763173
69 307 13516812
28 53 19909809
133 50 12507728
104 13 1765787
252 215 19636507
263 172 1768205
263 260 1768281
134 38 14131273
307 26 14724326
13 116 19124709
26 1 18622169
26 196 9102959
281 90 19389435
234 299 19576434
298 109 11893687
258 66 1776935
263 236 1777499
314 132 18879372
263 304 12302964
304 263 1849798
134 133 18282016
59 217 19045696
2 16 17218624
0 214 8439572
314 284 19663499
143 186 17334249
143 220 15695466
269 59 14465603
93 59 1849453
33 232 18005702
189 25 1854011
284 6 1854170
307 223 15421791
284 314 1854616
6 284 17759666
223 127 18967671
223 307 15867836
98 186 19123199
267 283 6952299
120 184 8076829
283 267 1858619
225 223 10858104
189 252 16552360
93 300 10939384
307 225 7749820
57 242 1925253
254 52 19644176
291 190 11879861
300 93 11001811
13 253 19410178
152 180 18281645
150 90 12988053
80 255 19572899
80 190 8601094
252 319 5477169
135 277 4537897
184 3 11798186
314 283 2103486
189 57 15950372
48 74 2024795
194 255 8583700
194 51 2372245
202 108 19989266
33 183 9720412
173 278 19577576
255 80 2031262
26 151 6997181
1 225 2040513
60 63 8066413
158 234 8754810
225 1 13452762
283 133 2092305
283 3 19121670
283 314 2145559
234 158 18778566
120 38 14743442
81 28 19579174
279 299 19667016
279 241 19050862
279 135 19667016
279 209 17763808
279 158 17917221
279 202 10934098
279 116 19923165
279 108 3060239
279 315 17928936
279 304 18522255
315 279 2123400
241 279 19058160
108 279 4263470
209 279 17857718
85 133 17145454
85 6 14219769
283 38 19562446
6 85 18758905
25 234 14556175
314 219 11103189
262 183 19661096
305 234 9799187
264 90 15755678
263 228 3053584
236 278 17666280
241 272 2373659
25 242 16452547
220 186 14806795
220 98 14806795
108 202 19857563
3 238 7812606
3 311 4017097
3 110 7812606
3 2 4967947
3 133 19388042
3 266 7812606
81 54 2393832
174 53 18183240
234 173 2448927
234 47 13785974
234 228 19996985
234 242 19477388
234 278 18778566
234 116 19477677
234 253 14820078
234 250 19477388
234 13 18778566
234 305 9798230
13 234 18779015
173 234 11617858
253 234 14830646
190 40 9279209
40 190 9610670
274 82 17582263
279 101 3060239
240 3 3750586
278 234 18786017
184 145 19656292
186 199 14819318
267 78 2517775
50 16 19397784
50 295 19397784
97 59 2550643
230 220 19985662
113 131 2551615
240 184 2551648
57 135 19903795
97 217 2552480
26 28 17069703
128 305 14197136
267 38 11370558
267 295 2554823
150 74 13592220
305 128 2556735
254 200 19920196
298 69 6601911
307 191 2559437
191 256 5070700
50 6 8923140
161 134 6797569
120 112 5559827
250 200 10392340
134 161 2625362
116 47 19383577
242 278 2631459
105 305 19466517
151 26 6881553
6 50 11020214
300 232 9789210
242 25 17332748
13 189 2709940
91 123 2714012
91 185 2710802
278 189 16439936
223 176 19900410
280 28 19901101
91 14 2717019
281 183 17848446
314 6 18782851
223 18 11177349
189 13 2737978
133 6 12830995
79 78 18340009
16 161 13159564
318 159 18863292
25 241 19655873
150 281 13160747
158 122 2972195
178 47 6605964
274 74 2973627
274 230 19395224
274 93 9117730
274 97 2973627
274 39 18886514
274 59 2973627
274 32 2973627
274 306 10332488
274 90 4260824
274 269 2973627
47 178 5568395
48 90 19139468
86 10 19992672
230 93 17823168
281 150 15156804
3 218 4017097
50 184 19640009
202 299 18260856
79 3 19471536
234 162 11609885
234 118 18778566
234 252 18778566
234 189 18778566
176 26 18263625
189 234 19045716
26 176 18265010
223 208 9205957
299 234 19480876
138 11 19567130
138 175 19567144
106 214 3083140
11 138 19566989
161 16 13473733
47 13 3150500
178 104 18796608
28 1 19909809
150 77 3157650
150 167 3157650
150 258 19039155
150 93 3157650
150 274 3157650
150 97 3157650
150 99 3157650
150 88 3157650
150 48 3157650
150 186 14028665
150 75 3157650
150 183 15669799
150 98 3157650
150 33 3157650
150 39 3157650
150 82 3157650
150 262 3157650
150 23 3157650
150 199 19895447
150 264 3157650
150 43 3157650
150 143 12377212
150 306 3157650
150 300 3157650
150 220 3157650
150 15 3739302
108 234 3159046
253 13 19488289
234 277 11609885
234 315 11609885
193 52 7305904
202 116 19918211
116 202 19912729
108 301 19857563
283 161 14462201
162 234 11786891
262 281 17318681
262 197 3231970
94 234 3241389
197 262 3234554
250 242 19978902
7 114 16452719
281 262 3240267
234 94 3240387
176 127 5129113
223 280 3257520
223 53 3745486
59 97 14561958
134 16 3942299
143 90 18862142
241 162 19559020
216 276 11620045
216 70 13164405
250 279 18372752
268 314 6451802
314 268 15611521
16 134 11713570
16 85 11713570
286 126 16473919
286 14 16298089
85 16 11608972
85 284 14121750
104 304 3661234
93 90 19036332
155 157 3665526
112 3 7979273
118 299 3667993
279 139 19043222
249 159 19993028
133 284 17833439
13 228 17575717
186 98 18527201
174 298 19999407
180 225 18781023
139 279 19055820
242 234 17681609
242 305 3762697
242 193 15247849
250 7 17127327
161 6 8633022
161 238 6797569
161 71 6797569
161 261 6797569
161 203 6797569
161 311 6797569
161 110 6797569
161 2 6797569
161 257 7380858
161 133 11796080
161 266 18184901
161 27 6797569
161 3 12986977
161 85 13471645
161 218 6797569
161 314 6797569
161 17 6797569
117 301 3777643
225 180 18782811
313 214 8116266
299 202 18194356
151 81 3833065
162 7 3834093
159 103 7152102
238 6 3848298
238 218 3848298
10 86 16367419
38 184 14120201
238 112 3930140
238 314 3850799
112 238 14801286
7 250 17083364
53 28 19997409
122 277 3919218
51 291 8507345
314 3 16916699
69 26 3924540
241 47 3925255
208 9 3932537
208 1 3932537
208 256 13007147
9 208 19554917
47 202 9648598
208 127 12344520
1 208 3947190
1 28 14202542
242 315 3941228
242 308 3941228
242 104 3941228
242 304 3941228
242 57 14020051
28 256 19909809
256 28 18534926
13 239 8517897
208 4 10230971
4 208 10231374
28 298 19909809
298 28 19643020
228 162 4014463
228 315 4014463
7 242 15426273
7 299 19917264
7 241 19917264
7 301 4016669
7 101 4016669
7 189 19917264
7 139 14197336
7 278 19917264
3 261 4017097
3 168 4017097
6 112 18470789
6 132 11020214
108 118 4263470
108 228 19857563
108 83 19857563
108 101 4263470
108 304 19857563
50 133 12557374
314 238 4266440
234 7 18346764
164 304 6680084
118 164 12556838
249 317 4277003
174 195 8511496
270 116 19573943
256 208 13018701
317 159 4281666
2 238 18439646
262 232 17578557
238 16 19389748
238 2 18522816
234 122 7825857
16 3 18786258
13 299 4367308
3 219 4967947
1 256 8766745
57 58 10322538
220 48 14806795
58 57 12476811
28 121 19909809
162 228 4438393
213 80 4439362
28 174 17659151
184 310 5146338
183 143 17859046
71 120 4457305
120 71 4515318
120 132 14743442
143 183 17857475
75 90 18169109
135 25 4537897
242 299 19910178
242 114 19933841
135 189 18176917
116 234 19479340
12 285 13102080
91 95 6616148
38 240 14803445
38 311 14803445
38 257 14803445
38 132 14803445
69 28 14680839
305 105 19137814
28 180 19909809
28 191 17581767
278 299 16620256
284 238 4699072
262 274 4873504
12 18 9287326
160 222 18167209
264 74 8001453
241 25 19153590
231 6 15928200
283 132 8070901
315 228 11882780
64 28 9361093
304 164 10938913
85 218 4963981
98 90 10253732
7 122 17773561
112 6 17764044
52 58 19992537
278 94 12211954
63 159 15757375
233 216 14110374
231 219 5127131
257 311 5129086
314 71 5142767
71 314 5142672
184 120 5222960
228 83 17668285
27 267 5216239
309 279 5216298
298 174 14480601
81 26 19498850
239 279 6683556
233 72 14110374
120 283 5238243
25 135 19663048
25 7 9106971
228 104 13339751
228 290 5420450
178 272 5471889
117 234 9635223
228 13 17072671
278 178 5473760
283 120 5475204
72 233 5482682
256 307 18273201
24 10 5483926
153 309 5485671
65 234 5488159
230 300 13703928
70 288 11004272
295 85 5562062
161 44 5563197
183 262 19245403
83 171 5580725
114 7 14716511
114 299 19903588
159 63 15756162
156 165 5652884
156 5 5652900
33 32 5663860
135 130 5667025
265 227 5759181
127 256 17173127
256 127 11730663
91 68 6592586
79 132 19049222
52 200 18953592
228 242 19827715
69 298 10404109
45 117 19385713
278 7 11875376
52 193 14657252
279 239 12926581
31 242 6617647
31 122 6617647
31 279 9618241
152 30 6681248
158 279 13774909
69 285 10404190
241 58 9813259
242 113 6703261
58 241 9816538
186 74 9286250
120 257 14743442
120 50 6712392
18 225 12390337
113 242 6774897
71 161 6781784
1 4 6783646
279 253 18269813
4 1 6783790
253 279 18436384
35 135 19127950
135 299 19935993
98 264 15347396
298 53 19148375
1 191 6870903
35 130 17829305
299 242 15169657
82 274 19040696
81 69 6953139
199 264 9543399
190 80 9272143
274 300 10485124
279 263 17763808
263 272 7217927
278 263 7224157
135 158 7291753
233 276 7393774
127 26 8432143
263 278 7294719
113 305 7294882
305 113 7296780
234 241 19477388
234 304 9798230
241 234 19487427
256 121 7307638
270 57 17915391
25 139 19655873
257 267 7379374
208 285 7804475
35 25 17165240
267 257 7397934
24 108 7456619
242 241 11010324
47 173 7418928
33 90 10836406
234 135 19576434
133 16 7460502
133 134 17833439
314 38 12833858
57 234 7462834
241 242 9014462
242 139 14813667
69 226 7466091
252 299 19476887
24 86 7468688
295 284 7473020
295 120 7473020
191 127 7478290
117 241 7479967
16 133 11713570
241 117 7484820
25 35 19479640
234 57 18346393
53 251 8097046
180 191 7561955
280 225 11175003
158 228 13540252
25 122 19655873
25 279 19655873
256 18 19490522
111 288 16525888
303 249 7809074
274 183 14216675
262 306 15670125
222 160 18788013
173 47 7891171
273 288 18517911
273 111 18517911
273 70 18517911
273 72 18517514
273 216 7891879
273 302 18517911
273 89 18517911
48 220 10835333
222 63 17591114
230 232 19407964
197 258 8496956
38 6 18533512
38 238 14120201
38 112 19143694
38 16 7918684
38 110 14120201
38 133 14120201
38 85 14814374
38 314 14120201
38 145 14120201
20 252 18721927
300 90 11616875
298 141 18181105
18 26 10942084
70 111 7982393
28 225 19909809
104 164 7996380
252 182 7998503
141 12 7999426
45 301 19660817
35 270 14739817
143 39 8166721
251 53 8088025
7 234 16995140
242 228 19989992
279 178 8161059
230 186 14042257
230 77 8585256
83 45 19916532
130 35 17832995
77 230 8165575
279 144 8167011
189 122 15154463
199 183 14471023
270 35 11885158
1 127 9041613
268 219 8338569
310 314 8422047
264 183 8593261
52 270 14657252
270 52 18280061
136 278 19384344
228 135 19999018
278 136 18946147
23 42 8508004
39 90 12988774
47 304 8675023
228 271 8518532
208 225 17598660
250 228 15423304
183 274 12999576
230 56 8585256
230 167 8585256
230 48 8585256
230 98 8585256
230 39 19985662
230 262 11185586
230 42 8585256
186 230 8586084
6 238 11020214
6 71 11020214
6 78 11020214
6 27 11020214
6 3 15858229
6 283 11020214
6 240 11020214
6 184 11020214
6 261 11020214
6 38 18569176
6 203 11020214
6 16 11020214
6 110 11020214
6 2 11020214
6 257 11020214
6 134 11020214
6 266 11020214
6 295 11020214
6 17 11020214
6 161 11020214
6 145 11020214
6 267 11020214
6 79 11020214
6 120 11020214
6 310 11020214
236 241 11625866
2 240 8596625
279 47 18261649
47 279 14560578
281 265 13190631
265 281 13191437
18 1 11093455
317 318 8679613
278 305 16620256
278 164 14020050
278 241 12405290
278 316 8680439
278 309 13438806
278 139 8680439
139 278 8684687
199 98 18132046
98 183 17136906
256 1 19909668
48 183 14132232
136 239 17147657
47 234 13796372
25 189 8776742
82 183 12580666
241 236 11626465
145 79 19913137
25 57 19479640
298 195 9190896
298 251 9190896
186 183 9035447
234 8 9029617
183 199 12394133
228 7 14020065
77 90 9282538
274 199 12229547
88 90 9103037
82 90 16822599
308 234 12210854
216 233 18197715
127 174 9121095
127 18 16963207
127 307 9121095
127 298 19922016
127 69 9121095
127 223 19922290
127 292 18287378
145 184 19913137
167 90 9127917
50 314 12557374
280 26 15235717
314 50 9187680
234 308 18346393
145 161 19913137
278 47 17758571
145 267 19913137
83 108 9207136
223 12 9196850
12 223 15673280
280 152 9293832
183 48 9197671
255 194 9199300
241 130 19153590
208 223 9205600
141 298 18180378
23 74 9235644
23 183 9235644
251 298 9269633
183 23 9271590
183 42 9723627
50 120 9282034
242 13 19055505
12 307 15673280
318 222 9290083
53 26 15691945
9 18 19388069
47 86 13072859
97 306 14561189
33 150 9360044
33 169 9360044
33 48 9360044
33 186 9360044
33 98 9360044
33 82 9360044
33 281 10239726
33 199 9360044
33 264 9360044
33 143 9360044
199 33 9543399
199 274 9699208
82 199 9366112
112 132 9394560
60 249 9395930
199 150 19120142
199 169 19120142
199 82 9543399
299 278 11972639
97 262 9625141
1 26 9625849
234 164 9626152
234 202 9626891
234 108 9626891
183 230 17924477
183 82 17228091
75 230 9628254
136 299 9635221
202 47 10572532
57 189 19903795
252 122 18518105
63 222 15949259
144 279 9700933
85 267 9709975
1 18 9717332
53 225 18453472
234 104 9798230
120 134 14549293
98 75 9726926
45 83 19660817
234 182 12402014
83 58 15692194
145 283 9791586
142 121 9794229
45 299 19584740
204 160 19919122
257 6 9801393
257 112 9802634
204 159 19923546
204 318 19919122
281 33 9989950
299 45 19465491
183 281 17228091
295 283 9887413
283 295 9874881
204 60 19919122
204 63 19919122
85 38 14812680
160 204 9882912
130 116 9960676
116 130 9962449
6 219 17737660
158 7 17136823
183 90 14114045
204 103 19919122
204 249 19919122
204 222 19919122
204 317 19919122
2 145 9975164
7 158 19673503
145 2 9980133
12 26 17844403
242 254 10237603
254 242 10244256
252 234 10219691
234 10 12402014
274 232 13181087
250 162 10227144
162 250 10231851
221 10 18804492
10 221 16823757
79 295 10239993
298 127 19922387
298 81 11894265
298 292 11894280
0 129 10244910
81 298 10245166
114 242 19991652
26 237 11879070
0 313 10315117
178 164 10316654
228 304 10323726
220 143 15762030
238 231 19567640
45 228 19660817
189 135 10404443
228 45 19911148
63 204 18356908
262 143 10414962
145 3 15153351
307 12 10489554
24 131 15331041
314 133 17921423
40 51 18793902
283 78 19388321
208 26 17831024
159 204 18976921
133 266 17767311
133 85 17833439
133 231 11205687
228 250 10775297
101 45 10776062
193 57 10832612
48 39 10835333
300 82 10837742
302 216 10846319
149 301 11169822
133 120 10921022
262 150 10921456
120 133 10921479
152 298 10923947
81 223 19495071
143 150 10925675
86 47 13003954
279 164 14804254
262 90 17571705
262 230 11188464
279 290 10936732
47 278 10976511
258 262 14120981
262 258 14121880
279 182 11013594
221 252 18365201
51 40 19996777
135 35 19128417
99 150 11020035
252 221 12411228
45 193 19479256
45 144 19479256
45 58 19479256
45 270 19479256
45 52 19479256
45 207 19479256
45 200 19479256
45 254 19479256
145 50 11321186
113 299 11092884
113 149 11107217
18 127 18777982
18 4 11093455
18 9 11093455
18 12 11093455
18 256 18890726
50 145 19640009
131 24 11097321
130 113 11098029
30 280 16458367
30 81 16458367
30 152 16458367
30 64 16458367
30 151 16458367
30 69 16458367
30 223 18430687
81 30 16539911
112 38 15930589
279 305 13681945
123 165 11112682
123 5 11112709
52 250 11386606
305 279 19999501
109 298 11131896
250 52 11167845
231 133 15928200
173 178 11184497
82 264 11188803
281 186 15156804
281 220 15156804
281 217 11380823
52 83 14657252
52 301 14657252
52 45 14667626
109 285 11391354
134 266 11608747
234 131 12233736
234 24 12993370
308 309 11611610
143 217 11614828
241 278 11615016
131 234 12236545
236 242 14222178
236 25 11711801
16 112 11626391
250 299 18372752
25 236 11641092
59 306 18868445
183 33 17228091
139 277 11701142
307 256 11703140
303 159 17667331
4 28 19487340
16 240 11713570
16 184 11794018
83 200 19989519
182 279 11742508
184 16 11798186
133 161 11881724
133 267 11893009
262 97 19660945
191 1 11805070
184 78 14124293
78 184 19654414
135 241 16983233
228 113 11883411
267 133 11888003
231 112 15928200
249 204 13525080
145 314 12192809
188 250 12208704
188 47 12209605
111 70 12219183
183 74 17924477
58 162 19139679
314 145 12220261
145 6 12222882
233 111 14110374
270 58 12231468
250 173 12303319
307 292 12307277
299 114 16982911
133 3 13179003
241 116 12935432
257 120 12321261
162 58 19394230
252 24 17770674
295 44 12403604
234 210 12402014
113 46 16546216
191 225 16450693
59 90 13588190
255 291 12480640
71 38 12507535
133 112 12507728
133 314 12507728
90 59 19982263
38 71 12556831
50 112 12557374
71 310 19049906
112 133 12570365
112 50 12570365
250 47 12572251
34 26 12597313
101 299 19390268
101 301 12748959
7 304 15924912
132 231 19051264
221 86 17338126
53 12 19903199
63 318 17134933
318 204 16013506
237 26 12902583
283 231 12984258
12 53 14649306
222 204 19566742
318 317 14461815
184 283 14546727
116 241 19383577
231 283 15928200
182 234 12952977
279 49 12992488
279 130 12992488
264 232 13000743
184 27 15673349
241 189 16498199
158 242 13540252
158 250 13009998
242 7 13015767
242 158 13015902
38 3 13088715
283 266 19123196
252 279 15435718
250 234 18955958
232 274 13675539
33 75 19666312
104 228 13206143
158 305 13797455
158 304 13797455
81 12 13428181
53 127 15691544
255 51 13436466
225 152 13452762
225 298 13452762
309 136 17846701
304 299 18782320
310 295 13533585
30 176 16530662
176 28 16022572
176 30 13589805
304 158 13597040
27 284 15327224
231 134 15928200
231 266 15943676
231 284 15928200
231 85 15928200
231 132 18951784
300 274 17319764
174 18 13766610
112 219 17327418
277 25 19550143
37 278 14020024
57 104 14020024
207 239 14020027
158 309 14020037
8 47 14020038
241 108 14020038
182 319 14020039
135 315 14020043
239 65 14020050
319 299 14020052
210 253 14020052
309 189 14020052
263 8 14020053
315 101 14020054
104 139 14020054
36 252 14020054
114 13 14020055
13 242 19055926
116 209 19474257
162 241 14020056
94 290 14020057
290 210 14020057
47 118 14020058
7 173 14020058
202 37 14020058
304 113 14020059
113 263 14020059
24 305 14020060
35 207 14020061
277 154 14020061
154 36 14020061
108 122 14020062
188 182 14020063
211 25 14020063
25 162 19129643
289 158 14020064
308 228 14020064
271 135 14020065
263 279 14027273
136 309 17147657
225 280 14029973
278 239 14030353
86 221 19992672
183 186 14042561
98 220 14044332
88 274 17586950
233 302 14110374
233 273 14110374
233 89 14110374
233 70 14110374
254 58 17328587
141 28 15235940
108 158 14118449
257 284 18547185
250 139 14204398
317 204 14124696
283 284 14124732
283 184 14549429
309 7 18444097
158 108 14127545
78 284 14128147
142 81 19473180
139 25 19382484
266 231 14140660
96 227 14145325
53 141 14226636
97 90 14197683
81 142 19484726
166 112 18456712
112 166 17763888
242 236 14831523
260 144 14223891
299 136 14457892
77 143 16030462
257 240 14465698
44 295 14472149
306 39 15751657
39 306 18431506
274 262 14476895
59 269 19407084
94 114 15666282
97 232 14546700
266 283 14565634
94 7 18214053
7 309 19406987
7 94 17229010
135 278 19861346
135 234 19861521
77 281 15770266
52 144 14657252
52 207 14657252
144 94 14676950
108 113 14714751
108 319 18439441
113 108 14717214
262 93 19389490
58 246 19994150
120 240 14743442
120 267 14743442
12 208 14806394
220 199 14806795
258 232 14815479
304 234 14818791
299 200 18952930
228 253 14825473
253 228 14830246
57 278 15145420
232 258 15145787
278 57 15152327
279 162 18261649
162 279 15166684
50 3 15187932
30 121 16458367
21 184 17783233
114 94 15665176
221 24 15255759
71 78 15256949
78 71 15257033
183 150 15325485
46 113 16546121
193 200 18345012
200 193 18345822
299 135 19910940
293 26 19602883
250 241 15423304
250 13 15423304
7 13 15426273
7 252 15426273
7 135 19757482
26 293 19601509
183 97 15666346
183 39 15666346
183 306 15666346
183 220 17655201
174 28 15671593
12 141 15673280
220 230 19990144
90 232 15675795
134 231 15683304
266 132 15840027
78 218 15682371
231 238 19570865
306 183 15751657
306 82 15751657
306 220 15751657
306 262 15751657
220 97 15762030
220 183 17594658
220 39 19990144
220 82 17067839
220 281 15762030
220 306 15762030
240 284 15763377
264 281 15935665
53 1 16974659
27 2 15844291
1 53 16975115
116 45 17742483
77 48 15859753
77 220 15859753
264 230 15863606
281 264 16621461
7 118 19917264
7 164 15924912
85 3 15926434
231 71 15928200
231 27 15928200
231 3 15928200
231 50 15928200
231 314 15928200
231 240 15928200
231 184 15928200
231 38 15928200
231 311 15928200
231 16 15928200
231 2 15928200
231 257 15928200
231 295 15928200
231 218 15928200
231 161 15928200
231 145 15928200
231 267 15928200
231 79 15928200
231 120 15928200
231 310 15928200
57 25 19903795
47 116 17134229
134 184 18262494
232 230 19378013
189 278 16020068
180 28 19854403
112 283 16290016
263 277 16443251
189 241 16481169
117 279 16531304
90 269 19982263
186 48 16549224
252 57 16618746
57 252 16619220
278 158 16620256
278 211 16625665
220 90 16966397
191 208 16981770
70 235 17054531
217 230 17057841
151 30 17061512
82 220 17061915
241 135 17072182
280 292 17102870
13 47 17139395
241 299 17138016
286 179 17146140
136 162 17147657
136 173 17147657
136 47 17147657
136 8 17147657
136 228 17147657
136 242 17147657
136 46 17147657
136 263 17147657
136 241 17147657
136 316 17147657
136 211 17147657
136 116 17147657
136 139 17147657
136 253 17147657
136 250 17147657
136 279 17147657
136 13 19384344
136 315 17147657
136 308 17147657
98 230 17153011
12 1 17157670
298 4 17164912
152 142 17233602
251 285 17237732
178 116 17311130
279 309 18361620
143 32 17335573
242 130 17566525
149 228 17583982
200 299 17584530
127 28 18773532
219 6 17595985
274 88 17600888
228 301 19390444
199 48 17605875
293 292 18269225
104 188 17658274
189 228 17660635
228 108 17668285
103 204 17699031
258 88 17741586
45 116 17747963
33 93 19984151
143 230 17857475
151 28 18866775
118 104 17915149
191 4 17923300
39 274 17928139
82 33 19330444
75 93 18175137
135 118 18176917
135 228 19935993
135 242 19861346
135 279 18177334
135 104 18176917
135 304 18176917
135 7 19675751
242 135 19935506
104 135 18182079
184 134 18275240
45 108 19660817
108 45 19860307
263 234 18289573
152 26 19477169
304 135 18280456
234 263 18778566
79 266 19043692
83 114 18345522
234 35 18346393
234 211 18346764
35 234 18360644
252 94 18810425
252 228 18431154
228 252 19389558
58 209 18452212
225 53 18453386
223 81 19919245
223 30 18462419
253 136 18972898
278 135 18524473
277 57 18530931
114 83 18534517
225 285 18785608
113 319 18796088
319 46 18796889
144 193 18863517
144 58 18863517
144 270 18863517
144 83 18863517
144 52 18863517
144 207 18863517
144 301 18863517
144 45 18863517
144 200 18863517
144 254 18863517
258 281 18864632
116 162 18865615
116 242 19383577
116 108 18865615
242 116 18868225
281 258 18870575
208 180 19040218
202 57 18951164
48 281 18951740
45 252 18964850
217 59 19051679
252 45 18970941
217 90 19034640
277 189 19037818
82 39 19040498
211 279 19044740
262 59 19050685
93 75 19056604
300 59 19056709
2 161 19122085
307 285 19125199
98 15 19139789
134 238 19143438
283 62 19144299
241 114 19145742
178 279 19149969
241 139 19153590
238 134 19166779
135 252 19935993
119 38 19320719
119 314 19321419
38 119 19324509
252 135 19868571
57 49 19903795
57 277 19903795
57 139 19903795
53 18 19394224
24 234 19384816
13 136 19385299
57 241 19385345
45 101 19385713
78 133 19654414
78 27 19654414
78 266 19654414
78 145 19654414
78 267 19654414
33 74 19386226
314 119 19386513
204 303 19919122
93 262 19389329
101 228 19390268
173 270 19400307
209 116 19411944
135 250 19471043
25 263 19903654
25 188 19479640
25 210 19479640
250 135 19926237
228 234 19488213
241 263 19559020
135 116 19577500
78 21 19565361
270 173 19573943
116 135 19917803
202 135 19643582
122 37 19583474
75 33 19644492
219 314 19926520
255 40 19646390
117 299 19659203
288 216 19660296
45 47 19907747
45 202 19660817
45 304 19660817
308 279 19660958
299 117 19663688
108 47 19857563
47 45 19862804
94 108 19897412
108 94 19903758
263 25 19913605
7 305 19917264
252 108 19936167
135 10 19935993
298 22 19985478
