262 74 10487266
90 281 11165671
160 249 10388576
120 78 24710
306 230 11191662
273 276 7891879
273 233 7891879
160 63 10388576
184 267 9364784
249 160 5565295
90 99 11165671
151 280 10597650
310 184 6513772
176 225 30899
83 228 9117691
69 223 9644870
28 285 7987482
38 231 32901
279 7 11023746
26 225 10854028
160 103 10388576
160 60 10388576
160 317 9796878
160 159 10388431
18 28 11183159
230 74 8585256
230 150 8585256
230 169 8585256
230 274 11097658
230 88 8585256
230 183 9811073
230 33 11016991
230 82 11185506
230 281 8585256
230 23 8585256
230 264 8585256
230 143 8585256
230 32 8585256
230 90 10409547
230 15 8585256
97 230 3318064
184 295 2103823
33 230 11203359
90 150 11165671
7 144 10928434
279 118 11110124
253 271 38609
299 118 9024404
299 228 9356648
299 83 9024404
299 252 9024404
299 301 9024404
299 108 10839490
299 101 9024404
299 279 11129286
299 304 9024404
279 117 3060239
132 284 11100422
230 97 11185157
230 59 11009379
230 306 11185157
90 77 11165671
90 167 10229052
90 74 11165671
90 258 11175374
90 230 11165671
90 93 11165671
90 274 11170174
90 97 11175430
90 88 11165671
90 48 11165671
90 186 11165671
90 75 11165671
90 183 11165671
90 98 11165671
90 33 11165671
90 39 11165671
90 82 11165671
90 262 11165671
90 23 11165671
90 199 11165671
90 264 11165671
90 43 8596681
90 143 11165671
90 306 11165671
90 300 11167008
90 220 11165671
90 15 11165671
83 52 43089
83 158 2998651
283 79 8497301
88 258 43455
79 283 10239993
306 97 11191020
306 59 11191077
306 90 11191020
80 291 9096980
269 230 11015867
269 93 11015867
269 274 11015867
269 75 11015867
269 33 11015867
269 300 11015867
26 127 11182557
26 174 11182557
26 280 11182557
26 81 11182557
26 4 11182557
26 152 11182557
26 208 11182557
26 9 11182557
26 18 11182557
26 121 11182557
26 64 11182557
26 30 11182557
26 191 11182557
26 53 11182557
26 307 11182557
26 298 11182557
26 12 11182557
26 285 11182557
26 180 11182557
26 69 11182557
26 223 11182557
26 256 11182557
88 82 48963
21 145 11397516
28 4 4523620
108 252 4263470
112 161 11037227
132 240 10570212
132 6 10570212
132 184 10570212
132 238 10570212
132 71 10570212
132 261 10570212
132 112 10570212
132 38 10570212
132 203 10570212
132 311 5131998
132 16 10570212
132 110 10570212
132 2 11106553
132 257 10570212
132 133 10570372
132 134 11173860
132 78 10570212
132 266 10570372
132 27 10570212
132 3 10570212
132 50 10570212
132 295 10570212
132 85 10570372
132 218 10570212
132 314 10575485
132 17 10570212
132 161 10921680
132 145 10570212
132 267 11191746
132 79 10570212
132 120 10570212
132 310 10570212
132 283 10570212
158 162 5139429
158 83 10311150
158 25 5139429
158 202 11089204
158 101 5139429
158 45 5139429
158 315 5139429
184 240 2466430
184 161 7985521
184 79 216710
78 238 1549548
161 112 11014085
161 184 10850701
7 279 11125083
225 26 7395224
242 173 11002659
161 78 9964630
280 151 8173747
0 106 10352626
78 161 9980232
18 208 11093455
18 307 11093455
94 252 1152533
277 135 4534647
118 279 8427561
223 225 10920278
116 173 11185644
116 253 11185644
50 267 10846207
186 90 9033982
79 267 10565550
0 259 11201900
295 310 10294956
230 258 8585256
57 130 9205151
306 274 124034
13 279 11023415
82 232 129953
253 242 3241533
305 299 4873261
78 132 130597
307 28 10243309
199 90 9974030
3 240 7812606
3 6 7812606
3 184 7812606
3 71 7812606
3 112 7912034
3 38 7812606
3 16 8065408
3 257 4017097
3 134 7812606
3 78 7812606
3 27 4967947
3 50 4967947
3 284 10833767
3 295 7812606
3 85 7812606
3 314 7812606
3 161 8410598
3 145 7812606
3 267 7812606
3 79 7812606
3 120 7812606
3 310 7812606
3 283 7812606
3 132 9275601
299 305 5125735
178 304 9291961
71 283 5241014
283 71 5475604
304 178 11096181
40 80 11022804
307 180 9296615
300 74 11001886
242 253 3248834
2 284 11109873
2 132 11177576
180 152 11089966
242 250 9283068
83 299 9621401
310 3 144014
252 86 10938181
93 274 10930943
93 33 10930954
284 3 168974
267 184 2422031
199 186 11114040
75 232 200085
200 52 9962964
150 230 3157650
75 274 7461278
58 193 3059903
58 270 3059903
58 83 9732945
58 301 7543725
58 45 3059903
58 200 3158076
58 254 3059903
58 52 203090
9 225 11028692
278 116 11091252
278 253 10922191
278 13 10922191
79 184 1344093
234 117 9722851
116 278 11087266
93 230 10834653
93 82 8590399
251 12 207507
228 279 6787613
144 7 9700386
72 276 208815
38 50 10313824
38 295 10313824
38 161 10313824
38 267 11386114
12 251 210621
279 228 11110124
26 92 8453301
180 307 9289752
228 47 10949575
11 175 9013617
79 50 10239993
47 228 10349847
208 28 9740216
50 79 9037931
194 80 11004271
194 291 11260435
131 113 9191732
161 240 6797569
161 295 10850701
161 145 11009007
161 267 11382034
161 310 10049236
116 228 9632526
33 274 11203359
159 317 235842
267 50 11369098
267 79 3324119
310 161 3407078
278 122 298386
310 145 295954
310 267 286831
103 160 8429849
28 251 7987482
316 122 290994
52 104 11386147
53 280 10768692
228 116 292428
89 276 7380016
80 194 9808339
236 7 643907
236 162 643907
236 173 643907
236 228 1514671
236 263 643907
236 122 643907
236 94 643907
236 116 643907
236 309 643907
236 253 5485205
236 13 643907
236 315 643907
253 236 5487063
116 236 653361
158 299 9183162
258 90 8578380
316 309 299169
299 158 300143
38 284 7918684
240 161 300999
295 38 2623480
295 50 2623480
295 161 10294956
295 267 2623480
78 283 10576949
295 184 10294956
316 116 3931169
309 236 303258
280 174 5650235
280 53 10051853
51 190 308397
51 80 3922415
278 200 8680439
13 236 654969
108 299 10852442
274 33 11189254
202 128 11176740
161 38 10049620
161 284 11011593
284 161 1852314
284 38 316411
16 284 11375861
7 263 11022166
284 132 1869161
284 16 335321
94 236 646480
223 28 10848660
200 254 9962964
38 310 7918684
310 38 376745
24 252 10494739
202 158 10829559
291 51 9716000
291 40 10924001
291 194 9976144
103 159 5218623
278 173 11113035
278 242 8680439
12 28 10335314
252 154 5653761
279 278 11013594
252 189 10929145
283 50 9279085
50 283 9279687
161 120 10826634
278 279 11024917
161 50 9286441
263 7 11176939
78 50 1403016
299 170 389903
251 28 9873227
234 279 9029461
180 292 390998
120 161 10827260
279 242 11110142
202 209 10853438
279 234 9029378
242 279 9217995
230 75 11183829
230 269 10306342
86 24 10837585
194 247 2372245
194 40 11004271
266 145 741940
209 299 6989852
161 132 10920193
284 2 1869161
86 252 10936621
53 307 552856
278 236 11095945
80 40 10840987
173 236 646939
150 232 639115
307 53 634267
173 242 11016333
228 299 9326808
200 58 4872032
200 270 4872032
200 83 4872032
200 45 4872032
200 250 7558942
318 249 638827
104 7 639030
299 209 6938932
279 122 4609205
279 104 11110124
199 220 10227382
262 300 10848593
104 279 1434750
7 104 643959
143 232 5063260
38 79 10313824
108 241 9907272
108 209 10312566
108 315 9907272
108 104 9907272
176 223 11194699
28 9 5058052
28 18 7994961
28 151 7219634
28 307 4523620
94 278 9969491
300 262 10831762
103 60 3244153
79 38 10239993
28 12 4523620
116 270 11114177
116 35 11114177
116 13 9632526
116 57 11114177
258 82 655857
225 176 664334
52 254 11386606
161 79 11009007
79 161 10565550
291 255 721430
288 111 9023040
228 241 4014463
238 79 1258186
241 228 4019232
40 291 10821123
79 238 1254895
103 249 8429740
103 63 723903
279 13 11023257
279 211 11013594
180 18 10845395
159 249 9985470
159 160 9972544
52 158 11386606
151 54 8425531
0 76 4453887
158 52 2466210
0 227 5158718
30 54 737681
53 174 9894197
80 51 10591004
291 80 8683680
199 143 8698840
306 75 804070
288 233 10933239
152 280 9196914
9 28 8764592
279 308 901406
18 180 10844686
134 284 11178021
134 85 7473579
134 132 11178021
145 21 11323364
194 190 11004271
253 47 9299541
279 10 826318
130 25 10408276
190 194 11007246
279 173 827946
173 279 829062
38 78 10313824
38 283 10313824
117 45 10940745
25 130 11109168
157 185 4797274
50 38 9791333
99 90 10067755
267 161 11375207
79 145 10239993
78 3 890329
85 134 3690612
85 132 890376
180 298 8672768
283 115 895004
267 145 8497939
223 69 5676146
253 173 5663621
253 116 9299541
104 52 10829472
120 310 898843
120 284 9119985
78 79 7809639
78 231 9100864
25 277 5592948
112 184 905817
53 298 9204002
160 318 10388576
66 300 908679
30 28 9292447
6 218 11020214
231 78 9718041
307 127 10830741
128 202 11176942
307 18 11183591
16 132 11200145
151 152 10587829
281 82 9819558
184 284 10424401
152 151 6681738
152 28 6681437
241 315 8176835
9 127 1321363
186 143 11015432
28 195 7987482
28 141 9798359
28 127 4523620
28 280 8764975
28 208 7994961
28 26 11172630
28 223 9619114
6 133 11020214
283 6 9659014
28 81 9279844
28 152 1168598
28 176 1168598
28 64 8764975
28 30 8764975
28 69 8764975
158 57 1169378
184 132 6624590
279 189 11110124
13 211 8587192
35 116 1336982
314 112 6865529
50 115 1187392
16 238 10936283
16 2 10936283
50 161 9284796
294 274 1236306
83 209 1237762
69 121 1239404
241 252 1241120
6 314 11020214
57 173 1241323
57 270 8159464
57 116 9293557
57 253 1241323
57 35 7375006
40 194 11179297
158 189 1243004
279 252 11110124
63 160 7462735
30 26 11099685
314 134 1249596
60 160 1250126
112 314 10320489
310 120 1252665
81 226 9632507
264 75 8500280
82 230 8590294
4 12 6948152
249 318 1260025
12 4 7986532
82 281 9718117
274 294 1320962
233 288 10928667
173 116 10928429
173 253 10928429
253 35 1325415
238 284 11009184
238 132 10412464
277 188 1333058
50 78 8941982
7 228 9044619
7 25 10579573
253 278 5474526
190 291 6874979
63 60 8066522
159 318 2033256
9 26 5481165
209 202 8695988
225 127 4810681
225 208 1351620
225 9 1351620
225 18 6716811
225 191 1351620
225 307 7747796
225 163 1351620
225 256 1351620
208 18 6768103
161 283 9195397
78 38 9980232
35 57 10839307
234 25 8153811
279 25 10934098
83 301 10570983
269 97 1426137
252 10 11026455
252 20 8794055
274 75 9616669
38 134 8071015
38 120 7918684
133 132 10745924
112 284 9115923
112 120 1436461
10 252 10499818
252 144 1445662
279 250 11110124
183 300 11195538
300 183 11197526
4 26 2975219
236 279 2366705
279 236 2370781
256 191 2654746
223 26 9975591
238 78 1521408
298 26 3937147
300 33 11192792
1 196 1523985
33 300 11203359
13 278 11188314
307 208 10325605
307 69 1767995
228 101 5420907
228 236 1706487
228 278 8434340
250 158 10391800
278 228 11095087
208 307 3932618
164 104 1758236
189 279 10336242
238 266 1762765
93 183 1763173
69 307 4624330
28 53 9986248
133 50 3758798
104 13 1765787
252 215 9012609
263 172 1768205
263 260 1768281
134 38 6681788
307 26 9389618
13 116 8438086
26 1 9626011
26 196 9102959
281 90 7638319
234 299 9980466
298 109 11171093
258 66 1776935
263 236 1777499
314 132 10510189
263 304 1847345
304 263 1849798
134 133 11197178
59 217 9699028
2 16 9893272
0 214 8439572
314 284 9803970
143 186 10925718
143 220 11207009
269 59 1847890
93 59 1849453
33 232 11203359
189 25 1854011
284 6 1854170
307 223 9197760
284 314 1854616
6 284 11105567
223 127 11176447
223 307 9194932
98 186 8782361
267 283 6952299
120 184 8076829
283 267 1858619
225 223 10858104
189 252 10402351
93 300 10939384
307 225 7749820
57 242 1925253
254 52 4888504
291 190 9716000
300 93 11001811
13 253 9300304
152 180 10923947
150 90 7977867
80 255 10591004
80 190 8601094
252 319 5477169
135 277 4537897
184 3 5146030
314 283 2103486
189 57 2021896
48 74 2024795
194 255 8583700
194 51 2372245
202 108 3754334
33 183 9720412
173 278 2100672
255 80 2031262
26 151 6997181
1 225 2040513
60 63 8066413
158 234 8754810
225 1 2071600
283 133 2092305
283 3 2094140
283 314 2145559
234 158 9798230
120 38 5560018
81 28 11035912
279 299 11110124
279 241 10934098
279 135 11110124
279 209 10934098
279 158 11110124
279 202 10934098
279 116 3060239
279 108 3060239
279 315 10934098
279 304 11110124
315 279 2123400
241 279 10935349
108 279 4263470
209 279 10947619
85 133 4456634
85 6 10853168
283 38 9972015
6 85 11020214
25 234 8005620
314 219 11103189
262 183 10589245
305 234 9799187
264 90 8434500
263 228 3053584
236 278 11014696
241 272 2373659
25 242 10832092
220 186 2377726
220 98 4007018
108 202 2377883
3 238 7812606
3 311 4017097
3 110 7812606
3 2 4967947
3 133 7812606
3 266 7812606
81 54 2393832
174 53 9976386
234 173 2448927
234 47 9980812
234 228 9798230
234 242 9798230
234 278 9798007
234 116 4628342
234 253 2448927
234 250 9798230
234 13 2448927
234 305 9798230
13 234 11188314
173 234 2449069
253 234 2449614
190 40 9279209
40 190 9610670
274 82 9882282
279 101 3060239
240 3 3750586
278 234 4456683
184 145 2459079
186 199 6706614
267 78 2517775
50 16 8941982
50 295 8941982
97 59 2550643
230 220 10566020
113 131 2551615
240 184 2551648
57 135 9635540
97 217 2552480
26 28 9897738
128 305 6703530
267 38 11370558
267 295 2554823
150 74 7975059
305 128 2556735
254 200 3229865
298 69 6601911
307 191 2559437
191 256 5070700
50 6 8923140
161 134 6797569
120 112 5559827
250 200 10392340
134 161 2625362
116 47 9632526
242 278 2631459
105 305 10922236
151 26 6881553
6 50 11020214
300 232 9789210
242 25 2709259
13 189 2709940
91 123 2714012
91 185 2710802
278 189 2712482
223 176 11177400
280 28 10925571
91 14 2717019
281 183 9992607
314 6 7829924
223 18 11177349
189 13 2737978
133 6 10930792
79 78 10239993
16 161 2964637
318 159 2968048
25 241 8786942
150 281 5040094
158 122 2972195
178 47 6605964
274 74 2973627
274 230 10484924
274 93 9117730
274 97 2973627
274 39 8165038
274 59 2973627
274 32 2973627
274 306 10332488
274 90 4260824
274 269 2973627
47 178 5568395
48 90 9974510
86 10 10838474
230 93 11186163
281 150 3919395
3 218 4017097
50 184 2987024
202 299 11110327
79 3 10565550
234 162 3162500
234 118 7302377
234 252 10223554
234 189 9798230
176 26 4029979
189 234 10336243
26 176 3062363
223 208 9205957
299 234 9983066
138 11 8510647
138 175 8510674
106 214 3083140
11 138 8508994
161 16 6797569
47 13 3150500
178 104 3151500
28 1 4523620
150 77 3157650
150 167 3157650
150 258 3157650
150 93 3157650
150 274 3157650
150 97 3157650
150 99 3157650
150 88 3157650
150 48 3157650
150 186 3157650
150 75 3157650
150 183 9010644
150 98 3157650
150 33 3157650
150 39 3157650
150 82 3157650
150 262 3157650
150 23 3157650
150 199 3157650
150 264 3157650
150 43 3157650
150 143 3739302
150 306 3157650
150 300 3157650
150 220 3157650
150 15 3739302
108 234 3159046
253 13 9299541
234 277 4361801
234 315 3162500
193 52 7305904
202 116 11189751
116 202 11114177
108 301 4263470
283 161 3829604
162 234 3233984
262 281 3231839
262 197 3231970
94 234 3241389
197 262 3234554
250 242 10336198
7 114 9823355
281 262 3240267
234 94 3240387
176 127 5129113
223 280 3257520
223 53 3745486
59 97 4018424
134 16 3942299
143 90 8616625
241 162 4285276
216 276 7986543
216 70 3338878
250 279 3771239
268 314 6451802
314 268 3508995
16 134 7480768
16 85 11200785
286 126 3801438
286 14 3526445
85 16 3690612
85 284 9983726
104 304 3661234
93 90 4277986
155 157 3665526
112 3 7979273
118 299 3667993
279 139 10934098
249 159 9983110
133 284 10745924
13 228 11188314
186 98 3739885
174 298 6700035
180 225 3755079
139 279 11004943
242 234 3857482
242 305 3762697
242 193 3762697
250 7 9616523
161 6 8633022
161 238 6797569
161 71 6797569
161 261 6797569
161 203 6797569
161 311 6797569
161 110 6797569
161 2 6797569
161 257 7380858
161 133 6797569
161 266 6797569
161 27 6797569
161 3 8438657
161 85 6797569
161 218 6797569
161 314 6797569
161 17 6797569
117 301 3777643
225 180 3785354
313 214 8116266
299 202 11108480
151 81 3833065
162 7 3834093
159 103 7152102
238 6 3848298
238 218 3848298
10 86 7996129
38 184 10490934
238 112 3930140
238 314 3850799
112 238 3933629
7 250 9617564
53 28 9623313
122 277 3919218
51 291 8507345
314 3 9022219
69 26 3924540
241 47 3925255
208 9 3932537
208 1 3932537
208 256 3932537
9 208 11178061
47 202 9648598
208 127 3936771
1 208 3947190
1 28 9803881
242 315 3941228
242 308 3941228
242 104 3941228
242 304 3941228
242 57 3941228
28 256 9790701
256 28 9726732
13 239 8517897
208 4 10230971
4 208 10231374
28 298 9629297
298 28 9633155
228 162 4014463
228 315 4014463
7 242 4016669
7 299 4016669
7 241 4016669
7 301 4016669
7 101 4016669
7 189 4016669
7 139 4016840
7 278 4016841
3 261 4017097
3 168 4017097
6 112 11042472
6 132 11020214
108 118 4263470
108 228 4263470
108 83 9216284
108 101 4263470
108 304 4263470
50 133 4264412
314 238 4266440
234 7 4267718
164 304 6680084
118 164 4360668
249 317 4277003
174 195 8511496
270 116 8520949
256 208 4275827
317 159 4281666
2 238 10568534
262 232 8496453
238 16 10412464
238 2 10567556
234 122 7825857
16 3 7392235
13 299 4367308
3 219 4967947
1 256 8766745
57 58 10322538
220 48 4626019
58 57 4540219
28 121 8764975
162 228 4438393
213 80 4439362
28 174 4440001
184 310 5146338
183 143 9966941
71 120 4457305
120 71 4515318
120 132 5041211
143 183 9881632
75 90 4528150
135 25 4537897
242 299 4533116
242 114 10413164
135 189 4537897
116 234 4628562
12 285 4548185
91 95 6616148
38 240 7918684
38 311 4605797
38 257 7918684
38 132 7918684
69 28 11112270
305 105 9620484
28 180 4624228
28 191 4624228
278 299 8756491
284 238 4699072
262 274 4873504
12 18 9287326
160 222 10388576
264 74 8001453
241 25 4890578
231 6 10229452
283 132 8070901
315 228 4955436
64 28 9361093
304 164 10938913
85 218 4963981
98 90 10253732
7 122 8695183
112 6 11106049
52 58 11386606
278 94 10047824
63 159 8165353
233 216 5124101
231 219 5127131
257 311 5129086
314 71 5142767
71 314 5142672
184 120 5222960
228 83 5426117
27 267 5216239
309 279 5216298
298 174 7908363
81 26 9713360
239 279 6683556
233 72 5227561
120 283 5238243
25 135 10851058
25 7 9106971
228 104 5418012
228 290 5420450
178 272 5471889
117 234 9635223
228 13 8507422
278 178 5473760
283 120 5475204
72 233 5482682
256 307 7753215
24 10 5483926
153 309 5485671
65 234 5488159
230 300 8585256
70 288 11004272
295 85 5562062
161 44 5563197
183 262 5580124
83 171 5580725
114 7 9803328
114 299 5588560
159 63 7238752
156 165 5652884
156 5 5652900
33 32 5663860
135 130 5667025
265 227 5759181
127 256 10513068
256 127 10511993
91 68 6592586
79 132 9298748
52 200 11386606
228 242 6600234
69 298 10404109
45 117 11001779
278 7 6602848
52 193 11386606
279 239 7294429
31 242 6617647
31 122 6617647
31 279 9618241
152 30 6681248
158 279 7397178
69 285 10404190
241 58 9813259
242 113 6703261
58 241 9816538
186 74 9286250
120 257 6712392
120 50 6712392
18 225 6773132
113 242 6774897
71 161 6781784
1 4 6783646
279 253 6857561
4 1 6783790
253 279 6857731
35 135 10937201
135 299 6858390
98 264 9726926
298 53 9190896
1 191 6870903
35 130 6875196
299 242 6893732
82 274 9879042
81 69 6953139
199 264 9543399
190 80 9272143
274 300 10485124
279 263 8589905
263 272 7217927
278 263 7224157
135 158 7291753
233 276 7393774
127 26 8432143
263 278 7294719
113 305 7294882
305 113 7296780
234 241 9014120
234 304 9798230
241 234 9022421
256 121 7307638
270 57 8506122
25 139 10832092
257 267 7379374
208 285 7804475
35 25 11190881
267 257 7397934
24 108 7456619
242 241 11010324
47 173 7418928
33 90 10836406
234 135 9798230
133 16 7460502
133 134 11206466
314 38 7461893
57 234 7462834
241 242 9014462
242 139 7465946
69 226 7466091
252 299 7466747
24 86 7468688
295 284 7473020
295 120 7473020
191 127 7478290
117 241 7479967
16 133 7480768
241 117 7484820
25 35 10832092
234 57 7551629
53 251 8097046
180 191 7561955
280 225 11175003
158 228 7572257
25 122 8786942
25 279 8786942
256 18 7752977
111 288 7797516
303 249 7809074
274 183 9975967
262 306 7814102
222 160 7824897
173 47 7891171
273 288 7891747
273 111 7891747
273 70 10216343
273 72 7891879
273 216 7891879
273 302 7891879
273 89 7891879
48 220 10835333
222 63 9887020
230 232 11179664
197 258 8496956
38 6 9972725
38 238 7918684
38 112 11180009
38 16 7918684
38 110 7918684
38 133 7918684
38 85 9967438
38 314 7918684
38 145 7918684
20 252 10570454
300 90 11108644
298 141 9190896
18 26 10942084
70 111 7982393
28 225 7987482
104 164 7996380
252 182 7998503
141 12 7999426
45 301 11085635
35 270 8162430
143 39 8166721
251 53 8088025
7 234 8789089
242 228 8150521
279 178 8161059
230 186 8586575
230 77 8585256
83 45 9905835
130 35 10224039
77 230 8165575
279 144 8167011
189 122 8167802
199 183 9977107
270 35 8506122
1 127 9041613
268 219 8338569
310 314 8422047
264 183 8593261
52 270 11386606
270 52 8496381
136 278 11094820
228 135 8507422
278 136 11104740
23 42 8508004
39 90 8510003
47 304 8675023
228 271 8518532
208 225 8523519
250 228 10562663
183 274 11091032
230 56 8585256
230 167 8585256
230 48 8585256
230 98 8585256
230 39 8585256
230 262 11185586
230 42 8585256
186 230 8586084
6 238 11020214
6 71 11020214
6 78 11020214
6 27 11020214
6 3 11020214
6 283 11020214
6 240 11020214
6 184 11020214
6 261 11020214
6 38 11020214
6 203 11020214
6 16 11020214
6 110 11020214
6 2 11020214
6 257 11020214
6 134 11020214
6 266 11020214
6 295 11020214
6 17 11020214
6 161 11020214
6 145 11020214
6 267 11020214
6 79 11020214
6 120 11020214
6 310 11020214
236 241 8590338
2 240 8596625
279 47 11102362
47 279 8618705
281 265 9033096
265 281 9023461
18 1 11093455
317 318 8679613
278 305 8680439
278 164 8680439
278 241 8680439
278 316 8680439
278 309 8680439
278 139 8680439
139 278 8684687
199 98 8698840
98 183 8764358
256 1 8770030
48 183 9974510
136 239 8771986
47 234 9981664
25 189 8776742
82 183 8776840
241 236 9015833
145 79 9016640
25 57 10832092
298 195 9190896
298 251 9190896
186 183 9035447
234 8 9029617
183 199 9290412
228 7 10421693
77 90 9282538
274 199 9640836
88 90 9103037
82 90 9112099
308 234 9188267
216 233 9272768
127 174 9121095
127 18 9121095
127 307 9121095
127 298 10842516
127 69 9121095
127 223 9122900
127 292 9121098
145 184 11196961
167 90 9127917
50 314 9189701
280 26 11174874
314 50 9187680
234 308 9188142
145 161 10827168
278 47 11007188
145 267 11099319
83 108 9207136
223 12 9196850
12 223 9196362
280 152 9293832
183 48 9197671
255 194 9199300
241 130 9204408
208 223 9205600
141 298 9221485
23 74 9235644
23 183 9235644
251 298 9269633
183 23 9271590
183 42 9723627
50 120 9282034
242 13 9283911
12 307 10587516
318 222 9290083
53 26 9807376
9 18 11096230
47 86 11005467
97 306 9353027
33 150 9360044
33 169 9360044
33 48 9360044
33 186 9360044
33 98 9360044
33 82 9360044
33 281 10239726
33 199 9360044
33 264 9360044
33 143 9360044
199 33 9543399
199 274 9699208
82 199 9366112
112 132 9394560
60 249 9395930
199 150 9543399
199 169 9543399
199 82 9543399
299 278 9618771
97 262 9625141
1 26 9625849
234 164 9626152
234 202 9626891
234 108 9626891
183 230 9627531
183 82 9708885
75 230 9628254
136 299 9635221
202 47 10572532
57 189 9641918
252 122 9643802
63 222 9644762
144 279 9700933
85 267 9709975
1 18 9717332
53 225 9723157
234 104 9798230
120 134 9726232
98 75 9726926
45 83 11085635
234 182 9729349
83 58 9729603
145 283 9791586
142 121 9794229
45 299 9807161
204 160 10317083
257 6 9801393
257 112 9802634
204 159 11182117
204 318 11171932
281 33 9989950
299 45 9808776
183 281 9808974
295 283 9887413
283 295 9874881
204 60 11171932
204 63 11171932
85 38 9966902
160 204 9882912
130 116 9960676
116 130 9962449
6 219 9965476
158 7 9967835
183 90 9967988
204 103 11171932
204 249 11177840
204 222 11172848
204 317 11171932
2 145 9975164
7 158 9975410
145 2 9980133
12 26 9984597
242 254 10237603
254 242 10244256
252 234 10219691
234 10 10223554
274 232 10484626
250 162 10227144
162 250 10231851
221 10 10232473
10 221 10236323
79 295 10239993
298 127 10839266
298 81 10241430
298 292 10241446
0 129 10244910
81 298 10245166
114 242 10578484
26 237 10262958
0 313 10315117
178 164 10316654
228 304 10323726
220 143 11194976
238 231 10326442
45 228 10398891
189 135 10404443
228 45 10404928
63 204 10411711
262 143 10414962
145 3 10420830
307 12 10489554
24 131 11184063
314 133 10500258
40 51 10995575
283 78 10575086
208 26 11008081
159 204 11191138
133 266 10745924
133 85 10745924
133 231 11205687
228 250 10775297
101 45 10776062
193 57 10832612
48 39 10835333
300 82 10837742
302 216 10846319
149 301 11169822
133 120 10921022
262 150 10921456
120 133 10921479
152 298 10923947
81 223 10924725
143 150 10925675
86 47 10927408
279 164 10933553
262 90 10936265
262 230 11188464
279 290 10936732
47 278 10976511
258 262 11010896
262 258 11011758
279 182 11013594
221 252 11015043
51 40 11021420
135 35 11019883
99 150 11020035
252 221 11026192
45 193 11085635
45 144 11085635
45 58 11085635
45 270 11085635
45 52 11085635
45 207 11085635
45 200 11085635
45 254 11085635
145 50 11321186
113 299 11092884
113 149 11107217
18 127 11178309
18 4 11093455
18 9 11093455
18 12 11093455
18 256 11093455
50 145 11094551
131 24 11097321
130 113 11098029
30 280 11099685
30 81 11099685
30 152 11099685
30 64 11099685
30 151 11099685
30 69 11099685
30 223 11099685
81 30 11101179
112 38 11182261
279 305 11110124
123 165 11112682
123 5 11112709
52 250 11386606
305 279 11117366
109 298 11131896
250 52 11167845
231 133 11209800
173 178 11184497
82 264 11188803
281 186 11380823
281 220 11380823
281 217 11380823
52 83 11386606
52 301 11386606
52 45 11386606
109 285 11391354
