262 74 27444017
90 281 27348460
160 249 26916310
120 78 24710
306 230 26808984
273 276 22151366
273 233 22151366
160 63 26916310
184 267 27446528
249 160 5565295
90 99 27348460
151 280 27445587
310 184 26158709
176 225 30899
83 228 26899078
69 223 26662532
28 285 24228118
38 231 32901
279 7 27449541
26 225 26313251
160 103 26916310
160 60 26916310
160 317 26916310
160 159 26916310
18 28 22408447
230 74 8585256
230 150 20079646
230 169 8585256
230 274 26299963
230 88 13604388
230 183 27367648
230 33 25688808
230 82 26374970
230 281 20156107
230 23 8585256
230 264 8585256
230 143 22690068
230 32 8585256
230 90 26129221
230 15 8585256
97 230 26292658
184 295 26726582
33 230 25289973
90 150 27348460
7 144 26821262
279 118 27267144
253 271 38609
299 118 21803578
299 228 21803578
299 83 27253835
299 252 27347989
299 301 23961790
299 108 26570044
299 101 21803578
299 279 27345323
299 304 21803578
279 117 20506341
132 284 27353855
230 97 26200868
230 59 26200868
230 306 26200868
90 77 27348460
90 167 18769788
90 74 27348460
90 258 27348460
90 230 27348460
90 93 27348460
90 274 27348460
90 97 27348460
90 88 13412147
90 48 27348460
90 186 27348460
90 75 27348460
90 183 27348460
90 98 27348460
90 33 27348460
90 39 27348460
90 82 27348460
90 262 27348460
90 23 27348460
90 199 27348460
90 264 27348460
90 43 8596681
90 143 27348460
90 306 27348460
90 300 27348460
90 220 27348460
90 15 27348460
83 52 43089
83 158 17134511
283 79 23610490
88 258 43455
79 283 23784049
306 97 26908311
306 59 26719246
306 90 26808984
80 291 25427542
269 230 27420640
269 93 27420640
269 274 27420640
269 75 27420640
269 33 27420640
269 300 27420640
26 127 25958087
26 174 25958087
26 280 26263926
26 81 25958087
26 4 26660274
26 152 27271824
26 208 25958087
26 9 25958087
26 18 25958087
26 121 25958087
26 64 25958087
26 30 25958087
26 191 25958087
26 53 25971473
26 307 25958087
26 298 25958087
26 12 27421187
26 285 25958087
26 180 25958087
26 69 25958087
26 223 25958087
26 256 25958087
88 82 20528309
21 145 27430069
28 4 24228118
108 252 20024404
112 161 26050114
132 240 27353855
132 6 27353855
132 184 27353855
132 238 27353855
132 71 27353855
132 261 10570212
132 112 27353855
132 38 27353855
132 203 10570212
132 311 27353855
132 16 27353855
132 110 10570212
132 2 27353855
132 257 27353855
132 133 27353855
132 134 27353855
132 78 27353855
132 266 27353855
132 27 27353855
132 3 27353855
132 50 27353855
132 295 27353855
132 85 27353855
132 218 27353855
132 314 27353855
132 17 10570212
132 161 27353855
132 145 27353855
132 267 27353855
132 79 27353855
132 120 27353855
132 310 27353855
132 283 27353855
158 162 20265725
158 83 20265725
158 25 20265726
158 202 22580276
158 101 20265726
158 45 20265726
158 315 20265726
184 240 12518708
184 161 26727231
184 79 22766296
78 238 20780170
161 112 27418744
161 184 27418744
7 279 27348606
225 26 19425299
242 173 26579417
161 78 26221347
280 151 22763148
0 106 27193101
78 161 26647593
18 208 27247664
18 307 27442653
94 252 19653626
277 135 20595386
118 279 8427561
223 225 27461994
116 173 27161024
116 253 27161024
50 267 26623421
186 90 27329663
79 267 26158729
0 259 27199523
295 310 22681687
230 258 8585256
57 130 19903795
306 274 19140836
13 279 27364393
82 232 129953
253 242 25525410
305 299 20521569
78 132 130597
307 28 21386034
199 90 26724674
3 240 22160642
3 6 22160642
3 184 27433162
3 71 22160642
3 112 22160642
3 38 23099402
3 16 26824610
3 257 22080828
3 134 22160642
3 78 22160642
3 27 4967947
3 50 22160642
3 284 22160642
3 295 22160642
3 85 22160642
3 314 27419329
3 161 23873647
3 145 27424858
3 267 26905465
3 79 22160642
3 120 22160642
3 310 22160642
3 283 22160642
3 132 22160642
299 305 5125735
178 304 21212881
71 283 5241014
283 71 5475604
304 178 21381727
40 80 27497810
307 180 12581370
300 74 19556531
242 253 16531962
2 284 26638232
2 132 27336676
180 152 26572575
242 250 27252477
83 299 27251228
310 3 144014
252 86 27418484
93 274 25527381
93 33 20009127
284 3 168974
267 184 23127832
199 186 27245509
75 232 200085
200 52 26829745
150 230 3157650
75 274 22767472
58 193 25624954
58 270 25624954
58 83 25624954
58 301 25624954
58 45 25624954
58 200 25624954
58 254 27269412
58 52 25699185
9 225 27273391
278 116 27327256
278 253 26571128
278 13 27345814
79 184 22767199
234 117 22495948
116 278 27276934
93 230 20594747
93 82 8590399
251 12 207507
228 279 26255146
144 7 23784918
72 276 208815
38 50 27499976
38 295 25546531
38 161 26268632
38 267 25546531
12 251 210621
279 228 27267144
26 92 19425084
180 307 21284129
228 47 27439613
11 175 24769269
79 50 26145417
47 228 27440592
208 28 26569154
50 79 26136188
194 80 26311137
194 291 26043107
131 113 9191732
161 240 21340551
161 295 27106519
161 145 26839906
161 267 26839906
161 310 26034469
116 228 25638233
33 274 27428807
159 317 26555803
267 50 22688681
267 79 25445591
310 161 26036690
278 122 298386
310 145 295954
310 267 286831
103 160 8429849
28 251 26033197
316 122 290994
52 104 27158342
53 280 27434836
228 116 19475699
89 276 7380016
80 194 26313550
236 7 11626446
236 162 643907
236 173 11625941
236 228 1514671
236 263 643907
236 122 643907
236 94 643907
236 116 643907
236 309 643907
236 253 11626638
236 13 643907
236 315 643907
253 236 11631185
116 236 653361
158 299 13540252
258 90 23704274
316 309 299169
299 158 300143
38 284 22645275
240 161 21296799
295 38 21135700
295 50 19390138
295 161 27094592
295 267 2623480
78 283 23473641
295 184 26818757
316 116 3931169
309 236 303258
280 174 14238394
280 53 27423435
51 190 308397
51 80 25525061
278 200 8680439
13 236 654969
108 299 27267387
274 33 24838679
202 128 27345822
161 38 27418744
161 284 27418744
284 161 1852314
284 38 316411
16 284 27440018
7 263 26859477
284 132 1869161
284 16 335321
94 236 646480
223 28 24407533
200 254 27345048
38 310 20608978
310 38 376745
24 252 24312781
202 158 24394800
291 51 27433627
291 40 27436298
291 194 27433627
103 159 5218623
278 173 17758571
278 242 8680439
12 28 25437019
252 154 5653761
279 278 27445546
252 189 27418688
283 50 26819089
50 283 24827433
161 120 27418744
278 279 26560705
161 50 20096130
263 7 21284795
78 50 23036867
299 170 389903
251 28 25981625
234 279 24245481
180 292 390998
120 161 14743442
279 242 27267144
202 209 21389917
279 234 22601119
242 279 27445607
230 75 22773081
230 269 22059030
86 24 21131681
194 247 2372245
194 40 26202176
266 145 741940
209 299 15355803
161 132 25530672
284 2 1869161
86 252 27421545
53 307 552856
278 236 27441309
80 40 27438291
173 236 11626865
150 232 639115
307 53 634267
173 242 26572641
228 299 18529017
200 58 25438165
200 270 19988730
200 83 19988730
200 45 19988730
200 250 19988730
318 249 20278330
104 7 27432186
299 209 6938932
279 122 21306294
279 104 26305406
199 220 14717274
262 300 25611293
104 279 27244612
7 104 27459083
143 232 13439023
38 79 25528941
108 241 27258901
108 209 27258901
108 315 27258901
108 104 27258901
176 223 27363345
28 9 24228118
28 18 24480137
28 151 17842675
28 307 24228118
94 278 23273990
300 262 25706192
103 60 3244153
79 38 25685978
28 12 24228118
116 270 27443229
116 35 26127346
116 13 23297959
116 57 27443229
258 82 655857
225 176 664334
52 254 27251571
161 79 26839906
79 161 26158729
291 255 721430
288 111 26151013
228 241 12316447
238 79 1258186
241 228 12317187
40 291 27419990
79 238 1254895
103 249 8429740
103 63 723903
279 13 25965035
279 211 19043521
180 18 22416139
159 249 26736992
159 160 14225956
52 158 16461357
151 54 20178951
0 76 27444594
158 52 16464435
0 227 5158718
30 54 737681
53 174 26905551
80 51 27429922
291 80 25431498
199 143 20804774
306 75 23360500
288 233 26151013
152 280 20003734
9 28 20006711
279 308 19660807
18 180 27247664
134 284 23285495
134 85 12488098
134 132 23285495
145 21 27430278
194 190 11004271
253 47 9299541
279 10 12992488
130 25 25691876
190 194 11007246
279 173 827946
173 279 11619733
38 78 25557160
38 283 26111322
117 45 26821133
25 130 26314601
157 185 27013508
50 38 27422245
99 90 15288942
267 161 27445517
79 145 22489743
78 3 27177814
85 134 17145454
85 132 18178030
180 298 22157551
283 115 895004
267 145 26581314
223 69 26046355
253 173 21307344
253 116 25347095
104 52 27158258
120 310 18352744
120 284 9119985
78 79 24584287
78 231 20780170
25 277 22443105
112 184 905817
53 298 27338983
160 318 26916310
66 300 908679
30 28 21809892
6 218 11020214
231 78 24738801
307 127 17743433
128 202 26901512
307 18 27269375
16 132 27440018
151 152 23797335
281 82 9819558
184 284 20452522
152 151 24742473
152 28 6681437
241 315 24252041
9 127 27440353
186 143 26660846
28 195 24228118
28 141 24228118
28 127 24228118
28 280 24228118
28 208 24228118
28 26 24228118
28 223 24228118
6 133 11633264
283 6 25092610
28 81 24228118
28 152 24485272
28 176 24228118
28 64 24228118
28 30 24228118
28 69 14023475
158 57 1169378
184 132 24583859
279 189 27267144
13 211 16988942
35 116 1336982
314 112 27268386
50 115 1187392
16 238 27179221
16 2 27179221
50 161 24839421
294 274 1236306
83 209 1237762
69 121 21854228
241 252 16039514
6 314 27270492
57 173 19385345
57 270 20501629
57 116 26755362
57 253 19385345
57 35 20009593
40 194 24306258
158 189 13540252
279 252 24829437
63 160 7462735
30 26 22099366
314 134 1249596
60 160 1250126
112 314 27266703
310 120 18358143
81 226 23965235
264 75 21902392
82 230 20169295
4 12 26924432
249 318 20259641
12 4 26049550
82 281 9718117
274 294 1320962
233 288 20679186
173 116 26918472
173 253 26918472
253 35 1325415
238 284 27178762
238 132 26913306
277 188 20595386
50 78 25946020
7 228 19917264
7 25 24772294
253 278 19585286
190 291 6874979
63 60 23110752
159 318 27424585
9 26 27273275
209 202 17857750
225 127 13452762
225 208 26567592
225 9 13452762
225 18 13452762
225 191 13452762
225 307 13452762
225 163 13526422
225 256 13452762
208 18 22067171
161 283 23521803
78 38 26647593
35 57 21807308
234 25 21716779
279 25 26305406
83 301 26898996
269 97 1426137
252 10 22073298
252 20 13021247
274 75 17322979
38 134 26113089
38 120 22032098
133 132 27166455
112 284 25109158
112 120 1436461
10 252 18894462
252 144 1445662
279 250 23375626
183 300 23629810
300 183 27432149
4 26 26665862
236 279 2366705
279 236 2370781
256 191 2654746
223 26 27362727
238 78 15758331
298 26 11964770
300 33 27435233
1 196 1523985
33 300 23021127
13 278 27336880
307 208 23728386
307 69 1767995
228 101 5420907
228 236 1706487
228 278 19641500
250 158 18372752
278 228 20860920
208 307 23205178
164 104 22752910
189 279 27336226
238 266 13438119
93 183 1763173
69 307 25911185
28 53 26729890
133 50 25458492
104 13 1765787
252 215 24312860
263 172 1768205
263 260 1768281
134 38 22489049
307 26 14724326
13 116 25454617
26 1 21913992
26 196 21125803
281 90 26916529
234 299 21716779
298 109 11893687
258 66 1776935
263 236 1777499
314 132 22600014
263 304 12302964
304 263 1849798
134 133 23285495
59 217 19045696
2 16 26826231
0 214 8439572
314 284 26924265
143 186 27271311
143 220 15695466
269 59 20075912
93 59 1849453
33 232 23021127
189 25 1854011
284 6 1854170
307 223 22156135
284 314 1854616
6 284 26653031
223 127 23784854
223 307 26145817
98 186 26294074
267 283 6952299
120 184 8076829
283 267 1858619
225 223 27464095
189 252 27429233
93 300 23112187
307 225 7749820
57 242 1925253
254 52 27176771
291 190 11879861
300 93 25289657
13 253 27450278
152 180 27163083
150 90 24844686
80 255 27415567
80 190 8601094
252 319 23027870
135 277 4537897
184 3 11798186
314 283 2103486
189 57 24591622
48 74 2024795
194 255 23270792
194 51 25696920
202 108 19989266
33 183 9720412
173 278 19577576
255 80 26842146
26 151 25611296
1 225 2040513
60 63 23212642
158 234 8754810
225 1 13452762
283 133 2092305
283 3 23802391
283 314 2145559
234 158 18778566
120 38 21914886
81 28 26928921
279 299 27267351
279 241 24825486
279 135 27267144
279 209 17763808
279 158 22673837
279 202 10934098
279 116 19923165
279 108 3060239
279 315 17928936
279 304 23110824
315 279 2123400
241 279 24870826
108 279 21798868
209 279 17857718
85 133 17145454
85 6 14219769
283 38 26572937
6 85 26744198
25 234 22755301
314 219 11103189
262 183 26728215
305 234 27332347
264 90 15755678
263 228 3053584
236 278 17666280
241 272 2373659
25 242 20162832
220 186 14806795
220 98 14806795
108 202 26575277
3 238 23014741
3 311 4017097
3 110 7812606
3 2 4967947
3 133 22160642
3 266 22160642
81 54 23809233
174 53 21207770
234 173 2448927
234 47 13785974
234 228 24844278
234 242 21716779
234 278 18778566
234 116 21198534
234 253 14820078
234 250 21717657
234 13 18778566
234 305 22413563
13 234 18779015
173 234 11617858
253 234 14830646
190 40 9279209
40 190 9610670
274 82 24838679
279 101 3060239
240 3 3750586
278 234 18786017
184 145 23627741
186 199 20607025
267 78 2517775
50 16 24827433
50 295 24827433
97 59 2550643
230 220 20255129
113 131 2551615
240 184 24414939
57 135 24482284
97 217 2552480
26 28 27163692
128 305 14197136
267 38 11370558
267 295 2554823
150 74 13592220
305 128 2556735
254 200 27330306
298 69 6601911
307 191 22609223
191 256 26939860
50 6 27162454
161 134 22144858
120 112 5559827
250 200 26927405
134 161 2625362
116 47 19383577
242 278 2631459
105 305 25446099
151 26 6881553
6 50 23017742
300 232 9789210
242 25 17332748
13 189 2709940
91 123 2714012
91 185 2710802
278 189 16439936
223 176 27179486
280 28 24088686
91 14 2717019
281 183 17848446
314 6 27262119
223 18 11177349
189 13 2737978
133 6 22674483
79 78 25094776
16 161 27442928
318 159 21219765
25 241 23131557
150 281 21888606
158 122 2972195
178 47 6605964
274 74 2973627
274 230 25105617
274 93 25540191
274 97 2973627
274 39 27339896
274 59 2973627
274 32 2973627
274 306 10332488
274 90 4260824
274 269 2973627
47 178 5568395
48 90 27435484
86 10 26827781
230 93 20082203
281 150 21898432
3 218 4017097
50 184 24827433
202 299 26916302
79 3 22067935
234 162 11609885
234 118 18778566
234 252 21822835
234 189 23286858
176 26 18263625
189 234 21725572
26 176 18265010
223 208 9205957
299 234 21890718
138 11 27194645
138 175 27194658
106 214 3083140
11 138 27198633
161 16 13473733
47 13 3150500
178 104 18796608
28 1 24228118
150 77 3157650
150 167 3157650
150 258 19039155
150 93 3157650
150 274 3157650
150 97 3157650
150 99 3157650
150 88 3157650
150 48 3157650
150 186 14028665
150 75 3157650
150 183 24844686
150 98 3157650
150 33 3157650
150 39 3157650
150 82 3157650
150 262 3157650
150 23 3157650
150 199 19895447
150 264 3157650
150 43 3157650
150 143 12377212
150 306 3157650
150 300 3157650
150 220 3157650
150 15 3739302
108 234 22487901
253 13 27446485
234 277 11609885
234 315 11609885
193 52 22169914
202 116 27419548
116 202 27161024
108 301 19857563
283 161 26576419
162 234 11786891
262 281 17318681
262 197 3231970
94 234 3241389
197 262 3234554
250 242 25000372
7 114 16452719
281 262 3240267
234 94 3240387
176 127 5129113
223 280 3257520
223 53 3745486
59 97 14561958
134 16 3942299
143 90 25024663
241 162 25527589
216 276 11620045
216 70 13164405
250 279 20689084
268 314 24166194
314 268 15611521
16 134 11713570
16 85 11713570
286 126 16473919
286 14 16298089
85 16 11608972
85 284 23261493
104 304 3661234
93 90 19036332
155 157 3665526
112 3 7979273
118 299 3667993
279 139 26305406
249 159 25002219
133 284 27166455
13 228 25956337
186 98 26039352
174 298 26814883
180 225 27271966
139 279 26569982
242 234 27363396
242 305 3762697
242 193 15247849
250 7 23088548
161 6 20179606
161 238 6797569
161 71 22921715
161 261 6797569
161 203 6797569
161 311 6797569
161 110 6797569
161 2 6797569
161 257 7380858
161 133 11796080
161 266 18184901
161 27 6797569
161 3 25530568
161 85 22144858
161 218 6797569
161 314 20506038
161 17 6797569
117 301 3777643
225 180 25977874
313 214 8116266
299 202 26920369
151 81 3833065
162 7 3834093
159 103 22498644
238 6 3848298
238 218 3848298
10 86 26124560
38 184 20608978
238 112 3930140
238 314 3850799
112 238 14801286
7 250 17083364
53 28 26727407
122 277 3919218
51 291 8507345
314 3 27443150
69 26 25541284
241 47 3925255
208 9 3932537
208 1 3932537
208 256 13007147
9 208 20006353
47 202 9648598
208 127 12344520
1 208 3947190
1 28 23114698
242 315 3941228
242 308 3941228
242 104 3941228
242 304 3941228
242 57 14020051
28 256 24228118
256 28 18534926
13 239 8517897
208 4 10230971
4 208 10231374
28 298 24228118
298 28 20085163
228 162 4014463
228 315 4014463
7 242 27245017
7 299 20160478
7 241 19917264
7 301 26859477
7 101 4016669
7 189 19917264
7 139 14197336
7 278 19917264
3 261 4017097
3 168 4017097
6 112 25301570
6 132 11020214
108 118 4263470
108 228 21805643
108 83 22087625
108 101 4263470
108 304 19857563
50 133 24998992
314 238 4266440
234 7 18346764
164 304 20679361
118 164 27426507
249 317 4277003
174 195 8511496
270 116 20246311
256 208 13018701
317 159 4281666
2 238 26826231
262 232 21379336
238 16 27178762
238 2 26913306
234 122 21121054
16 3 26825913
13 299 4367308
3 219 22080828
1 256 22417700
57 58 10322538
220 48 14806795
58 57 12476811
28 121 24228118
162 228 4438393
213 80 24585129
28 174 24228118
184 310 25623328
183 143 17859046
71 120 26239514
120 71 4515318
120 132 27274177
143 183 20798524
75 90 18169109
135 25 4537897
242 299 21821305
242 114 21821305
135 189 18176917
116 234 21203445
12 285 13102080
91 95 6616148
38 240 20608978
38 311 20608978
38 257 20608978
38 132 20608978
69 28 25911932
305 105 25103459
28 180 24228118
28 191 24228118
278 299 16620256
284 238 4699072
262 274 4873504
12 18 9287326
160 222 26916310
264 74 8001453
241 25 23895338
231 6 15928200
283 132 22662843
315 228 11882780
64 28 20080367
304 164 10938913
85 218 4963981
98 90 21129912
7 122 26565804
112 6 25109158
52 58 25433357
278 94 22596562
63 159 15757375
233 216 23120821
231 219 5127131
257 311 5129086
314 71 5142767
71 314 5142672
184 120 20158944
228 83 26255366
27 267 23357265
309 279 5216298
298 174 26815876
81 26 23023229
239 279 6683556
233 72 14110374
120 283 5238243
25 135 26325611
25 7 9106971
228 104 24770155
228 290 24770155
178 272 5471889
117 234 22496523
228 13 25956317
278 178 5473760
283 120 5475204
72 233 5482682
256 307 18273201
24 10 5483926
153 309 5485671
65 234 5488159
230 300 23722274
70 288 11004272
295 85 5562062
161 44 5563197
183 262 24421962
83 171 5580725
114 7 25046961
114 299 27273890
159 63 15756162
156 165 5652884
156 5 5652900
33 32 5663860
135 130 5667025
265 227 5759181
127 256 21733361
256 127 22519149
91 68 6592586
79 132 19049222
52 200 25433357
228 242 26731757
69 298 10404109
45 117 26816551
278 7 11875376
52 193 25433357
279 239 12926581
31 242 6617647
31 122 6617647
31 279 26235979
152 30 6681248
158 279 22667304
69 285 10404190
241 58 9813259
242 113 6703261
58 241 9816538
186 74 25017168
120 257 14743442
120 50 6712392
18 225 12390337
113 242 6774897
71 161 22775497
1 4 6783646
279 253 18269813
4 1 6783790
253 279 18436384
35 135 23630842
135 299 27355487
98 264 15347396
298 53 25707917
1 191 22615514
35 130 24307562
299 242 21731531
82 274 20268474
81 69 6953139
199 264 9543399
190 80 9272143
274 300 22678361
279 263 20849918
263 272 7217927
278 263 7224157
135 158 7291753
233 276 7393774
127 26 21287402
263 278 7294719
113 305 7294882
305 113 7296780
234 241 21716779
234 304 21716779
241 234 21720725
256 121 7307638
270 57 20246311
25 139 23131557
257 267 7379374
208 285 7804475
35 25 17165240
267 257 7397934
24 108 7456619
242 241 11010324
47 173 7418928
33 90 10836406
234 135 21716779
133 16 7460502
133 134 23282228
314 38 12833858
57 234 7462834
241 242 9014462
242 139 14813667
69 226 7466091
252 299 20472421
24 86 7468688
295 284 7473020
295 120 7473020
191 127 22763784
117 241 23223790
16 133 11713570
241 117 23278607
25 35 21734372
234 57 18346393
53 251 8097046
180 191 7561955
280 225 22624627
158 228 24243711
25 122 23131557
25 279 23131557
256 18 22430757
111 288 16525888
303 249 7809074
274 183 27243127
262 306 15670125
222 160 18788013
173 47 7891171
273 288 22151366
273 111 18517911
273 70 22151366
273 72 22151366
273 216 7891879
273 302 18517911
273 89 22151366
48 220 10835333
222 63 20180933
230 232 25688808
197 258 8496956
38 6 22849707
38 238 20608978
38 112 20771673
38 16 20608978
38 110 20608978
38 133 20608978
38 85 20608978
38 314 20608978
38 145 20608978
20 252 18721927
300 90 27254386
298 141 24331477
18 26 10942084
70 111 7982393
28 225 26577337
104 164 26652842
252 182 7998503
141 12 7999426
45 301 27329036
35 270 14739817
143 39 8166721
251 53 8088025
7 234 16995140
242 228 27272471
279 178 20097412
230 186 14042257
230 77 8585256
83 45 27257134
130 35 21292847
77 230 8165575
279 144 8167011
189 122 15154463
199 183 20524457
270 35 11885158
1 127 23883333
268 219 8338569
310 314 8422047
264 183 8593261
52 270 26202756
270 52 18280061
136 278 20862278
228 135 19999018
278 136 27413465
23 42 26910949
39 90 25539930
47 304 8675023
228 271 8518532
208 225 26569395
250 228 24237140
183 274 12999576
230 56 8585256
230 167 8585256
230 48 8585256
230 98 8585256
230 39 20255129
230 262 11185586
230 42 8585256
186 230 8586084
6 238 11020214
6 71 11020214
6 78 23359093
6 27 11020214
6 3 15858229
6 283 25027413
6 240 11020214
6 184 11020214
6 261 11020214
6 38 22851694
6 203 11020214
6 16 11020214
6 110 11020214
6 2 11020214
6 257 11020214
6 134 11020214
6 266 11020214
6 295 11020214
6 17 11020214
6 161 11020214
6 145 11020214
6 267 11020214
6 79 11020214
6 120 11020214
6 310 11020214
236 241 11625866
2 240 8596625
279 47 18261649
47 279 14560578
281 265 13190631
265 281 13191437
18 1 11093455
317 318 8679613
278 305 16620256
278 164 14020050
278 241 26557836
278 316 8680439
278 309 13438806
278 139 8680439
139 278 8684687
199 98 20432598
98 183 17136906
256 1 22417358
48 183 27435484
136 239 17147657
47 234 13796372
25 189 20780136
82 183 26749420
241 236 11626465
145 79 21382445
25 57 26750634
298 195 9190896
298 251 9190896
186 183 9035447
234 8 9029617
183 199 12394133
228 7 14020065
77 90 21194283
274 199 12229547
88 90 9103037
82 90 16822599
308 234 22060962
216 233 18197715
127 174 9121095
127 18 24324666
127 307 9121095
127 298 19922016
127 69 9121095
127 223 22155793
127 292 18287378
145 184 22069782
167 90 9127917
50 314 22684978
280 26 26291765
314 50 22685427
234 308 22064760
145 161 27429462
278 47 23890813
145 267 26576689
83 108 26899064
223 12 9196850
12 223 24236021
280 152 9293832
183 48 9197671
255 194 22159531
241 130 23204019
208 223 9205600
141 298 22094633
23 74 9235644
23 183 9235644
251 298 9269633
183 23 9271590
183 42 9723627
50 120 9282034
242 13 26570701
12 307 24236021
318 222 9290083
53 26 25961157
9 18 20003326
47 86 26300669
97 306 14561189
33 150 9360044
33 169 9360044
33 48 9360044
33 186 9360044
33 98 9360044
33 82 20094154
33 281 10239726
33 199 9360044
33 264 9360044
33 143 9360044
199 33 9543399
199 274 9699208
82 199 9366112
112 132 9394560
60 249 9395930
199 150 20524457
199 169 20524457
199 82 9543399
299 278 11972639
97 262 9625141
1 26 9625849
234 164 9626152
234 202 9626891
234 108 22502540
183 230 27419932
183 82 17228091
75 230 9628254
136 299 9635221
202 47 10572532
57 189 27334145
252 122 18518105
63 222 15949259
144 279 9700933
85 267 9709975
1 18 9717332
53 225 26046948
234 104 21716779
120 134 20697950
98 75 9726926
45 83 27329036
234 182 12402014
83 58 25965595
145 283 9791586
142 121 9794229
45 299 26912827
204 160 27419270
257 6 9801393
257 112 9802634
204 159 27433042
204 318 27419270
281 33 9989950
299 45 26921519
183 281 17228091
295 283 9887413
283 295 9874881
204 60 27433097
204 63 27419270
85 38 14812680
160 204 26916310
130 116 9960676
116 130 9962449
6 219 17737660
158 7 25353009
183 90 14114045
204 103 27419270
204 249 27419270
204 222 27419270
204 317 27419270
2 145 9975164
7 158 20160478
145 2 9980133
12 26 27274053
242 254 21741038
254 242 10244256
252 234 27426452
234 10 12402014
274 232 27339833
250 162 10227144
162 250 10231851
221 10 18804492
10 221 26574235
79 295 21732462
298 127 19922387
298 81 11894265
298 292 11894280
0 129 10244910
81 298 10245166
114 242 21827881
26 237 11879070
0 313 10315117
178 164 10316654
228 304 10323726
220 143 15762030
238 231 19567640
45 228 26300753
189 135 24397850
228 45 26733048
63 204 18356908
262 143 10414962
145 3 26936649
307 12 10489554
24 131 15331041
314 133 17921423
40 51 25944718
283 78 21104289
208 26 17831024
159 204 27446683
133 266 23808476
133 85 17833439
133 231 11205687
228 250 24239719
101 45 10776062
193 57 10832612
48 39 22173652
300 82 10837742
302 216 10846319
149 301 11169822
133 120 21908486
262 150 10921456
120 133 21909455
152 298 10923947
81 223 19495071
143 150 10925675
86 47 26304318
279 164 23278513
262 90 20530166
262 230 21226468
279 290 10936732
47 278 27355107
258 262 14120981
262 258 14121880
279 182 11013594
221 252 27450391
51 40 25698486
135 35 23644444
99 150 11020035
252 221 27366376
45 193 27329036
45 144 27329036
45 58 27329036
45 270 27329036
45 52 27329036
45 207 27329036
45 200 27329036
45 254 27329036
145 50 11321186
113 299 11092884
113 149 11107217
18 127 24085429
18 4 11093455
18 9 11093455
18 12 11093455
18 256 22423355
50 145 26584835
131 24 11097321
130 113 11098029
30 280 21732035
30 81 21732035
30 152 21732035
30 64 21732035
30 151 21732035
30 69 21732035
30 223 21732035
81 30 21816252
112 38 20769747
279 305 20004353
123 165 11112682
123 5 11112709
52 250 11386606
305 279 22278699
109 298 11131896
250 52 11167845
231 133 24738801
173 178 11184497
82 264 11188803
281 186 20764200
281 220 15156804
281 217 11380823
52 83 25433357
52 301 25433357
52 45 26905345
109 285 11391354
134 266 21808894
234 131 12233736
234 24 12993370
308 309 11611610
143 217 11614828
241 278 26640393
131 234 12236545
236 242 14222178
236 25 11711801
16 112 11626391
250 299 18372752
25 236 11641092
59 306 23693873
183 33 17228091
139 277 11701142
307 256 11703140
303 159 17667331
4 28 26903222
16 240 11713570
16 184 11794018
83 200 19989519
182 279 11742508
184 16 11798186
133 161 11881724
133 267 11893009
262 97 19660945
191 1 22618113
184 78 21702980
78 184 21724325
135 241 16983233
228 113 11883411
267 133 11888003
231 112 24738801
249 204 25002219
145 314 12192809
188 250 12208704
188 47 12209605
111 70 12219183
183 74 20694276
58 162 19139679
314 145 12220261
145 6 12222882
233 111 14110374
270 58 12231468
250 173 24485647
307 292 12307277
299 114 20070146
133 3 13179003
241 116 12935432
257 120 12321261
162 58 19394230
252 24 23623963
295 44 12403604
234 210 12402014
113 46 24844185
191 225 26047981
59 90 23693849
255 291 12480640
71 38 20196859
133 112 12507728
133 314 12507728
90 59 27348460
38 71 12556831
50 112 21738591
71 310 23638871
112 133 12570365
112 50 12570365
250 47 24224858
34 26 12597313
101 299 19390268
101 301 12748959
7 304 15924912
132 231 27353855
221 86 26844105
53 12 19903199
63 318 27334170
318 204 16013506
237 26 12902583
283 231 12984258
12 53 14649306
222 204 19566742
318 317 14461815
184 283 14546727
116 241 19383577
231 283 24738801
182 234 12952977
279 49 24578977
279 130 27260456
264 232 13000743
184 27 23219174
241 189 20097482
158 242 13540252
158 250 13009998
242 7 27186992
242 158 21741038
38 3 27170135
283 266 19123196
252 279 15435718
250 234 21294670
232 274 13675539
33 75 19666312
104 228 13206143
158 305 13797455
158 304 13797455
81 12 13428181
53 127 15691544
255 51 13436466
225 152 13452762
225 298 13452762
309 136 17846701
304 299 18782320
310 295 26158723
30 176 26754469
176 28 26641906
176 30 26752122
304 158 13597040
27 284 15327224
231 134 24738801
231 266 24999976
231 284 24738801
231 85 24738801
231 132 24825677
300 274 23980231
174 18 13766610
112 219 26664561
277 25 20595386
37 278 14020024
57 104 14020024
207 239 14020027
158 309 14020037
8 47 14020038
241 108 14020038
182 319 14020039
135 315 14020043
239 65 14020050
319 299 14020052
210 253 14020052
309 189 14020052
263 8 14020053
315 101 14020054
104 139 14020054
36 252 14020054
114 13 14020055
13 242 19055926
116 209 19474257
162 241 25519121
94 290 14020057
290 210 14020057
47 118 14020058
7 173 14020058
202 37 14020058
304 113 14020059
113 263 14020059
24 305 14020060
35 207 14020061
277 154 14020061
154 36 14020061
108 122 14020062
188 182 14020063
211 25 14020063
25 162 19129643
289 158 14020064
308 228 14020064
271 135 14020065
263 279 21398189
136 309 22502023
225 280 14029973
278 239 14030353
86 221 27364391
183 186 14042561
98 220 14044332
88 274 17586950
233 302 23713054
233 273 14110374
233 89 23120821
233 70 20772919
254 58 23289555
141 28 22432983
108 158 14118449
257 284 18547185
250 139 24742922
317 204 14124696
283 284 14124732
283 184 14549429
309 7 20600586
158 108 14127545
78 284 14128147
142 81 23175694
139 25 22417735
266 231 25455407
96 227 14145325
53 141 14226636
97 90 14197683
81 142 22768982
166 112 18456712
112 166 17763888
242 236 14831523
260 144 14223891
299 136 14457892
77 143 26658747
257 240 14465698
44 295 14472149
306 39 15751657
39 306 18431506
274 262 20762482
59 269 20082066
94 114 25597339
97 232 14546700
266 283 14565634
94 7 21226176
7 309 26042134
7 94 21230083
135 278 27355487
135 234 19861521
77 281 25627234
52 144 14657252
52 207 14657252
144 94 14676950
108 113 14714751
108 319 18439441
113 108 14717214
262 93 22770797
58 246 25350479
120 240 14743442
120 267 14743442
12 208 24236021
220 199 14806795
258 232 14815479
304 234 14818791
299 200 18952930
228 253 14825473
253 228 14830246
57 278 15145420
232 258 15145787
278 57 15152327
279 162 18261649
162 279 15166684
50 3 22153601
30 121 16458367
21 184 17783233
114 94 25632791
221 24 15255759
71 78 15256949
78 71 15257033
183 150 15325485
46 113 24844104
193 200 18345012
200 193 18345822
299 135 19910940
293 26 25018056
250 241 15423304
250 13 15423304
7 13 22519998
7 252 15426273
7 135 27245017
26 293 27463175
183 97 15666346
183 39 15666346
183 306 15666346
183 220 17655201
174 28 26904219
12 141 24236021
220 230 20512496
90 232 15675795
134 231 20520777
266 132 15840027
78 218 15682371
231 238 25340784
306 183 15751657
306 82 15751657
306 220 15751657
306 262 15751657
220 97 15762030
220 183 17594658
220 39 19990144
220 82 17067839
220 281 15762030
220 306 15762030
240 284 15763377
264 281 15935665
53 1 16974659
27 2 15844291
1 53 16975115
116 45 17742483
77 48 26664189
77 220 15859753
264 230 26227058
281 264 16621461
7 118 19917264
7 164 15924912
85 3 15926434
231 71 24738801
231 27 24738801
231 3 24738801
231 50 24738801
231 314 24738801
231 240 24738801
231 184 24738801
231 38 24738801
231 311 24738801
231 16 24738801
231 2 24738801
231 257 24825677
231 295 24738801
231 218 24738801
231 161 24738801
231 145 24738801
231 267 24738801
231 79 24738801
231 120 24738801
231 310 24738801
57 25 19903795
47 116 17134229
134 184 22146817
232 230 19378013
189 278 16020068
180 28 19854403
112 283 16290016
263 277 16443251
189 241 16481169
117 279 26171444
90 269 27419897
186 48 22601418
252 57 26678392
57 252 26733738
278 158 16620256
278 211 16625665
220 90 22077017
191 208 16981770
70 235 17054531
217 230 17057841
151 30 17061512
82 220 25003226
241 135 23894042
280 292 17102870
13 47 27425259
241 299 17138016
286 179 17146140
136 162 17147657
136 173 17147657
136 47 17147657
136 8 17147657
136 228 17147657
136 242 17147657
136 46 17147657
136 263 17147657
136 241 17147657
136 316 17147657
136 211 17147657
136 116 17147657
136 139 17147657
136 253 26569073
136 250 17147657
136 279 17147657
136 13 19384344
136 315 17147657
136 308 17147657
98 230 17153011
12 1 26924380
298 4 17164912
152 142 17233602
251 285 21911119
178 116 25518977
279 309 18361620
143 32 17335573
242 130 17566525
149 228 17583982
200 299 17584530
127 28 18773532
219 6 27449473
274 88 17600888
228 301 19390444
199 48 20804774
293 292 18269225
104 188 26136856
189 228 17660635
228 108 20075789
103 204 17699031
258 88 17741586
45 116 17747963
33 93 20174638
143 230 20798524
151 28 18866775
118 104 17915149
191 4 17923300
39 274 27421020
82 33 20099187
75 93 18175137
135 118 18176917
135 228 19935993
135 242 27497779
135 279 21130804
135 104 18176917
135 304 18176917
135 7 27181237
242 135 27419206
104 135 18182079
184 134 22084047
45 108 21804043
108 45 19860307
263 234 18289573
152 26 20693520
304 135 18280456
234 263 18778566
79 266 26158839
83 114 25626015
234 35 18346393
234 211 18346764
35 234 18360644
252 94 27442200
252 228 22168849
228 252 22171822
58 209 18452212
225 53 22403219
223 81 19919245
223 30 18462419
253 136 18972898
278 135 18524473
277 57 26738679
114 83 25644873
225 285 18785608
113 319 25441921
319 46 18796889
144 193 18863517
144 58 18863517
144 270 18863517
144 83 18863517
144 52 18863517
144 207 18863517
144 301 18863517
144 45 18863517
144 200 18863517
144 254 18863517
258 281 18864632
116 162 18865615
116 242 19383577
116 108 18865615
242 116 18868225
281 258 27251513
208 180 20512614
202 57 18951164
48 281 18951740
45 252 18964850
217 59 19051679
252 45 18970941
217 90 19034640
277 189 20595386
82 39 25003226
211 279 19044740
262 59 19050685
93 75 27090278
300 59 19056709
2 161 19122085
307 285 19125199
98 15 19139789
134 238 19143438
283 62 19144299
241 114 19145742
178 279 19149969
241 139 19153590
238 134 19166779
135 252 27355487
119 38 19320719
119 314 19321419
38 119 19324509
252 135 20517078
57 49 19903795
57 277 19903795
57 139 19903795
53 18 19394224
24 234 19384816
13 136 19385299
57 241 19385345
45 101 27417638
78 133 20780170
78 27 20780170
78 266 22424352
78 145 25982440
78 267 23473641
33 74 19386226
314 119 19386513
204 303 26825887
93 262 19389329
101 228 19390268
173 270 27332603
209 116 19411944
135 250 19471043
25 263 21310887
25 188 20780136
25 210 20780136
250 135 19926237
228 234 24563449
241 263 19559020
135 116 19577500
78 21 25982440
270 173 19573943
116 135 19917803
202 135 19643582
122 37 20168729
75 33 19644492
219 314 19926520
255 40 19646390
117 299 19659203
288 216 19660296
45 47 19907747
45 202 19660817
45 304 19660817
308 279 19660958
299 117 19663688
108 47 19857563
47 45 19862804
94 108 20587845
108 94 20616130
263 25 19913605
7 305 19917264
252 108 19936167
135 10 19935993
298 22 19985478
319 252 22177620
180 208 20880148
127 225 20090443
94 118 20159796
94 58 20159796
94 228 20159796
94 242 20159796
94 122 20587845
94 241 20159894
281 230 20170106
239 164 20180589
2 133 22689899
94 279 22682789
279 94 20279203
191 307 22780054
199 281 20432598
199 15 20432598
199 56 20432598
108 135 20504307
94 299 20513148
83 241 20698176
304 228 20535028
222 60 20594188
61 186 21122144
277 130 20595385
277 117 20595386
277 177 20595386
277 37 20595386
277 263 20595386
277 241 20595386
277 210 20595386
277 139 20595386
277 170 20595386
277 279 20595386
277 65 20595386
277 35 20595386
277 315 20595386
298 226 20598285
314 184 20603307
38 203 20608978
38 115 20608978
241 83 20697699
250 272 20689084
278 250 20691112
173 250 21306373
25 117 20780136
25 177 20780136
25 37 20780136
25 170 20780136
25 65 20780136
256 226 20781751
267 3 27159419
139 173 20860770
83 193 20864426
266 133 20879219
133 2 20992864
211 308 21107261
130 189 21292847
130 49 21292847
130 135 21292847
130 277 21292847
164 118 26138224
130 241 23794261
49 35 27178705
166 314 25361108
314 166 22176476
83 202 25522930
83 47 25522930
47 83 21398488
63 317 21730445
60 318 21749062
250 263 21794374
280 30 21802288
266 134 21809252
299 10 21811225
299 47 21811225
83 252 26914470
83 304 26898782
262 39 21823638
262 82 21823638
202 83 21886868
82 262 21890128
21 78 21928650
304 47 22082500
184 85 22084047
159 60 22097186
9 92 22589858
180 1 22157551
254 193 22170097
193 254 22170014
78 6 23359164
263 250 22421089
266 78 22424960
6 115 22438488
151 223 22672512
127 293 23891231
256 180 22513281
13 7 22516257
280 141 23628488
7 37 22604254
310 71 22681835
280 121 22630122
141 280 23303523
280 223 26215643
314 240 22675947
191 28 22684887
310 44 26158709
127 191 22763872
238 3 22776891
164 178 23011708
81 121 23187400
121 81 23036634
135 49 23731259
304 279 23204346
77 199 24328320
49 135 23647454
90 61 27348460
40 255 23269700
77 186 23359639
232 262 23370459
135 57 23732650
270 254 23632944
257 310 27257116
12 225 23707110
47 250 23985896
27 145 26208292
209 241 23733708
209 108 26585554
209 315 23733708
209 104 23733708
101 278 23794058
130 162 25008806
122 7 26562345
127 1 23883042
121 223 24004644
225 121 24082488
127 285 24224823
12 127 24236021
12 280 24236021
12 81 24236021
202 86 24392810
92 81 24408998
121 225 24651143
145 132 24489392
266 238 24501686
160 303 25427137
223 121 24832744
50 132 24839421
317 63 24845644
288 276 24850128
143 82 25024663
228 211 25032723
231 119 25353371
53 92 25434147
81 151 25356978
92 53 25427925
319 113 25442382
13 173 27251449
13 241 25454617
162 130 25605099
116 178 25529552
2 3 25819282
94 139 25952337
318 63 27252143
135 139 26049495
293 225 26298306
288 72 26147424
83 242 27248222
242 83 26566178
306 300 26566653
225 28 26575485
4 225 26569465
306 93 26651500
250 108 26655795
50 257 26731005
108 250 27440568
145 295 26936649
300 42 26842932
101 117 26898120
252 83 26909349
314 21 26921020
21 314 26924279
157 155 27013508
295 3 27094592
180 226 27165191
10 279 27259445
284 85 27173041
266 79 27184242
71 79 27261351
79 71 27190770
173 13 27253419
279 272 27267144
279 301 27267419
120 79 27271933
293 256 27345803
219 284 27421322
79 120 27424745
164 279 27426433
