262 74 163049
90 281 387279
160 249 915077
120 78 24710
306 230 909383
273 276 26272
273 233 26484
160 63 915077
184 267 203080
249 160 911848
90 99 823248
151 280 821003
310 184 286831
176 225 30899
83 228 114016
69 223 897372
28 285 648550
38 231 32901
279 7 907637
26 225 833434
160 103 915077
160 60 915077
160 317 915077
160 159 915077
18 28 805976
230 74 121603
230 150 121603
230 169 121603
230 274 121603
230 88 35388
230 183 121603
230 33 121603
230 82 121603
230 281 121603
230 23 121603
230 264 121603
230 143 121603
230 32 121603
230 90 916707
230 15 121603
97 230 131120
184 295 889152
33 230 37321
90 150 387279
7 144 642171
279 118 38624
253 271 38609
299 118 39873
299 228 641452
299 83 39873
299 252 39873
299 301 39873
299 108 312051
299 101 39873
299 279 39873
299 304 39873
279 117 40037
132 284 397158
230 97 395375
230 59 395227
230 306 395375
90 77 387279
90 167 387279
90 74 387279
90 258 387279
90 230 800375
90 93 387279
90 274 387279
90 97 387279
90 88 387279
90 48 387279
90 186 387279
90 75 387279
90 183 387279
90 98 644819
90 33 387279
90 39 387279
90 82 387279
90 262 387279
90 23 387279
90 199 899470
90 264 387279
90 43 823187
90 143 387279
90 306 387279
90 300 387279
90 220 387279
90 15 387279
83 52 43089
83 158 43089
283 79 806360
88 258 43455
79 283 797635
306 97 804070
306 59 804070
306 90 909650
80 291 44987
269 230 817911
269 93 817911
269 274 817911
269 75 817911
269 33 817911
269 300 817911
26 127 52194
26 174 52194
26 280 52194
26 81 52194
26 4 725959
26 152 52194
26 208 52194
26 9 52194
26 18 52194
26 121 52194
26 64 52194
26 30 52194
26 191 52194
26 53 52194
26 307 53193
26 298 52194
26 12 52194
26 285 52194
26 180 52194
26 69 52194
26 223 52194
26 256 52194
88 82 48963
21 145 828315
28 4 50654
108 252 51698
112 161 62266
132 240 53092
132 6 53092
132 184 53092
132 238 53092
132 71 53092
132 261 53092
132 112 53092
132 38 53092
132 203 53092
132 311 53092
132 16 53092
132 110 53092
132 2 388544
132 257 53092
132 133 209398
132 134 396861
132 78 53092
132 266 53092
132 27 53092
132 3 140129
132 50 53092
132 295 53092
132 85 53092
132 218 53092
132 314 53092
132 17 53092
132 161 400861
132 145 388176
132 267 53092
132 79 53092
132 120 53092
132 310 53092
132 283 53092
158 162 392304
158 83 392304
158 25 392304
158 202 392304
158 101 392304
158 45 392304
158 315 392304
184 240 202754
184 161 222074
184 79 216710
78 238 57523
161 112 58969
161 184 315662
7 279 325943
225 26 65652
242 173 903651
161 78 410951
280 151 813576
0 106 118589
78 161 604079
18 208 294543
18 307 895581
94 252 117421
277 135 114042
118 279 117175
223 225 117245
116 173 918721
116 253 918721
50 267 805865
186 90 118356
79 267 986650
0 259 811188
295 310 121344
230 258 121603
57 130 123286
306 274 124034
13 279 843158
82 232 129953
253 242 218070
305 299 308060
78 132 130597
307 28 131014
199 90 906774
3 240 132520
3 6 132520
3 184 132520
3 71 132520
3 112 132520
3 38 132520
3 16 132520
3 257 132520
3 134 132520
3 78 132520
3 27 132520
3 50 132520
3 284 132520
3 295 132520
3 85 132520
3 314 132520
3 161 132520
3 145 132520
3 267 132520
3 79 132520
3 120 132520
3 310 132520
3 283 132520
3 132 385680
299 305 312607
178 304 644540
71 283 135048
283 71 134798
304 178 649964
40 80 810643
307 180 137516
300 74 139433
242 253 140029
2 284 205621
2 132 376243
180 152 379975
242 250 142006
83 299 143136
310 3 144014
252 86 677182
93 274 164261
93 33 164262
284 3 168974
267 184 169459
199 186 906831
75 232 200085
200 52 830889
150 230 201745
75 274 202935
58 193 202999
58 270 202999
58 83 202999
58 301 202999
58 45 202999
58 200 202999
58 254 202999
58 52 203090
9 225 204400
278 116 815226
278 253 205084
278 13 205084
79 184 217241
234 117 205502
116 278 810209
93 230 398361
93 82 207418
251 12 207507
228 279 207718
144 7 405521
72 276 208815
38 50 210549
38 295 210549
38 161 829904
38 267 210549
12 251 210621
279 228 720518
26 92 217013
180 307 836447
228 47 220282
11 175 221206
79 50 311723
47 228 220828
208 28 735899
50 79 309478
194 80 812556
194 291 900286
131 113 897871
161 240 229325
161 295 228256
161 145 918059
161 267 918059
161 310 671245
116 228 653799
33 274 230171
159 317 235842
267 50 661602
267 79 239835
310 161 651911
278 122 298386
310 145 295954
310 267 286831
103 160 805244
28 251 290270
316 122 290994
52 104 912400
53 280 739070
228 116 292428
89 276 293374
80 194 295213
236 7 643907
236 162 643907
236 173 643907
236 228 643907
236 263 643907
236 122 643907
236 94 643907
236 116 643907
236 309 643907
236 253 643907
236 13 643907
236 315 643907
253 236 644228
116 236 653361
158 299 644260
258 90 298650
316 309 299169
299 158 300143
38 284 300857
240 161 300999
295 38 301265
295 50 301265
295 161 301265
295 267 301265
78 283 301606
295 184 301814
316 116 303004
309 236 303258
280 174 644069
280 53 725020
51 190 308397
51 80 909462
278 200 825567
13 236 654969
108 299 313588
274 33 313589
202 128 904549
161 38 315108
161 284 399634
284 161 316409
284 38 316411
16 284 317681
7 263 316608
284 132 406058
284 16 335321
94 236 646480
223 28 373941
200 254 891246
38 310 376005
310 38 376745
24 252 377802
202 158 377827
291 51 378610
291 40 378610
291 194 378610
103 159 723903
278 173 898710
278 242 379109
12 28 727607
252 154 381375
279 278 381377
252 189 381392
283 50 402854
50 283 383420
161 120 383976
278 279 384831
161 50 390920
263 7 386398
78 50 387570
299 170 389903
251 28 389943
234 279 390092
180 292 390998
120 161 899746
279 242 719810
202 209 904549
279 234 394144
242 279 394663
230 75 395227
230 269 395227
86 24 589853
194 247 397962
194 40 812556
266 145 741940
209 299 399289
161 132 399634
284 2 406058
86 252 680370
53 307 552856
278 236 650351
80 40 829326
173 236 646939
150 232 639115
307 53 634267
173 242 905322
228 299 636156
200 58 822121
200 270 636743
200 83 636743
200 45 636743
200 250 804203
318 249 638827
104 7 639030
299 209 641654
279 122 818912
279 104 642103
199 220 906831
262 300 654605
104 279 643937
7 104 643959
143 232 643984
38 79 801013
108 241 646744
108 209 646744
108 315 646744
108 104 646744
176 223 648001
28 9 726338
28 18 726338
28 151 726338
28 307 726338
94 278 648587
300 262 654338
103 60 831016
79 38 784746
28 12 726361
116 270 656306
116 35 653799
116 13 653799
116 57 653799
258 82 655857
225 176 664334
52 254 735804
161 79 918059
79 161 905804
291 255 721430
288 111 721177
228 241 722196
238 79 724641
241 228 722810
40 291 724515
79 238 723608
103 249 723903
103 63 723903
279 13 726451
279 211 901406
180 18 897211
159 249 728045
159 160 833877
52 158 728872
151 54 731468
0 76 734330
158 52 735492
0 227 736205
30 54 737681
53 174 739070
80 51 741378
291 80 743200
199 143 757718
306 75 804070
288 233 808130
152 280 811347
9 28 815691
279 308 901406
18 180 822907
134 284 888752
134 85 888752
134 132 888752
145 21 824367
194 190 825155
253 47 825246
279 10 826318
130 25 826617
190 194 827037
279 173 827946
173 279 829062
38 78 830945
38 283 830945
117 45 834442
25 130 899821
157 185 913186
50 38 844124
99 90 854546
267 161 864906
79 145 867258
78 3 890329
85 134 890376
85 132 890376
180 298 901685
283 115 895004
267 145 897479
223 69 897776
253 173 902952
253 116 898398
104 52 898457
120 310 898843
120 284 899746
78 79 901061
78 231 900727
25 277 901153
112 184 905817
53 298 907413
160 318 908150
66 300 908679
30 28 909127
6 218 910011
231 78 914557
307 127 914807
128 202 914913
307 18 918470
16 132 925619
151 152 987879
