262 74 6965710
90 281 7987628
160 249 7913347
120 78 24710
306 230 7986761
273 276 7891879
273 233 7891879
160 63 7913347
184 267 2466073
249 160 5565295
90 99 7987628
151 280 3143584
310 184 6513772
176 225 30899
83 228 7384408
69 223 6860335
28 285 7987482
38 231 32901
279 7 7999625
26 225 7395394
160 103 7913347
160 60 7913347
160 317 7913347
160 159 7913347
18 28 7899532
230 74 4985191
230 150 121603
230 169 121603
230 274 7904397
230 88 35388
230 183 7300217
230 33 7999943
230 82 2714934
230 281 121603
230 23 121603
230 264 121603
230 143 121603
230 32 121603
230 90 6705885
230 15 121603
97 230 3318064
184 295 2103823
33 230 7894047
90 150 7987628
7 144 7679867
279 118 7545616
253 271 38609
299 118 5209087
299 228 6879651
299 83 7376711
299 252 5209087
299 301 7981670
299 108 6954814
299 101 5209087
299 279 7559582
299 304 5209087
279 117 3060239
132 284 7398049
230 97 6699207
230 59 6699207
230 306 6959878
90 77 7987628
90 167 7304054
90 74 7987628
90 258 7987628
90 230 7987628
90 93 7987628
90 274 7987628
90 97 7987628
90 88 7987628
90 48 7987628
90 186 7987628
90 75 7987628
90 183 7987628
90 98 7987628
90 33 7987628
90 39 7987628
90 82 7987628
90 262 7987628
90 23 7987628
90 199 7987628
90 264 7987628
90 43 7987628
90 143 7987628
90 306 7987628
90 300 7987628
90 220 7987628
90 15 7987628
83 52 43089
83 158 2998651
283 79 3675498
88 258 43455
79 283 3674567
306 97 7986761
306 59 7986761
306 90 7986725
80 291 7890462
269 230 7910960
269 93 7910960
269 274 7910960
269 75 7910960
269 33 7910960
269 300 7910960
26 127 7379645
26 174 3310148
26 280 3310148
26 81 5232002
26 4 3310148
26 152 3310148
26 208 3967789
26 9 5481962
26 18 7973566
26 121 3310148
26 64 3310148
26 30 4452293
26 191 3310148
26 53 3310148
26 307 3310148
26 298 3310148
26 12 7388381
26 285 3310148
26 180 3310148
26 69 3848818
26 223 4977249
26 256 3310148
88 82 48963
21 145 2555617
28 4 4523620
108 252 4263470
112 161 3829724
132 240 6851293
132 6 6851293
132 184 6851293
132 238 6851293
132 71 6851293
132 261 6851293
132 112 6851293
132 38 6851293
132 203 6851293
132 311 5131998
132 16 6851293
132 110 6851293
132 2 7398049
132 257 6851293
132 133 7323607
132 134 6851293
132 78 6851293
132 266 6851293
132 27 6851293
132 3 7283252
132 50 6851293
132 295 6851293
132 85 6851293
132 218 6851293
132 314 6851293
132 17 6851293
132 161 6851293
132 145 6851293
132 267 6851293
132 79 6851293
132 120 7999480
132 310 6851293
132 283 6851293
158 162 5139429
158 83 5139429
158 25 5139429
158 202 7993217
158 101 5139429
158 45 5139429
158 315 5139429
184 240 2466430
184 161 7985521
184 79 216710
78 238 1549548
161 112 7370815
161 184 7370815
7 279 7644361
225 26 7395224
242 173 7979841
161 78 7872849
280 151 813576
0 106 4364989
78 161 7935223
18 208 7994766
18 307 6280864
94 252 1152533
277 135 4534647
118 279 5046495
223 225 7208780
116 173 7908769
116 253 7908769
50 267 7988156
186 90 118356
79 267 7551916
0 259 7546997
295 310 121344
230 258 121603
57 130 123286
306 274 124034
13 279 6865095
82 232 129953
253 242 3241533
305 299 4873261
78 132 130597
307 28 7805855
199 90 7374772
3 240 7812606
3 6 7812606
3 184 7812606
3 71 7812606
3 112 7912034
3 38 7812606
3 16 7812606
3 257 4017097
3 134 7812606
3 78 7812606
3 27 4967947
3 50 4967947
3 284 7922765
3 295 7812606
3 85 7812606
3 314 7812606
3 161 7812606
3 145 7812606
3 267 7812606
3 79 7812606
3 120 7812606
3 310 7812606
3 283 7812606
3 132 7812606
299 305 5125735
178 304 2369820
71 283 5241014
283 71 5475604
304 178 649964
40 80 7980981
307 180 7809640
300 74 7988303
242 253 3248834
2 284 5569152
2 132 7891728
180 152 7463174
242 250 7465946
83 299 7384408
310 3 144014
252 86 7400910
93 274 5492380
93 33 1159327
284 3 168974
267 184 2422031
199 186 7833592
75 232 200085
200 52 7812751
150 230 3157650
75 274 7461278
58 193 3059903
58 270 3059903
58 83 3059903
58 301 7543725
58 45 3059903
58 200 3158076
58 254 3059903
58 52 203090
9 225 2107734
278 116 7895847
278 253 7461772
278 13 6778530
79 184 1344093
234 117 5476899
116 278 7845327
93 230 7997114
93 82 207418
251 12 207507
228 279 6787613
144 7 7996428
72 276 208815
38 50 7918684
38 295 7918684
38 161 7918684
38 267 7918684
12 251 210621
279 228 7545616
26 92 1165231
180 307 6602538
228 47 4014463
11 175 7773855
79 50 3654926
47 228 7310992
208 28 7215833
50 79 7886191
194 80 7975602
194 291 7975602
131 113 7546593
161 240 6797569
161 295 7944654
161 145 7277160
161 267 7277160
161 310 6797569
116 228 7892169
33 274 7921939
159 317 235842
267 50 3915200
267 79 3324119
310 161 3407078
278 122 298386
310 145 295954
310 267 286831
103 160 7545411
28 251 7987482
316 122 290994
52 104 7555522
53 280 7545120
228 116 292428
89 276 7380016
80 194 6955219
236 7 643907
236 162 643907
236 173 643907
236 228 1514671
236 263 643907
236 122 643907
236 94 643907
236 116 643907
236 309 643907
236 253 5485205
236 13 643907
236 315 643907
253 236 5487063
116 236 653361
158 299 2969052
258 90 298650
316 309 299169
299 158 300143
38 284 7918684
240 161 300999
295 38 2623480
295 50 2623480
295 161 7984231
295 267 2623480
78 283 3765948
295 184 5656803
316 116 3931169
309 236 303258
280 174 5650235
280 53 7998650
51 190 308397
51 80 3922415
278 200 6943655
13 236 654969
108 299 4980756
274 33 4436176
202 128 7292606
161 38 7370815
161 284 7920474
284 161 1852314
284 38 316411
16 284 7480768
7 263 7218958
284 132 1869161
284 16 335321
94 236 646480
223 28 7393075
200 254 7812751
38 310 7918684
310 38 376745
24 252 7400480
202 158 7546975
291 51 7891412
291 40 7891412
291 194 7891412
103 159 5218623
278 173 6606466
278 242 379109
12 28 6943616
252 154 5653761
279 278 7545616
252 189 2635389
283 50 1775513
50 283 7886197
161 120 7370815
278 279 7546650
161 50 6797569
263 7 6960087
78 50 1403016
299 170 389903
251 28 389943
234 279 7994609
180 292 390998
120 161 7204708
279 242 7809637
202 209 7918281
279 234 7981260
242 279 394663
230 75 6688972
230 269 6699207
86 24 7985220
194 247 2372245
194 40 7975602
266 145 741940
209 299 6989852
161 132 6797569
284 2 1869161
86 252 7985220
53 307 552856
278 236 7217555
80 40 7890462
173 236 646939
150 232 639115
307 53 634267
173 242 6612945
228 299 6873303
200 58 4872032
200 270 4872032
200 83 4872032
200 45 4872032
200 250 7558942
318 249 638827
104 7 639030
299 209 6938932
279 122 4609205
279 104 4363023
199 220 3309418
262 300 7547222
104 279 1434750
7 104 643959
143 232 5063260
38 79 7918684
108 241 7287539
108 209 6944130
108 315 5499847
108 104 5499847
176 223 7392743
28 9 5058052
28 18 7994961
28 151 7219634
28 307 4523620
94 278 648587
300 262 7983458
103 60 3244153
79 38 784746
28 12 4523620
116 270 7892169
116 35 7892169
116 13 7892169
116 57 7892169
258 82 655857
225 176 664334
52 254 1151222
161 79 7277160
79 161 3675996
291 255 721430
288 111 721177
228 241 4014463
238 79 1258186
241 228 4019232
40 291 7891634
79 238 1254895
103 249 7913050
103 63 723903
279 13 6864765
279 211 6864765
180 18 7814509
159 249 5151320
159 160 7894576
52 158 1354280
151 54 3833032
0 76 4453887
158 52 2466210
0 227 5158718
30 54 737681
53 174 7983785
80 51 7457388
291 80 7891509
199 143 757718
306 75 804070
288 233 7460156
152 280 2718690
9 28 5070357
279 308 901406
18 180 7381839
134 284 7473579
134 85 7473579
134 132 7473579
145 21 824367
194 190 5470554
253 47 5647169
279 10 826318
130 25 826617
190 194 5233432
279 173 827946
173 279 829062
38 78 7918684
38 283 7918684
117 45 7840024
25 130 7808708
157 185 4797274
50 38 7886193
99 90 5098972
267 161 7857028
79 145 7891296
78 3 890329
85 134 3690612
85 132 890376
180 298 6790572
283 115 895004
267 145 2359899
223 69 5676146
253 173 5663621
253 116 5646179
104 52 7555132
120 310 898843
120 284 1941616
78 79 7809639
78 231 5496277
25 277 5592948
112 184 905817
53 298 7982141
160 318 7913347
66 300 908679
30 28 4870723
6 218 7566332
231 78 914557
307 127 1854279
128 202 7903953
307 18 1936117
16 132 7480768
151 152 6599966
281 82 6956876
184 284 3076365
152 151 6681738
152 28 6681437
241 315 1152148
9 127 1321363
186 143 6706614
28 195 7987482
28 141 4440001
28 127 4523620
28 280 7987482
28 208 7994961
28 26 4969691
28 223 4523485
6 133 2150320
283 6 1167747
28 81 4958539
28 152 1168598
28 176 1168598
28 64 4523485
28 30 4523485
28 69 4523485
158 57 1169378
184 132 6624590
279 189 7545616
13 211 5482554
35 116 1336982
314 112 6865529
50 115 1187392
16 238 7481131
16 2 7481131
50 161 7886198
294 274 1236306
83 209 1237762
69 121 1239404
241 252 1241120
6 314 7998255
57 173 1241323
57 270 1241323
57 116 5486211
57 253 1241323
57 35 7375006
40 194 7891634
158 189 1243004
279 252 7545616
63 160 7462735
30 26 4451628
314 134 1249596
60 160 1250126
112 314 4977526
310 120 1252665
81 226 3775893
264 75 1258598
82 230 7207731
4 12 6948152
249 318 1260025
12 4 7986532
82 281 7460471
274 294 1320962
233 288 1321716
173 116 7975247
173 253 7975247
253 35 1325415
238 284 6973058
238 132 6973058
277 188 1333058
50 78 7886196
7 228 4016669
7 25 7216462
253 278 5474526
190 291 6874979
63 60 1342728
159 318 2033256
9 26 5481165
209 202 6882407
225 127 4810681
225 208 1351620
225 9 1351620
225 18 6716811
225 191 1351620
225 307 7747796
225 163 1351620
225 256 1351620
208 18 6768103
161 283 6797569
78 38 2550676
35 57 7309109
234 25 7302377
279 25 7980648
83 301 7384408
269 97 1426137
252 10 5663152
252 20 1426473
274 75 5225130
38 134 7918684
38 120 7918684
133 132 7460502
112 284 1436461
112 120 1436461
10 252 5490972
252 144 1445662
279 250 5133899
183 300 7825750
300 183 7983458
4 26 2975219
236 279 2366705
279 236 2370781
256 191 2654746
223 26 2552128
238 78 1521408
298 26 3937147
300 33 7370723
1 196 1523985
33 300 4616646
13 278 6617940
307 208 3939506
307 69 1767995
228 101 5420907
228 236 1706487
228 278 5328032
250 158 3841138
278 228 6964033
208 307 3932618
164 104 1758236
189 279 7806182
238 266 1762765
93 183 1763173
69 307 4624330
28 53 7984374
133 50 3758798
104 13 1765787
252 215 7539791
263 172 1768205
263 260 1768281
134 38 6681788
307 26 1775238
13 116 7206582
26 1 1772547
26 196 1772547
281 90 7638319
234 299 3055003
298 109 3156081
258 66 1776935
263 236 1777499
314 132 5480925
263 304 1847345
304 263 1849798
134 133 7473586
59 217 1837569
2 16 7475551
0 214 7194160
314 284 7995316
143 186 1847091
143 220 7287154
269 59 1847890
93 59 1849453
33 232 4616646
189 25 1854011
284 6 1854170
307 223 1857815
284 314 1854616
6 284 4126937
223 127 3744866
223 307 1855354
98 186 1857293
267 283 6952299
120 184 7820443
283 267 1858619
225 223 4910162
189 252 7556393
93 300 5578663
307 225 7749820
57 242 1925253
254 52 4888504
291 190 2550667
300 93 5233575
13 253 7478035
152 180 7294464
150 90 7977867
80 255 6704720
80 190 5149306
252 319 5477169
135 277 4537897
184 3 5146030
314 283 2103486
189 57 2021896
48 74 2024795
194 255 2372245
194 51 2372245
202 108 3754334
33 183 2027492
173 278 2100672
255 80 2031262
26 151 6997181
1 225 2040513
60 63 4437029
158 234 7554269
225 1 2071600
283 133 2092305
283 3 2094140
283 314 2145559
234 158 7808187
120 38 5560018
81 28 5219335
279 299 7821598
279 241 3060239
279 135 7805641
279 209 3060239
279 158 7545616
279 202 3060239
279 116 3060239
279 108 3060239
279 315 4281269
279 304 3060239
315 279 2123400
241 279 3060483
108 279 4263470
209 279 3080401
85 133 4456634
85 6 6779673
283 38 4955009
6 85 2648331
25 234 5592860
314 219 6689868
262 183 2368016
305 234 7995935
264 90 7467996
263 228 3053584
236 278 7212484
241 272 2373659
25 242 4290025
220 186 2377726
220 98 4007018
108 202 2377883
3 238 7812606
3 311 4017097
3 110 7812606
3 2 4967947
3 133 7812606
3 266 7812606
81 54 2393832
174 53 7982336
234 173 2448927
234 47 2448927
234 228 7302377
234 242 7302377
234 278 3054908
234 116 4628342
234 253 2448927
234 250 2448927
234 13 2448927
234 305 7994562
13 234 5558236
173 234 2449069
253 234 2449614
190 40 5124369
40 190 6781855
274 82 2973627
279 101 3060239
240 3 3750586
278 234 4456683
184 145 2459079
186 199 6706614
267 78 2517775
50 16 7886195
50 295 7886193
97 59 2550643
230 220 2551164
113 131 2551615
240 184 2551648
57 135 5482046
97 217 2552480
26 28 7547570
128 305 6703530
267 38 2554823
267 295 2554823
150 74 7975059
305 128 2556735
254 200 3229865
298 69 6601911
307 191 2559437
191 256 5070700
50 6 2643359
161 134 6797569
120 112 5559827
250 200 2621132
134 161 2625362
116 47 7892169
242 278 2631459
105 305 7393623
151 26 6881553
6 50 2641714
300 232 4287082
242 25 2709259
13 189 2709940
91 123 2714012
91 185 2710802
278 189 2712482
223 176 7821430
280 28 4962463
91 14 2717019
281 183 2723637
314 6 7829924
223 18 2731322
189 13 2737978
133 6 2758081
79 78 7809349
16 161 2964637
318 159 2968048
25 241 7808708
150 281 5040094
158 122 2972195
178 47 6605964
274 74 2973627
274 230 7376180
274 93 2973627
274 97 2973627
274 39 2973627
274 59 2973627
274 32 2973627
274 306 2973627
274 90 4260824
274 269 2973627
47 178 5568395
48 90 3916878
86 10 7985220
230 93 7999861
281 150 3919395
3 218 4017097
50 184 2987024
202 299 7570229
79 3 3366502
234 162 3162500
234 118 7302377
234 252 3054908
234 189 3054908
176 26 4029979
189 234 3056939
26 176 3062363
223 208 3063723
299 234 3068007
138 11 7826901
138 175 7826932
106 214 3083140
11 138 7834409
161 16 6797569
47 13 3150500
178 104 3151500
28 1 4523620
150 77 3157650
150 167 3157650
150 258 3157650
150 93 3157650
150 274 3157650
150 97 3157650
150 99 3157650
150 88 3157650
150 48 3157650
150 186 3157650
150 75 3157650
150 183 3157650
150 98 3157650
150 33 3157650
150 39 3157650
150 82 3157650
150 262 3157650
150 23 3157650
150 199 3157650
150 264 3157650
150 43 3157650
150 143 3739302
150 306 3157650
150 300 3157650
150 220 3157650
150 15 3739302
108 234 3159046
253 13 7478167
234 277 4361801
234 315 3162500
193 52 7305904
202 116 7994870
116 202 7994552
108 301 4263470
283 161 3829604
162 234 3233984
262 281 3231839
262 197 3231970
94 234 3241389
197 262 3234554
250 242 6790225
7 114 5590354
281 262 3240267
234 94 3240387
176 127 5129113
223 280 3257520
223 53 3745486
59 97 4018424
134 16 3942299
143 90 7815919
241 162 4285276
216 276 7986543
216 70 3338878
250 279 3771239
268 314 6451802
314 268 3508995
16 134 7480768
16 85 3655271
286 126 3801438
286 14 3526445
85 16 3690612
85 284 3690612
104 304 3661234
93 90 4277986
155 157 3665526
112 3 7979273
118 299 3667993
279 139 7545616
249 159 3849852
133 284 7460502
13 228 5474686
186 98 3739885
174 298 6700035
180 225 3755079
139 279 6949244
242 234 3857482
242 305 3762697
242 193 3762697
250 7 3995046
161 6 6797569
161 238 6797569
161 71 6797569
161 261 6797569
161 203 6797569
161 311 6797569
161 110 6797569
161 2 6797569
161 257 7380858
161 133 6797569
161 266 6797569
161 27 6797569
161 3 6797569
161 85 6797569
161 218 6797569
161 314 6797569
161 17 6797569
117 301 3777643
225 180 3785354
313 214 7572267
299 202 7567190
151 81 3833065
162 7 3834093
159 103 7152102
238 6 3848298
238 218 3848298
10 86 7996129
38 184 7918684
238 112 3930140
238 314 3850799
112 238 3933629
7 250 3918501
53 28 7983764
122 277 3919218
51 291 5094117
314 3 5224110
69 26 3924540
241 47 3925255
208 9 3932537
208 1 3932537
208 256 3932537
9 208 3944750
47 202 3934863
208 127 3936771
1 208 3947190
1 28 3947190
242 315 3941228
242 308 3941228
242 104 3941228
242 304 3941228
242 57 3941228
28 256 7987482
256 28 5049451
13 239 3958582
208 4 3997457
4 208 4009667
28 298 4874076
298 28 4894134
228 162 4014463
228 315 4014463
7 242 4016669
7 299 4016669
7 241 4016669
7 301 4016669
7 101 4016669
7 189 4016669
7 139 4016840
7 278 4016841
3 261 4017097
3 168 4017097
6 112 6934005
6 132 4126937
108 118 4263470
108 228 4263470
108 83 4263470
108 101 4263470
108 304 4263470
50 133 4264412
314 238 4266440
234 7 4267718
164 304 6680084
118 164 4360668
249 317 4277003
174 195 5647725
270 116 7489173
256 208 4275827
317 159 4281666
2 238 7975674
262 232 4525390
238 16 7285905
238 2 7912363
234 122 7825857
16 3 7392235
13 299 4367308
3 219 4967947
1 256 7987447
57 58 4539979
220 48 4626019
58 57 4540219
28 121 5048191
162 228 4438393
213 80 4439362
28 174 4440001
184 310 5146338
183 143 4448110
71 120 4457305
120 71 4515318
120 132 5041211
143 183 4525300
75 90 4528150
135 25 4537897
242 299 4533116
242 114 4533116
135 189 4537897
116 234 4628562
12 285 4548185
91 95 6616148
38 240 7918684
38 311 4605797
38 257 7918684
38 132 7918684
69 28 4871601
305 105 4612197
28 180 4624228
28 191 4624228
278 299 4628720
284 238 4699072
262 274 4873504
12 18 4884073
160 222 7913347
264 74 4888011
241 25 4890578
231 6 4904286
283 132 7550391
315 228 4955436
64 28 4955544
304 164 4958233
85 218 4963981
98 90 7813567
7 122 6797767
112 6 4978411
52 58 5034356
278 94 5053292
63 159 7241171
233 216 5124101
231 219 5127131
257 311 5129086
314 71 5142767
71 314 5142672
184 120 5222960
228 83 5426117
27 267 5216239
309 279 5216298
298 174 7908363
81 26 5226583
239 279 6683556
233 72 5227561
120 283 5238243
25 135 5241100
25 7 7909821
228 104 5418012
228 290 5420450
178 272 5471889
117 234 5472368
228 13 5472848
278 178 5473760
283 120 5475204
72 233 5482682
256 307 7753215
24 10 5483926
153 309 5485671
65 234 5488159
230 300 5563944
70 288 5494149
295 85 5562062
161 44 5563197
183 262 5580124
83 171 5580725
114 7 5588098
114 299 5588560
159 63 7238752
156 165 5652884
156 5 5652900
33 32 5663860
135 130 5667025
265 227 5759181
127 256 7833064
256 127 6560275
91 68 6592586
79 132 6598599
52 200 6600230
228 242 6600234
69 298 6601193
45 117 6602758
278 7 6602848
52 193 6608566
279 239 7294429
31 242 6617647
31 122 6617647
31 279 6617647
152 30 6681248
158 279 7397178
69 285 6691275
241 58 6700491
242 113 6703261
58 241 6703558
186 74 7909614
120 257 6712392
120 50 6712392
18 225 6773132
113 242 6774897
71 161 6781784
1 4 6783646
279 253 6857561
4 1 6783790
253 279 6857731
35 135 6791298
135 299 6858390
98 264 6860813
298 53 7982384
1 191 6870903
35 130 6875196
299 242 6893732
82 274 6949964
81 69 6953139
199 264 7913716
190 80 6958789
274 300 6963947
279 263 7980648
263 272 7217927
278 263 7224157
135 158 7291753
233 276 7393774
127 26 7392593
263 278 7294719
113 305 7294882
305 113 7296780
234 241 7302377
234 304 7302377
241 234 7488490
256 121 7307638
270 57 7489173
25 139 7808708
257 267 7379374
208 285 7804475
35 25 7395493
267 257 7397934
24 108 7456619
242 241 7405396
47 173 7418928
33 90 7456976
234 135 7808456
133 16 7460502
133 134 7460502
314 38 7461893
57 234 7462834
241 242 7464118
242 139 7465946
69 226 7466091
252 299 7466747
24 86 7468688
295 284 7473020
295 120 7473020
191 127 7478290
117 241 7479967
16 133 7480768
241 117 7484820
25 35 7486595
234 57 7551629
53 251 7559827
180 191 7561955
280 225 7565256
158 228 7572257
25 122 7808708
25 279 7808708
256 18 7752977
111 288 7797516
303 249 7809074
274 183 7809368
262 306 7814102
222 160 7824897
173 47 7891171
273 288 7891747
273 111 7891747
273 70 7891747
273 72 7891879
273 216 7891879
273 302 7891879
273 89 7891879
48 220 7892356
222 63 7899469
230 232 7899880
197 258 7905721
38 6 7918684
38 238 7918684
38 112 7918684
38 16 7918684
38 110 7918684
38 133 7918684
38 85 7918684
38 314 7918684
38 145 7918684
20 252 7928459
300 90 7975154
298 141 7980242
18 26 7981603
70 111 7982393
28 225 7987482
104 164 7996380
252 182 7998503
141 12 7999426
