262 74 32099971
90 281 32790472
160 249 32429027
120 78 30626010
306 230 32872912
273 276 32857660
273 233 32857660
160 63 32429027
184 267 32197482
249 160 5565295
90 99 32790472
151 280 32427979
310 184 30287740
176 225 30899
83 228 26899078
69 223 30465324
28 285 32874201
38 231 32901
279 7 32887941
26 225 27802041
160 103 32429027
160 60 32429027
160 317 32429027
160 159 32429027
18 28 22408447
230 74 32702703
230 150 20079646
230 169 8585256
230 274 32451010
230 88 13604388
230 183 32967806
230 33 32795271
230 82 32963624
230 281 32877893
230 23 8585256
230 264 8585256
230 143 32702703
230 32 32798788
230 90 32945324
230 15 32702703
97 230 31470696
184 295 26726582
33 230 32802795
90 150 32790472
7 144 26821262
279 118 31570017
253 271 38609
299 118 21803578
299 228 29660210
299 83 29670829
299 252 32341066
299 301 30873463
299 108 32450127
299 101 21803578
299 279 32451670
299 304 21803578
279 117 20506341
132 284 32445378
230 97 31044190
230 59 31044190
230 306 32363580
90 77 32790472
90 167 30538636
90 74 29584693
90 258 32857824
90 230 32944637
90 93 32790472
90 274 32790472
90 97 32790472
90 88 13412147
90 48 32790472
90 186 32938671
90 75 32790472
90 183 32790472
90 98 32790472
90 33 32790472
90 39 32790472
90 82 32790472
90 262 32790472
90 23 32790472
90 199 32790472
90 264 32790472
90 43 8596681
90 143 32790472
90 306 32790472
90 300 32790472
90 220 32790472
90 15 32790472
83 52 32687871
83 158 17134511
283 79 29854051
88 258 43455
79 283 32698085
306 97 32872912
306 59 32872912
306 90 32872912
80 291 32700199
269 230 29769159
269 93 29769159
269 274 29769159
269 75 29769159
269 33 29769159
269 300 29769159
26 127 32617893
26 174 32617893
26 280 32617893
26 81 32617893
26 4 32617893
26 152 32617893
26 208 32617893
26 9 32617893
26 18 32794997
26 121 32617893
26 64 28545682
26 30 32617893
26 191 32617893
26 53 32617893
26 307 32617893
26 298 32617893
26 12 32617893
26 285 32617893
26 180 32617893
26 69 32899798
26 223 32968669
26 256 32617893
88 82 20528309
21 145 32991238
28 4 32874201
108 252 20024404
112 161 32366600
132 240 32265943
132 6 32265943
132 184 32265943
132 238 32265943
132 71 32265943
132 261 10570212
132 112 32265943
132 38 32265943
132 203 10570212
132 311 32265943
132 16 32265943
132 110 10570212
132 2 32265943
132 257 32265943
132 133 32339744
132 134 32265943
132 78 32265943
132 266 32443280
132 27 32265943
132 3 32265943
132 50 32265943
132 295 32265943
132 85 32265943
132 218 32265943
132 314 32265943
132 17 10570212
132 161 32265943
132 145 32265943
132 267 32265943
132 79 32265943
132 120 32265943
132 310 32265943
132 283 32265943
158 162 20265725
158 83 20265725
158 25 20265726
158 202 32700197
158 101 20265726
158 45 20265726
158 315 20265726
184 240 12518708
184 161 29853935
184 79 30367411
78 238 30293801
161 112 30016788
161 184 32081300
7 279 32921095
225 26 19425299
242 173 30439496
161 78 31823700
280 151 32696157
0 106 31844073
78 161 32961771
18 208 32961479
18 307 29684350
94 252 31854746
277 135 20595386
118 279 8427561
223 225 32711104
116 173 32879005
116 253 32879005
50 267 31395647
186 90 32880337
79 267 32170561
0 259 31512378
295 310 32181425
230 258 8585256
57 130 30614626
306 274 19140836
13 279 32264654
82 232 129953
253 242 32806188
305 299 29078259
78 132 30293801
307 28 29315960
199 90 31261738
3 240 30438059
3 6 30438059
3 184 31582960
3 71 30438059
3 112 30975962
3 38 30438059
3 16 30438059
3 257 30438059
3 134 30438059
3 78 30438059
3 27 28716044
3 50 32272179
3 284 30452900
3 295 30438059
3 85 30438059
3 314 31582268
3 161 31669868
3 145 31496384
3 267 30633016
3 79 30438059
3 120 30438059
3 310 30438059
3 283 32346812
3 132 31583348
299 305 29079324
178 304 32972068
71 283 5241014
283 71 5475604
304 178 21381727
40 80 32948230
307 180 31049520
300 74 31654846
242 253 32807627
2 284 32694690
2 132 32707516
180 152 31655592
242 250 31497823
83 299 32088891
310 3 144014
252 86 28137195
93 274 31224692
93 33 32700249
284 3 168974
267 184 32356474
199 186 32875948
75 232 200085
200 52 32790253
150 230 3157650
75 274 31833280
58 193 31758841
58 270 31758841
58 83 31758841
58 301 31758841
58 45 31758841
58 200 31758841
58 254 32106186
58 52 32181875
9 225 31329483
278 116 32688987
278 253 32688987
278 13 32689028
79 184 30363347
234 117 22495948
116 278 32260437
93 230 32700249
93 82 8590399
251 12 207507
228 279 32281645
144 7 23784918
72 276 208815
38 50 32789493
38 295 32080278
38 161 32080278
38 267 32080278
12 251 210621
279 228 32281050
26 92 19425084
180 307 21284129
228 47 32863848
11 175 32270967
79 50 32383821
47 228 32349370
208 28 31065899
50 79 32340879
194 80 32963948
194 291 32954838
131 113 9191732
161 240 32175262
161 295 32175262
161 145 32081300
161 267 32175262
161 310 29250028
116 228 25638233
33 274 32276488
159 317 32180519
267 50 31227529
267 79 32356474
310 161 26036690
278 122 298386
310 145 30283770
310 267 286831
103 160 8429849
28 251 30363985
316 122 290994
52 104 31050771
53 280 32424970
228 116 19475699
89 276 7380016
80 194 32889904
236 7 11626446
236 162 643907
236 173 11625941
236 228 1514671
236 263 643907
236 122 643907
236 94 643907
236 116 643907
236 309 643907
236 253 11626638
236 13 643907
236 315 643907
253 236 11631185
116 236 653361
158 299 13540252
258 90 23704274
316 309 299169
299 158 300143
38 284 32256482
240 161 32698181
295 38 28094513
295 50 29148818
295 161 32884941
295 267 2623480
78 283 32958120
295 184 29240532
316 116 3931169
309 236 303258
280 174 31746280
280 53 32647059
51 190 308397
51 80 32435103
278 200 8680439
13 236 654969
108 299 32443089
274 33 31824203
202 128 29775212
161 38 32175262
161 284 32175262
284 161 1852314
284 38 316411
16 284 32960322
7 263 32921356
284 132 1869161
284 16 335321
94 236 646480
223 28 32791499
200 254 32790119
38 310 20608978
310 38 376745
24 252 32871024
202 158 32168393
291 51 32445857
291 40 31651731
291 194 32271978
103 159 5218623
278 173 31149590
278 242 30263894
12 28 32281759
252 154 5653761
279 278 31169583
252 189 31508350
283 50 30357880
50 283 30616111
161 120 32175262
278 279 31214284
161 50 31810946
263 7 29056768
78 50 31189710
299 170 389903
251 28 25981625
234 279 32356215
180 292 390998
120 161 31051897
279 242 32886790
202 209 21389917
279 234 32258612
242 279 32783301
230 75 31064122
230 269 22059030
86 24 32368315
194 247 2372245
194 40 32963948
266 145 741940
209 299 32973448
161 132 32175262
284 2 1869161
86 252 31836190
53 307 552856
278 236 32973633
80 40 32968595
173 236 11626865
150 232 639115
307 53 634267
173 242 30351023
228 299 18529017
200 58 32772809
200 270 32772809
200 83 32772809
200 45 32772809
200 250 32772809
318 249 20278330
104 7 31491395
299 209 6938932
279 122 32266294
279 104 32105581
199 220 14717274
262 300 32698945
104 279 31585439
7 104 28051956
143 232 13439023
38 79 32079474
108 241 32695486
108 209 29058016
108 315 32349840
108 104 32349840
176 223 32884758
28 9 32874201
28 18 32874201
28 151 17842675
28 307 32874201
94 278 31854746
300 262 31654846
103 60 3244153
79 38 32083956
28 12 32874201
116 270 32718635
116 35 32353727
116 13 29146267
116 57 31651857
258 82 30881660
225 176 664334
52 254 32196069
161 79 32081300
79 161 32771753
291 255 721430
288 111 32169602
228 241 28045694
238 79 1258186
241 228 28049962
40 291 32342130
79 238 1254895
103 249 8429740
103 63 723903
279 13 32264500
279 211 19043521
180 18 28736219
159 249 32338812
159 160 14225956
52 158 16461357
151 54 32343480
0 76 32473790
158 52 16464435
0 227 5158718
30 54 737681
53 174 32474732
80 51 32889904
291 80 32940761
199 143 20804774
306 75 29156782
288 233 32254973
152 280 30037679
9 28 28370846
279 308 19660807
18 180 32961479
134 284 28547336
134 85 28030048
134 132 32693094
145 21 32881860
194 190 11004271
253 47 32806188
279 10 12992488
130 25 30291061
190 194 11007246
279 173 827946
173 279 31748029
38 78 32712298
38 283 31147251
117 45 32376076
25 130 31846677
157 185 30013247
50 38 32785924
99 90 29754886
267 161 32356474
79 145 22489743
78 3 30293801
85 134 17145454
85 132 29003337
180 298 22157551
283 115 895004
267 145 32356474
223 69 26046355
253 173 32806188
253 116 32806188
104 52 28548373
120 310 32694826
120 284 32187334
78 79 32698751
78 231 30293801
25 277 32462157
112 184 28718804
53 298 30967730
160 318 32429027
66 300 908679
30 28 21809892
6 218 11020214
231 78 29585785
307 127 17743433
128 202 31244924
307 18 28458679
16 132 32960322
151 152 32259619
281 82 29356709
184 284 29004297
152 151 32778458
152 28 30278830
241 315 27940725
9 127 31481272
186 143 32438744
28 195 24228118
28 141 32874201
28 127 32874201
28 280 32874201
28 208 32874201
28 26 32874201
28 223 32874201
6 133 11633264
283 6 25092610
28 81 32342479
28 152 32874201
28 176 32874201
28 64 32874201
28 30 32874201
28 69 14023475
158 57 1169378
184 132 31402939
279 189 31570017
13 211 16988942
35 116 32195903
314 112 28032168
50 115 1187392
16 238 32960322
16 2 32960322
50 161 31825087
294 274 1236306
83 209 1237762
69 121 31440015
241 252 16039514
6 314 31692978
57 173 32797622
57 270 32797622
57 116 31652408
57 253 19385345
57 35 29595387
40 194 32259011
158 189 13540252
279 252 32860810
63 160 7462735
30 26 32377185
314 134 1249596
60 160 1250126
112 314 28110333
310 120 30875296
81 226 31061991
264 75 30273451
82 230 28026413
4 12 32111532
249 318 20259641
12 4 31670288
82 281 29348375
274 294 1320962
233 288 29058085
173 116 32109561
173 253 32424551
253 35 32806188
238 284 32961124
238 132 32961124
277 188 20595386
50 78 31746721
7 228 32121569
7 25 29318284
253 278 30978801
190 291 6874979
63 60 29433199
159 318 27424585
9 26 29851439
209 202 32198370
225 127 13452762
225 208 30444856
225 9 31308293
225 18 31681210
225 191 27864868
225 307 13452762
225 163 13526422
225 256 13452762
208 18 29696541
161 283 29665131
78 38 32961771
35 57 32195903
234 25 32187800
279 25 32881004
83 301 29606187
269 97 1426137
252 10 31573937
252 20 13021247
274 75 29075402
38 134 32787997
38 120 22032098
133 132 32704659
112 284 29329987
112 120 28718804
10 252 32693431
252 144 1445662
279 250 23375626
183 300 32956052
300 183 31654846
4 26 26665862
236 279 2366705
279 236 2370781
256 191 2654746
223 26 32881688
238 78 15758331
298 26 11964770
300 33 32273333
1 196 1523985
33 300 32897456
13 278 32444365
307 208 32638829
307 69 1767995
228 101 5420907
228 236 1706487
228 278 31849578
250 158 30877064
278 228 31842196
208 307 32711475
164 104 28548099
189 279 31576690
238 266 13438119
93 183 1763173
69 307 25911185
28 53 32874201
133 50 30627495
104 13 1765787
252 215 32716839
263 172 1768205
263 260 1768281
134 38 31664871
307 26 14724326
13 116 31786889
26 1 21913992
26 196 21125803
281 90 32790569
234 299 21716779
298 109 11893687
258 66 1776935
263 236 1777499
314 132 22600014
263 304 12302964
304 263 1849798
134 133 29779847
59 217 19045696
2 16 32440989
0 214 8439572
314 284 26924265
143 186 31752908
143 220 15695466
269 59 20075912
93 59 1849453
33 232 29842122
189 25 27772079
284 6 1854170
307 223 29149560
284 314 1854616
6 284 29762139
223 127 32255537
223 307 32256030
98 186 30290948
267 283 6952299
120 184 32942567
283 267 1858619
225 223 32189833
189 252 31572704
93 300 30973982
307 225 7749820
57 242 32797622
254 52 32114334
291 190 11879861
300 93 32191852
13 253 32805506
152 180 32342530
150 90 31729598
80 255 32889904
80 190 8601094
252 319 32716839
135 277 4537897
184 3 29836692
314 283 2103486
189 57 32196560
48 74 2024795
194 255 30878458
194 51 25696920
202 108 32689806
33 183 9720412
173 278 31585668
255 80 26842146
26 151 25611296
1 225 2040513
60 63 31851063
158 234 8754810
225 1 13452762
283 133 2092305
283 3 32684819
283 314 2145559
234 158 27774680
120 38 31051897
81 28 32292306
279 299 32451379
279 241 31169583
279 135 32886790
279 209 17763808
279 158 32281456
279 202 10934098
279 116 19923165
279 108 3060239
279 315 17928936
279 304 32175464
315 279 2123400
241 279 31226702
108 279 21798868
209 279 17857718
85 133 31673833
85 6 32253406
283 38 32690920
6 85 31827740
25 234 28543850
314 219 30633503
262 183 32882517
305 234 32264800
264 90 15755678
263 228 3053584
236 278 32955380
241 272 2373659
25 242 20162832
220 186 14806795
220 98 14806795
108 202 32702726
3 238 30438059
3 311 4017097
3 110 7812606
3 2 28716044
3 133 30438059
3 266 30438059
81 54 23809233
174 53 29771036
234 173 32356013
234 47 13785974
234 228 30021789
234 242 29231089
234 278 18778566
234 116 32356013
234 253 14820078
234 250 21717657
234 13 18778566
234 305 32258047
13 234 18779015
173 234 32358581
253 234 32806188
190 40 9279209
40 190 9610670
274 82 28726376
279 101 3060239
240 3 3750586
278 234 18786017
184 145 30898883
186 199 32351861
267 78 31827196
50 16 30616111
50 295 30616111
97 59 2550643
230 220 32955230
113 131 2551615
240 184 24414939
57 135 32797622
97 217 2552480
26 28 32902862
128 305 14197136
267 38 11370558
267 295 32083954
150 74 13592220
305 128 2556735
254 200 30355178
298 69 6601911
307 191 30974961
191 256 31069127
50 6 32848537
161 134 22144858
120 112 30626010
250 200 26927405
134 161 2625362
116 47 19383577
242 278 30439496
105 305 31841573
151 26 6881553
6 50 32857717
300 232 29594209
242 25 17332748
13 189 2709940
91 123 2714012
91 185 2710802
278 189 16439936
223 176 32362600
280 28 32162059
91 14 2717019
281 183 32713136
314 6 30280993
223 18 11177349
189 13 2737978
133 6 22674483
79 78 32698085
16 161 28652378
318 159 21219765
25 241 31846677
150 281 30018302
158 122 2972195
178 47 6605964
274 74 2973627
274 230 31564867
274 93 25540191
274 97 2973627
274 39 27339896
274 59 2973627
274 32 2973627
274 306 10332488
274 90 32443326
274 269 2973627
47 178 5568395
48 90 30886093
86 10 32368315
230 93 20082203
281 150 32190820
3 218 4017097
50 184 32233390
202 299 32090532
79 3 28987719
234 162 11609885
234 118 18778566
234 252 32187287
234 189 29689940
176 26 18263625
189 234 32972742
26 176 32617893
223 208 9205957
299 234 21890718
138 11 31749246
138 175 31749258
106 214 3083140
11 138 32358771
161 16 28644786
47 13 31768044
178 104 18796608
28 1 32874201
150 77 3157650
150 167 3157650
150 258 19039155
150 93 3157650
150 274 3157650
150 97 3157650
150 99 3157650
150 88 3157650
150 48 3157650
150 186 14028665
150 75 31567209
150 183 28973014
150 98 3157650
150 33 3157650
150 39 3157650
150 82 3157650
150 262 3157650
150 23 3157650
150 199 19895447
150 264 31567209
150 43 3157650
150 143 12377212
150 306 3157650
150 300 3157650
150 220 3157650
150 15 3739302
108 234 22487901
253 13 32806541
234 277 11609885
234 315 11609885
193 52 22169914
202 116 32946442
116 202 32885524
108 301 19857563
283 161 29664056
162 234 11786891
262 281 17318681
262 197 3231970
94 234 3241389
197 262 3234554
250 242 32794169
7 114 16452719
281 262 3240267
234 94 3240387
176 127 30969824
223 280 31047110
223 53 3745486
59 97 28018105
134 16 3942299
143 90 29587226
241 162 25527589
216 276 11620045
216 70 13164405
250 279 20689084
268 314 27720667
314 268 27714143
16 134 11713570
16 85 11713570
286 126 16473919
286 14 16298089
85 16 11608972
85 284 32865188
104 304 30548458
93 90 19036332
155 157 32399939
112 3 31488331
118 299 3667993
279 139 32703083
249 159 32891573
133 284 32254508
13 228 31243764
186 98 32351861
174 298 27858839
180 225 29255385
139 279 32708647
242 234 27363396
242 305 3762697
242 193 29147033
250 7 23088548
161 6 20179606
161 238 6797569
161 71 22921715
161 261 6797569
161 203 29250028
161 311 6797569
161 110 6797569
161 2 6797569
161 257 7380858
161 133 11796080
161 266 32175044
161 27 6797569
161 3 31641668
161 85 32175262
161 218 6797569
161 314 20506038
161 17 6797569
117 301 3777643
225 180 29255833
313 214 8116266
299 202 32450127
151 81 27521617
162 7 3834093
159 103 22498644
238 6 3848298
238 218 3848298
10 86 29148215
38 184 20608978
238 112 3930140
238 314 28395406
112 238 14801286
7 250 17083364
53 28 32862634
122 277 3919218
51 291 31487940
314 3 27443150
69 26 32951489
241 47 3925255
208 9 30456872
208 1 3932537
208 256 13007147
9 208 31222096
47 202 31649521
208 127 12344520
1 208 3947190
1 28 30448323
242 315 3941228
242 308 3941228
242 104 3941228
242 304 3941228
242 57 14020051
28 256 31224808
256 28 29885636
13 239 8517897
208 4 10230971
4 208 10231374
28 298 32874201
298 28 20085163
228 162 4014463
228 315 4014463
7 242 29772887
7 299 32121569
7 241 32121569
7 301 26859477
7 101 4016669
7 189 32121569
7 139 14197336
7 278 32121569
3 261 4017097
3 168 4017097
6 112 32971594
6 132 11020214
108 118 4263470
108 228 21805643
108 83 32261257
108 101 4263470
108 304 19857563
50 133 30551051
314 238 28402881
234 7 18346764
164 304 20679361
118 164 27426507
249 317 4277003
174 195 8511496
270 116 32718351
256 208 29360322
317 159 32178848
2 238 32440989
262 232 29256061
238 16 32961124
238 2 32961124
234 122 21121054
16 3 26825913
13 299 4367308
3 219 30454262
1 256 31055999
57 58 32797622
220 48 14806795
58 57 12476811
28 121 32874201
162 228 4438393
213 80 24585129
28 174 32874201
184 310 30284603
183 143 31651838
71 120 30950958
120 71 30894530
120 132 30626010
143 183 31189929
75 90 18169109
135 25 32374915
242 299 28650106
242 114 21821305
135 189 29008071
116 234 32262912
12 285 13102080
91 95 6616148
38 240 20608978
38 311 20608978
38 257 20608978
38 132 20608978
69 28 25911932
305 105 31671375
28 180 32874201
28 191 32874201
278 299 32788535
284 238 4699072
262 274 4873504
12 18 9287326
160 222 32429027
264 74 8001453
241 25 23895338
231 6 32117090
283 132 22662843
315 228 11882780
64 28 20080367
304 164 10938913
85 218 4963981
98 90 21129912
7 122 30368865
112 6 32972256
52 58 25433357
278 94 30437635
63 159 15757375
233 216 23120821
231 219 32117090
257 311 5129086
314 71 5142767
71 314 5142672
184 120 31402939
228 83 26255366
27 267 23357265
309 279 5216298
298 174 26815876
81 26 30288749
239 279 6683556
233 72 14110374
120 283 30626010
25 135 28122582
25 7 29255015
228 104 24770155
228 290 24770155
178 272 5471889
117 234 29864193
228 13 31782961
278 178 5473760
283 120 5475204
72 233 5482682
256 307 18273201
24 10 32263711
153 309 5485671
65 234 5488159
230 300 23722274
70 288 11004272
295 85 5562062
161 44 5563197
183 262 32878056
83 171 5580725
114 7 25046961
114 299 31144752
159 63 31485876
156 165 5652884
156 5 5652900
33 32 5663860
135 130 5667025
265 227 5759181
127 256 32970365
256 127 32801684
91 68 6592586
79 132 32771753
52 200 32269880
228 242 28636584
69 298 10404109
45 117 32794572
278 7 11875376
52 193 31050771
279 239 12926581
31 242 6617647
31 122 28752464
31 279 30383893
152 30 6681248
158 279 22667304
69 285 10404190
241 58 9813259
242 113 6703261
58 241 9816538
186 74 25017168
120 257 30626010
120 50 30626010
18 225 31679869
113 242 6774897
71 161 22775497
1 4 6783646
279 253 18269813
4 1 6783790
253 279 18436384
35 135 32266309
135 299 31048686
98 264 15347396
298 53 28117249
1 191 28731383
35 130 32691438
299 242 21731531
82 274 32879956
81 69 30275981
199 264 9543399
190 80 9272143
274 300 22678361
279 263 20849918
263 272 7217927
278 263 29586024
135 158 7291753
233 276 7393774
127 26 29779854
263 278 29862204
113 305 7294882
305 113 7296780
234 241 21716779
234 304 21716779
241 234 21720725
256 121 7307638
270 57 20246311
25 139 31846677
257 267 7379374
208 285 7804475
35 25 32195903
267 257 7397934
24 108 7456619
242 241 11010324
47 173 7418928
33 90 10836406
234 135 21716779
133 16 7460502
133 134 32102517
314 38 12833858
57 234 32356459
241 242 9014462
242 139 30356272
69 226 7466091
252 299 31850534
24 86 29843345
295 284 7473020
295 120 7473020
191 127 22763784
117 241 23223790
16 133 11713570
241 117 23278607
25 35 32090075
234 57 32356012
53 251 8097046
180 191 7561955
280 225 28028340
158 228 24243711
25 122 31846677
25 279 32348391
256 18 30378527
111 288 28533206
303 249 7809074
274 183 30027901
262 306 15670125
222 160 18788013
173 47 31748029
273 288 32857660
273 111 32857660
273 70 32857660
273 72 32857660
273 216 32857660
273 302 32857443
273 89 28365344
48 220 10835333
222 63 20180933
230 232 30968713
197 258 8496956
38 6 22849707
38 238 20608978
38 112 20771673
38 16 20608978
38 110 20608978
38 133 20608978
38 85 28638755
38 314 20608978
38 145 32080278
20 252 18721927
300 90 31063571
298 141 24331477
18 26 32546597
70 111 7982393
28 225 26577337
104 164 26652842
252 182 7998503
141 12 7999426
45 301 32779063
35 270 32195903
143 39 8166721
251 53 8088025
7 234 16995140
242 228 27272471
279 178 20097412
230 186 14042257
230 77 8585256
83 45 31562882
130 35 32641079
77 230 8165575
279 144 8167011
189 122 15154463
199 183 31575571
270 35 11885158
1 127 23883333
268 219 8338569
310 314 8422047
264 183 8593261
52 270 31050771
270 52 31847782
136 278 31153159
228 135 19999018
278 136 31153206
23 42 26910949
39 90 25539930
47 304 8675023
228 271 8518532
208 225 30437910
250 228 24237140
183 274 12999576
230 56 8585256
230 167 8585256
230 48 8585256
230 98 8585256
230 39 20255129
230 262 30958001
230 42 8585256
186 230 8586084
6 238 11020214
6 71 11020214
6 78 23359093
6 27 11020214
6 3 15858229
6 283 25027413
6 240 11020214
6 184 11020214
6 261 11020214
6 38 29671020
6 203 11020214
6 16 11020214
6 110 11020214
6 2 11020214
6 257 11020214
6 134 29780488
6 266 11020214
6 295 11020214
6 17 11020214
6 161 11020214
6 145 11020214
6 267 11020214
6 79 11020214
6 120 11020214
6 310 11020214
236 241 11625866
2 240 30352359
279 47 18261649
47 279 14560578
281 265 13190631
265 281 13191437
18 1 11093455
317 318 27853679
278 305 16620256
278 164 14020050
278 241 26557836
278 316 8680439
278 309 13438806
278 139 8680439
139 278 8684687
199 98 30310965
98 183 17136906
256 1 22417358
48 183 31740454
136 239 17147657
47 234 28382858
25 189 20780136
82 183 26749420
241 236 11626465
145 79 29768086
25 57 32962571
298 195 9190896
298 251 9190896
186 183 9035447
234 8 9029617
183 199 30888562
228 7 14020065
77 90 28369877
274 199 32101615
88 90 9103037
82 90 16822599
308 234 22060962
216 233 18197715
127 174 9121095
127 18 31045008
127 307 32268170
127 298 19922016
127 69 9121095
127 223 32255594
127 292 18287378
145 184 29578767
167 90 30541748
50 314 22684978
280 26 32626553
314 50 22685427
234 308 22064760
145 161 32700238
278 47 23890813
145 267 32430515
83 108 32277175
223 12 32255762
12 223 32260678
280 152 9293832
183 48 30272127
255 194 22159531
241 130 23204019
208 223 9205600
141 298 22094633
23 74 9235644
23 183 9235644
251 298 9269633
183 23 9271590
183 42 9723627
50 120 9282034
242 13 29665089
12 307 24236021
318 222 9290083
53 26 25961157
9 18 31567477
47 86 30015948
97 306 14561189
33 150 9360044
33 169 9360044
33 48 9360044
33 186 9360044
33 98 9360044
33 82 20094154
33 281 10239726
33 199 9360044
33 264 9360044
33 143 9360044
199 33 9543399
199 274 32101155
82 199 9366112
112 132 28718804
60 249 31053134
199 150 20524457
199 169 20524457
199 82 9543399
299 278 11972639
97 262 9625141
1 26 9625849
234 164 9626152
234 202 9626891
234 108 22502540
183 230 32964784
183 82 17228091
75 230 30866844
136 299 9635221
202 47 10572532
57 189 32797622
252 122 18518105
63 222 27960813
144 279 9700933
85 267 9709975
1 18 9717332
53 225 31754721
234 104 21716779
120 134 30626010
98 75 9726926
45 83 32779063
234 182 12402014
83 58 25965595
145 283 9791586
142 121 9794229
45 299 32860773
204 160 32865742
257 6 9801393
257 112 9802634
204 159 32865742
204 318 32865742
281 33 9989950
299 45 26921519
183 281 32782213
295 283 9887413
283 295 9874881
204 60 32865742
204 63 32866963
85 38 28484621
160 204 32429027
130 116 9960676
116 130 9962449
6 219 32822121
158 7 25353009
183 90 32697502
204 103 32865742
204 249 32880025
204 222 32865742
204 317 32880862
2 145 9975164
7 158 20160478
145 2 9980133
12 26 32439158
242 254 27530310
254 242 10244256
252 234 32118073
234 10 12402014
274 232 27339833
250 162 10227144
162 250 10231851
221 10 28230873
10 221 27943305
79 295 31129325
298 127 19922387
298 81 11894265
298 292 11894280
0 129 32220284
81 298 10245166
114 242 32775966
26 237 11879070
0 313 10315117
178 164 31242900
228 304 32968268
220 143 15762030
238 231 32972465
45 228 31584170
189 135 30038046
228 45 32883823
63 204 32866533
262 143 10414962
145 3 31503004
307 12 10489554
24 131 15331041
314 133 17921423
40 51 32880138
283 78 31064107
208 26 28714908
159 204 32351276
133 266 31842136
133 85 31842136
133 231 11205687
228 250 24239719
101 45 10776062
193 57 10832612
48 39 22173652
300 82 10837742
302 216 10846319
149 301 11169822
133 120 21908486
262 150 10921456
120 133 30626010
152 298 28555296
81 223 31134196
143 150 10925675
86 47 32368315
279 164 31674189
262 90 32349591
262 230 32085239
279 290 10936732
47 278 27355107
258 262 14120981
262 258 30356770
279 182 11013594
221 252 28304960
51 40 32439108
135 35 32263999
99 150 11020035
252 221 32358848
45 193 32779063
45 144 32779063
45 58 32779063
45 270 32779063
45 52 32779063
45 207 31657162
45 200 32779063
45 254 32779063
145 50 31820200
113 299 11092884
113 149 11107217
18 127 32972163
18 4 11093455
18 9 11093455
18 12 11093455
18 256 22423355
50 145 31825380
131 24 11097321
130 113 11098029
30 280 31230287
30 81 31050091
30 152 31050091
30 64 31050091
30 151 31050091
30 69 31050091
30 223 31050091
81 30 21816252
112 38 32259761
279 305 31570017
123 165 11112682
123 5 11112709
52 250 11386606
305 279 31579622
109 298 11131896
250 52 11167845
231 133 24738801
173 178 31748029
82 264 11188803
281 186 32190744
281 220 15156804
281 217 11380823
52 83 32369427
52 301 25433357
52 45 26905345
109 285 11391354
134 266 28030048
234 131 12233736
234 24 12993370
308 309 11611610
143 217 11614828
241 278 26640393
131 234 12236545
236 242 14222178
236 25 11711801
16 112 11626391
250 299 18372752
25 236 11641092
59 306 28018026
183 33 17228091
139 277 11701142
307 256 11703140
303 159 17667331
4 28 32778812
16 240 11713570
16 184 11794018
83 200 29576656
182 279 11742508
184 16 11798186
133 161 11881724
133 267 29579994
262 97 19660945
191 1 22618113
184 78 32195624
78 184 32252314
135 241 28711266
228 113 11883411
267 133 11888003
231 112 29269366
249 204 32861624
145 314 12192809
188 250 12208704
188 47 12209605
111 70 12219183
183 74 29160107
58 162 32949826
314 145 12220261
145 6 12222882
233 111 14110374
270 58 12231468
250 173 30443565
307 292 12307277
299 114 32169255
133 3 28029777
241 116 12935432
257 120 12321261
162 58 31570992
252 24 23623963
295 44 12403604
234 210 12402014
113 46 24844185
191 225 27865484
59 90 28018066
255 291 12480640
71 38 20196859
133 112 12507728
133 314 12507728
90 59 32790472
38 71 12556831
50 112 29583947
71 310 23638871
112 133 28718804
112 50 12570365
250 47 24224858
34 26 12597313
101 299 19390268
101 301 12748959
7 304 15924912
132 231 32265943
221 86 26844105
53 12 19903199
63 318 29580340
318 204 16013506
237 26 12902583
283 231 12984258
12 53 14649306
222 204 19566742
318 317 14461815
184 283 14546727
116 241 19383577
231 283 24738801
182 234 12952977
279 49 27848761
279 130 27260456
264 232 13000743
184 27 23219174
241 189 28651246
158 242 13540252
158 250 13009998
242 7 27186992
242 158 21741038
38 3 27170135
283 266 19123196
252 279 32995604
250 234 21294670
232 274 32274361
33 75 30611653
104 228 27516984
158 305 13797455
158 304 13797455
81 12 13428181
53 127 15691544
255 51 30372665
225 152 13452762
225 298 13452762
309 136 17846701
304 299 18782320
310 295 29680613
30 176 26754469
176 28 30973482
176 30 26752122
304 158 13597040
27 284 15327224
231 134 24738801
231 266 30355722
231 284 24738801
231 85 24738801
231 132 24825677
300 274 23980231
174 18 13766610
112 219 31654033
277 25 20595386
37 278 14020024
57 104 14020024
207 239 14020027
158 309 14020037
8 47 14020038
241 108 14020038
182 319 14020039
135 315 14020043
239 65 14020050
319 299 14020052
210 253 14020052
309 189 14020052
263 8 14020053
315 101 14020054
104 139 14020054
36 252 14020054
114 13 14020055
13 242 19055926
116 209 19474257
162 241 25519121
94 290 29702756
290 210 29702927
47 118 14020058
7 173 14020058
202 37 14020058
304 113 14020059
113 263 14020059
24 305 14020060
35 207 14020061
277 154 14020061
154 36 14020061
108 122 14020062
188 182 14020063
211 25 14020063
25 162 19129643
289 158 14020064
308 228 14020064
271 135 14020065
263 279 21398189
136 309 22502023
225 280 28028570
278 239 14030353
86 221 32368315
183 186 14042561
98 220 14044332
88 274 17586950
233 302 23713054
233 273 14110374
233 89 23120821
233 70 31671620
254 58 27851842
141 28 22432983
108 158 14118449
257 284 32606985
250 139 24742922
317 204 32872507
283 284 14124732
283 184 14549429
309 7 20600586
158 108 14127545
78 284 30293801
142 81 32918288
139 25 31064447
266 231 28973567
96 227 14145325
53 141 14226636
97 90 14197683
81 142 32958951
166 112 29780589
112 166 28715324
242 236 14831523
260 144 14223891
299 136 14457892
77 143 30372333
257 240 14465698
44 295 14472149
306 39 15751657
39 306 32427870
274 262 30027901
59 269 20082066
94 114 25597339
97 232 14546700
266 283 14565634
94 7 32426742
7 309 32921095
7 94 32605112
135 278 27355487
135 234 19861521
77 281 25627234
52 144 14657252
52 207 14657252
144 94 14676950
108 113 14714751
108 319 18439441
113 108 14717214
262 93 22770797
58 246 31758841
120 240 30626010
120 267 30626010
12 208 30978793
220 199 14806795
258 232 14815479
304 234 14818791
299 200 29838660
228 253 14825473
253 228 32806188
57 278 15145420
232 258 15145787
278 57 15152327
279 162 32346650
162 279 32348372
50 3 32338788
30 121 16458367
21 184 17783233
114 94 25632791
221 24 15255759
71 78 15256949
78 71 30293801
183 150 15325485
46 113 32085474
193 200 30872326
200 193 32772809
299 135 31070393
293 26 32090727
250 241 15423304
250 13 15423304
7 13 22519998
7 252 15426273
7 135 31861109
26 293 32617893
183 97 15666346
183 39 15666346
183 306 15666346
183 220 17655201
174 28 26904219
12 141 24236021
220 230 31849701
90 232 15675795
134 231 28030048
266 132 32439453
78 218 15682371
231 238 25340784
306 183 15751657
306 82 15751657
306 220 15751657
306 262 15751657
220 97 15762030
220 183 17594658
220 39 19990144
220 82 17067839
220 281 15762030
220 306 15762030
240 284 15763377
264 281 15935665
53 1 16974659
27 2 15844291
1 53 16975115
116 45 17742483
77 48 30372333
77 220 15859753
264 230 26227058
281 264 16621461
7 118 32121569
7 164 31765635
85 3 15926434
231 71 24738801
231 27 24738801
231 3 29837171
231 50 29249677
231 314 29269366
231 240 24738801
231 184 24738801
231 38 24738801
231 311 24738801
231 16 24738801
231 2 24738801
231 257 24825677
231 295 24738801
231 218 29269366
231 161 24738801
231 145 24738801
231 267 24738801
231 79 32698355
231 120 24738801
231 310 24738801
57 25 32797622
47 116 17134229
134 184 31831891
232 230 19378013
189 278 16020068
180 28 30356609
112 283 28718804
263 277 16443251
189 241 16481169
117 279 26171444
90 269 32790472
186 48 32351861
252 57 31508350
57 252 32718311
278 158 16620256
278 211 29247322
220 90 30892277
191 208 16981770
70 235 17054531
217 230 17057841
151 30 17061512
82 220 25003226
241 135 28651246
280 292 17102870
13 47 31787155
241 299 17138016
286 179 17146140
136 162 17147657
136 173 17147657
136 47 17147657
136 8 17147657
136 228 17147657
136 242 17147657
136 46 17147657
136 263 17147657
136 241 17147657
136 316 17147657
136 211 17147657
136 116 17147657
136 139 17147657
136 253 26569073
136 250 17147657
136 279 17147657
136 13 19384344
136 315 17147657
136 308 17147657
98 230 17153011
12 1 28564434
298 4 17164912
152 142 17233602
251 285 21911119
178 116 25518977
279 309 29863331
143 32 17335573
242 130 17566525
149 228 17583982
200 299 17584530
127 28 18773532
219 6 32824280
274 88 17600888
228 301 19390444
199 48 20804774
293 292 18269225
104 188 26136856
189 228 17660635
228 108 20075789
103 204 28636322
258 88 32256217
45 116 17747963
33 93 20174638
143 230 31562716
151 28 18866775
118 104 29582091
191 4 17923300
39 274 27421020
82 33 20099187
75 93 18175137
135 118 18176917
135 228 19935993
135 242 32798806
135 279 32798806
135 104 18176917
135 304 18176917
135 7 31876644
242 135 32879513
104 135 18182079
184 134 31829537
45 108 21804043
108 45 19860307
263 234 18289573
152 26 28993586
304 135 18280456
234 263 18778566
79 266 32698085
83 114 25626015
234 35 32258048
234 211 18346764
35 234 32258828
252 94 32968741
252 228 28128232
228 252 28318972
58 209 18452212
225 53 31753781
223 81 31134455
223 30 32704721
253 136 18972898
278 135 18524473
277 57 26738679
114 83 25644873
225 285 18785608
113 319 25441921
319 46 18796889
144 193 18863517
144 58 18863517
144 270 18863517
144 83 18863517
144 52 18863517
144 207 18863517
144 301 18863517
144 45 18863517
144 200 18863517
144 254 18863517
258 281 32963181
116 162 18865615
116 242 19383577
116 108 18865615
242 116 18868225
281 258 32961314
208 180 20512614
202 57 18951164
48 281 18951740
45 252 31585320
217 59 19051679
252 45 31599835
217 90 32701925
277 189 20595386
82 39 25003226
211 279 19044740
262 59 19050685
93 75 28720080
300 59 19056709
2 161 30352359
307 285 19125199
98 15 28650993
134 238 19143438
283 62 19144299
241 114 19145742
178 279 19149969
241 139 19153590
238 134 19166779
135 252 31072356
119 38 19320719
119 314 19321419
38 119 19324509
252 135 20517078
57 49 32797622
57 277 32797622
57 139 32797622
53 18 19394224
24 234 19384816
13 136 19385299
57 241 32797622
45 101 27505328
78 133 30293801
78 27 30293801
78 266 30293801
78 145 30293801
78 267 32267434
33 74 19386226
314 119 19386513
204 303 29074387
93 262 19389329
101 228 19390268
173 270 27332603
209 116 19411944
135 250 19471043
25 263 21310887
25 188 20780136
25 210 20780136
250 135 30454031
228 234 24563449
241 263 19559020
135 116 19577500
78 21 25982440
270 173 19573943
116 135 19917803
202 135 19643582
122 37 20168729
75 33 19644492
219 314 31701006
255 40 19646390
117 299 19659203
288 216 19660296
45 47 19907747
45 202 32687641
45 304 19660817
308 279 19660958
299 117 19663688
108 47 19857563
47 45 19862804
94 108 20587845
108 94 20616130
263 25 19913605
7 305 32121569
252 108 19936167
135 10 19935993
298 22 19985478
319 252 32269649
180 208 20880148
127 225 20090443
94 118 20159796
94 58 20159796
94 228 20159796
94 242 20159796
94 122 31580567
94 241 20159894
281 230 32881626
239 164 20180589
2 133 32450558
94 279 22682789
279 94 20279203
191 307 30638291
199 281 20432598
199 15 20432598
199 56 20432598
108 135 20504307
94 299 20513148
83 241 20698176
304 228 20535028
222 60 20594188
61 186 21122144
277 130 20595385
277 117 20595386
277 177 20595386
277 37 20595386
277 263 20595386
277 241 20595386
277 210 20595386
277 139 20595386
277 170 20595386
277 279 20595386
277 65 20595386
277 35 20595386
277 315 20595386
298 226 20598285
314 184 20603307
38 203 20608978
38 115 20608978
241 83 20697699
250 272 20689084
278 250 20691112
173 250 31748029
25 117 20780136
25 177 20780136
25 37 20780136
25 170 20780136
25 65 20780136
256 226 20781751
267 3 29584922
139 173 20860770
83 193 20864426
266 133 30832993
133 2 32782188
211 308 21107261
130 189 27783547
130 49 29606425
130 135 29606425
130 277 27783547
164 118 26138224
130 241 23794261
49 35 27178705
166 314 25361108
314 166 22176476
83 202 25522930
83 47 25522930
47 83 21398488
63 317 21730445
60 318 31851086
250 263 21794374
280 30 31475509
266 134 21809252
299 10 21811225
299 47 21811225
83 252 32080358
83 304 26898782
262 39 21823638
262 82 21823638
202 83 21886868
82 262 21890128
21 78 21928650
304 47 22082500
184 85 22084047
159 60 22097186
9 92 31580153
180 1 22157551
254 193 22170097
193 254 27501168
78 6 30293801
263 250 22421089
266 78 22424960
6 115 22438488
151 223 22672512
127 293 31499805
256 180 22513281
13 7 22516257
280 141 23628488
7 37 22604254
310 71 22681835
280 121 22630122
141 280 23303523
280 223 31073137
314 240 22675947
191 28 22684887
310 44 29680583
127 191 22763872
238 3 22776891
164 178 28722499
81 121 27770649
121 81 28459493
135 49 23731259
304 279 30632520
77 199 24328320
49 135 32269736
90 61 32790472
40 255 27505945
77 186 23359639
232 262 23370459
135 57 32263999
270 254 31847782
257 310 27257116
12 225 32103408
47 250 23985896
27 145 26208292
209 241 23733708
209 108 26585554
209 315 23733708
209 104 23733708
101 278 23794058
130 162 25008806
122 7 26562345
127 1 32268985
121 223 28634758
225 121 24082488
127 285 24224823
12 127 24236021
12 280 24236021
12 81 24236021
202 86 24392810
92 81 24408998
121 225 24651143
145 132 32688401
266 238 24501686
160 303 25427137
223 121 32883097
50 132 24839421
317 63 31218931
288 276 24850128
143 82 25024663
228 211 25032723
231 119 25353371
53 92 25434147
81 151 25356978
92 53 25427925
319 113 25442382
13 173 32428943
13 241 25454617
162 130 25605099
116 178 25529552
2 3 30352359
94 139 25952337
318 63 27252143
135 139 26049495
293 225 26298306
288 72 26147424
83 242 27248222
242 83 26566178
306 300 26566653
225 28 26575485
4 225 26569465
306 93 26651500
250 108 29597813
50 257 26731005
108 250 30622974
145 295 32216936
300 42 26842932
101 117 32452400
252 83 31850895
314 21 26921020
21 314 26924279
157 155 30013247
295 3 27094592
180 226 27165191
10 279 27259445
284 85 27173041
266 79 27184242
71 79 27261351
79 71 29681333
173 13 31748029
279 272 28650354
279 301 30627335
120 79 30626010
293 256 27345803
219 284 31689039
79 120 27424745
164 279 27426433
219 112 32561082
104 299 27512678
13 101 31243764
101 13 28980593
71 3 27517370
298 180 27521316
130 57 30658866
184 50 32197878
122 299 32796385
64 26 27850234
299 122 27857358
295 79 28094513
121 28 31227404
121 1 27943155
26 198 27968171
59 230 28018086
104 108 28026482
82 15 28048585
241 250 30890077
152 176 28132975
127 53 28363792
180 26 28374755
9 307 28460424
121 26 28475422
112 231 28477816
232 33 32274361
49 130 30033807
278 162 28646757
278 108 32788535
108 278 28717064
112 240 28718804
112 2 28718804
112 257 28718804
112 134 28718804
112 78 28718804
112 266 28718804
112 27 28718804
112 295 28718804
112 145 28718804
112 267 28718804
112 310 28718804
119 112 28719822
121 69 31195457
216 72 29068112
305 164 29075546
242 108 31481793
193 242 29166348
2 134 30352359
2 50 29231482
2 6 30352359
2 295 29231482
2 85 29231482
2 267 30352359
219 231 29244026
50 231 29250662
78 120 30293801
26 297 29254077
108 242 29259856
83 278 30962029
250 193 29581433
78 240 30293801
78 112 30293801
78 2 30293801
78 257 30293801
78 134 30293801
78 295 30293801
78 85 30293801
78 310 30293801
24 215 29585602
121 30 29593898
108 57 32349840
164 94 29702528
125 106 29703317
130 234 29714752
219 3 30445949
106 125 29752686
189 35 29756466
35 189 32195903
47 242 29775419
134 6 29780237
219 166 29801183
3 231 31142460
279 24 29837601
24 279 29837857
257 2 29841820
41 59 29846593
166 219 29853878
2 257 30352359
189 271 29864562
60 222 31679992
41 230 32962879
41 93 32962879
41 274 32962879
41 75 32962879
41 33 32962879
41 300 32962879
234 130 30021653
120 238 30626010
120 27 30626010
120 3 30626010
120 231 30626010
120 314 30626010
120 6 30626010
120 311 30626010
120 16 30626010
120 2 30626010
120 266 30626010
120 295 30626010
120 85 30626010
120 218 30626010
120 145 30626010
152 226 30033351
94 164 30269342
288 273 30297436
2 27 30352359
2 120 30352359
51 255 30352504
79 6 30353829
79 284 32771753
245 157 30981913
127 92 30437570
309 8 30455202
8 309 30455275
117 101 31057134
81 187 30543640
26 187 30544126
187 26 30611389
127 208 30617320
85 219 30637836
299 52 30877001
52 299 30882029
187 297 31572507
164 202 31664090
202 164 31665952
132 115 30988541
35 253 31054792
241 202 31064064
7 243 32366997
60 317 31056562
202 241 31057090
152 81 31062115
81 152 31062148
57 193 32797622
57 117 32797622
57 177 32797622
57 263 32797622
57 299 32797622
57 188 32797622
57 211 32797622
57 148 32797622
57 209 32797622
57 158 32797622
57 202 32797622
57 108 32797622
57 101 32797622
57 210 32797622
57 170 32797622
57 279 32797622
57 65 32797622
278 304 31149311
173 202 31132892
304 278 31145870
47 253 31220825
145 27 31232068
49 57 31232708
293 187 31233308
187 293 32363776
6 231 32949552
184 44 31243329
178 202 31485937
202 178 31485143
49 241 31510444
101 122 31563004
216 273 31564637
253 202 31567673
241 49 31568309
279 57 31570017
166 119 31572622
52 202 32774304
202 52 32775531
200 202 31653731
298 307 31662467
298 12 31662467
35 202 31831628
202 35 31826747
117 202 31679564
293 127 31685570
92 196 31738001
173 228 31748029
173 241 31748029
173 49 31748029
173 135 31748029
173 139 31748029
173 35 31748029
173 57 31748029
243 7 31771139
164 7 31750315
35 173 32195903
243 279 31771139
228 173 31782267
49 202 31831470
297 187 31835348
85 295 31837915
135 202 31843815
310 132 31845094
81 297 32958951
94 158 31854746
144 228 31877824
279 243 31863547
228 144 31867716
35 49 32195903
191 26 32088331
204 87 32865827
225 12 32094585
87 204 32271348
134 50 32104846
50 134 32105084
161 231 32175044
35 277 32195903
35 139 32195903
0 287 32197807
145 38 32216936
204 248 32865742
248 103 32255805
248 249 32255805
248 87 32255805
248 159 32255805
248 244 32255805
248 318 32255805
248 60 32255805
248 222 32255805
248 317 32255805
248 160 32255805
248 63 32255805
248 204 32255805
63 248 32951519
87 248 32270175
244 87 32799278
244 248 32799278
244 318 32799278
244 60 32442035
244 222 32799278
244 63 32799278
244 249 32258644
244 159 32258644
244 204 32867008
112 85 32259761
204 244 32865827
308 319 32268662
159 248 32281439
186 220 32351861
200 279 32357788
87 244 32777813
200 7 32691555
7 200 32359995
160 87 32429027
160 248 32429027
160 244 32429027
200 301 32432690
45 135 32454947
33 262 32459292
262 33 32461578
202 45 32688061
263 299 32694486
87 63 32801087
63 87 32800888
280 226 32696157
79 231 32698085
112 268 32699022
184 133 32704945
305 7 32705516
133 184 32707674
232 74 32770738
258 183 32780830
183 258 32782213
258 230 32784081
278 202 32788535
228 164 32795707
164 228 32795522
222 87 32801386
253 178 32806188
253 290 32806188
253 270 32806188
253 241 32806188
253 49 32806188
253 135 32806188
253 57 32806188
135 45 32859383
28 293 32874201
28 187 32874201
59 258 32949744
