18561 18393 -48938123
1301 23684 -46704167
315567 23684 -46291724
16103 23684 -45775883
40820 18393 -44677397
23684 23684 -38884447
24833 17828 -32048975
1909 17828 -32048217
17828 1909 -32045764
106627 17828 -32044269
17828 1909 -32044183
17828 106627 -32043750
16814 17828 -32039698
1909 1909 -32028322
31439 1471 -18541979
1471 31439 -18541520
17725 17828 -17340237
2369 33096 -7494327
57149 33096 -7347404
39668 33096 -880346
4 5 0
4 27 683
10 27 722
42 10 907
4 10 911
41 43 935
5 63 966
50 27 985
4 20 1016
66 56 1052
5 50 1059
9 39 1220
77 39 1239
10 4 1289
69 56 1346
10 4 1389
50 5 1415
4 50 1491
75 50 1508
12 77 1553
4 68 1554
63 4 1558
5 82 1576
24 68 1589
86 27 1603
66 35 1793
96 10 1844
75 56 1877
35 45 1935
5 91 1957
10 10 1973
56 91 1977
91 91 2028
5 5 2031
103 50 2040
86 42 2043
41 56 2084
5 88 2098
5 86 2118
4 50 2127
104 50 2130
35 56 2147
4 88 2175
66 42 2215
35 56 2224
66 86 2234
12 24 2237
4 4 2254
91 82 2315
86 45 2368
35 66 2387
4 50 2440
27 4 2444
45 86 2467
9 76 2479
35 88 2535
86 86 2566
24 12 2568
50 103 2579
66 68 2606
4 76 2657
56 41 2703
46 10 2732
66 66 2737
56 56 2832
10 82 2845
103 20 2851
5 104 2948
10 46 2976
9 109 3041
104 42 3047
27 104 3075
66 104 3116
12 9 3124
4 27 3131
35 91 3144
5 56 3151
66 104 3153
24 50 3155
116 27 3178
5 4 3203
35 66 3246
66 109 3280
4 4 3305
4 118 3486
50 5 3493
4 27 3541
35 15873 3544
41 41 3553
10 56 3696
20 106 3718
46 46 3731
24 56 3746
66 56 3795
41 118 3834
35 10 3854
56 41 3920
66 27 4010
41 41 4102
41 4 4339
88 35 4421
38 35 4424
66 4 4452
4 66 4575
94 4 4623
10 66 4649
35 4 4722
10 10 4786
66 104 4818
35 27 4822
66 27 4905
130 27 4951
35 35 4968
84 109 5170
41 109 5226
41 128 5432
66 130 5505
84 86 5562
128 41 5717
56 66 5725
68 66 5801
122 10 5864
136 56 5993
104 104 6069
130 104 6229
41 41 6266
132 43 6293
134 42 6444
41 56 6684
35 56 6697
5 5 6723
141 56 6802
145 56 6858
132 94 6891
104 35 6925
35 56 6949
132 56 6995
56 88 7099
104 35 7111
88 56 7330
103 88 7378
88 56 7481
41 35 7482
5 88 7627
45 88 7641
5 88 7684
5 27 8054
88 88 8060
5 56 8119
5 56 8172
5 88 8385
152 50 8539
119 5 8591
119 138 8721
153 138 8841
94 50 8917
5 152 8931
143 138 8977
129 56 9074
134 27 9111
88 5 9123
88 143 9408
129 136 9491
5 7002 9794
129 7002 9797
134 136 9810
5 7002 9924
154 136 9992
28 42 10148
154 5 10311
28 5 10417
66 128 10639
154 4 10965
163 42 11405
46 27 11406
138 138 11416
165 4 11436
138 143 11628
163 76 11729
165 165 11768
154 103 11905
129 56 11916
130 161 12030
165 161 12086
165 161 12111
154 68 12356
56 129 12400
28 161 12761
28 154 12944
24 130 13049
129 129 13362
5 6005 13415
130 130 13459
5 28 13557
130 130 13602
28 130 13750
169 6005 13794
57 24 13848
154 56 14018
35 7002 14037
169 56 14369
22 154 14392
24 57 14472
28 143 14569
154 156 14626
169 103 14767
128 128 14889
28 143 14919
57 156 14999
57 35 15547
172 56 15616
28 170 15678
130 28 15753
170 28 16183
178 154 16590
129 154 16664
57 154 16668
154 154 16914
5 176 16946
176 130 17089
5 179 17191
5 154 17420
130 176 17492
57 154 17495
5 143 17527
91 154 17545
20 5 17586
5 5 17855
91 35 17914
182 129 19274
130 176 19452
73 5 20523
104 5 20528
186 76 20703
73 104 20814
186 82 20843
186 73 20878
57 82 21043
186 5 21466
186 170 21655
57 170 21867
5 104 22773
182 50 23285
189 5 23571
188 41 23707
115 91 23714
115 154 23964
170 170 24230
73 73 24286
73 104 24356
188 82 24359
182 5 24396
188 4 24736
73 115 25630
188 66 25749
73 76 25806
66 66 26215
57 170 26462
188 35 26529
66 154 27108
188 56 27234
76 76 27642
66 41 27742
188 145 27764
5 175 28117
192 170 29113
170 192 29627
192 174 29727
170 170 29729
192 35 30148
192 192 30501
66 175 30806
66 154 31102
194 170 31271
66 115 31431
42 130 32248
116 56 32396
4 192 32470
115 175 32476
115 115 32632
4 115 32678
192 4 32750
66 4 32854
192 4 33061
4 66 33536
115 41 34185
66 66 34537
199 41 35994
5 80 38132
24 199 38144
192 172 38506
192 5 39012
24 80 39122
199 199 39297
5 5 39393
5 199 39569
170 199 39654
203 4 39671
203 129 39789
102 5 39875
203 7002 39902
80 80 40241
80 24 40428
192 5 40792
5 5 41480
24 24 41593
192 199 41696
80 154 42095
80 24 42342
26 91 43779
5 91 43975
67 26 44359
192 4 45997
192 5 46082
212 43 46527
212 170 46870
23 154 47598
215 91 47793
42 192 47813
23 194 48227
212 115 48285
143 192 48351
23 76 48444
217 166 48485
192 143 48557
192 192 48579
23 5 48641
166 217 48863
23 23 48928
56 166 48949
215 50 49014
212 68 49185
91 26 49588
215 56 50108
192 192 50146
221 220 50502
134 220 50727
192 192 50936
220 166 51149
50 66 51575
225 166 51707
23 5 51984
47 166 51988
42 163 52262
42 104 52486
224 41 52528
23 118 53123
56 215 53264
24 224 53482
221 161 54319
170 161 55672
154 161 55707
154 161 55810
20 5 55855
154 57 55985
161 170 56066
224 24 56159
161 161 56284
217 161 56497
231 169 56553
231 23 56750
234 161 57170
56 136 57183
234 161 57419
24 24 57422
215 161 57545
235 56 57797
161 234 57884
215 215 57907
236 166 57936
161 217 57965
115 5 58220
236 154 58602
47 231 59394
20 231 59398
35 35 59702
35 35 59866
115 154 60035
143 238 60214
115 236 60347
143 50 60942
23 234 60959
7 161 61787
130 161 62434
130 220 62835
143 161 62893
20 115 62987
215 115 63169
236 7 63944
20 7 64045
7 161 64345
241 7 64694
130 42 64755
192 241 64845
241 241 64953
243 24 65874
84 242 65940
4 242 65951
84 242 66218
211 242 66602
119 154 66675
119 161 66853
211 161 66943
243 23 66989
66 50 67058
23 109 67115
23 23 67168
66 242 67300
211 238 67363
4 109 67435
4 109 67467
22 38 67483
66 38 67674
150 242 67695
66 109 67801
150 66 67834
35 109 67856
66 242 68176
109 109 68251
35 109 68265
66 35 68431
66 4 68580
136 154 68864
119 5 69025
136 154 69132
10 7 69273
136 154 69336
235 242 69432
136 154 69609
35 35 69685
41 41 69709
136 154 69736
41 41 69766
23 5786 69926
35 242 69930
41 5786 70019
35 10 70448
66 4 70651
10 35 70794
50 50 71137
41 242 71217
35 35 71242
50 143 71331
50 84 71362
20 35 71572
243 35 71586
10 35 71784
50 24 73082
133 161 73712
235 179 74001
5 5 75528
88 138 75911
42 42 76119
41 253 76398
109 253 76481
109 109 76535
41 35 76554
41 109 76604
10 88 78801
10 179 78922
253 253 79163
235 38 79223
10 253 79303
10 153 79525
24 176 79889
169 130 79964
169 224 80146
228 76 80260
87 161 80290
253 253 80395
228 179 80488
169 238 80530
169 143 80609
169 238 80650
150 87 80742
257 170 81193
10 161 81546
10 161 81652
150 136 81833
128 215 83794
4 10 84363
80 24 84803
238 238 85682
4 133 85978
88 133 86352
87 133 86623
10 133 86802
193 88 87334
259 88 87390
5 88 88295
42 234 88465
86 156 88469
155 133 88534
193 234 88572
10 88 88637
119 23 88646
193 115 88754
42 161 89073
38 234 91698
238 169 92331
143 143 92350
42 38 92396
88 42 92507
42 42 92781
66 88 92882
88 66 93183
66 4 93331
115 193 93356
38 42 93448
150 238 94550
44 161 95199
115 115 95210
4 66 95218
236 38 95608
108 231 96355
104 10 97408
5 7 97567
4 115 97593
5 42 97640
265 161 101126
22 264 102969
5 234 103063
58 5 103559
5 58 105255
115 4 105329
91 58 106391
4 154 106424
115 58 106488
5 154 106796
5 58 107089
234 193 107293
154 154 108043
115 154 108150
154 115 108266
5 45 110846
115 45 113163
73 236 114205
41 36 114618
45 115 115053
115 36 115074
115 41 115169
73 41 115228
66 5 115253
267 38 116186
267 115 116493
267 128 116812
115 45 117849
5 45 117925
115 267 117968
5 66 118061
36 41 118836
45 5 120691
45 115 120737
5 5 122313
42 263 125471
42 42 125597
42 104 126171
42 116 126502
235 156 127331
24 42 127355
211 38 128083
104 104 132465
42 104 134793
42 104 135014
151 104 135262
203 91417 136659
115 115 137714
273 115 138914
154 234 143095
24 235 144082
136 136 145996
82 82 146161
136 42 146603
136 179 146831
236 236 147129
236 234 147607
275 5 147648
136 179 147885
136 136 148373
275 179 148586
275 66 148797
36 235 151426
4 234 152308
41 41 152810
41 104 152915
211 88 153919
4 4 153971
22 4 156270
42 71 156419
263 242 157236
179 136 157644
4 22 159482
23 4 159558
130 109 160126
4 109 160130
62 161 160154
20 4 160638
109 4 160696
4 109 160807
66 22 161224
20 109 161587
4 4 161627
275 109 161807
211 109 161853
275 109 162149
275 154 162713
66 128 163004
220 220 164382
66 278 164742
5 66 165690
150 4 165807
278 66 166016
35 35 166328
66 278 166587
24 278 167957
24 115 168870
109 4 169652
27 4 169704
27 66 169754
130 88 170886
236 88 170961
130 236 171289
103 154 171884
104 4 172725
88 130 173233
130 130 174275
234 234 174290
24 278 174542
87 56 174784
87 66 174938
38 130 175985
4 4 176018
234 234 176036
87 169 176408
87 234 176805
154 128 177887
4 278 178194
154 45 178382
154 56 179776
115 115 183100
5 154 184214
5 130 184695
130 130 186461
94 94 188761
5 88 190197
4 5 192561
4 130 192842
154 154 192912
154 154 193146
130 5 193220
130 4 193361
5 4 194201
57 278 194687
4 4 195890
5 278 195992
243 42 199190
5 130 208991
214 5 209579
214 68 209787
214 215 209966
214 214 210555
5 214 210752
24 4 210772
5 214 210891
214 7002 210930
5 4 210943
24 4 212582
24 214 212972
278 278 213864
23 24 215610
24 278 215922
67 109 216606
5 4 218655
24 4 219520
234 214 220096
115 278 220504
116 116 222589
24 115 222811
56 56 226522
42 42 227429
130 130 229391
264 22 230493
264 5 230877
203 214 232138
156 214 234933
156 278 235702
199 5 237238
199 192 237384
42 5 240170
154 154 243205
43 35 243393
50 130 245176
42 281 245751
50 24 246033
281 42 246106
282 35 247518
44 214 247780
282 234 247971
179 7 248105
5 114 248385
130 114 248846
130 179 249168
179 179 249557
130 130 249913
172 7 250206
169 7 250556
114 130 250562
154 282 250746
130 130 250966
104 7 250967
114 87 251467
87 114 251627
5 7 251841
114 82322 253285
87 114 253483
87 42 253780
157 82322 253928
278 7 254011
278 87 254444
87 278 254646
114 114 254664
130 87 255048
130 87 255078
281 42 257522
169 27 258479
236 50 258674
5 87 259397
236 128 259428
109 82322 260341
84 87 261326
67 278 262211
67 7 263033
7 56 263478
57 5 263763
87 87 265582
87 87 265635
87 87 265803
87 87 265841
241 87 266083
285 45 266208
285 86 266307
241 7 266640
130 87 266690
281 234 267838
281 236 268094
4 87 268141
281 234 268515
281 236 268662
130 114 269146
24 38 269650
130 38 269974
115 38 270078
4 38 270093
24 4 270347
4 4 270598
87 87 273002
87 87 273049
87 87 273364
87 87 273537
87 87 273584
35 43 274318
87 67 274570
35 282 274576
87 5 275051
176 24 276510
176 5 276600
5 87 277731
87 115 279436
87 87 279938
35 35 281140
35 114 281553
35 130 281666
87 35 282543
35 35 283099
203 4 285224
172 5 289121
5 5 289433
42 5 290080
5 5 291699
5 5 292427
203 5 294323
203 203 294421
203 179 294661
203 130 295490
57 45 298131
5 57 299028
171 171 299689
5 203 301326
116 87 301787
38 38 304955
11 234 306206
285 23 306598
42 5 308040
116 67 310445
38 241 310830
44 5 310874
57 5 311007
285 136 311540
285 10 311713
131 7 312658
109 116 314705
109 67 315188
171 42 316197
231 67 321709
231 87 322336
231 66 322644
130 171 324388
130 5 324469
130 172 327115
203 203 328556
203 5 329183
235 171 332481
87 231 333402
4 87 333652
87 4 333991
50 236 334919
4 4 334925
259 235 335772
259 7 336107
5 203 336191
5 44 336283
259 5 336393
133 12 337633
149 114 339570
128 236 340343
131 67 343139
172 130 343622
42 109 346999
236 7 347453
130 130 348471
87 163 349191
87 163 349233
57 5 358245
4 270059 358773
115 5 359697
5 203 359779
253 7 360241
5 203 363553
109 4 363569
5 170 363733
170 5 364083
4 5 364881
188 214 365646
188 214 365843
115 170 366786
289 170 370132
203 203 371048
203 203 371127
203 115 371269
170 289 371460
289 163 371493
5 5 371884
170 5 372503
172 289 372721
5 5 373290
130 5 373600
252 87 374189
170 5 379891
170 289 379919
5 5 384969
211 42 388352
211 87 389032
42 42 390263
291 215 397147
56 7 399125
253 7 399577
292 114 400510
171 235 403672
236 5 407519
10 7 409179
10 131 410733
150 5 411861
57 150 413026
186 236 416596
50 71 416602
186 236 416792
130 236 417021
41 74307 420829
243 7 422080
295 109 422278
211 67 423123
296 281 431455
296 131 432109
2962 5 432371
88 7 434252
130 236 434813
41 114 434844
236 236 435599
41 150 435699
130 236 436340
88 7 440410
35 281 440524
87 88 446755
303 130 449772
130 88 449925
130 88 450438
130 130 451559
71 71 453654
41 305 462557
42 305 462573
42 305 462846
41 305 462876
41 305 464278
42 305 464541
116 116 469419
307 199 469706
67 116 475955
5 203 476356
5 5 476486
47 305 477956
143 305 479629
211 42 480363
236 305 480570
47 308 481957
136 136 483681
136 308 483769
306 87 484784
144 305 485589
241 144 489642
199 307 490477
47 234 494165
236 144 494755
41 305 495213
305 5786 495539
305 7002 495831
42 305 496393
35 305 496653
42 42 496707
35 308 496785
42 308 497699
305 87 498255
4 305 499332
87 88 500691
50 133 500719
150 57 501184
35 4 503776
133 133 504529
109 305 504941
236 270 505866
270 236 506069
116 116 506592
4 4 507105
114 114 507440
211 63 507820
305 305 507854
130 305 507928
88 88 507956
211 5 507968
42 88 508751
130 41 508874
63 211 513633
41 211 513886
270 236 513896
130 88 516910
5 308 520764
323 236 521234
42 94 521360
324 9 521633
324 236 521809
324 211 522015
236 236 522145
42 5 522230
94 42 522342
42 42 523021
324 130 523080
114 42 523156
5 42 523417
324 115 523422
5 42 523473
94 42 523589
62 88 523717
241 87 524277
114 42 524329
5 42 524439
241 133 524609
114 42 524681
115 199 526372
130 130 527029
317 63 527038
42 42 527133
236 186 527327
4 42 527336
236 236 527663
317 20 528222
326 317 528647
94 42 528747
156 88 529302
133 133 530197
317 317 530299
236 130 530615
4 114 531034
4 114 531100
4 5 531322
5 5 531459
4 5 531696
88 156 531753
17 114 531806
5 17 531858
5 5 531956
130 130 532382
4 5 532990
4 5 533093
130 5 533209
17 17 533228
5 5 533522
5 5 533802
236 114 533932
4 5 533941
236 5 534931
5 236 536146
5 5 537600
172 109 538504
5 5 539865
41 109 541057
5 163 541503
41 5 541659
4 5 541692
130 41 542780
130 41 543830
5 5 544240
129 5 544734
5 129 545025
306 41 547744
5 65 554277
24 17 554803
38 5 555169
5 5 556552
5 5 556585
129 5 556614
5 129 557839
5 129 558073
42 88 559657
203 203 560216
211 5 561443
211 130 561763
211 211 561943
316 241 562989
143 170 566204
192 115 566923
305 115 567098
143 5691 567276
42 143 567744
115 192 568529
192 192 568860
144 236 570657
144 241 570826
109 109 575876
42 144 575993
42 329 576499
41 41 579261
41 130 579325
323 133 579395
41 305 579763
41 42 579832
17 17 580632
42 42 581047
41 253 581555
143 305 581889
133 323 582375
241 56 582897
130 130 583330
50 5691 583942
130 253 584504
130 5691 585207
49 45 585983
108 305 586592
108 305 586626
108 129 587067
211 143 587138
108 163 587409
88 42 587615
323 243 587740
4 50 589690
17 108 590143
108 5 598413
4 4 600107
4 20 600296
4 22 600378
4 324 600989
10 324 601043
4 324 601171
4 324 601332
305 143 601627
332 305 602624
324 324 603665
332 333 604301
334 333 604349
24 333 604530
334 17 604560
5 179 605026
227 114 605096
333 333 605109
17 334 605231
227 324 605297
4 332 605313
20 20 605360
24 333 605377
4 333 605386
349 163 605389
332 333 605448
332 332 605538
348 333 605575
236 5 605729
44 333 606231
334 334 606395
349 144 606502
5 5 606955
363 349 607035
5 5 607075
17 275 607223
104 348 607241
4 17 607290
366 333 607327
4 333 607403
356 65 607429
17 333 607452
376 324 607510
275 17 607612
10 333 607890
352 253 608139
193 333 608216
383 333 608408
24 193 608408
17 305 608432
392 333 608552
193 333 608715
352 27 608790
20 20 608924
4 386 608984
193 63 609248
143 143 609535
4 396 609597
243 243 609661
4 333 609662
4 412 609683
275 396 609710
155 203 609721
334 333 609721
349 87 609851
63 317 609998
63 63 610019
63 211 610085
419 334 610103
356 412 610226
4 333 610234
169 396 610242
5 412 610284
334 419 610329
419 170 610351
275 356 610457
334 425 610507
169 333 610547
4 425 610609
236 5 610665
423 412 610686
4 425 610713
169 192 610807
389 308 610884
333 333 610903
4 381 611075
169 115 611094
334 333 611122
333 334 611229
4 334 611242
334 383 611320
430 381 611390
333 10 611423
430 381 611536
333 334 611540
425 4 611554
146 333 611712
114 431 611712
4 431 611740
55 431 612031
425 425 612051
55 333 612291
446 130 612319
88 143 612401
5 10 612624
352 381 612717
146 275 612952
157 270 612955
349 448 613063
333 55 613196
4 4 613259
453 333 613324
55 55 613555
448 349 613617
156 156 613714
275 449 613720
4 155 613803
349 349 613851
466 431 613998
156 42 614010
156 235 614196
461 431 614235
115 446 614251
333 453 614286
333 146 614349
431 446 614353
157 431 614689
326 431 615040
448 349 615056
326 425 615255
448 349 615369
146 446 615451
458 449 615519
41 155 615840
458 383 615927
5 5 616040
449 473 616542
114 334 616653
356 356 616686
458 440 616766
4 41 616793
170 440 616971
114 114 617080
483 333 617138
65 5 617380
114 17 617406
144 42 617620
300 440 617627
381 352 617771
381 430 617826
10 5 617862
455 155 618087
449 332 618155
458 144 618245
10 383 618250
476 10 618523
333 449 618652
333 473 618847
431 333 619807
455 333 619851
114 497 620035
503 333 620125
497 114 620272
289 333 620556
509 10 620845
333 14127 621302
514 14127 621312
114 514 621377
4 14127 621555
114 14127 621580
4 333 621610
513 88 621625
35 514 621629
4 176 621778
333 333 621825
513 88 621942
517 14127 621974
513 7 622145
517 10 622225
455 88 622479
35 4 622493
514 5 622496
35 517 622746
332 514 623077
332 449 623164
525 14127 623469
522 118 623490
332 14127 623495
5 431 623738
521 176 624244
332 440 624291
529 7 624404
530 4 624499
289 109 624987
453 453 625287
534 440 625319
176 521 625343
511 440 625724
5 333 625825
519 440 625854
527 440 626190
4 534 626203
80 511 626265
80 519 626323
80 527 626512
7 529 627051
543 176 627088
4 530 627977
549 332 628719
549 289 629203
4 511 629773
130 130 630646
188 511 630850
534 4 631383
41 130 632549
188 332 632670
41 330 632763
4 534 633188
188 108 633879
188 163 633973
235 56 635217
316 253 635353
332 330 635541
188 10 636103
4 115 637014
235 305 637206
114 305 637248
332 305 638592
321 330 638721
176 543 638870
176 4 638944
42 42 640196
42 458 640229
42 42 640325
4 4 640613
446 146 641324
578 332 641734
116 440 641741
584 109 643762
305 332 643969
584 305 643992
4 584 644043
38 211 644251
38 130 644296
38 22 644462
4 305 644533
316 449 644546
458 305 644619
584 440 644682
389 154 645800
334 419 646032
593 332 646102
213 305 646707
308 136 646721
4 305 646736
308 35 646754
199 115 646831
308 42 646863
308 308 646916
359 88 647253
334 308 647598
359 440 647719
170 584 647966
270 157 648040
588 5 648401
334 305 648667
604 305 648678
42 42 649231
584 584 649427
458 584 650204
67 305 650479
24 519 650514
607 440 650777
129 449 651277
67 440 651502
609 23 651959
211 305 652549
612 305 652909
609 305 653259
458 305 653332
612 170 653338
458 305 653573
612 375 653615
229 305 654063
455 172 654156
614 334 654165
317 317 654218
359 305 654345
458 609 654409
612 609 654549
334 614 654767
458 305 654819
612 305 655504
618 458 655540
359 334 655563
609 305 655601
375 612 655744
305 458 655822
305 305 655935
375 612 656069
359 375 656296
375 612 656474
271 622 656838
253 130 656848
271 10064 657407
23 10064 657469
627 449 657699
271 4 657853
359 375 658048
627 10 658079
334 271 658492
627 199 658783
275 308 659260
275 308 659398
275 308 660045
334 359 660076
203 333 660089
359 305 660185
359 359 660224
203 14127 660514
609 622 660656
192 359 660835
637 87 661170
640 333 661808
641 305 662098
633 305 662385
116 10064 662494
236 305 662507
236 633 662575
334 624 662641
211 483 662654
271 334 662656
211 483 662702
271 534 662899
271 633 663092
334 271 663129
305 199 663400
211 633 663469
633 271 663475
375 359 663519
305 10 663537
633 211 663576
644 271 663621
305 271 663709
644 640 663753
644 308 664071
647 305 664415
648 305 664899
630 114 665237
323 243 665247
323 243 665458
519 305 665545
430 305 665581
648 305 665682
630 214 665697
334 648 665725
644 609 666118
289 289 666179
609 519 666531
644 466 666656
449 305 666752
24 271 666868
23 305 667013
305 42 667058
295 305 667168
213 101 667200
539 305 667274
305 295 667300
658 213 667327
644 305 667659
305 539 667898
622 609 667977
41 213 668092
658 155 668193
10 305 668218
658 519 668321
308 308 668342
41 295 668408
42 633 668484
456 305 668488
644 41 668537
42 305 668548
396 275 668578
334 659 668588
334 654 668642
308 275 668807
332 578 668808
305 456 668815
41 654 668827
41 41 669019
658 647 669044
325 659 669205
41 659 669250
308 389 669391
308 42 669553
449 539 669557
41 644 669811
431 654 669856
519 325 669883
42 661 669968
449 305 669976
236 186 670144
236 130 670210
609 305 670288
4 654 670318
333 609 670326
42 295 670374
332 101 670939
333 101 670952
4 305 670965
236 278 671047
229 305 671053
609 101 671071
669 56 671208
2962 305 671260
17 333 671404
412 412 671538
333 668 671636
670 101 671637
4 609 671827
637 10 671913
42 42 671974
637 392 671984
661 42 672045
637 483 672045
334 305 672126
42 305 672136
325 333 672440
211 305 672665
332 333 672765
667 305 672765
609 622 672937
236 622 672957
334 333 673752
659 325 674006
473 449 674214
473 333 674253
42 42 674296
667 150 674440
42 305 674878
612 473 674980
23 211 675003
449 333 675054
612 305 675227
679 305 675272
659 101 675285
332 677 675346
627 333 675364
10 10 675370
203 473 675493
647 647 675587
10 677 675626
211 473 675693
203 612 675750
186 186 675771
186 5 675798
186 5 675818
334 17 675849
612 17 675885
203 101 675897
612 101 676169
334 333 676391
667 333 676401
612 333 676510
334 612 676554
661 42 676700
667 677 676815
10 10 676820
10 10 676939
449 449 677135
41 203 677258
667 325 677270
627 668 677385
449 333 677399
10 325 677632
627 101 677931
334 48 677950
612 48 677975
333 48 678077
667 48 678144
667 637 678472
695 17 678555
4 334 678573
458 333 678646
42 42 678764
150 101 679189
430 333 679722
430 667 679814
4 305 679814
667 1010 680252
333 114 680433
130 130 680701
130 130 680739
130 130 680983
186 213 681198
612 381 681279
48 333 681347
130 381 681424
48 612 681480
48 667 681653
305 305 681670
305 332 681858
548 333 681875
114 333 681947
214 333 682090
130 1010 682249
305 654 682772
130 114 682982
214 332 683224
316 114 683456
295 41 683647
305 238 683726
130 305 684289
88 667 684293
4 305 684465
17 334 684737
300 305 684861
17 150 685107
332 332 685387
332 305 685529
696 305 685893
661 42 686074
334 238 686350
101 150 686696
101 609 686778
238 305 686833
130 305 687195
235 238 687337
275 146 687360
4 672 687381
705 672 687864
333 102 688043
275 102 688325
275 705 688387
706 305 688638
332 188 688676
667 705 688701
333 275 688932
654 305 689031
102 275 689223
333 275 689253
334 275 689400
238 235 689859
333 275 689994
41 275 690071
334 696 690351
667 275 690573
4 334 690615
24 213 690673
41 696 690745
41 305 691011
88 275 692071
236 333 692152
41 275 692393
41 333 692782
667 333 692922
716 130 693364
4 717 693405
236 717 693628
316 717 693741
717 717 693807
289 35 694076
289 109 694491
289 705 696512
252 275 697047
717 236 697426
717 236 697442
252 101 697602
133 333 698600
252 305 699474
633 42 699545
213 333 700354
235 333 700682
236 236 700932
242 324 701705
743 420 702115
449 420 702239
420 749 704221
316 633 704275
749 420 704519
289 451 705191
289 169 706256
172 769 707142
4 659 707270
41 659 708020
324 376 708207
778 659 708313
289 27 708314
324 242 708382
41 41 708685
455 451 708869
778 333 709000
115 659 709174
778 769 709249
778 451 709537
114 41 709678
778 778 709702
41 114 710040
242 242 710073
593 420 711072
332 420 711133
289 661 711468
420 420 711567
115 769 711848
170 612 713275
473 449 713449
170 612 713488
41 220 715149
289 220 715684
130 220 715890
192 5 715926
5 5 716308
7 593 716733
4 5 717508
4 4 717816
5 5 718081
130 794 718627
5 5 718895
130 794 719217
593 7 720058
192 5 720365
305 794 720627
130 305 720795
305 783 720823
305 769 721220
5 192 722330
794 305 723097
794 794 723193
333 252 723304
252 333 723655
333 696 724205
333 333 724332
305 305 724552
305 5 725305
802 333 725419
333 5 725636
333 783 725823
305 332 726746
305 130 726808
24 5 726849
305 794 728395
203 305 728538
806 305 728966
24 305 729164
24 305 729265
203 5 729384
203 305 729931
24 305 730321
203 305 730334
291 785 730338
5 305 730581
458 808 731060
446 333 731680
813 5 732496
668 627 732508
813 38 732740
813 4343 732963
211 333 733062
211 769 733662
808 458 733799
42 42 734292
742 808 735193
300 114 735381
334 140322 735556
295 140322 735585
236 808 736448
278 236 738331
38 813 738427
824 140322 739332
375 109 739740
203 754 740311
334 359 742399
627 333 742750
830 133 742831
612 38 744569
612 813 744686
644 41 745584
109 289 746901
109 109 747116
644 253 747181
144 458 747521
449 232 748812
359 359 749202
232 449 749851
627 455 749865
334 644 750197
232 449 750278
627 295 750450
236 232 751039
539 539 751168
455 627 755512
211 253 757946
130 305 757949
211 483 758095
458 114 758719
458 114 758975
458 458 759054
458 458 759119
612 455 760110
456 455 760231
458 458 760419
349 818 760990
455 612 761356
356 333 761521
349 451 761583
833 419 761592
349 349 761632
456 252 761971
612 333 762473
612 612 762577
612 252 762891
614 614 763031
612 101 763293
70 333 763387
130 612 763688
4 101 763859
101 4 764158
4 4 764238
627 101 766503
289 289 767299
252 612 767387
252 456 767469
253 130 767627
252 38 767961
334 869 768268
211 334 768462
869 334 768898
769 211 768995
30 41 769366
4 869 769445
769 211 769487
87 333 769507
295 850 769830
869 4 770293
742 869 770391
633 316 770416
627 742 770608
4 4 771398
667 779 772665
880 109 772917
667 633 773065
880 818 773094
880 451 773228
880 4 773302
152 42 773302
661 661 773320
289 829 773432
880 458 773555
880 253 773678
289 661 773718
534 4 773747
880 41 773807
295 4 774119
456 140322 774202
833 356 774212
881 253 774311
289 87 774587
41 41 774627
4 4 774673
41 884 774775
41 87 775003
627 87 775072
4 324 775123
667 884 775220
456 334 775265
833 333 775305
324 324 775517
316 458 775831
829 289 775845
316 300 775885
667 305 776120
203 305 776290
890 56 776816
295 50 776871
236 892 778722
456 892 778742
295 667 778838
661 661 778971
194 754 778992
333 892 779119
333 892 779420
334 419 779974
667 892 780169
257 324 780353
334 614 780625
4 708 780747
742 667 780800
334 456 781023
456 783 781038
257 87 781060
334 359 781149
333 783 781150
742 806 781161
742 349 781415
236 783 781525
742 291 781564
708 4 781647
257 446 781882
236 667 781942
44 88 782037
458 458 782217
4 4 782481
257 696 782687
24 87 783084
252 742 783546
252 289 783650
708 4 783722
87 87 784122
904 813 784131
458 289 784150
41 735 784390
41 87 784503
735 41 784509
880 880 785204
742 742 785304
130 17 785450
334 17 785525
667 769 785650
316 316 785805
667 769 785918
41 769 786000
257 161 786077
41 17 786278
17 130 786578
252 333 786856
88 754 787055
130 130 787564
130 334 788029
324 257 788401
5 667 789639
455 243 790106
114 5 790144
5 114 790419
114 114 790664
289 289 792471
289 289 792623
289 661 792839
146 5 794586
539 539 794765
539 539 794913
289 708 795365
769 667 795623
913 87 796107
913 884 796650
57 108 796766
913 334 797030
769 769 797103
88 42 798076
5 146 801124
862 783 803614
4 170 804005
108 57 804162
289 170 806754
41 876 807579
534 271 807896
170 289 808191
57 57 808246
194 5 809006
818 667 810288
266 862 810298
252 289 812911
252 913 813181
295 667 814551
880 818 815137
880 624 815345
708 170 815959
708 289 816902
170 708 817207
708 708 817558
708 708 818346
5 170 822315
23 880 824419
638 779 825468
455 473 825884
455 266 826616
455 266 826809
449 880 828619
455 253 828856
667 769 829674
455 10 830412
307 633 830872
667 927 831132
455 927 831268
455 41 831463
913 253 832106
928 332 832164
667 876 832537
913 769 832834
109 876 833199
307 929 833704
334 929 833830
913 446 833832
913 9 834083
278 446 834427
493 329 835328
236 170 835800
493 708 836554
155 155 837185
307 333 838118
929 929 838327
929 307 838372
929 334 838658
23 449 839106
23 449 839497
493 927 839716
289 289 839771
334 932 839846
150 932 839869
334 539 839893
150 334 839895
929 929 840368
152 769 840420
152 156 840733
152 87 840999
289 493 841668
289 289 841978
289 42 842149
708 493 843734
667 28 843875
235 334 844892
289 5 847450
17 150 847557
252 333 848159
28 667 848270
28 539 848434
252 161 848569
813 813 848692
252 612 848775
4 539 849517
880 880 850237
289 217 850678
455 150 851240
633 667 851525
633 307 851717
755 161 854476
708 493 854637
708 4 854687
935 624 855284
935 170 856167
133 170 856553
672 456 859085
850 295 859693
935 449 859930
449 449 859976
633 234 860474
18 10 861243
449 935 862084
708 289 862658
456 769 863077
769 456 864336
667 880 864394
179 179 865662
633 115 865848
289 493 865865
708 778 866498
289 449 866510
449 449 867437
818 349 867492
932 150 867673
945 539 868084
932 334 868223
946 446 868268
18 446 868512
932 742 868579
236 150 868846
236 150 868984
945 449 869487
945 947 869974
947 945 871381
289 945 871562
950 947 872845
449 935 873684
289 449 874072
360 7 874686
289 932 875194
952 952 875494
667 633 875574
41 633 875633
289 307 875865
4 953 876816
945 953 876941
953 4 877218
953 945 877237
953 4 877368
4 4 877640
146 146 883838
431 935 884571
431 927 884679
253 633 886963
381 612 890510
41 5 891134
57 952 891537
57 5 891823
5 41 893713
667 862 900757
923 41 902710
203 4 903252
941 41 904291
324 242 905737
449 449 906807
449 324 907056
324 449 907351
449 958 907664
913 71 907664
116 958 908376
742 5 910538
455 324 911599
236 5 911719
236 862 912720
455 667 916033
455 862 916117
633 253 916292
455 959 916582
667 324 916598
934 932 916646
455 952 917350
667 667 917561
455 456 917732
667 667 918009
430 455 918477
236 959 919675
633 633 920176
963 446 920311
449 449 920790
236 449 921311
963 449 921497
963 5 921573
449 963 922271
449 236 922485
236 449 922785
305 958 922801
449 305 922858
236 305 923332
359 833 928446
359 305 929310
130 324 931187
742 449 931540
963 963 933236
41 41 934092
5 41 937178
449 963 938416
41 41 938650
449 742 939993
449 742 940085
150 305 940396
41 449 943071
295 295 943104
627 150 945299
908 5 946022
880 458 949198
667 866 949205
150 833 949683
24 667 950232
880 880 950247
880 667 950617
932 934 952369
866 866 952564
449 866 953301
449 108 953691
24 236 953732
934 934 954550
952 455 954657
945 978 955143
115 115 958620
945 356 960000
4 356 960040
356 4 960382
455 455 960817
4 982 961425
742 978 961720
742 667 961819
455 667 962340
742 356 962400
455 880 962553
104 130 962822
104 356 963064
455 742 963432
455 667 963840
449 104 964076
115 108 964938
455 104 964989
945 104 965017
104 104 965173
104 455 965227
104 945 965264
455 456 965546
945 945 966154
877 356 966353
769 677 966683
945 4 968368
2962 978 969511
41 324 969737
41 659 970585
41 659 970620
431 324 971167
659 659 971324
659 659 971354
154 677 973230
818 980 973260
17 633 973403
154 742 973523
987 980 973571
987 818 973758
431 455 973881
41 659 974316
41 431 974430
188 104 976434
104 455 978534
5 455 979393
252 978 979641
913 324 980026
913 324 980423
913 929 983003
4 266 983629
42 42 984614
880 880 984653
813 534 984794
813 455 984967
813 271 985330
813 661 986180
519 659 986512
519 236 986614
5 41 990524
935 82 991895
455 982 995360
588 866 995609
67 866 996310
67 588 996400
405 866 996489
211 324 996559
627 405 997432
866 67 997597
325 866 998124
455 325 999033
455 519 999361
325 236 999475
325 539 999628
449 593 1000262
430 325 1001069
405 405 1003325
449 214 1005489
236 519 1006336
449 455 1007875
236 659 1009025
305 359 1009447
929 913 1011610
742 742 1011656
612 612 1011823
236 305 1012188
455 1004 1012449
449 305 1012483
539 539 1012489
305 449 1013159
449 999 1014811
866 449 1015288
455 449 1015359
215 876 1016130
876 215 1016620
242 1011 1017125
41 519 1017145
130 130 1017305
4 330 1017442
242 449 1017486
534 813 1017655
41 333 1017787
4 333 1017928
41 333 1018121
4 41 1018376
449 242 1019163
41 242 1019456
449 455 1019564
449 866 1019625
458 455 1020311
862 667 1020393
862 266 1020485
88 333 1020525
458 333 1020546
1016 333 1020841
333 333 1023094
215 215 1023360
211 1011 1023383
242 242 1024297
449 242 1024508
449 876 1025391
324 913 1026740
456 87 1027164
324 215 1027440
449 87 1027558
456 330 1027929
41 87 1029849
266 4 1032289
862 242 1034516
289 266 1035871
289 289 1036300
331 41 1036366
41 41 1036765
4 133 1037523
324 667 1038685
4 1034 1041420
236 1034 1041623
1034 4 1042615
1034 236 1042958
953 593 1042983
236 782 1043076
235 880 1044508
333 782 1044688
236 236 1045778
667 782 1046202
236 236 1046463
289 880 1048643
289 324 1048706
146 1039 1049531
449 146 1049597
449 124 1050317
300 124 1050556
913 124 1050629
41 667 1050992
913 449 1051024
41 667 1051087
124 300 1051221
130 999 1051653
266 266 1051871
913 333 1052068
130 130 1052125
124 913 1052134
130 130 1052199
124 300 1052246
266 124 1052248
4 4 1052604
124 266 1052629
124 449 1052664
913 913 1053064
913 913 1053404
124 913 1053432
124 913 1053574
266 266 1053594
124 266 1053794
289 808 1054168
41 913 1054387
4 913 1054597
41 5 1055173
289 356 1055719
266 742 1055911
289 633 1056018
633 633 1056469
5 41 1056941
289 633 1058036
1043 1043 1061536
49 41 1061575
49 41 1061709
543 913 1062556
266 913 1066069
266 266 1068478
115 913 1068611
266 124 1068869
266 266 1068925
5 41 1069166
115 32 1069677
188 593 1073690
644 334 1077923
329 493 1079002
927 1043 1079705
211 593 1080075
644 124 1080808
455 300 1080938
449 449 1081134
455 667 1081684
300 300 1082016
455 782 1082216
455 913 1082653
334 455 1085058
449 1052 1087440
449 213 1087923
449 1057 1088288
124 124 1088770
630 880 1089562
449 630 1090218
633 633 1090372
630 449 1090454
449 782 1090597
449 449 1090837
644 782 1091601
667 1052 1092152
329 1004 1092477
644 289 1092674
1059 1043 1095799
958 449 1096682
1059 808 1096740
455 808 1097764
49 41 1097795
455 458 1097907
455 449 1098211
275 742 1098832
658 32 1101418
667 658 1103636
211 633 1103964
455 633 1104162
41 658 1104435
455 667 1104439
449 658 1104467
41 1057 1104634
330 330 1104721
667 658 1104817
41 667 1105241
275 334 1105532
455 47 1105700
782 782 1105795
333 658 1105831
334 334 1105834
633 455 1108636
633 307 1108723
742 633 1109445
270 658 1109746
270 270 1109806
742 1043 1109919
742 124 1111627
963 124 1112297
963 449 1112352
325 658 1112683
458 458 1116279
455 458 1116942
333 884 1117527
880 289 1118326
880 880 1118452
333 48 1118648
10 5 1119135
48 48 1119197
455 884 1119248
333 48 1119392
455 612 1119941
303 1052 1120078
455 333 1120162
880 329 1120341
295 333 1120644
5 10 1120986
5 41 1121063
325 325 1121745
333 4 1121758
884 333 1121866
41 41 1121926
41 10 1121962
325 667 1122097
48 48 1122239
325 10 1122244
55 333 1122940
952 455 1123651
333 295 1123664
295 333 1123848
124 449 1124151
124 963 1124219
952 455 1124595
455 455 1125059
455 455 1125207
1059 4 1125337
1005 295 1125602
5 10 1125675
236 48 1125922
1005 4 1125948
1011 242 1126067
275 295 1126092
252 1065 1126281
163 1065 1126281
275 1065 1126436
1005 1065 1126811
236 163 1127218
236 295 1127301
4 4 1128261
4 1005 1128292
4 1059 1128436
41 1065 1128507
1005 1065 1128578
1005 295 1128778
236 41 1129235
1005 782 1129485
1005 236 1129730
1005 1004 1129945
458 213 1129995
252 1005 1130162
66 163 1130501
66 982 1131377
4 66 1131840
235 66 1132264
627 66 1132752
1059 627 1133018
236 236 1133124
742 163 1133301
87 295 1134115
455 4 1134399
455 627 1134757
884 455 1134856
455 455 1135357
449 1065 1135661
449 1005 1136408
48 236 1136827
478 1065 1136935
449 66 1136990
41 66 1137465
884 455 1138881
884 333 1139226
333 333 1140434
4 4 1141402
289 633 1142246
104 66 1147142
289 289 1149619
453 104 1150000
115 104 1150073
115 633 1150610
289 884 1150732
115 1045 1151703
66 179 1156014
963 913 1162081
963 963 1162180
455 455 1163438
1076 1005 1165030
809 234 1166162
455 809 1167500
455 234 1168298
236 576 1168395
236 236 1168919
236 234 1169912
236 576 1170028
211 884 1171577
211 234 1172194
809 809 1172918
627 627 1173494
809 236 1173543
236 5 1173850
275 5 1174695
449 5 1174727
1081 124 1175067
1052 449 1175124
1052 667 1175302
1081 5 1175327
1052 667 1175472
644 163 1175518
236 275 1175660
275 275 1176285
1005 1076 1176830
124 1081 1176910
644 295 1177116
449 449 1177795
644 449 1180159
1005 449 1180183
455 809 1180685
1039 146 1181226
211 87 1181872
234 236 1182972
455 5 1183839
275 42 1184946
179 66 1185470
449 449 1186049
449 449 1186260
1043 927 1187438
449 576 1188479
316 236 1189341
333 576 1189381
316 366 1189461
275 221 1190677
5 333 1191081
423 49 1191746
423 49 1191992
186 423 1194427
431 101 1194674
4 101 1195102
41 423 1195336
252 1005 1195366
41 423 1195377
4 101 1195412
41 101 1195732
833 236 1196266
146 333 1196468
667 49 1196594
141 101 1196662
41 141 1196793
980 987 1197373
980 818 1197609
423 305 1198777
742 101 1199012
423 659 1199019
742 576 1199124
423 66 1199125
877 66 1201818
880 1043 1203444
880 289 1204444
1005 659 1204738
1005 423 1205080
261 1004 1209432
96 236 1209865
139 331 1210321
96 331 1210345
612 4 1210395
139 104 1210571
139 38 1210779
236 236 1210887
4 612 1211143
695 5 1211439
1107 90 1211880
1102 90 1211912
913 913 1213019
179 66 1213120
667 325 1213611
913 543 1213647
1043 1059 1213690
1043 742 1213749
913 115 1214168
4 302 1214841
41 139 1215217
236 302 1215476
41 965 1216195
1039 1039 1216211
333 965 1216246
333 965 1216292
333 965 1216452
576 449 1216720
179 101 1216760
1113 965 1217431
455 108 1219398
104 331 1219652
458 423 1220476
1116 965 1222053
1116 266 1222293
1116 160 1222452
1116 539 1222526
171 108 1222852
349 160 1223202
1045 115 1223631
349 236 1224226
152 965 1226161
316 171 1226332
184 49 1227369
184 431 1227524
289 160 1228064
66 195 1235925
1103 266 1244286
202 1103 1250236
211 1123 1252276
211 152 1252398
455 794 1252751
455 945 1253619
211 794 1254293
325 667 1254349
794 211 1254734
904 5 1255401
455 211 1255416
455 1123 1257785
794 211 1260707
449 275 1261255
275 264 1261556
1123 1123 1261645
453 1123 1263252
449 1008 1265372
1128 264 1266096
1039 1039 1266276
211 275 1267893
236 794 1268424
211 1123 1268461
455 449 1269368
331 331 1269655
331 96 1269801
861 1008 1269907
236 349 1270351
742 101 1270467
667 1008 1271571
289 1131 1273990
4 333 1275410
333 333 1275497
66 333 1275570
965 333 1276081
4 333 1276602
333 333 1276658
333 66 1276735
333 1010 1277195
1010 333 1277286
275 4 1277290
333 794 1277338
449 449 1277349
449 4 1277831
453 1010 1278269
211 1010 1278302
423 184 1279789
423 41 1280336
88 66 1280650
252 333 1280700
667 333 1280727
423 423 1280742
431 431 1280877
316 333 1281538
4 449 1281837
1008 449 1282229
449 4 1282255
453 4 1282588
423 41 1282631
41 41 1282918
41 41 1282978
41 316 1283161
449 449 1283376
4 633 1285667
329 633 1286131
633 329 1286362
633 4 1287136
4 333 1287168
449 633 1287575
4 633 1287810
4 4 1288021
333 4 1288102
1147 1143 1288141
1059 1143 1288228
449 333 1288620
211 236 1288884
1147 10 1288934
252 1147 1288965
266 289 1288972
211 4 1289060
114 333 1289249
186 305 1289717
186 1147 1289736
186 10 1289799
266 1103 1289823
633 186 1290061
4 4 1290110
633 4 1290471
633 449 1290691
633 4 1290847
449 449 1291646
316 316 1292838
41 316 1293175
667 1151 1293976
633 449 1294591
266 1151 1294851
104 1151 1294863
333 333 1294984
41 1151 1295012
41 5 1295068
41 1151 1295440
41 4 1295950
5 5 1296148
1151 1151 1296158
5 5 1296205
1151 41 1296250
4 4 1296560
333 1151 1297055
4 41 1297099
1151 333 1297193
1008 861 1298017
333 333 1298248
252 1151 1298869
4 333 1299116
1151 333 1299345
1005 965 1299681
965 1005 1299795
1005 1005 1299992
1005 152 1300028
333 1087 1300296
333 1087 1300417
1005 965 1300435
1005 333 1300761
275 1087 1300878
667 1151 1300978
87 1005 1301223
1005 87 1301590
667 1087 1301986
87 449 1302037
87 627 1302084
1005 1005 1302096
1005 1005 1302157
1158 4 1302195
67 4 1302234
1158 947 1302639
1158 4 1302913
1158 539 1303376
1158 5 1303567
1158 87 1303786
1158 1046 1304381
578 333 1304570
115 913 1304861
4 1046 1304877
1158 264 1304993
4 1158 1305718
4 4 1305862
4 4 1305943
130 211 1305963
4 1158 1306531
963 982 1307383
1059 431 1308173
667 982 1309188
1046 1046 1310534
333 1046 1310823
472 4 1311534
472 333 1311785
1046 1046 1311890
333 1046 1312321
289 1046 1312639
333 5 1312940
952 455 1313822
289 4 1313847
453 1046 1314845
877 1046 1314897
1046 453 1315156
4 1046 1315287
1046 4 1315520
5 5 1317523
4 982 1317605
4 108 1318190
289 5 1318743
4 1046 1319391
880 154 1319411
333 4 1319490
880 333 1319605
289 1046 1319851
289 289 1320561
1046 289 1322684
289 45 1324363
289 1046 1325082
1046 289 1325376
1046 4 1325701
289 1151 1325914
289 41 1326043
316 289 1326114
289 1087 1326662
1158 305 1328102
252 305 1328283
115 305 1328724
1158 305 1328836
1167 794 1329496
1167 1151 1330112
289 305 1331331
866 45 1336211
866 334 1336360
1169 333 1337052
1170 234 1337937
211 236 1338152
234 1170 1338265
1161 407 1341826
329 407 1341945
1059 154 1343338
1170 927 1343722
455 211 1344193
211 455 1344343
455 455 1344433
285 1176 1345587
285 407 1346227
633 633 1347340
236 236 1347911
947 1158 1348230
211 236 1348907
213 1176 1349180
211 455 1349300
453 407 1349852
1178 67 1350023
67 67 1350047
234 234 1354603
211 45 1355423
612 234 1355454
455 455 1355538
67 1178 1355971
1178 1178 1356348
289 236 1357773
175 1176 1358364
270 45 1358659
612 305 1358777
130 947 1358919
630 1176 1359056
667 175 1359303
431 1059 1359809
130 211 1359833
130 504 1359975
1059 667 1360248
4 1185 1360839
455 1185 1360898
270 175 1361262
270 270 1361589
1059 1059 1361801
449 630 1361886
211 455 1361963
211 130 1362053
67 1178 1362079
333 1176 1362261
41 630 1362698
742 927 1362993
742 504 1363311
4 67 1365103
1059 211 1365245
333 67 1365352
1078 504 1365778
275 333 1365904
1158 947 1365928
67 333 1365957
67 333 1366143
1158 236 1366185
1078 175 1366188
333 333 1366404
67 333 1366637
1151 667 1366739
431 1059 1366822
252 305 1366911
333 305 1366970
667 1151 1368985
833 1151 1369085
1151 253 1369146
275 333 1369190
667 1151 1369259
1158 140 1369698
947 947 1369909
1158 407 1369965
947 1158 1369971
1189 140 1369990
252 305 1371721
333 305 1372092
211 41 1372506
211 211 1373039
211 1059 1373073
1158 1158 1373430
289 175 1373493
1158 66 1373703
932 140 1373833
333 932 1374124
932 932 1374805
4 431 1375022
333 431 1375027
431 4 1375154
4 431 1375264
1158 1046 1375954
1158 932 1376405
67 333 1376525
1068 431 1376526
252 431 1376539
87 932 1376734
1059 431 1377135
431 252 1377373
333 932 1377659
504 742 1377742
504 1078 1377906
1059 333 1378038
1059 252 1378113
431 1158 1378354
1068 1046 1378505
455 1046 1380019
41 87 1380081
866 334 1380140
866 41 1380319
333 333 1380519
1059 87 1380565
866 87 1380653
87 87 1380672
236 211 1380910
87 87 1381932
1158 87 1382290
333 1158 1382696
1151 667 1382863
1151 833 1382964
1151 87 1383190
1059 333 1383452
1151 932 1383695
463 458 1383743
252 252 1383916
1151 4 1383944
252 4 1384039
252 305 1384110
45 866 1384330
333 305 1384477
4 252 1385218
4 4 1385333
41 1158 1387251
866 1151 1387314
67 333 1387323
41 630 1387387
932 932 1387786
932 333 1388063
1158 1158 1388378
67 236 1388763
252 252 1388925
1195 109 1389231
4 252 1389401
4 1196 1389645
67 199 1390202
449 199 1390275
1195 199 1390666
1180 1193 1390898
67 449 1390997
932 1193 1391587
455 1195 1391890
1158 1196 1392065
1193 1180 1392477
504 742 1392489
1193 1193 1392524
455 236 1392629
124 449 1393234
455 1158 1393275
236 1196 1393346
455 431 1393629
449 124 1393671
130 124 1394481
455 10 1394693
431 455 1396543
455 455 1397216
1068 236 1397980
504 742 1398101
109 1195 1399384
1068 1131 1399662
289 199 1400287
455 449 1400756
289 1200 1401903
41 633 1402178
41 407 1402865
4 41 1404474
455 41 1404603
1158 41 1407291
1158 1200 1407579
333 333 1409111
333 333 1409582
1158 333 1411701
1158 87 1412074
1158 1103 1412661
1158 612 1412787
333 1215 1413572
1158 1215 1413609
333 1158 1413752
1217 1215 1414365
1218 236 1415063
1195 1195 1415750
10 455 1417853
4 1219 1420943
923 1196 1421297
866 633 1424429
1059 4 1430581
104 947 1430971
455 1229 1431650
455 1219 1432196
633 866 1433457
630 630 1433951
630 449 1433995
251 333 1434700
109 1195 1436665
453 1234 1439973
1234 453 1440640
175 175 1440691
1243 1219 1441300
236 236 1441952
41 4 1442490
453 1219 1443012
453 453 1444065
453 453 1444159
41 1059 1444206
458 41 1445530
23 1059 1445957
458 1059 1446006
275 179 1446879
455 455 1448923
67 455 1449099
455 455 1449211
1217 179 1449218
458 1219 1450061
4 4 1451101
4 4 1451370
289 333 1451388
4 431 1451507
67 333 1451590
1138 333 1451675
1200 289 1452098
1200 1158 1452242
1078 504 1452250
1078 23 1452605
1078 179 1453135
1252 455 1453207
1215 333 1453637
333 333 1453941
333 67 1454137
289 289 1455616
179 179 1456544
716 420 1457825
716 333 1457987
866 170 1458240
1158 1158 1461765
1158 458 1462034
1158 41 1462367
935 866 1463556
504 504 1463682
866 41 1463821
431 633 1464005
504 504 1464136
108 305 1464458
1059 458 1464860
1059 41 1464988
935 1219 1465112
1078 333 1466473
742 1252 1466734
947 1158 1467519
866 935 1469444
1158 4 1469601
455 866 1470486
455 935 1470563
932 1193 1471200
455 1243 1471399
1158 458 1472212
236 455 1472679
72 195 1473360
72 1260 1473858
236 1068 1476083
4 179 1479408
1234 453 1479529
179 179 1479968
1269 455 1481429
449 179 1482226
455 179 1482559
449 49 1482583
104 176 1486079
455 633 1487465
179 179 1492884
179 449 1493546
1252 1252 1497695
252 176 1501682
5 67 1501742
252 1138 1501917
199 305 1503605
289 1859 1505838
333 176 1507490
333 633 1507721
333 633 1508398
1176 333 1510968
333 333 1511902
816 455 1512720
866 455 1515889
866 935 1515923
67 67 1518400
449 333 1519626
67 1269 1520688
449 1219 1521363
1010 633 1522719
1010 633 1522926
455 816 1523043
455 455 1523178
493 1260 1526002
1283 633 1527699
866 1260 1529232
4 1246 1532571
150 1859 1534361
455 130 1537517
449 654 1538245
67 1288 1540213
275 1288 1540259
109 1039 1540272
285 130 1542465
1290 1859 1542581
333 1284 1543276
1068 243 1543631
449 1288 1543869
627 285 1544963
285 130 1545163
67 449 1548396
1288 449 1549380
1288 67 1550334
455 1288 1551465
333 67 1551555
455 72 1551865
130 285 1552021
866 1287 1552085
866 455 1552132
455 455 1552765
41 458 1555289
275 67 1558178
199 449 1559272
455 455 1560370
455 449 1561072
667 794 1562402
963 1215 1563051
1287 1287 1563350
146 794 1564264
1158 794 1564576
455 455 1564576
458 458 1565232
877 794 1565276
493 493 1565455
1296 394 1565648
449 449 1567087
449 449 1567211
179 179 1567411
1046 455 1569657
504 323 1569743
1158 104 1570216
1158 458 1571618
195 72 1571881
72 72 1574526
104 1158 1574736
72 72 1577765
188 1287 1578051
1304 473 1578364
333 1304 1579031
394 1296 1579127
478 1304 1581092
1304 1304 1582591
104 1046 1585905
1219 1243 1587079
104 104 1587171
104 1158 1587198
935 541 1587804
104 130 1587972
935 1304 1588072
935 285 1590020
188 72 1590872
541 541 1591102
30 541 1591372
203 654 1594058
945 1304 1594224
455 1046 1597004
409 409 1597395
455 409 1597593
1219 1243 1600862
289 82 1602126
24 1046 1602266
289 82 1602565
455 82 1603427
1318 1859 1603988
289 82 1604571
644 90 1604714
644 90 1604889
211 82 1605947
289 1313 1608905
1288 449 1609141
1313 289 1609232
289 289 1610099
1325 302 1611235
1284 333 1612338
41 82 1616327
41 104 1616572
41 1046 1616618
449 1304 1617899
1046 455 1620009
1046 104 1620084
1046 1046 1620126
49 449 1620641
449 449 1622016
41 76 1622321
455 455 1622519
41 1304 1622523
285 220 1623329
66 1304 1623910
449 76 1624629
409 455 1624633
4 431 1624940
4 1304 1625450
455 455 1626248
275 76 1626974
41 211 1627356
49 449 1627863
667 1304 1628476
963 41 1628758
963 1046 1628802
963 455 1628934
963 1252 1629050
667 1304 1630949
1252 1252 1631214
1252 449 1631443
214 90 1631810
289 862 1634473
289 203 1635393
449 203 1635960
455 1151 1635962
449 289 1636021
211 203 1636125
289 289 1636126
1151 455 1636164
449 289 1636230
4 449 1636323
449 449 1636459
289 289 1636512
333 1151 1636627
1046 1046 1636672
455 449 1636767
333 829 1636942
1151 333 1637928
1151 333 1638277
455 455 1638278
211 1341 1638706
1151 333 1638943
87 794 1638989
1068 90 1639975
333 333 1640444
333 65 1640685
65 333 1640846
947 1158 1640895
1151 455 1641005
947 1158 1641029
1068 829 1641447
289 238 1641674
667 1333 1642240
236 333 1642845
236 65 1642955
1059 455 1643209
4 203 1643248
41 1012 1643275
1059 333 1643429
1114 1185 1643809
333 333 1643953
289 1012 1644065
1114 1151 1644278
455 455 1645200
1012 289 1645478
945 1012 1645542
829 829 1645654
829 1068 1645716
1012 289 1645804
541 30 1645956
289 289 1646475
963 1046 1646686
1012 289 1647007
742 72 1647017
1326 41 1647633
1148 333 1648120
289 289 1648410
455 333 1648480
238 289 1648857
667 458 1649487
289 289 1649624
323 455 1649638
1151 455 1649885
1151 333 1649942
1114 1313 1650021
458 667 1650063
238 289 1650089
289 289 1650188
1151 1167 1650311
455 455 1650567
1151 1151 1650605
1151 1314 1651010
1059 333 1651294
352 90 1651330
1151 1148 1651507
4 1151 1653400
236 1349 1653601
289 236 1653759
1046 963 1653935
1046 455 1654022
72 188 1654148
1046 236 1654188
72 742 1654190
1059 1349 1654789
1059 236 1654848
104 1349 1654888
458 1350 1657004
1349 1059 1657812
1349 1059 1658019
1059 1059 1658589
813 1151 1659704
289 1151 1660452
1349 1059 1661122
289 1151 1661750
302 236 1664823
1131 1068 1665706
1131 289 1665735
333 659 1666515
333 1349 1666843
1349 333 1668005
1304 945 1669513
1304 1304 1670718
333 333 1671920
333 548 1672916
1349 333 1673077
769 333 1673500
1353 548 1677439
104 1304 1680838
211 1304 1683429
211 1304 1684755
455 333 1686552
1360 1859 1686773
449 1356 1686816
394 1359 1688730
869 742 1688904
455 1359 1690098
455 1357 1691227
449 1363 1691534
455 1304 1691603
449 1359 1692154
667 1359 1692186
548 333 1694793
449 238 1697349
861 861 1699378
458 238 1700127
455 1364 1700199
455 458 1701231
963 1359 1701440
458 458 1702636
458 667 1703079
1158 1364 1705515
1158 455 1705577
1363 449 1705816
203 289 1706474
203 211 1706735
861 541 1706767
203 5 1706920
1059 458 1707517
333 1158 1707530
203 333 1707553
4 161 1707610
109 333 1707665
109 1353 1707728
4 458 1708164
627 161 1708290
41 449 1708352
458 458 1708830
861 1304 1709124
203 238 1709203
130 4 1709208
18 161 1709259
130 627 1709368
130 161 1709868
742 449 1709917
458 333 1710102
1012 289 1710609
1046 236 1711133
332 332 1711655
458 65 1712206
3755 1333 1712259
458 333 1712758
627 627 1714473
1078 1158 1714549
945 161 1714665
1123 455 1714724
458 67 1714780
945 945 1714846
305 333 1715061
627 458 1716192
352 458 1716208
238 458 1716593
458 352 1716830
458 627 1716866
235 667 1716926
211 211 1717156
458 1326 1717164
458 1326 1717194
455 455 1717727
458 794 1720113
130 945 1720209
4 455 1720687
146 458 1721132
458 146 1721217
333 458 1721396
211 455 1721652
1377 1356 1722050
455 455 1722106
455 455 1722172
458 333 1722787
4 455 1722849
4 455 1722899
1197 455 1723409
455 455 1723692
88 333 1726899
1158 1158 1727377
1384 794 1727768
667 1383 1728522
667 1380 1728811
333 1383 1729903
289 458 1730485
1393 332 1731136
1393 534 1731487
667 333 1731537
1402 593 1734514
862 289 1735014
18 945 1735391
235 87 1736025
667 87 1736357
1326 1326 1736757
1046 1059 1737299
235 593 1738414
235 449 1738586
242 449 1738658
5 1383 1740330
176 333 1742020
176 252 1742035
289 829 1743294
458 289 1743460
333 289 1744905
289 289 1745011
289 289 1745123
333 289 1745384
1350 458 1746063
1350 458 1746364
189 458 1751287
1405 1012 1751496
1158 1412 1754595
420 420 1757810
115 1412 1757837
1379 1412 1757844
1138 1151 1762570
1158 1379 1763316
1219 1243 1763565
1219 935 1763858
23 449 1763960
455 1379 1764393
235 1415 1764880
1356 449 1764958
541 861 1765904
1415 235 1766791
1415 1357 1767480
235 1417 1768084
866 1417 1768256
455 161 1768446
171 295 1768853
171 87 1769074
211 455 1769683
211 1188 1770689
270 45 1772733
270 1369 1773366
449 866 1773766
742 1369 1774072
1360 866 1774378
449 1410 1774390
449 1360 1774495
449 1360 1774579
449 449 1774670
1296 394 1775571
449 394 1775585
1360 1360 1775595
662 1369 1775989
627 333 1777356
449 28077 1777506
866 866 1778054
334 866 1779561
829 289 1779703
866 866 1780322
1326 458 1780344
627 1369 1780577
289 289 1784127
211 455 1784258
959 87 1784892
394 449 1784921
1427 541 1785823
1427 30 1786042
1364 1158 1789335
1364 1364 1789444
455 455 1790531
1059 1364 1790781
1304 945 1791110
1304 211 1791125
1364 1364 1791315
289 289 1792896
1188 211 1793957
458 189 1794266
794 458 1794728
794 1384 1794780
211 211 1796431
211 211 1796853
458 866 1797301
1059 1364 1797386
458 458 1797888
66 1333 1798079
65 458 1798204
1151 289 1798505
1151 1151 1798587
1151 333 1798731
458 4 1799077
1090 318 1802902
1090 458 1803044
4 458 1804011
1435 170 1805467
667 333 1806003
1158 28077 1806213
727 333 1806323
866 455 1806631
1415 333 1806879
866 458 1807221
829 289 1807655
866 455 1807818
1158 318 1807907
1415 1415 1808011
1158 829 1808036
211 455 1808617
866 866 1808705
235 829 1808763
829 235 1808956
333 1415 1809091
41 1436 1809642
41 727 1809704
41 318 1809875
449 458 1810163
1158 235 1810168
1438 235 1810266
449 1439 1811645
1436 1436 1812467
458 458 1812789
5 1436 1813642
130 829 1813754
1439 1439 1814205
289 289 1814987
1158 829 1816577
1158 236 1816822
333 1446 1819698
316 667 1820243
333 322 1820352
1439 1439 1820360
5 130 1821088
1448 866 1821574
1151 667 1821703
1151 333 1821761
662 866 1821849
662 333 1822097
1446 333 1822395
1448 1448 1822629
829 235 1822801
1158 1448 1823645
1448 1446 1825534
1158 1446 1825558
130 130 1825778
1448 1448 1825861
431 866 1826242
455 1448 1826914
289 1405 1827044
333 1448 1827184
455 1446 1827287
352 1369 1827464
449 1439 1827609
1446 333 1827737
1448 1448 1827914
333 333 1829495
1158 130 1832250
1446 333 1832884
41 1449 1833985
1449 1449 1834015
1158 1449 1834995
576 1449 1835325
333 333 1835456
1410 449 1836432
41 1158 1837793
163 163 1837815
163 236 1838489
1415 1415 1838708
104 829 1843200
1158 829 1844005
333 829 1844405
880 866 1847577
66 884 1851032
1158 55 1851425
1158 235 1851591
884 884 1851691
884 66 1851813
1448 1448 1852790
1452 866 1853604
866 455 1854956
455 1448 1856270
1439 1439 1857924
455 266 1858887
449 1453 1861747
829 1158 1863031
236 526 1864239
458 526 1864293
236 829 1864622
236 1401 1865124
1326 1158 1865192
449 236 1865317
236 526 1865363
236 526 1865664
1453 1453 1867531
1436 5 1868693
662 458 1871571
662 236 1874948
275 1463 1876259
627 1439 1878048
1158 1158 1880388
633 633 1883919
66 633 1884173
1467 1467 1884796
236 1467 1885710
66 945 1885840
1242 1158 1886317
630 952 1887024
829 1158 1888205
1158 1158 1889234
5 1304 1890101
904 5 1891349
463 333 1894091
1158 1446 1896541
1446 1158 1896652
333 1446 1896751
963 1446 1897025
1446 1446 1897419
1158 1158 1897581
252 1452 1898208
963 1193 1899030
963 1193 1899084
866 1452 1899456
913 1446 1899964
913 913 1900257
913 1448 1901213
913 526 1901777
913 1453 1902651
913 829 1903245
913 1158 1903439
55 1158 1904471
155 155 1905713
1246 289 1911436
1246 1290 1911461
1246 1318 1911489
1480 1446 1911795
1217 1448 1924426
37 866 1924795
37 866 1925616
37 1448 1926015
37 37 1926616
66 1491 1926964
66 37 1927887
37 37 1928018
66 791 1930007
1360 1474 1934353
30 66 1934505
913 1491 1934619
913 1491 1934684
1496 458 1934757
66 66 1936289
913 952 1937033
866 236 1937148
455 1491 1938985
455 455 1940399
913 1314 1940979
913 1360 1941215
913 1219 1941453
913 1219 1941491
913 1333 1943151
935 115 1943558
913 1859 1944552
913 220 1945694
285 37 1946433
935 4 1946624
1500 285 1946740
935 1046 1947724
449 1454 1949194
1446 1158 1949373
1446 913 1949435
662 1496 1949698
1446 1446 1949726
1378 37 1951796
1454 449 1952936
236 236 1953959
1463 275 1957573
1059 1491 1958676
1059 1491 1959399
1059 1491 1959473
1491 1491 1962072
1491 1491 1962189
333 1508 1962323
1491 1059 1962690
333 331 1962833
1491 1059 1962942
455 1234 1963410
1467 236 1963433
1491 1446 1963579
455 449 1964311
1525 1474 1965374
289 424 1965459
4 333 1965534
424 289 1966173
289 289 1966523
4 659 1967509
659 4 1967844
1046 1046 1968569
37 1378 1968771
37 424 1968969
630 424 1969541
37 37 1969994
37 424 1970524
424 289 1970553
612 630 1970664
37 1508 1971006
449 262 1971072
289 333 1971188
37 262 1971189
1415 262 1971190
289 289 1971337
1059 1059 1971503
1415 333 1971885
37 333 1972182
30 66 1973152
424 289 1974022
424 630 1974417
1540 37 1974730
214 424 1975323
1543 87 1976515
1547 1176 1976562
22 87 1976696
55 55 1977606
55 262 1977937
1550 37 1978293
1543 431 1979190
1550 101 1979905
1543 1229 1979978
352 4 1980323
1543 324 1980555
952 630 1980652
1543 333 1980750
1550 5 1980773
1543 68 1981178
1550 333 1981227
1543 769 1981569
1360 87 1981742
952 913 1981790
1360 1543 1982188
952 913 1983090
667 1446 1983312
146 1557 1983673
1446 667 1983912
667 667 1984009
1446 667 1984128
277 431 1987149
277 133 1988193
277 932 1988575
1491 1059 1988623
1158 5 1988977
1158 659 1990297
289 1501 1992193
667 1501 1992261
289 1553 1992359
1501 667 1992600
667 667 1993151
1501 289 1993371
947 22 1993671
1501 667 1993699
667 667 1995186
289 1501 1997647
289 289 1997721
1234 455 1998841
262 449 1999765
